(footprint "4WIRE_PADS" (version 20211014) (generator pcbnew)
  (layer "F.Cu")
  (tedit 5F60B96E)
  (descr "Wire Pad, Square, SMD Pad,  5mm x 10mm,")
  (tags "MesurementPoint Square SMDPad 5mmx10mm ")
  (attr exclude_from_pos_files exclude_from_bom)
  (fp_text reference "REF**" (at 0 -2.54) (layer "F.SilkS")
    (effects (font (size 1 1) (thickness 0.15)))
    (tstamp 08662940-5c16-48aa-a7cd-0690d19e9aa9)
  )
  (fp_text value "4pad_wire" (at 0 2.54) (layer "F.Fab")
    (effects (font (size 1 1) (thickness 0.15)))
    (tstamp bc7beed0-fced-440e-a347-30d311aa3c6c)
  )
  (fp_text user "${REFERENCE}" (at 1.75 -5.25) (layer "F.Fab")
    (effects (font (size 1 1) (thickness 0.15)))
    (tstamp 070f5094-e341-4d58-98b5-6ec21513809b)
  )
  (fp_line (start -1.4 -1.27) (end -2.66 -1.27) (layer "F.CrtYd") (width 0.05) (tstamp 075cde3e-da80-4499-bf5c-d605d353a247))
  (fp_line (start 3.39 -1.24) (end 3.39 1.3) (layer "F.CrtYd") (width 0.05) (tstamp 1fb664f0-b81b-4146-a0be-d1e0f4bf9f38))
  (fp_line (start -1.4 1.27) (end -1.4 -1.27) (layer "F.CrtYd") (width 0.05) (tstamp 35cdfa7d-ec5c-4522-9e75-85e4ded284f4))
  (fp_line (start 1.39 1.27) (end 2.65 1.27) (layer "F.CrtYd") (width 0.05) (tstamp 3dd40abf-6741-419b-85d6-1ab69cfbea2a))
  (fp_line (start -2.66 -1.27) (end -2.66 1.27) (layer "F.CrtYd") (width 0.05) (tstamp 47440a57-f486-4591-ae83-9f4d9b035f4f))
  (fp_line (start 0.63 -1.27) (end -0.63 -1.27) (layer "F.CrtYd") (width 0.05) (tstamp 66d314ab-894a-4716-8488-8ad46bba8d24))
  (fp_line (start -0.63 -1.27) (end -0.63 1.27) (layer "F.CrtYd") (width 0.05) (tstamp 6f68e45b-95c3-4a59-a85b-aba4ae312c97))
  (fp_line (start -0.63 1.27) (end 0.63 1.27) (layer "F.CrtYd") (width 0.05) (tstamp 787f640c-aec9-47c6-a632-76ac26232876))
  (fp_line (start 3.39 1.3) (end 4.65 1.3) (layer "F.CrtYd") (width 0.05) (tstamp a8df5242-defa-47d6-8273-6d556ef7054e))
  (fp_line (start 4.65 1.3) (end 4.65 -1.24) (layer "F.CrtYd") (width 0.05) (tstamp a966b308-4f23-4dcb-9749-b726a11a9e24))
  (fp_line (start 2.65 1.27) (end 2.65 -1.27) (layer "F.CrtYd") (width 0.05) (tstamp dad988ff-a92e-4f81-a16c-3277af91b04c))
  (fp_line (start 4.65 -1.24) (end 3.39 -1.24) (layer "F.CrtYd") (width 0.05) (tstamp e495acc0-305b-40f7-8502-591eb7898311))
  (fp_line (start 1.39 -1.27) (end 1.39 1.27) (layer "F.CrtYd") (width 0.05) (tstamp ed50743d-f403-4e9b-883f-06157b4ccbc7))
  (fp_line (start -2.66 1.27) (end -1.4 1.27) (layer "F.CrtYd") (width 0.05) (tstamp f000aa85-a0c7-483f-9cd9-72d241f87d8a))
  (fp_line (start 2.65 -1.27) (end 1.39 -1.27) (layer "F.CrtYd") (width 0.05) (tstamp f164f4b3-d977-4f8f-8ad8-1b843bf854d0))
  (fp_line (start 0.63 1.27) (end 0.63 -1.27) (layer "F.CrtYd") (width 0.05) (tstamp f5e17b34-3f3b-4f2c-a60f-a25ace4ccb30))
  (fp_line (start -0.63 1.27) (end -0.63 -1.27) (layer "F.Fab") (width 0.1) (tstamp 08d1a696-61c2-44da-8377-1530dce711c8))
  (fp_line (start 2.65 1.27) (end 1.39 1.27) (layer "F.Fab") (width 0.1) (tstamp 1cbfcdd5-6352-4df3-bcc4-8afc7f721663))
  (fp_line (start 0.63 1.27) (end -0.63 1.27) (layer "F.Fab") (width 0.1) (tstamp 25fa5778-6c83-4b59-a3e1-5d47fe7fb650))
  (fp_line (start 2.65 -1.27) (end 2.65 1.27) (layer "F.Fab") (width 0.1) (tstamp 284668a3-30f6-404b-9510-388e6193a061))
  (fp_line (start 0.63 -1.27) (end 0.63 1.27) (layer "F.Fab") (width 0.1) (tstamp 40f2fafa-5827-4ccf-8b27-dfd6faec65f4))
  (fp_line (start -1.4 1.27) (end -2.66 1.27) (layer "F.Fab") (width 0.1) (tstamp 5515afbb-8bc4-4eba-95ac-6026db528dd7))
  (fp_line (start -0.63 -1.27) (end 0.63 -1.27) (layer "F.Fab") (width 0.1) (tstamp 63d3d383-8464-49c5-9900-1c2ac524c072))
  (fp_line (start 4.65 -1.24) (end 4.65 1.3) (layer "F.Fab") (width 0.1) (tstamp 735c7363-f723-4373-aa9c-ded3f9fd8d5d))
  (fp_line (start 4.65 1.3) (end 3.39 1.3) (layer "F.Fab") (width 0.1) (tstamp 90adfcd7-c365-4a75-83eb-7691311e4808))
  (fp_line (start 1.39 1.27) (end 1.39 -1.27) (layer "F.Fab") (width 0.1) (tstamp 98b7a026-fa2d-40ea-a460-b1da6d49121c))
  (fp_line (start 3.39 1.3) (end 3.39 -1.24) (layer "F.Fab") (width 0.1) (tstamp bc217f39-5cad-4307-aecd-a941180a5686))
  (fp_line (start 1.39 -1.27) (end 2.65 -1.27) (layer "F.Fab") (width 0.1) (tstamp c4a976c4-8cac-4074-9e73-997e9a15b51d))
  (fp_line (start -2.66 1.27) (end -2.66 -1.27) (layer "F.Fab") (width 0.1) (tstamp c7d5a97b-6abb-4524-8e21-f26706e12ad8))
  (fp_line (start -2.66 -1.27) (end -1.4 -1.27) (layer "F.Fab") (width 0.1) (tstamp c8233835-1f73-4392-af51-be08dbf2f931))
  (fp_line (start -1.4 -1.27) (end -1.4 1.27) (layer "F.Fab") (width 0.1) (tstamp ddc54d1e-0e2e-40ed-8040-1677472e45e6))
  (fp_line (start 3.39 -1.24) (end 4.65 -1.24) (layer "F.Fab") (width 0.1) (tstamp ef06c2fb-21e2-4c5c-8f90-faaae80bfc33))
  (pad "1" smd roundrect (at -2.03 0) (size 1 2) (layers "F.Cu" "F.Paste" "F.Mask") (roundrect_rratio 0.25) (tstamp a936cd0b-a133-4a95-b740-16cfe997e9be))
  (pad "2" smd roundrect (at 0 0) (size 1 2) (layers "F.Cu" "F.Paste" "F.Mask") (roundrect_rratio 0.25) (tstamp 33b51944-a099-45a9-825b-cfb6c198e6dd))
  (pad "3" smd roundrect (at 2.02 0) (size 1 2) (layers "F.Cu" "F.Paste" "F.Mask") (roundrect_rratio 0.25) (tstamp 0f146853-ccf4-4d1a-8b26-4add38f3cbb0))
  (pad "4" smd roundrect (at 4.02 0) (size 1 2) (layers "F.Cu" "F.Paste" "F.Mask") (roundrect_rratio 0.25) (tstamp bea45acc-3f4e-4ead-9f64-90670d8a1737))
)
