(footprint "AA_SMD" (version 20211014) (generator pcbnew)
  (layer "F.Cu")
  (tedit 0)
  (attr smd)
  (fp_text reference "REF**" (at 0 -0.5 unlocked) (layer "F.SilkS")
    (effects (font (size 1 1) (thickness 0.15)))
    (tstamp 2a573fb9-5775-4c0b-8cb8-2bb49d5f1af9)
  )
  (fp_text value "AA_SMD" (at 0 1 unlocked) (layer "F.Fab")
    (effects (font (size 1 1) (thickness 0.15)))
    (tstamp dd982c41-1e28-4731-a313-b17d4a00286e)
  )
  (fp_text user "${REFERENCE}" (at 0 2.5 unlocked) (layer "F.Fab")
    (effects (font (size 1 1) (thickness 0.15)))
    (tstamp 4dc386f6-f4eb-42a4-b7ce-4facbbd2362f)
  )
  (fp_rect (start -26.5 -7) (end 26.5 7) (layer "F.SilkS") (width 0.12) (fill none) (tstamp 537d555b-6a99-4f44-80bd-3c088e2fe69b))
  (pad "1" smd roundrect (at 26.5 0) (size 4 2.54) (layers "F.Cu" "F.Paste" "F.Mask") (roundrect_rratio 0.25) (tstamp 59b8c821-e57e-4594-acfd-f8e6cfe87980))
  (pad "2" smd roundrect (at -26.5 0) (size 4 2.54) (layers "F.Cu" "F.Paste" "F.Mask") (roundrect_rratio 0.25) (tstamp b7b55729-0375-448c-ae1b-729eb234a7f4))
)
