(footprint "PinHeader_2x33_P2.54mm_Vertical" (version 20211014) (generator pcbnew)
  (layer "F.Cu")
  (tedit 59FED5CC)
  (descr "Through hole straight pin header, 2x33, 2.54mm pitch, double rows")
  (tags "Through hole pin header THT 2x33 2.54mm double row")
  (attr through_hole)
  (fp_text reference "REF**" (at 1.27 -2.33) (layer "F.SilkS")
    (effects (font (size 1 1) (thickness 0.15)))
    (tstamp 053661ee-ef02-41a9-9013-4643287c82ea)
  )
  (fp_text value "PinHeader_2x33_P2.54mm_Vertical" (at 1.27 83.61) (layer "F.Fab")
    (effects (font (size 1 1) (thickness 0.15)))
    (tstamp 6cb1cbe5-8816-47e6-a090-2ab055086e0d)
  )
  (fp_text user "${REFERENCE}" (at 1.27 40.64 90) (layer "F.Fab")
    (effects (font (size 1 1) (thickness 0.15)))
    (tstamp 24b20d46-be35-4951-9b1c-c0dff013f2a8)
  )
  (fp_line (start 1.27 -1.33) (end 3.87 -1.33) (layer "F.SilkS") (width 0.12) (tstamp 02df8550-4e40-4575-8f8d-ee186e59be5f))
  (fp_line (start 3.87 -1.33) (end 3.87 82.61) (layer "F.SilkS") (width 0.12) (tstamp 11bbefde-de6f-421d-a2dd-350fbd181174))
  (fp_line (start -1.33 -1.33) (end 0 -1.33) (layer "F.SilkS") (width 0.12) (tstamp 21505915-265d-4d56-a5de-7e586abda9c2))
  (fp_line (start -1.33 0) (end -1.33 -1.33) (layer "F.SilkS") (width 0.12) (tstamp 27729999-a192-491e-bd4d-babaee3ba162))
  (fp_line (start 1.27 1.27) (end 1.27 -1.33) (layer "F.SilkS") (width 0.12) (tstamp 362dfa10-3297-425c-ae1d-ae755a7b271d))
  (fp_line (start -1.33 1.27) (end 1.27 1.27) (layer "F.SilkS") (width 0.12) (tstamp 5b4f2017-ba83-4135-8757-2fe40a17c79b))
  (fp_line (start -1.33 1.27) (end -1.33 82.61) (layer "F.SilkS") (width 0.12) (tstamp 65fa28b0-a485-4cb5-b537-6459a568474d))
  (fp_line (start -1.33 82.61) (end 3.87 82.61) (layer "F.SilkS") (width 0.12) (tstamp ae989bd2-67d9-4379-811b-3f97f8a2c702))
  (fp_line (start 4.35 -1.8) (end -1.8 -1.8) (layer "F.CrtYd") (width 0.05) (tstamp 9681b839-4277-4c64-9d82-9754c8655c79))
  (fp_line (start -1.8 -1.8) (end -1.8 83.05) (layer "F.CrtYd") (width 0.05) (tstamp aa074096-55db-4a86-a11b-2596ff4f36b2))
  (fp_line (start 4.35 83.05) (end 4.35 -1.8) (layer "F.CrtYd") (width 0.05) (tstamp acd667ff-cd51-47d2-98f5-8fb87424da21))
  (fp_line (start -1.8 83.05) (end 4.35 83.05) (layer "F.CrtYd") (width 0.05) (tstamp fe03bb9d-b4dc-4f22-b623-f857e344de56))
  (fp_line (start 3.81 -1.27) (end 3.81 82.55) (layer "F.Fab") (width 0.1) (tstamp 222e08ee-158d-482e-9a1c-5a84f66d4408))
  (fp_line (start -1.27 0) (end 0 -1.27) (layer "F.Fab") (width 0.1) (tstamp 69891ac1-e475-4e45-8cb9-c37e0bd15bae))
  (fp_line (start -1.27 82.55) (end -1.27 0) (layer "F.Fab") (width 0.1) (tstamp 9d333c28-2d09-4a86-bde1-597c643c798e))
  (fp_line (start 0 -1.27) (end 3.81 -1.27) (layer "F.Fab") (width 0.1) (tstamp f52a7bff-6dc6-48a1-9aa7-713fab55415c))
  (fp_line (start 3.81 82.55) (end -1.27 82.55) (layer "F.Fab") (width 0.1) (tstamp fcc2412c-671a-45cb-b039-de7b9f97fe0c))
  (pad "1" thru_hole rect (at 0 0) (size 2.1 2.1) (drill 1) (layers *.Cu *.Mask) (tstamp 93c0a57b-d3ad-4348-82db-4fc5bc3bac02))
  (pad "2" thru_hole oval (at 2.54 0) (size 2.1 2.1) (drill 1) (layers *.Cu *.Mask) (tstamp 342045ed-9d7a-4581-b0b7-77926882a3f8))
  (pad "3" thru_hole oval (at 0 2.54) (size 2.1 2.1) (drill 1) (layers *.Cu *.Mask) (tstamp 5a79ffe3-8322-43ff-936c-52919a8781a7))
  (pad "4" thru_hole oval (at 2.54 2.54) (size 2.1 2.1) (drill 1) (layers *.Cu *.Mask) (tstamp 9268e22c-d16c-428e-9a15-0d58ff1cb8fc))
  (pad "5" thru_hole oval (at 0 5.08) (size 2.1 2.1) (drill 1) (layers *.Cu *.Mask) (tstamp 2e82b8c3-e40f-4c4c-a1d4-787de0974582))
  (pad "6" thru_hole oval (at 2.54 5.08) (size 2.1 2.1) (drill 1) (layers *.Cu *.Mask) (tstamp befdb64d-0b33-4519-b952-08104125eb5c))
  (pad "7" thru_hole oval (at 0 7.62) (size 2.1 2.1) (drill 1) (layers *.Cu *.Mask) (tstamp 1cf4de86-0b99-4668-892f-0b62b3ebc1de))
  (pad "8" thru_hole oval (at 2.54 7.62) (size 2.1 2.1) (drill 1) (layers *.Cu *.Mask) (tstamp dff29121-349f-434e-a717-0771cb7cef77))
  (pad "9" thru_hole oval (at 0 10.16) (size 2.1 2.1) (drill 1) (layers *.Cu *.Mask) (tstamp 39ad1895-1d36-4363-b59c-5f43d625a0cf))
  (pad "10" thru_hole oval (at 2.54 10.16) (size 2.1 2.1) (drill 1) (layers *.Cu *.Mask) (tstamp 0e637650-5f8d-4070-a10a-039dc940e593))
  (pad "11" thru_hole oval (at 0 12.7) (size 2.1 2.1) (drill 1) (layers *.Cu *.Mask) (tstamp c9c6341d-ada5-4ae9-b107-dc19601f0675))
  (pad "12" thru_hole oval (at 2.54 12.7) (size 2.1 2.1) (drill 1) (layers *.Cu *.Mask) (tstamp 624da46c-8549-41fb-a565-4ad242bce953))
  (pad "13" thru_hole oval (at 0 15.24) (size 2.1 2.1) (drill 1) (layers *.Cu *.Mask) (tstamp 8e42d4d6-f8e5-470f-bc27-23b4a702dea0))
  (pad "14" thru_hole oval (at 2.54 15.24) (size 2.1 2.1) (drill 1) (layers *.Cu *.Mask) (tstamp 981b7009-2212-43d6-be24-01c8f8b1045c))
  (pad "15" thru_hole oval (at 0 17.78) (size 2.1 2.1) (drill 1) (layers *.Cu *.Mask) (tstamp 827bed02-e05e-4b60-85cb-5e746dc1f0c2))
  (pad "16" thru_hole oval (at 2.54 17.78) (size 2.1 2.1) (drill 1) (layers *.Cu *.Mask) (tstamp 1bc0cc38-8ce2-40cb-a7b0-c3e4dd1bc64c))
  (pad "17" thru_hole oval (at 0 20.32) (size 2.1 2.1) (drill 1) (layers *.Cu *.Mask) (tstamp 367cb543-28e2-4bfa-ae94-40741f024ebf))
  (pad "18" thru_hole oval (at 2.54 20.32) (size 2.1 2.1) (drill 1) (layers *.Cu *.Mask) (tstamp 709bbd6d-236e-4580-a945-d3225dbdfb19))
  (pad "19" thru_hole oval (at 0 22.86) (size 2.1 2.1) (drill 1) (layers *.Cu *.Mask) (tstamp 4c3a3207-3dfa-4ec4-aa35-86055f8aca71))
  (pad "20" thru_hole oval (at 2.54 22.86) (size 2.1 2.1) (drill 1) (layers *.Cu *.Mask) (tstamp 2d75de5e-bd9d-4562-b0cf-73638186c669))
  (pad "21" thru_hole oval (at 0 25.4) (size 2.1 2.1) (drill 1) (layers *.Cu *.Mask) (tstamp 5d92169b-8f82-42c2-9a86-53c2cbc42868))
  (pad "22" thru_hole oval (at 2.54 25.4) (size 2.1 2.1) (drill 1) (layers *.Cu *.Mask) (tstamp d1b00968-05ed-44a4-9256-f922eb35cfce))
  (pad "23" thru_hole oval (at 0 27.94) (size 2.1 2.1) (drill 1) (layers *.Cu *.Mask) (tstamp 95e9a37d-cf06-4fc3-a16a-acf51dd1ec5b))
  (pad "24" thru_hole oval (at 2.54 27.94) (size 2.1 2.1) (drill 1) (layers *.Cu *.Mask) (tstamp e98749ce-0bcc-4207-95e6-3d9d7238b669))
  (pad "25" thru_hole oval (at 0 30.48) (size 2.1 2.1) (drill 1) (layers *.Cu *.Mask) (tstamp 96ddd7ca-36d9-49c3-aa95-9497b17589bc))
  (pad "26" thru_hole oval (at 2.54 30.48) (size 2.1 2.1) (drill 1) (layers *.Cu *.Mask) (tstamp 1e3cc7b4-dc27-43b3-b70f-b2b3b1e73c5d))
  (pad "27" thru_hole oval (at 0 33.02) (size 2.1 2.1) (drill 1) (layers *.Cu *.Mask) (tstamp 7296be76-ccc9-4934-9d39-caa0aef538af))
  (pad "28" thru_hole oval (at 2.54 33.02) (size 2.1 2.1) (drill 1) (layers *.Cu *.Mask) (tstamp 82d3fbdc-a48f-49d8-8865-d21654ea5082))
  (pad "29" thru_hole oval (at 0 35.56) (size 2.1 2.1) (drill 1) (layers *.Cu *.Mask) (tstamp 493e5c82-ccc0-481e-a0c5-a4ab92e512ab))
  (pad "30" thru_hole oval (at 2.54 35.56) (size 2.1 2.1) (drill 1) (layers *.Cu *.Mask) (tstamp 8738ea0e-b6bd-41a3-8f2a-7459e1930ae0))
  (pad "31" thru_hole oval (at 0 38.1) (size 2.1 2.1) (drill 1) (layers *.Cu *.Mask) (tstamp 8c53f8e6-a05b-4088-a41a-7c9b9ca37b29))
  (pad "32" thru_hole oval (at 2.54 38.1) (size 2.1 2.1) (drill 1) (layers *.Cu *.Mask) (tstamp 28960164-65bd-4138-8ed4-6044166aeba8))
  (pad "33" thru_hole oval (at 0 40.64) (size 2.1 2.1) (drill 1) (layers *.Cu *.Mask) (tstamp a01f27aa-e082-4349-bbd1-c6c6db886284))
  (pad "34" thru_hole oval (at 2.54 40.64) (size 2.1 2.1) (drill 1) (layers *.Cu *.Mask) (tstamp 5c61bd8d-82ef-4d49-837a-19ba000d7097))
  (pad "35" thru_hole oval (at 0 43.18) (size 2.1 2.1) (drill 1) (layers *.Cu *.Mask) (tstamp cacd2656-9eb8-45be-9382-02139f11393e))
  (pad "36" thru_hole oval (at 2.54 43.18) (size 2.1 2.1) (drill 1) (layers *.Cu *.Mask) (tstamp 3521dd7b-0853-440a-9ad1-6aba6ce9e5f5))
  (pad "37" thru_hole oval (at 0 45.72) (size 2.1 2.1) (drill 1) (layers *.Cu *.Mask) (tstamp a2944a9a-b8ec-401a-acf0-b9848bbc34be))
  (pad "38" thru_hole oval (at 2.54 45.72) (size 2.1 2.1) (drill 1) (layers *.Cu *.Mask) (tstamp bc339a3e-e7ba-44dc-bbd5-81652976bba7))
  (pad "39" thru_hole oval (at 0 48.26) (size 2.1 2.1) (drill 1) (layers *.Cu *.Mask) (tstamp 3f5b0076-5d5b-4584-b913-3d437bcb1c29))
  (pad "40" thru_hole oval (at 2.54 48.26) (size 2.1 2.1) (drill 1) (layers *.Cu *.Mask) (tstamp 2effa8e6-d391-4ee7-8b2c-9039aa8b763b))
  (pad "41" thru_hole oval (at 0 50.8) (size 2.1 2.1) (drill 1) (layers *.Cu *.Mask) (tstamp c9e6e595-d844-48ed-af4f-457de320263e))
  (pad "42" thru_hole oval (at 2.54 50.8) (size 2.1 2.1) (drill 1) (layers *.Cu *.Mask) (tstamp cb9153f0-8299-41c4-8124-c5c94d8679e1))
  (pad "43" thru_hole oval (at 0 53.34) (size 2.1 2.1) (drill 1) (layers *.Cu *.Mask) (tstamp f6cd236e-d221-4729-8334-125b3643941c))
  (pad "44" thru_hole oval (at 2.54 53.34) (size 2.1 2.1) (drill 1) (layers *.Cu *.Mask) (tstamp 7a0547e4-d04c-4314-ae0f-37e0b00fd566))
  (pad "45" thru_hole oval (at 0 55.88) (size 2.1 2.1) (drill 1) (layers *.Cu *.Mask) (tstamp b5623c38-7583-4a14-9000-0834ab6bd489))
  (pad "46" thru_hole oval (at 2.54 55.88) (size 2.1 2.1) (drill 1) (layers *.Cu *.Mask) (tstamp 7dba8a83-b499-47af-a19f-aea4d21c5e75))
  (pad "47" thru_hole oval (at 0 58.42) (size 2.1 2.1) (drill 1) (layers *.Cu *.Mask) (tstamp 761712b0-2885-4c57-9652-e1472273327b))
  (pad "48" thru_hole oval (at 2.54 58.42) (size 2.1 2.1) (drill 1) (layers *.Cu *.Mask) (tstamp f8a2543b-19cf-4942-8c35-55554c38d6b6))
  (pad "49" thru_hole oval (at 0 60.96) (size 2.1 2.1) (drill 1) (layers *.Cu *.Mask) (tstamp 4e54f05b-1fa8-44bf-9869-8e997d93fa36))
  (pad "50" thru_hole oval (at 2.54 60.96) (size 2.1 2.1) (drill 1) (layers *.Cu *.Mask) (tstamp 6771ce30-2a6c-4ff9-8f87-f0e226f9ec0d))
  (pad "51" thru_hole oval (at 0 63.5) (size 2.1 2.1) (drill 1) (layers *.Cu *.Mask) (tstamp 59f6324b-0ced-44e7-a9be-e18288827a43))
  (pad "52" thru_hole oval (at 2.54 63.5) (size 2.1 2.1) (drill 1) (layers *.Cu *.Mask) (tstamp 61cab9f2-6158-4a4a-b692-90a16fdcd57c))
  (pad "53" thru_hole oval (at 0 66.04) (size 2.1 2.1) (drill 1) (layers *.Cu *.Mask) (tstamp 87cd5e37-bac8-4ddd-81a3-4e0e729d0cd6))
  (pad "54" thru_hole oval (at 2.54 66.04) (size 2.1 2.1) (drill 1) (layers *.Cu *.Mask) (tstamp ceb8e4b8-0c13-49db-88fd-f65f6659f934))
  (pad "55" thru_hole oval (at 0 68.58) (size 2.1 2.1) (drill 1) (layers *.Cu *.Mask) (tstamp c57075b8-c726-44a2-98d6-4adbf69fa9fa))
  (pad "56" thru_hole oval (at 2.54 68.58) (size 2.1 2.1) (drill 1) (layers *.Cu *.Mask) (tstamp 1baae124-450f-4631-ba68-d6e3db793fb0))
  (pad "57" thru_hole oval (at 0 71.12) (size 2.1 2.1) (drill 1) (layers *.Cu *.Mask) (tstamp 9ff8fa14-f9a3-43a2-a298-5768f2be852e))
  (pad "58" thru_hole oval (at 2.54 71.12) (size 2.1 2.1) (drill 1) (layers *.Cu *.Mask) (tstamp 4b89a66b-6656-4b25-b881-6107de55e807))
  (pad "59" thru_hole oval (at 0 73.66) (size 2.1 2.1) (drill 1) (layers *.Cu *.Mask) (tstamp da9abd7a-9bd5-4b79-8ef2-1bab0cdc85a8))
  (pad "60" thru_hole oval (at 2.54 73.66) (size 2.1 2.1) (drill 1) (layers *.Cu *.Mask) (tstamp 77cb1b88-f58f-4584-8222-17b0a67723e3))
  (pad "61" thru_hole oval (at 0 76.2) (size 2.1 2.1) (drill 1) (layers *.Cu *.Mask) (tstamp 909272d3-85ea-416b-bd4c-0cf852ab4e23))
  (pad "62" thru_hole oval (at 2.54 76.2) (size 2.1 2.1) (drill 1) (layers *.Cu *.Mask) (tstamp 2db6a3c7-4b46-4a1b-b0b9-f209d733f6a5))
  (pad "63" thru_hole oval (at 0 78.74) (size 2.1 2.1) (drill 1) (layers *.Cu *.Mask) (tstamp c6024fef-b5c3-4492-8083-cdeeeb0d475e))
  (pad "64" thru_hole oval (at 2.54 78.74) (size 2.1 2.1) (drill 1) (layers *.Cu *.Mask) (tstamp 24a9881e-97aa-44cd-8c31-647fa455cee2))
  (pad "65" thru_hole oval (at 0 81.28) (size 2.1 2.1) (drill 1) (layers *.Cu *.Mask) (tstamp 0e7762d8-7b15-4a08-87e4-0dbd2030cdb1))
  (pad "66" thru_hole oval (at 2.54 81.28) (size 2.1 2.1) (drill 1) (layers *.Cu *.Mask) (tstamp c38cb035-f843-4e74-a246-84c46ddf70e0))
  (model "${KICAD6_3DMODEL_DIR}/Connector_PinHeader_2.54mm.3dshapes/PinHeader_2x33_P2.54mm_Vertical.wrl"
    (offset (xyz 0 0 0))
    (scale (xyz 1 1 1))
    (rotate (xyz 0 0 0))
  )
)
