(footprint "PinHeader_2x03_P2.54mm_Horizontal" (version 20211014) (generator pcbnew)
  (layer "F.Cu")
  (tedit 59FED5CB)
  (descr "Through hole angled pin header, 2x03, 2.54mm pitch, 6mm pin length, double rows")
  (tags "Through hole angled pin header THT 2x03 2.54mm double row")
  (attr through_hole)
  (fp_text reference "REF**" (at 5.655 -2.27) (layer "F.SilkS")
    (effects (font (size 1 1) (thickness 0.15)))
    (tstamp 0e40c698-5af5-40a4-b342-9809efdeffa3)
  )
  (fp_text value "PinHeader_2x03_P2.54mm_Horizontal" (at 5.655 7.35) (layer "F.Fab")
    (effects (font (size 1 1) (thickness 0.15)))
    (tstamp 6e54b1fe-14f8-4887-964f-9d52d28a7894)
  )
  (fp_text user "${REFERENCE}" (at 5.31 2.54 90) (layer "F.Fab")
    (effects (font (size 1 1) (thickness 0.15)))
    (tstamp 8a97d363-1099-4a80-88d5-cb2780847069)
  )
  (fp_line (start 12.64 2.92) (end 6.64 2.92) (layer "F.SilkS") (width 0.12) (tstamp 0e5c504e-5a7c-4147-8b89-d98273fc8429))
  (fp_line (start 6.64 6.41) (end 6.64 -1.33) (layer "F.SilkS") (width 0.12) (tstamp 13f6387e-e031-4c9f-bccb-cf66db288a7c))
  (fp_line (start 1.11 -0.38) (end 1.497071 -0.38) (layer "F.SilkS") (width 0.12) (tstamp 16812c84-2a72-434c-9e3b-49ca966a2055))
  (fp_line (start 12.64 4.7) (end 12.64 5.46) (layer "F.SilkS") (width 0.12) (tstamp 1744bb56-6fc3-4733-9f5d-021de6520852))
  (fp_line (start 3.98 6.41) (end 6.64 6.41) (layer "F.SilkS") (width 0.12) (tstamp 19183e47-c8ae-46d1-a872-d20f1ef9d8d0))
  (fp_line (start 3.582929 2.16) (end 3.98 2.16) (layer "F.SilkS") (width 0.12) (tstamp 221e7dfc-f6c2-4831-967a-f06100cf8bbc))
  (fp_line (start 12.64 2.16) (end 12.64 2.92) (layer "F.SilkS") (width 0.12) (tstamp 2b81e0b4-afe3-4ca4-b0bd-87c96cd86c94))
  (fp_line (start 3.582929 4.7) (end 3.98 4.7) (layer "F.SilkS") (width 0.12) (tstamp 40c18da4-dc66-447a-9560-7066a2b10a3c))
  (fp_line (start 6.64 -1.33) (end 3.98 -1.33) (layer "F.SilkS") (width 0.12) (tstamp 4905a539-89de-4144-aa2c-85d05f08701a))
  (fp_line (start 3.582929 -0.38) (end 3.98 -0.38) (layer "F.SilkS") (width 0.12) (tstamp 50247c2e-5d5b-40ab-9b3e-1eb84a0e888e))
  (fp_line (start 3.582929 0.38) (end 3.98 0.38) (layer "F.SilkS") (width 0.12) (tstamp 52f19d87-2d47-4dcb-9622-552531999b15))
  (fp_line (start 1.042929 5.46) (end 1.497071 5.46) (layer "F.SilkS") (width 0.12) (tstamp 53e2020e-1c2d-44c4-a039-76064947b8f6))
  (fp_line (start 1.11 0.38) (end 1.497071 0.38) (layer "F.SilkS") (width 0.12) (tstamp 570ca17a-2107-4300-8226-cb72404c9292))
  (fp_line (start -1.27 -1.27) (end 0 -1.27) (layer "F.SilkS") (width 0.12) (tstamp 583db229-a363-4865-9bac-c18ce754c9c7))
  (fp_line (start 3.98 -1.33) (end 3.98 6.41) (layer "F.SilkS") (width 0.12) (tstamp 5ca4c0fe-27b8-44df-abbe-e18f233da6e5))
  (fp_line (start 6.64 2.16) (end 12.64 2.16) (layer "F.SilkS") (width 0.12) (tstamp 5cd082e9-7c79-40cf-a776-fd5d94e4c130))
  (fp_line (start 6.64 -0.2) (end 12.64 -0.2) (layer "F.SilkS") (width 0.12) (tstamp 5dded6d5-397b-483a-8df3-7e4b14afac09))
  (fp_line (start 3.582929 5.46) (end 3.98 5.46) (layer "F.SilkS") (width 0.12) (tstamp 6ca4f54b-db02-467e-b615-0cb65acb23f7))
  (fp_line (start 6.64 -0.32) (end 12.64 -0.32) (layer "F.SilkS") (width 0.12) (tstamp 76f353c0-2f15-4ac7-965a-fc23d9b13992))
  (fp_line (start 1.042929 2.16) (end 1.497071 2.16) (layer "F.SilkS") (width 0.12) (tstamp 785a7f12-0e8d-4530-9c92-e573c53be976))
  (fp_line (start 1.042929 4.7) (end 1.497071 4.7) (layer "F.SilkS") (width 0.12) (tstamp 87e652a5-b945-43b2-b660-45c5d31ac04f))
  (fp_line (start 6.64 0.04) (end 12.64 0.04) (layer "F.SilkS") (width 0.12) (tstamp 8b2dfc03-6056-4c9d-9aec-a43c4d381e31))
  (fp_line (start 3.582929 2.92) (end 3.98 2.92) (layer "F.SilkS") (width 0.12) (tstamp 8fb58487-772e-4baa-a13c-08d4847a679b))
  (fp_line (start 6.64 0.28) (end 12.64 0.28) (layer "F.SilkS") (width 0.12) (tstamp 93a1d170-c63f-4f99-ae2b-814a3728a78f))
  (fp_line (start 3.98 1.27) (end 6.64 1.27) (layer "F.SilkS") (width 0.12) (tstamp a8039b0c-aeaa-4d99-99a3-2c628a961a85))
  (fp_line (start -1.27 0) (end -1.27 -1.27) (layer "F.SilkS") (width 0.12) (tstamp c20fdb84-e7d9-4ad9-b1ac-ba45dbfb7b31))
  (fp_line (start 1.042929 2.92) (end 1.497071 2.92) (layer "F.SilkS") (width 0.12) (tstamp c37c4644-0014-462a-aed0-7240afc07e80))
  (fp_line (start 3.98 3.81) (end 6.64 3.81) (layer "F.SilkS") (width 0.12) (tstamp cdc36975-7351-46c2-b547-d8c74938f899))
  (fp_line (start 12.64 5.46) (end 6.64 5.46) (layer "F.SilkS") (width 0.12) (tstamp ce0dd456-a848-4a27-810e-245976710549))
  (fp_line (start 12.64 0.38) (end 6.64 0.38) (layer "F.SilkS") (width 0.12) (tstamp ec80f29e-2c01-4e90-acbc-542f26074cc0))
  (fp_line (start 6.64 -0.08) (end 12.64 -0.08) (layer "F.SilkS") (width 0.12) (tstamp ee9a12f3-5437-4b37-98c3-4aecdca06b88))
  (fp_line (start 6.64 -0.38) (end 12.64 -0.38) (layer "F.SilkS") (width 0.12) (tstamp f0d6c964-273f-4256-a970-d838ea64038f))
  (fp_line (start 6.64 4.7) (end 12.64 4.7) (layer "F.SilkS") (width 0.12) (tstamp f11b5727-fb34-4a01-93ba-a955e502cef5))
  (fp_line (start 6.64 0.16) (end 12.64 0.16) (layer "F.SilkS") (width 0.12) (tstamp f2f641ef-6f81-4015-89e7-c694a00b1a3c))
  (fp_line (start 12.64 -0.38) (end 12.64 0.38) (layer "F.SilkS") (width 0.12) (tstamp f7cd95bf-f2b6-4515-88f7-c6bb3121a9d2))
  (fp_line (start -1.8 6.85) (end 13.1 6.85) (layer "F.CrtYd") (width 0.05) (tstamp 050f0686-be7c-4c6e-a636-62523e338dc3))
  (fp_line (start 13.1 6.85) (end 13.1 -1.8) (layer "F.CrtYd") (width 0.05) (tstamp 15f75533-37ca-4895-af47-c8dea2ad8724))
  (fp_line (start -1.8 -1.8) (end -1.8 6.85) (layer "F.CrtYd") (width 0.05) (tstamp 2a9838bf-146f-4b2e-834d-b209aafd26c9))
  (fp_line (start 13.1 -1.8) (end -1.8 -1.8) (layer "F.CrtYd") (width 0.05) (tstamp fb21f4a4-eb30-4ac3-b7d1-e21342f3e0b8))
  (fp_line (start 6.58 6.35) (end 4.04 6.35) (layer "F.Fab") (width 0.1) (tstamp 1112b87e-ff80-450d-8977-1a3388991138))
  (fp_line (start -0.32 4.76) (end -0.32 5.4) (layer "F.Fab") (width 0.1) (tstamp 1933086d-1041-4353-bead-d78aa3fc9a26))
  (fp_line (start 12.58 -0.32) (end 12.58 0.32) (layer "F.Fab") (width 0.1) (tstamp 1bce2876-476c-4f2f-b879-9a8fd9e5f165))
  (fp_line (start 12.58 4.76) (end 12.58 5.4) (layer "F.Fab") (width 0.1) (tstamp 1e771447-9a9e-4248-b322-32e211028e25))
  (fp_line (start 4.04 6.35) (end 4.04 -0.635) (layer "F.Fab") (width 0.1) (tstamp 2259a402-883e-456f-8434-ba6ae3728b6c))
  (fp_line (start -0.32 2.22) (end 4.04 2.22) (layer "F.Fab") (width 0.1) (tstamp 44cb6d47-8d27-4c04-b41f-bc2e66f14a32))
  (fp_line (start -0.32 2.86) (end 4.04 2.86) (layer "F.Fab") (width 0.1) (tstamp 45dd762c-5097-48cf-9a55-54ba1a2fa9f2))
  (fp_line (start 6.58 -0.32) (end 12.58 -0.32) (layer "F.Fab") (width 0.1) (tstamp 496b4476-7b9b-497f-832e-744ae853879d))
  (fp_line (start 6.58 5.4) (end 12.58 5.4) (layer "F.Fab") (width 0.1) (tstamp 5ebe13fa-4a72-41a8-bcb1-23bf860fa41a))
  (fp_line (start -0.32 -0.32) (end -0.32 0.32) (layer "F.Fab") (width 0.1) (tstamp 65da6a0e-a550-469c-8a3b-b8ff8057b734))
  (fp_line (start 6.58 4.76) (end 12.58 4.76) (layer "F.Fab") (width 0.1) (tstamp 65e0f7e3-538a-4cf1-af2c-d2943156fce7))
  (fp_line (start -0.32 0.32) (end 4.04 0.32) (layer "F.Fab") (width 0.1) (tstamp 6f8344bf-29f8-41b9-a835-4fa6c62c4937))
  (fp_line (start -0.32 4.76) (end 4.04 4.76) (layer "F.Fab") (width 0.1) (tstamp 81f907dc-c295-450e-abe5-a14cd1f50faa))
  (fp_line (start 4.04 -0.635) (end 4.675 -1.27) (layer "F.Fab") (width 0.1) (tstamp 888c82a2-7ce1-48c4-8ba5-e2cf5708e769))
  (fp_line (start -0.32 2.22) (end -0.32 2.86) (layer "F.Fab") (width 0.1) (tstamp a4052300-5684-4661-96cb-1c62fa47e185))
  (fp_line (start 6.58 2.22) (end 12.58 2.22) (layer "F.Fab") (width 0.1) (tstamp a7fe0c6c-b697-4f7a-ad53-ff36f7b4b8cc))
  (fp_line (start -0.32 -0.32) (end 4.04 -0.32) (layer "F.Fab") (width 0.1) (tstamp bd3c852a-4ad1-4adf-9cfe-0192e8cbc035))
  (fp_line (start 4.675 -1.27) (end 6.58 -1.27) (layer "F.Fab") (width 0.1) (tstamp bf4a8f62-d0bc-4e00-a2ee-80a3abfa904e))
  (fp_line (start 6.58 0.32) (end 12.58 0.32) (layer "F.Fab") (width 0.1) (tstamp c2280fb0-680a-4a41-ba52-e0f5815e7e01))
  (fp_line (start -0.32 5.4) (end 4.04 5.4) (layer "F.Fab") (width 0.1) (tstamp d9931242-0394-4a69-9b21-5e5273ec36d6))
  (fp_line (start 6.58 2.86) (end 12.58 2.86) (layer "F.Fab") (width 0.1) (tstamp db6957b9-1a30-4458-938a-1ca254a2e9bf))
  (fp_line (start 6.58 -1.27) (end 6.58 6.35) (layer "F.Fab") (width 0.1) (tstamp f26f72f6-f5b9-472c-a018-b5d9fb8f1cb5))
  (fp_line (start 12.58 2.22) (end 12.58 2.86) (layer "F.Fab") (width 0.1) (tstamp ff7dbfb7-0741-4965-84f7-e625ca55ed9c))
  (pad "1" thru_hole rect (at 0 0) (size 2.1 2.1) (drill 1) (layers *.Cu *.Mask) (tstamp 73755828-9194-425b-bee6-422c7cc9d223))
  (pad "2" thru_hole oval (at 2.54 0) (size 2.1 2.1) (drill 1) (layers *.Cu *.Mask) (tstamp e8615750-19b2-417c-a46f-c5487b7d8fec))
  (pad "3" thru_hole oval (at 0 2.54) (size 2.1 2.1) (drill 1) (layers *.Cu *.Mask) (tstamp b1433c16-852d-480a-af9a-f5e517d28830))
  (pad "4" thru_hole oval (at 2.54 2.54) (size 2.1 2.1) (drill 1) (layers *.Cu *.Mask) (tstamp dc9caa1f-f949-4081-91f6-4caeded64d2e))
  (pad "5" thru_hole oval (at 0 5.08) (size 2.1 2.1) (drill 1) (layers *.Cu *.Mask) (tstamp e84da1f7-e6a2-441e-8b1a-27da0f96cde1))
  (pad "6" thru_hole oval (at 2.54 5.08) (size 2.1 2.1) (drill 1) (layers *.Cu *.Mask) (tstamp bf263550-2393-4e65-b099-017847272ab1))
  (model "${KICAD6_3DMODEL_DIR}/Connector_PinHeader_2.54mm.3dshapes/PinHeader_2x03_P2.54mm_Horizontal.wrl"
    (offset (xyz 0 0 0))
    (scale (xyz 1 1 1))
    (rotate (xyz 0 0 0))
  )
)
