(footprint "PinHeader_1x18_P2.54mm_Horizontal" (version 20211014) (generator pcbnew)
  (layer "F.Cu")
  (tedit 59FED5CB)
  (descr "Through hole angled pin header, 1x18, 2.54mm pitch, 6mm pin length, single row")
  (tags "Through hole angled pin header THT 1x18 2.54mm single row")
  (attr through_hole)
  (fp_text reference "REF**" (at 4.385 -2.27) (layer "F.SilkS")
    (effects (font (size 1 1) (thickness 0.15)))
    (tstamp 819ffdcf-1fe0-49b4-b772-9216e3f55d79)
  )
  (fp_text value "PinHeader_1x18_P2.54mm_Horizontal" (at 4.385 45.45) (layer "F.Fab")
    (effects (font (size 1 1) (thickness 0.15)))
    (tstamp 6cc07fb1-9f36-4465-bdbb-e5f10e486713)
  )
  (fp_text user "${REFERENCE}" (at 2.77 21.59 90) (layer "F.Fab")
    (effects (font (size 1 1) (thickness 0.15)))
    (tstamp d8a2e8a3-3ffb-407d-af00-eb12528bc91d)
  )
  (fp_line (start 1.042929 8) (end 1.44 8) (layer "F.SilkS") (width 0.12) (tstamp 00b69bf7-e6b2-402b-a775-87b0a6b91322))
  (fp_line (start 1.042929 5.46) (end 1.44 5.46) (layer "F.SilkS") (width 0.12) (tstamp 0289bb12-31f4-47c7-8420-3afe999bdb26))
  (fp_line (start 1.042929 19.94) (end 1.44 19.94) (layer "F.SilkS") (width 0.12) (tstamp 08bf29d5-813b-435c-9af0-5b0f36febd7e))
  (fp_line (start 10.1 23.24) (end 4.1 23.24) (layer "F.SilkS") (width 0.12) (tstamp 0a6357c3-cf6d-4940-9aed-9b9ce7822f16))
  (fp_line (start 1.042929 38.48) (end 1.44 38.48) (layer "F.SilkS") (width 0.12) (tstamp 0a6fd93f-e499-4e98-8d42-1a2ed3bf0f21))
  (fp_line (start 4.1 0.28) (end 10.1 0.28) (layer "F.SilkS") (width 0.12) (tstamp 0aefc7ed-e52d-4215-b1e8-0562d5f07ad8))
  (fp_line (start 10.1 -0.38) (end 10.1 0.38) (layer "F.SilkS") (width 0.12) (tstamp 0c70da4e-0206-43cd-b4a4-e98992c0f615))
  (fp_line (start 1.042929 25.78) (end 1.44 25.78) (layer "F.SilkS") (width 0.12) (tstamp 0efc7236-7793-45a6-a4f6-0035d15da032))
  (fp_line (start 10.1 25.02) (end 10.1 25.78) (layer "F.SilkS") (width 0.12) (tstamp 10992640-dd60-45cd-9b1b-d56c841cf4c7))
  (fp_line (start 1.44 26.67) (end 4.1 26.67) (layer "F.SilkS") (width 0.12) (tstamp 12f46df9-8042-4a16-9afb-30d9cd46c855))
  (fp_line (start 4.1 -0.32) (end 10.1 -0.32) (layer "F.SilkS") (width 0.12) (tstamp 13ed6a72-ec0d-4940-9a37-a2de5b500458))
  (fp_line (start 4.1 14.86) (end 10.1 14.86) (layer "F.SilkS") (width 0.12) (tstamp 184cfeb3-b270-4331-bbf9-ef20294313e6))
  (fp_line (start 1.042929 18.16) (end 1.44 18.16) (layer "F.SilkS") (width 0.12) (tstamp 19445b5e-966d-4e36-b41a-4eec4e8d33b1))
  (fp_line (start 10.1 5.46) (end 4.1 5.46) (layer "F.SilkS") (width 0.12) (tstamp 1a99456a-4993-4c7c-adf2-439efa981ca5))
  (fp_line (start 1.44 16.51) (end 4.1 16.51) (layer "F.SilkS") (width 0.12) (tstamp 20da3455-0a42-4501-8c30-f629fe534e5a))
  (fp_line (start 1.042929 25.02) (end 1.44 25.02) (layer "F.SilkS") (width 0.12) (tstamp 2276fdcb-1b02-463d-a018-077bc2e01360))
  (fp_line (start 4.1 7.24) (end 10.1 7.24) (layer "F.SilkS") (width 0.12) (tstamp 22acc590-fe5a-46d6-a335-41d8b0cf6af5))
  (fp_line (start 1.44 41.91) (end 4.1 41.91) (layer "F.SilkS") (width 0.12) (tstamp 27ca185a-df82-4c6f-85de-fd1d846b1710))
  (fp_line (start 10.1 7.24) (end 10.1 8) (layer "F.SilkS") (width 0.12) (tstamp 2bec8a8c-1903-43b8-9030-13957f9b4f15))
  (fp_line (start 10.1 19.94) (end 10.1 20.7) (layer "F.SilkS") (width 0.12) (tstamp 2d0e73cc-b835-468c-a84e-98c48b91a3ff))
  (fp_line (start 10.1 9.78) (end 10.1 10.54) (layer "F.SilkS") (width 0.12) (tstamp 316abb41-2a66-4f4b-a294-17b91c185519))
  (fp_line (start 1.042929 42.8) (end 1.44 42.8) (layer "F.SilkS") (width 0.12) (tstamp 32d4d17b-374f-4ada-91ea-8a70a6e2cac4))
  (fp_line (start 10.1 43.56) (end 4.1 43.56) (layer "F.SilkS") (width 0.12) (tstamp 336fd71a-9f5e-4d97-8602-0d5c3908996d))
  (fp_line (start 1.042929 30.1) (end 1.44 30.1) (layer "F.SilkS") (width 0.12) (tstamp 343cf015-56df-4cf9-b3b3-63d3dbab6b87))
  (fp_line (start 1.44 36.83) (end 4.1 36.83) (layer "F.SilkS") (width 0.12) (tstamp 35bd5bc7-0c6b-4432-a279-3b68744d1bbf))
  (fp_line (start 1.44 24.13) (end 4.1 24.13) (layer "F.SilkS") (width 0.12) (tstamp 365c6684-25de-48f6-8877-29a98eca6c6f))
  (fp_line (start 10.1 28.32) (end 4.1 28.32) (layer "F.SilkS") (width 0.12) (tstamp 36b2d7ed-99d0-473a-9296-4fdf188b3414))
  (fp_line (start 1.44 13.97) (end 4.1 13.97) (layer "F.SilkS") (width 0.12) (tstamp 397abd27-879b-4428-857e-9c4eee520a7f))
  (fp_line (start 4.1 22.48) (end 10.1 22.48) (layer "F.SilkS") (width 0.12) (tstamp 3b098ea1-664b-425c-850f-37371897eb40))
  (fp_line (start 4.1 -0.38) (end 10.1 -0.38) (layer "F.SilkS") (width 0.12) (tstamp 3cd4a5da-9414-4ae3-b42c-2f3a87e9e358))
  (fp_line (start 10.1 41.02) (end 4.1 41.02) (layer "F.SilkS") (width 0.12) (tstamp 3eda15ac-3366-43ec-bd0b-f92d140f37cd))
  (fp_line (start 10.1 0.38) (end 4.1 0.38) (layer "F.SilkS") (width 0.12) (tstamp 3f0bbf3f-833d-4300-b4d2-6dcfa4e022d2))
  (fp_line (start 4.1 9.78) (end 10.1 9.78) (layer "F.SilkS") (width 0.12) (tstamp 41000c3e-da90-4a3b-9eec-93ee32476cf0))
  (fp_line (start 10.1 35.18) (end 10.1 35.94) (layer "F.SilkS") (width 0.12) (tstamp 439bb544-7d2c-45d5-a53d-01b8b51bf62d))
  (fp_line (start 1.44 29.21) (end 4.1 29.21) (layer "F.SilkS") (width 0.12) (tstamp 45633bee-6447-4388-bd9a-0c7113b21228))
  (fp_line (start 10.1 35.94) (end 4.1 35.94) (layer "F.SilkS") (width 0.12) (tstamp 48b8a53e-7089-4336-b054-0d8cd7eb49ae))
  (fp_line (start 1.44 44.51) (end 4.1 44.51) (layer "F.SilkS") (width 0.12) (tstamp 4d54bcdd-d8e5-4559-b775-73b02401a7d9))
  (fp_line (start 10.1 20.7) (end 4.1 20.7) (layer "F.SilkS") (width 0.12) (tstamp 4dae5fd6-5954-460b-9a45-df305f3837a8))
  (fp_line (start 10.1 2.16) (end 10.1 2.92) (layer "F.SilkS") (width 0.12) (tstamp 4f5c1740-3375-4a8b-9250-26c688632758))
  (fp_line (start 1.44 3.81) (end 4.1 3.81) (layer "F.SilkS") (width 0.12) (tstamp 56f56765-9eb0-4c05-b46b-7d719ebedd16))
  (fp_line (start 1.44 6.35) (end 4.1 6.35) (layer "F.SilkS") (width 0.12) (tstamp 5bd94d27-d151-4e79-91e6-19e7e3009c7e))
  (fp_line (start 1.042929 32.64) (end 1.44 32.64) (layer "F.SilkS") (width 0.12) (tstamp 5ccb7347-cc31-42b1-abf5-761fe361e8b7))
  (fp_line (start 4.1 -0.2) (end 10.1 -0.2) (layer "F.SilkS") (width 0.12) (tstamp 6008320d-3489-40b1-bf13-56227d0d5146))
  (fp_line (start 4.1 30.1) (end 10.1 30.1) (layer "F.SilkS") (width 0.12) (tstamp 61ce91b8-58b6-4d82-b377-e8096f104e34))
  (fp_line (start 4.1 -1.33) (end 1.44 -1.33) (layer "F.SilkS") (width 0.12) (tstamp 63aa3a85-4918-4eac-a248-192e3e507e6f))
  (fp_line (start 4.1 25.02) (end 10.1 25.02) (layer "F.SilkS") (width 0.12) (tstamp 64b47e7b-39c9-4a7b-9a17-300e931889c6))
  (fp_line (start 1.042929 27.56) (end 1.44 27.56) (layer "F.SilkS") (width 0.12) (tstamp 65431897-6ff1-42c7-b9b0-9dc037707ec0))
  (fp_line (start 1.042929 7.24) (end 1.44 7.24) (layer "F.SilkS") (width 0.12) (tstamp 662d1831-e110-4555-8784-1553fa9e754b))
  (fp_line (start 1.042929 10.54) (end 1.44 10.54) (layer "F.SilkS") (width 0.12) (tstamp 6851a6f6-6b85-4cef-9bb3-d2d67796eee7))
  (fp_line (start 10.1 13.08) (end 4.1 13.08) (layer "F.SilkS") (width 0.12) (tstamp 686ddffc-28ce-44ad-bb73-ebb158bee6da))
  (fp_line (start 1.042929 40.26) (end 1.44 40.26) (layer "F.SilkS") (width 0.12) (tstamp 687178f7-ccdd-48c5-bb0b-ede9a54fb6b5))
  (fp_line (start 4.1 27.56) (end 10.1 27.56) (layer "F.SilkS") (width 0.12) (tstamp 6a16d5ea-5f0a-4be7-a8a2-96db9ca4be55))
  (fp_line (start 10.1 8) (end 4.1 8) (layer "F.SilkS") (width 0.12) (tstamp 6ad17f50-9f60-48d3-98da-0bb5f45a97b3))
  (fp_line (start 10.1 27.56) (end 10.1 28.32) (layer "F.SilkS") (width 0.12) (tstamp 6b05a2a2-eb49-4bbb-a828-a6b0ae696d89))
  (fp_line (start 1.042929 9.78) (end 1.44 9.78) (layer "F.SilkS") (width 0.12) (tstamp 6b3a6430-f3ff-47bd-b7c5-7ddc2fe49eaf))
  (fp_line (start 10.1 4.7) (end 10.1 5.46) (layer "F.SilkS") (width 0.12) (tstamp 6e48acb3-f0d7-40a3-9a81-5903a689c2b9))
  (fp_line (start 1.11 -0.38) (end 1.44 -0.38) (layer "F.SilkS") (width 0.12) (tstamp 6f9fd9a9-24e6-4813-a258-a116ab5e756a))
  (fp_line (start 1.042929 17.4) (end 1.44 17.4) (layer "F.SilkS") (width 0.12) (tstamp 7aa3ceb4-37a2-4198-b8a7-c6fd032fdc32))
  (fp_line (start 10.1 12.32) (end 10.1 13.08) (layer "F.SilkS") (width 0.12) (tstamp 85fca09e-e877-4734-ac5d-b53a0330d793))
  (fp_line (start 10.1 15.62) (end 4.1 15.62) (layer "F.SilkS") (width 0.12) (tstamp 8659af62-d880-40b7-a8f0-53f78aa651a6))
  (fp_line (start 10.1 22.48) (end 10.1 23.24) (layer "F.SilkS") (width 0.12) (tstamp 869ab697-454c-4278-a0e9-9263cf4b9ac9))
  (fp_line (start 4.1 12.32) (end 10.1 12.32) (layer "F.SilkS") (width 0.12) (tstamp 8777a5fc-b8aa-4f2e-b86a-ee319833ce88))
  (fp_line (start 4.1 0.16) (end 10.1 0.16) (layer "F.SilkS") (width 0.12) (tstamp 8ef1f8ec-ff4b-4d1f-ac7b-123927f5c851))
  (fp_line (start 10.1 40.26) (end 10.1 41.02) (layer "F.SilkS") (width 0.12) (tstamp 909fb27b-2cce-4e66-ae59-5cb7aa5e4130))
  (fp_line (start 10.1 38.48) (end 4.1 38.48) (layer "F.SilkS") (width 0.12) (tstamp 90a06e41-a60f-4a14-b4f9-a772feff23b5))
  (fp_line (start 1.042929 37.72) (end 1.44 37.72) (layer "F.SilkS") (width 0.12) (tstamp 9168f8a4-3c2d-420c-a001-d620c7f74f46))
  (fp_line (start 4.1 32.64) (end 10.1 32.64) (layer "F.SilkS") (width 0.12) (tstamp 922865a3-ca39-4ab4-8277-fc5f1ca18a15))
  (fp_line (start 10.1 10.54) (end 4.1 10.54) (layer "F.SilkS") (width 0.12) (tstamp 934ffcce-9825-47e8-96cf-e4eab4d232f1))
  (fp_line (start 1.042929 43.56) (end 1.44 43.56) (layer "F.SilkS") (width 0.12) (tstamp 94f6eac9-142e-4374-8873-a1c9f614be7f))
  (fp_line (start 1.44 39.37) (end 4.1 39.37) (layer "F.SilkS") (width 0.12) (tstamp 9607772a-0e55-4e6c-8c12-835b8d5ddbfd))
  (fp_line (start 10.1 18.16) (end 4.1 18.16) (layer "F.SilkS") (width 0.12) (tstamp 963a51ac-fec8-495c-8cfe-5ace63ebb1b4))
  (fp_line (start -1.27 -1.27) (end 0 -1.27) (layer "F.SilkS") (width 0.12) (tstamp 9644ca7c-774e-489a-9dc8-c06ca0122731))
  (fp_line (start 1.042929 20.7) (end 1.44 20.7) (layer "F.SilkS") (width 0.12) (tstamp 990b2480-033a-4d20-9155-fb75ca4f70d8))
  (fp_line (start 1.042929 30.86) (end 1.44 30.86) (layer "F.SilkS") (width 0.12) (tstamp 9c13bc40-606c-484f-8670-0b1cddf86175))
  (fp_line (start 10.1 30.86) (end 4.1 30.86) (layer "F.SilkS") (width 0.12) (tstamp 9eeee1ac-e59e-4607-9f71-baf33e26dd24))
  (fp_line (start 1.042929 23.24) (end 1.44 23.24) (layer "F.SilkS") (width 0.12) (tstamp a1d0209d-1a92-4e95-be9b-d6bae7623321))
  (fp_line (start 1.44 19.05) (end 4.1 19.05) (layer "F.SilkS") (width 0.12) (tstamp a4bd9d08-ca5a-4bf4-9f50-9f072c7b1af7))
  (fp_line (start 10.1 32.64) (end 10.1 33.4) (layer "F.SilkS") (width 0.12) (tstamp a695db87-d60d-4a3e-81f7-0fdfa87c5d5d))
  (fp_line (start 4.1 40.26) (end 10.1 40.26) (layer "F.SilkS") (width 0.12) (tstamp a6a1f972-e2dd-4a70-a037-d902b2727b06))
  (fp_line (start 4.1 2.16) (end 10.1 2.16) (layer "F.SilkS") (width 0.12) (tstamp a87e0a78-e593-472b-bbcc-b64f5d106a77))
  (fp_line (start 10.1 25.78) (end 4.1 25.78) (layer "F.SilkS") (width 0.12) (tstamp aa289e83-00f2-4a6b-9bd8-37484f7e7913))
  (fp_line (start 4.1 -0.08) (end 10.1 -0.08) (layer "F.SilkS") (width 0.12) (tstamp aaf02b56-dada-4d63-8810-9d10de988d71))
  (fp_line (start 10.1 14.86) (end 10.1 15.62) (layer "F.SilkS") (width 0.12) (tstamp ae173fa5-83b1-4013-be88-22b360bf4d1d))
  (fp_line (start 1.042929 33.4) (end 1.44 33.4) (layer "F.SilkS") (width 0.12) (tstamp aee4a749-2126-4049-90bf-f969d2c77dbd))
  (fp_line (start 1.042929 35.94) (end 1.44 35.94) (layer "F.SilkS") (width 0.12) (tstamp b0fcd947-a4e5-497f-9327-b3681f3e6154))
  (fp_line (start 1.042929 14.86) (end 1.44 14.86) (layer "F.SilkS") (width 0.12) (tstamp b296ddfb-a6f8-421e-bd92-5d3a2c902813))
  (fp_line (start 1.042929 22.48) (end 1.44 22.48) (layer "F.SilkS") (width 0.12) (tstamp b477b4a7-edb4-4288-85a3-01d7d065b22e))
  (fp_line (start 1.44 -1.33) (end 1.44 44.51) (layer "F.SilkS") (width 0.12) (tstamp b5c5f112-cdcc-4f3d-8671-0a0e0050ef72))
  (fp_line (start 10.1 2.92) (end 4.1 2.92) (layer "F.SilkS") (width 0.12) (tstamp b6d3ebb3-9cb9-494d-a1e1-b1c2c70ab053))
  (fp_line (start 1.042929 28.32) (end 1.44 28.32) (layer "F.SilkS") (width 0.12) (tstamp bb285a63-054a-4123-a8b9-9834f14017de))
  (fp_line (start 1.042929 35.18) (end 1.44 35.18) (layer "F.SilkS") (width 0.12) (tstamp bbe103f4-0448-427c-bcc7-11ddbad8c00f))
  (fp_line (start 1.44 8.89) (end 4.1 8.89) (layer "F.SilkS") (width 0.12) (tstamp bce964bb-547b-4ee7-bf8d-060449a74db8))
  (fp_line (start 1.042929 2.16) (end 1.44 2.16) (layer "F.SilkS") (width 0.12) (tstamp bd971db7-c3c0-4090-92dd-b41938154558))
  (fp_line (start 1.44 21.59) (end 4.1 21.59) (layer "F.SilkS") (width 0.12) (tstamp c0932636-486b-42e1-9370-3d46c217fcf2))
  (fp_line (start 4.1 0.04) (end 10.1 0.04) (layer "F.SilkS") (width 0.12) (tstamp c21ec333-6692-42f2-bcd4-f79edd1bf997))
  (fp_line (start 1.44 34.29) (end 4.1 34.29) (layer "F.SilkS") (width 0.12) (tstamp c43c1deb-9fdd-4e33-9c33-8236ee0c3ab3))
  (fp_line (start 10.1 17.4) (end 10.1 18.16) (layer "F.SilkS") (width 0.12) (tstamp c75c46f4-954c-46a8-ad1c-1a5168b9820b))
  (fp_line (start 10.1 37.72) (end 10.1 38.48) (layer "F.SilkS") (width 0.12) (tstamp c77d6712-2d87-4dff-a1fd-667971c03da2))
  (fp_line (start 4.1 19.94) (end 10.1 19.94) (layer "F.SilkS") (width 0.12) (tstamp c7d5d156-38f4-4a62-8077-eaa8f35be25a))
  (fp_line (start 4.1 42.8) (end 10.1 42.8) (layer "F.SilkS") (width 0.12) (tstamp c7ebdfd2-c00b-484d-866e-c10ea5108b5e))
  (fp_line (start 1.44 11.43) (end 4.1 11.43) (layer "F.SilkS") (width 0.12) (tstamp c856f0d4-28d3-43ba-9f07-3c63e3f7e023))
  (fp_line (start -1.27 0) (end -1.27 -1.27) (layer "F.SilkS") (width 0.12) (tstamp cabcaff3-5411-486a-8a06-c9adeefb014e))
  (fp_line (start 1.44 1.27) (end 4.1 1.27) (layer "F.SilkS") (width 0.12) (tstamp d0eace10-d27e-48fd-bed8-c0b6880698be))
  (fp_line (start 1.042929 12.32) (end 1.44 12.32) (layer "F.SilkS") (width 0.12) (tstamp d8069b67-5a23-433f-9233-edef88a197db))
  (fp_line (start 4.1 44.51) (end 4.1 -1.33) (layer "F.SilkS") (width 0.12) (tstamp da0ebe5e-e538-4c6b-89f4-8f985b2ac9fa))
  (fp_line (start 4.1 37.72) (end 10.1 37.72) (layer "F.SilkS") (width 0.12) (tstamp db1869d0-4276-4b41-8e70-cec375b218fd))
  (fp_line (start 4.1 17.4) (end 10.1 17.4) (layer "F.SilkS") (width 0.12) (tstamp de247068-a404-49cf-adc3-4e5251c941f7))
  (fp_line (start 1.042929 41.02) (end 1.44 41.02) (layer "F.SilkS") (width 0.12) (tstamp df6173c0-5321-4b21-9daf-30c7fbb6fa22))
  (fp_line (start 1.042929 4.7) (end 1.44 4.7) (layer "F.SilkS") (width 0.12) (tstamp e37e7284-7e72-4b99-b0c7-44f426b8f668))
  (fp_line (start 1.042929 2.92) (end 1.44 2.92) (layer "F.SilkS") (width 0.12) (tstamp e5444793-00d2-45bd-94ba-5cd1b57d4e26))
  (fp_line (start 10.1 33.4) (end 4.1 33.4) (layer "F.SilkS") (width 0.12) (tstamp e6abfbf4-9549-402b-b43c-616b3dafc25a))
  (fp_line (start 1.042929 15.62) (end 1.44 15.62) (layer "F.SilkS") (width 0.12) (tstamp eaa2e56f-dba7-4d1a-8c6f-47b8ae444fe5))
  (fp_line (start 10.1 30.1) (end 10.1 30.86) (layer "F.SilkS") (width 0.12) (tstamp eec7936f-cbf3-4273-b39c-68b234096034))
  (fp_line (start 1.44 31.75) (end 4.1 31.75) (layer "F.SilkS") (width 0.12) (tstamp efbf14a1-9e56-446a-a82f-f1e08c258b2a))
  (fp_line (start 1.11 0.38) (end 1.44 0.38) (layer "F.SilkS") (width 0.12) (tstamp f59151f3-2558-414f-98a0-65e463a08fa6))
  (fp_line (start 1.042929 13.08) (end 1.44 13.08) (layer "F.SilkS") (width 0.12) (tstamp f6a87481-f22c-4d6a-bf3b-8feede8b218e))
  (fp_line (start 4.1 35.18) (end 10.1 35.18) (layer "F.SilkS") (width 0.12) (tstamp f91974ca-d1e1-4112-a074-ee9be01380a9))
  (fp_line (start 10.1 42.8) (end 10.1 43.56) (layer "F.SilkS") (width 0.12) (tstamp fa611769-dcd9-4bd3-961b-e645e749b131))
  (fp_line (start 4.1 4.7) (end 10.1 4.7) (layer "F.SilkS") (width 0.12) (tstamp fca2ff34-1e99-4fa5-af2d-3214409f5a4c))
  (fp_line (start 10.55 44.95) (end 10.55 -1.8) (layer "F.CrtYd") (width 0.05) (tstamp 27dddf78-b10f-4bf6-996d-b8463f5da2f5))
  (fp_line (start -1.8 -1.8) (end -1.8 44.95) (layer "F.CrtYd") (width 0.05) (tstamp 2fa30166-a62a-4836-9efe-9e28f76ea7bc))
  (fp_line (start 10.55 -1.8) (end -1.8 -1.8) (layer "F.CrtYd") (width 0.05) (tstamp 452893f8-a1e2-44dd-a8fc-2f25292b8bed))
  (fp_line (start -1.8 44.95) (end 10.55 44.95) (layer "F.CrtYd") (width 0.05) (tstamp 59fba7ed-639d-423a-9e4a-e809cc06475e))
  (fp_line (start 10.04 -0.32) (end 10.04 0.32) (layer "F.Fab") (width 0.1) (tstamp 017beb10-bb4d-4587-aaea-0431446e68c1))
  (fp_line (start 4.04 0.32) (end 10.04 0.32) (layer "F.Fab") (width 0.1) (tstamp 033fe8eb-aacd-4253-ba39-22d80adde906))
  (fp_line (start -0.32 38.42) (end 1.5 38.42) (layer "F.Fab") (width 0.1) (tstamp 03c45f78-416d-4bf6-8e31-fad3b21f8306))
  (fp_line (start 4.04 28.26) (end 10.04 28.26) (layer "F.Fab") (width 0.1) (tstamp 08b5ee99-ae29-478c-8684-80a075b2e082))
  (fp_line (start -0.32 27.62) (end 1.5 27.62) (layer "F.Fab") (width 0.1) (tstamp 08ec6542-9d2a-49dd-8fcc-58c5f347b02a))
  (fp_line (start -0.32 7.3) (end -0.32 7.94) (layer "F.Fab") (width 0.1) (tstamp 0947d3dc-f29e-48bc-abba-0e83d332348c))
  (fp_line (start 4.04 20.64) (end 10.04 20.64) (layer "F.Fab") (width 0.1) (tstamp 149e9034-1b30-42b6-91af-7c5ce8afd04e))
  (fp_line (start -0.32 12.38) (end 1.5 12.38) (layer "F.Fab") (width 0.1) (tstamp 14dac831-4eca-4804-8dc6-40510ea678ed))
  (fp_line (start -0.32 42.86) (end 1.5 42.86) (layer "F.Fab") (width 0.1) (tstamp 163f2b7a-63b5-4a04-ab3c-1554ae586bfe))
  (fp_line (start -0.32 -0.32) (end 1.5 -0.32) (layer "F.Fab") (width 0.1) (tstamp 169fb7f1-6163-49b4-af5e-506895066592))
  (fp_line (start 10.04 22.54) (end 10.04 23.18) (layer "F.Fab") (width 0.1) (tstamp 177fe4cf-87aa-4851-903b-bf476f577408))
  (fp_line (start -0.32 25.08) (end -0.32 25.72) (layer "F.Fab") (width 0.1) (tstamp 194ef7ce-6f57-458c-9c1b-3014751ddd59))
  (fp_line (start 1.5 44.45) (end 1.5 -0.635) (layer "F.Fab") (width 0.1) (tstamp 1a6371c3-9579-4590-810d-bf132c821498))
  (fp_line (start -0.32 25.08) (end 1.5 25.08) (layer "F.Fab") (width 0.1) (tstamp 1b1f9a52-ce75-4640-a024-504684696423))
  (fp_line (start 4.04 40.96) (end 10.04 40.96) (layer "F.Fab") (width 0.1) (tstamp 2032058a-8299-4336-a0c9-e5ad115c15ef))
  (fp_line (start -0.32 20.64) (end 1.5 20.64) (layer "F.Fab") (width 0.1) (tstamp 24b2e5cb-d32a-47fa-8079-10098f6574fe))
  (fp_line (start 4.04 13.02) (end 10.04 13.02) (layer "F.Fab") (width 0.1) (tstamp 24be5cb2-40ba-4da3-a1c8-cd0367dee3eb))
  (fp_line (start -0.32 13.02) (end 1.5 13.02) (layer "F.Fab") (width 0.1) (tstamp 2712bb45-982d-46c5-8d86-dde38f3cf808))
  (fp_line (start 10.04 9.84) (end 10.04 10.48) (layer "F.Fab") (width 0.1) (tstamp 27eafc6c-b8de-4c77-908f-31d564f8b3de))
  (fp_line (start -0.32 0.32) (end 1.5 0.32) (layer "F.Fab") (width 0.1) (tstamp 28de9d54-fecd-4479-ad2f-f72dab04ab8e))
  (fp_line (start -0.32 37.78) (end -0.32 38.42) (layer "F.Fab") (width 0.1) (tstamp 295a14d7-18af-41cf-85e7-ddfc90b4f23f))
  (fp_line (start -0.32 40.32) (end 1.5 40.32) (layer "F.Fab") (width 0.1) (tstamp 2fdc4366-8222-4f4d-b156-25d1650d0b5e))
  (fp_line (start 4.04 2.22) (end 10.04 2.22) (layer "F.Fab") (width 0.1) (tstamp 3323dd2e-4727-4b95-b732-b16c709d911d))
  (fp_line (start -0.32 22.54) (end -0.32 23.18) (layer "F.Fab") (width 0.1) (tstamp 35ab5b78-aa8e-4255-a44e-7809e24801d2))
  (fp_line (start 10.04 25.08) (end 10.04 25.72) (layer "F.Fab") (width 0.1) (tstamp 36099f08-164c-42c6-9759-034e9a117c38))
  (fp_line (start -0.32 17.46) (end 1.5 17.46) (layer "F.Fab") (width 0.1) (tstamp 36c90928-f90c-46f2-9939-70bf37676f2d))
  (fp_line (start -0.32 40.96) (end 1.5 40.96) (layer "F.Fab") (width 0.1) (tstamp 384682b9-7456-46c2-8ca7-69677b5a0bfe))
  (fp_line (start -0.32 4.76) (end -0.32 5.4) (layer "F.Fab") (width 0.1) (tstamp 3e95c7dc-4e16-44e5-9016-996fe0f251e8))
  (fp_line (start 4.04 23.18) (end 10.04 23.18) (layer "F.Fab") (width 0.1) (tstamp 430bf392-4e53-4ece-86d6-69467ae08143))
  (fp_line (start 4.04 -0.32) (end 10.04 -0.32) (layer "F.Fab") (width 0.1) (tstamp 45601ce6-33bb-471b-807f-e7eea5f7be34))
  (fp_line (start 4.04 7.3) (end 10.04 7.3) (layer "F.Fab") (width 0.1) (tstamp 46bd9d41-4b47-45d6-b0c1-537ed8d02bbd))
  (fp_line (start 4.04 43.5) (end 10.04 43.5) (layer "F.Fab") (width 0.1) (tstamp 473ff726-01b4-4481-924f-b8af17dfbd47))
  (fp_line (start 4.04 4.76) (end 10.04 4.76) (layer "F.Fab") (width 0.1) (tstamp 488e5f55-21f4-4e08-ad5d-a6c0893eec1d))
  (fp_line (start 4.04 15.56) (end 10.04 15.56) (layer "F.Fab") (width 0.1) (tstamp 49a6ad0b-3f16-47fc-8d94-6f0fc2620886))
  (fp_line (start 10.04 30.16) (end 10.04 30.8) (layer "F.Fab") (width 0.1) (tstamp 4b2d508e-4a81-4b50-bd11-65bbbf9f0753))
  (fp_line (start 4.04 44.45) (end 1.5 44.45) (layer "F.Fab") (width 0.1) (tstamp 4da77c56-013a-4a96-b41f-412a29108afc))
  (fp_line (start -0.32 4.76) (end 1.5 4.76) (layer "F.Fab") (width 0.1) (tstamp 4e1f487f-78ae-4892-b617-faf69f611eb4))
  (fp_line (start 10.04 17.46) (end 10.04 18.1) (layer "F.Fab") (width 0.1) (tstamp 4f70aa39-1c11-4590-b80c-ec89fa8477b5))
  (fp_line (start 10.04 35.24) (end 10.04 35.88) (layer "F.Fab") (width 0.1) (tstamp 50f05e58-f913-4ffa-9e0f-b26d75d5851c))
  (fp_line (start -0.32 32.7) (end -0.32 33.34) (layer "F.Fab") (width 0.1) (tstamp 525ecb6a-5274-479d-9cb9-6fc70477095d))
  (fp_line (start 4.04 25.08) (end 10.04 25.08) (layer "F.Fab") (width 0.1) (tstamp 5871163b-efbd-4945-9bbe-717e68560c60))
  (fp_line (start 4.04 -1.27) (end 4.04 44.45) (layer "F.Fab") (width 0.1) (tstamp 58d0595b-8084-49b8-8bcc-eafb4d56ee81))
  (fp_line (start -0.32 37.78) (end 1.5 37.78) (layer "F.Fab") (width 0.1) (tstamp 597c9c60-95a9-44f4-8bed-70a2465ea3a5))
  (fp_line (start 10.04 42.86) (end 10.04 43.5) (layer "F.Fab") (width 0.1) (tstamp 5a08dacb-df8c-467c-98b7-891445869396))
  (fp_line (start -0.32 20) (end 1.5 20) (layer "F.Fab") (width 0.1) (tstamp 5aa6c76c-f17d-4ce1-9bf1-efd95b6460fc))
  (fp_line (start -0.32 42.86) (end -0.32 43.5) (layer "F.Fab") (width 0.1) (tstamp 63726ac4-57ab-49e8-a794-a4b75ae1ad70))
  (fp_line (start 4.04 27.62) (end 10.04 27.62) (layer "F.Fab") (width 0.1) (tstamp 6931f6c1-e9ff-40c3-860a-cbf8cf8a21f2))
  (fp_line (start 10.04 14.92) (end 10.04 15.56) (layer "F.Fab") (width 0.1) (tstamp 6d598bb1-8659-46c7-8cc3-6500547bce6f))
  (fp_line (start -0.32 9.84) (end 1.5 9.84) (layer "F.Fab") (width 0.1) (tstamp 6e2e6bcd-eba4-4bd4-8568-9b266dec734a))
  (fp_line (start 4.04 35.88) (end 10.04 35.88) (layer "F.Fab") (width 0.1) (tstamp 6e2ef500-64a0-4932-a57c-a74e5fdb0a12))
  (fp_line (start 4.04 42.86) (end 10.04 42.86) (layer "F.Fab") (width 0.1) (tstamp 6ec6606f-b84a-4aec-9c95-8e5ea7d1b1a0))
  (fp_line (start 10.04 12.38) (end 10.04 13.02) (layer "F.Fab") (width 0.1) (tstamp 6f09f9b8-00ad-4d30-a5b9-0fe2d5118c3f))
  (fp_line (start -0.32 30.8) (end 1.5 30.8) (layer "F.Fab") (width 0.1) (tstamp 7199217e-6cc1-4d89-b257-e353dd0c2179))
  (fp_line (start 10.04 32.7) (end 10.04 33.34) (layer "F.Fab") (width 0.1) (tstamp 71d548f6-ddf9-4741-826c-8660594dde6f))
  (fp_line (start 4.04 17.46) (end 10.04 17.46) (layer "F.Fab") (width 0.1) (tstamp 7215c776-53f4-4158-944d-0512fae68697))
  (fp_line (start -0.32 14.92) (end -0.32 15.56) (layer "F.Fab") (width 0.1) (tstamp 72641bc1-7713-4650-8f45-2224c59c5157))
  (fp_line (start 4.04 14.92) (end 10.04 14.92) (layer "F.Fab") (width 0.1) (tstamp 72b84c24-96fc-4743-8dc7-34ee2a70cb40))
  (fp_line (start -0.32 35.88) (end 1.5 35.88) (layer "F.Fab") (width 0.1) (tstamp 74df4d32-de49-43b4-bca3-b368f1e4a7a9))
  (fp_line (start -0.32 35.24) (end 1.5 35.24) (layer "F.Fab") (width 0.1) (tstamp 75477c43-dbfc-4f3a-a4ce-72a1ff6c22f8))
  (fp_line (start 4.04 25.72) (end 10.04 25.72) (layer "F.Fab") (width 0.1) (tstamp 7a37a859-76ce-47e0-b51c-df165bbf0702))
  (fp_line (start -0.32 40.32) (end -0.32 40.96) (layer "F.Fab") (width 0.1) (tstamp 7b8cd364-19a4-4a18-8eb0-dfc58d484258))
  (fp_line (start -0.32 5.4) (end 1.5 5.4) (layer "F.Fab") (width 0.1) (tstamp 7fefaaac-1996-4fe9-b0fa-13a76c69f843))
  (fp_line (start -0.32 7.3) (end 1.5 7.3) (layer "F.Fab") (width 0.1) (tstamp 83530c00-ca84-401b-ac48-cd68b93be898))
  (fp_line (start -0.32 30.16) (end -0.32 30.8) (layer "F.Fab") (width 0.1) (tstamp 83ea222c-0150-4151-ae66-cd1ffb314759))
  (fp_line (start 4.04 12.38) (end 10.04 12.38) (layer "F.Fab") (width 0.1) (tstamp 92c7f8db-faa4-4790-84ff-767562229639))
  (fp_line (start -0.32 18.1) (end 1.5 18.1) (layer "F.Fab") (width 0.1) (tstamp 97502776-cf37-4fa7-bcb6-8eabe0f1bb92))
  (fp_line (start 10.04 40.32) (end 10.04 40.96) (layer "F.Fab") (width 0.1) (tstamp 993a886d-88e7-4272-a16a-2487d445c2aa))
  (fp_line (start -0.32 7.94) (end 1.5 7.94) (layer "F.Fab") (width 0.1) (tstamp 9cdb5ae6-d609-471e-9f6a-359df1333603))
  (fp_line (start 4.04 18.1) (end 10.04 18.1) (layer "F.Fab") (width 0.1) (tstamp a05388e0-48ba-4405-bd09-699575e9d06e))
  (fp_line (start 4.04 37.78) (end 10.04 37.78) (layer "F.Fab") (width 0.1) (tstamp a215113b-ba07-4afe-b2a4-b05a83c5a7a6))
  (fp_line (start -0.32 14.92) (end 1.5 14.92) (layer "F.Fab") (width 0.1) (tstamp a57ef853-4e14-4f82-98f1-5c4c73f62b04))
  (fp_line (start 2.135 -1.27) (end 4.04 -1.27) (layer "F.Fab") (width 0.1) (tstamp a6ed8775-a9ee-40fe-bbb0-b56245c2b1bc))
  (fp_line (start 4.04 22.54) (end 10.04 22.54) (layer "F.Fab") (width 0.1) (tstamp aab80e3f-1b95-4ad4-97e2-bc5add73e75c))
  (fp_line (start -0.32 10.48) (end 1.5 10.48) (layer "F.Fab") (width 0.1) (tstamp aba5869c-3bd0-4c90-97ca-5cdd87f87c99))
  (fp_line (start 4.04 2.86) (end 10.04 2.86) (layer "F.Fab") (width 0.1) (tstamp afde05bd-08f9-433f-84c2-690361e1f7d8))
  (fp_line (start -0.32 2.86) (end 1.5 2.86) (layer "F.Fab") (width 0.1) (tstamp b00ffb32-86d8-45b3-8766-5fb769b05dd3))
  (fp_line (start 4.04 35.24) (end 10.04 35.24) (layer "F.Fab") (width 0.1) (tstamp b32026bb-2b93-4b75-b728-a00e4470f1a5))
  (fp_line (start 10.04 4.76) (end 10.04 5.4) (layer "F.Fab") (width 0.1) (tstamp b37b6df9-36ef-4810-8474-9fdb8655c7b6))
  (fp_line (start -0.32 43.5) (end 1.5 43.5) (layer "F.Fab") (width 0.1) (tstamp b57b0613-c0ae-439d-95ff-461fc531ffb9))
  (fp_line (start -0.32 15.56) (end 1.5 15.56) (layer "F.Fab") (width 0.1) (tstamp b6a59a9e-acb2-4f3a-81d3-3f3a466c12d0))
  (fp_line (start 10.04 7.3) (end 10.04 7.94) (layer "F.Fab") (width 0.1) (tstamp b6c3f580-8f1e-4b31-bac3-4c341dfe3d77))
  (fp_line (start 4.04 9.84) (end 10.04 9.84) (layer "F.Fab") (width 0.1) (tstamp b6dc73c7-e4d1-4a4f-b29b-d1d322272a6d))
  (fp_line (start -0.32 25.72) (end 1.5 25.72) (layer "F.Fab") (width 0.1) (tstamp b9775922-16ff-4b84-a7e1-eca3c03eccb3))
  (fp_line (start -0.32 22.54) (end 1.5 22.54) (layer "F.Fab") (width 0.1) (tstamp bc58fa95-168f-4430-9af2-fa3bd90cebb2))
  (fp_line (start -0.32 17.46) (end -0.32 18.1) (layer "F.Fab") (width 0.1) (tstamp bccbc03e-6556-4d93-b073-7151d576abfb))
  (fp_line (start 10.04 37.78) (end 10.04 38.42) (layer "F.Fab") (width 0.1) (tstamp bd49fca3-68ef-4593-b006-b1bafa879f07))
  (fp_line (start -0.32 28.26) (end 1.5 28.26) (layer "F.Fab") (width 0.1) (tstamp c0b260b4-be70-477e-be93-0c456eaea3cb))
  (fp_line (start 4.04 30.16) (end 10.04 30.16) (layer "F.Fab") (width 0.1) (tstamp c231a89b-6d8b-45c9-b771-e12bb28e53f7))
  (fp_line (start 4.04 30.8) (end 10.04 30.8) (layer "F.Fab") (width 0.1) (tstamp c2abeba0-20b1-4322-9183-cb55ff432a3b))
  (fp_line (start 10.04 27.62) (end 10.04 28.26) (layer "F.Fab") (width 0.1) (tstamp c2e96c14-d161-4a98-8183-40df21536d91))
  (fp_line (start -0.32 35.24) (end -0.32 35.88) (layer "F.Fab") (width 0.1) (tstamp cadec078-4686-4c6d-8e4e-dc7bccf28000))
  (fp_line (start 4.04 5.4) (end 10.04 5.4) (layer "F.Fab") (width 0.1) (tstamp cc540e97-00ba-4eb7-aab4-dd1c45307f0e))
  (fp_line (start 4.04 32.7) (end 10.04 32.7) (layer "F.Fab") (width 0.1) (tstamp d0d63832-f1ca-4609-9fd7-770b522cf7f0))
  (fp_line (start 1.5 -0.635) (end 2.135 -1.27) (layer "F.Fab") (width 0.1) (tstamp d255e204-e786-4e7a-a827-eee597566af2))
  (fp_line (start -0.32 20) (end -0.32 20.64) (layer "F.Fab") (width 0.1) (tstamp d35117ac-1e6a-4cc7-ab68-fd2ddf21aa4f))
  (fp_line (start 4.04 33.34) (end 10.04 33.34) (layer "F.Fab") (width 0.1) (tstamp d4834e9c-9cdd-4b8a-ad40-9767538d43a1))
  (fp_line (start -0.32 27.62) (end -0.32 28.26) (layer "F.Fab") (width 0.1) (tstamp d5dc7ac6-cb38-4eb1-bf52-cd4df13d4a42))
  (fp_line (start 10.04 20) (end 10.04 20.64) (layer "F.Fab") (width 0.1) (tstamp d64238c7-f5d4-4a3f-b6f2-1ff5d805e7e9))
  (fp_line (start -0.32 23.18) (end 1.5 23.18) (layer "F.Fab") (width 0.1) (tstamp d8d586da-08f9-424b-bdf5-d327ba8764fb))
  (fp_line (start -0.32 30.16) (end 1.5 30.16) (layer "F.Fab") (width 0.1) (tstamp dba6d52b-5874-4c04-a5d6-866d3d8173f0))
  (fp_line (start -0.32 33.34) (end 1.5 33.34) (layer "F.Fab") (width 0.1) (tstamp dbfa888a-93ba-40c2-944a-d3481e173278))
  (fp_line (start -0.32 32.7) (end 1.5 32.7) (layer "F.Fab") (width 0.1) (tstamp ddde3b60-b060-49a3-bbbc-cbfe613926a0))
  (fp_line (start 4.04 7.94) (end 10.04 7.94) (layer "F.Fab") (width 0.1) (tstamp e2614269-bf7b-4f79-9373-6a3689351cbb))
  (fp_line (start -0.32 9.84) (end -0.32 10.48) (layer "F.Fab") (width 0.1) (tstamp e98f7800-14bc-46d6-9772-bd3f54e02fd8))
  (fp_line (start -0.32 12.38) (end -0.32 13.02) (layer "F.Fab") (width 0.1) (tstamp eaf8532b-d820-4eb1-9b3b-adca8acc21f8))
  (fp_line (start 4.04 10.48) (end 10.04 10.48) (layer "F.Fab") (width 0.1) (tstamp ecacc6bd-7c72-4a4a-9c27-8a9652ad72be))
  (fp_line (start -0.32 2.22) (end 1.5 2.22) (layer "F.Fab") (width 0.1) (tstamp edaf09ea-b8b9-4d8b-a4cd-08972e0332ee))
  (fp_line (start -0.32 2.22) (end -0.32 2.86) (layer "F.Fab") (width 0.1) (tstamp f1c396ea-3929-4a26-b6f5-d4611bbd6105))
  (fp_line (start 4.04 38.42) (end 10.04 38.42) (layer "F.Fab") (width 0.1) (tstamp f45c7a25-cd87-40ab-9c67-e453c0c53a99))
  (fp_line (start -0.32 -0.32) (end -0.32 0.32) (layer "F.Fab") (width 0.1) (tstamp f479b09a-a915-4566-81ba-776762e8b69f))
  (fp_line (start 4.04 20) (end 10.04 20) (layer "F.Fab") (width 0.1) (tstamp f59a10c3-1c25-4b9f-993e-09b41f8f1746))
  (fp_line (start 10.04 2.22) (end 10.04 2.86) (layer "F.Fab") (width 0.1) (tstamp f7c6d399-7585-4662-9cc7-90fc60673800))
  (fp_line (start 4.04 40.32) (end 10.04 40.32) (layer "F.Fab") (width 0.1) (tstamp facef53b-26ee-49e3-bc7d-93ac4c9eff58))
  (pad "1" thru_hole rect (at 0 0) (size 2.1 2.1) (drill 1) (layers *.Cu *.Mask) (tstamp 1d387f34-dfc4-471d-a8db-f8274a47f32e))
  (pad "2" thru_hole oval (at 0 2.54) (size 2.1 2.1) (drill 1) (layers *.Cu *.Mask) (tstamp 200f4e09-194f-487e-9a36-4154a743c926))
  (pad "3" thru_hole oval (at 0 5.08) (size 2.1 2.1) (drill 1) (layers *.Cu *.Mask) (tstamp 6c3435ff-2abb-4420-bb22-290fada5afbc))
  (pad "4" thru_hole oval (at 0 7.62) (size 2.1 2.1) (drill 1) (layers *.Cu *.Mask) (tstamp 694c9e6d-9b1a-434f-9eb5-ffd36514bb92))
  (pad "5" thru_hole oval (at 0 10.16) (size 2.1 2.1) (drill 1) (layers *.Cu *.Mask) (tstamp 0df0f3fb-46eb-4ceb-8796-547a34ff4499))
  (pad "6" thru_hole oval (at 0 12.7) (size 2.1 2.1) (drill 1) (layers *.Cu *.Mask) (tstamp 66dbc8c1-d595-4e85-9490-b4a231ab6a3a))
  (pad "7" thru_hole oval (at 0 15.24) (size 2.1 2.1) (drill 1) (layers *.Cu *.Mask) (tstamp 5bbade6f-44a3-4b18-90c7-db330e308b61))
  (pad "8" thru_hole oval (at 0 17.78) (size 2.1 2.1) (drill 1) (layers *.Cu *.Mask) (tstamp 16b043b6-9fe9-4be0-94fb-150538770341))
  (pad "9" thru_hole oval (at 0 20.32) (size 2.1 2.1) (drill 1) (layers *.Cu *.Mask) (tstamp 872f8b8d-1a2c-492d-84e4-f11eb0b2b3ee))
  (pad "10" thru_hole oval (at 0 22.86) (size 2.1 2.1) (drill 1) (layers *.Cu *.Mask) (tstamp 40bd895d-29a4-4d98-8f7e-2c67de42f1cb))
  (pad "11" thru_hole oval (at 0 25.4) (size 2.1 2.1) (drill 1) (layers *.Cu *.Mask) (tstamp 32008f75-2e8a-4c2a-963e-686a2b474a3e))
  (pad "12" thru_hole oval (at 0 27.94) (size 2.1 2.1) (drill 1) (layers *.Cu *.Mask) (tstamp 7ce0fb32-71b1-4175-b5be-30da70761dc7))
  (pad "13" thru_hole oval (at 0 30.48) (size 2.1 2.1) (drill 1) (layers *.Cu *.Mask) (tstamp 221271c9-5cfc-48b6-bd77-d264773ade78))
  (pad "14" thru_hole oval (at 0 33.02) (size 2.1 2.1) (drill 1) (layers *.Cu *.Mask) (tstamp 233daeca-e766-4716-82b8-01133544e10b))
  (pad "15" thru_hole oval (at 0 35.56) (size 2.1 2.1) (drill 1) (layers *.Cu *.Mask) (tstamp 4c756d04-907c-407a-9599-1a077e552888))
  (pad "16" thru_hole oval (at 0 38.1) (size 2.1 2.1) (drill 1) (layers *.Cu *.Mask) (tstamp 2a13d970-a3a0-4986-867b-1ac7bfa33034))
  (pad "17" thru_hole oval (at 0 40.64) (size 2.1 2.1) (drill 1) (layers *.Cu *.Mask) (tstamp 3eb16013-8e8a-483f-8d3e-1c9f42300b11))
  (pad "18" thru_hole oval (at 0 43.18) (size 2.1 2.1) (drill 1) (layers *.Cu *.Mask) (tstamp 78b5acee-59d3-4175-b048-704871ddb566))
  (model "${KICAD6_3DMODEL_DIR}/Connector_PinHeader_2.54mm.3dshapes/PinHeader_1x18_P2.54mm_Horizontal.wrl"
    (offset (xyz 0 0 0))
    (scale (xyz 1 1 1))
    (rotate (xyz 0 0 0))
  )
)
