(footprint "PinHeader_1x39_P2.54mm_Vertical" (version 20211014) (generator pcbnew)
  (layer "F.Cu")
  (tedit 59FED5CC)
  (descr "Through hole straight pin header, 1x39, 2.54mm pitch, single row")
  (tags "Through hole pin header THT 1x39 2.54mm single row")
  (attr through_hole)
  (fp_text reference "REF**" (at 0 -2.33) (layer "F.SilkS")
    (effects (font (size 1 1) (thickness 0.15)))
    (tstamp 3ed982d0-204f-43fd-84de-04051d66185f)
  )
  (fp_text value "PinHeader_1x39_P2.54mm_Vertical" (at 0 98.85) (layer "F.Fab")
    (effects (font (size 1 1) (thickness 0.15)))
    (tstamp d3394676-e5ac-4516-b6e1-276e7903f3b0)
  )
  (fp_text user "${REFERENCE}" (at 0 48.26 90) (layer "F.Fab")
    (effects (font (size 1 1) (thickness 0.15)))
    (tstamp 27f36003-1b43-429c-9314-d183a4eb5c18)
  )
  (fp_line (start -1.33 1.27) (end -1.33 97.85) (layer "F.SilkS") (width 0.12) (tstamp 0ad6a45f-779d-451b-9232-1b2f6a16bff4))
  (fp_line (start -1.33 1.27) (end 1.33 1.27) (layer "F.SilkS") (width 0.12) (tstamp 142e0f48-9b0a-4ee2-a718-d81542d7b556))
  (fp_line (start -1.33 97.85) (end 1.33 97.85) (layer "F.SilkS") (width 0.12) (tstamp 426eb26d-03f1-4af4-a907-db7a8afaf6cd))
  (fp_line (start 1.33 1.27) (end 1.33 97.85) (layer "F.SilkS") (width 0.12) (tstamp 5414668c-fba4-4d10-b327-97cfe7fecba5))
  (fp_line (start -1.33 -1.33) (end 0 -1.33) (layer "F.SilkS") (width 0.12) (tstamp 86ea63d5-18e7-4530-9f9d-c7d4db65c33c))
  (fp_line (start -1.33 0) (end -1.33 -1.33) (layer "F.SilkS") (width 0.12) (tstamp f89856f0-25d9-45ec-984c-8fb7249227b9))
  (fp_line (start 1.8 -1.8) (end -1.8 -1.8) (layer "F.CrtYd") (width 0.05) (tstamp 362fa28c-b876-4c8f-9b72-2c3bd8b4869f))
  (fp_line (start 1.8 98.3) (end 1.8 -1.8) (layer "F.CrtYd") (width 0.05) (tstamp 4c8fabc8-9199-4a94-a887-f3034c2f39ae))
  (fp_line (start -1.8 98.3) (end 1.8 98.3) (layer "F.CrtYd") (width 0.05) (tstamp 75708ed9-a8f5-4a4f-b665-e18c57f424a7))
  (fp_line (start -1.8 -1.8) (end -1.8 98.3) (layer "F.CrtYd") (width 0.05) (tstamp abff5b1b-9265-428c-a66f-01e7b2b2296c))
  (fp_line (start 1.27 -1.27) (end 1.27 97.79) (layer "F.Fab") (width 0.1) (tstamp 6832b3be-72f3-4212-bbcf-fcf9c053d71a))
  (fp_line (start -0.635 -1.27) (end 1.27 -1.27) (layer "F.Fab") (width 0.1) (tstamp 91d4e5ba-2e11-439d-9c38-88389739bc66))
  (fp_line (start 1.27 97.79) (end -1.27 97.79) (layer "F.Fab") (width 0.1) (tstamp ac7a09a2-c614-48c0-a4c2-7a4d8a65a291))
  (fp_line (start -1.27 97.79) (end -1.27 -0.635) (layer "F.Fab") (width 0.1) (tstamp af6e12c5-32f9-4002-9a66-b1ee91499f26))
  (fp_line (start -1.27 -0.635) (end -0.635 -1.27) (layer "F.Fab") (width 0.1) (tstamp b911ef10-fb0c-4e78-abc3-ee3d6af20c03))
  (pad "1" thru_hole rect (at 0 0) (size 2.1 2.1) (drill 1) (layers *.Cu *.Mask) (tstamp 43f35e7d-8691-4950-9dc0-8b9cbb9f1575))
  (pad "2" thru_hole oval (at 0 2.54) (size 2.1 2.1) (drill 1) (layers *.Cu *.Mask) (tstamp e4b84cf5-f342-4e03-8325-dfb73a64febb))
  (pad "3" thru_hole oval (at 0 5.08) (size 2.1 2.1) (drill 1) (layers *.Cu *.Mask) (tstamp 0174179f-464d-450c-9d39-c7cd1efba948))
  (pad "4" thru_hole oval (at 0 7.62) (size 2.1 2.1) (drill 1) (layers *.Cu *.Mask) (tstamp 119321ce-97af-42f5-923e-379dd43efe6a))
  (pad "5" thru_hole oval (at 0 10.16) (size 2.1 2.1) (drill 1) (layers *.Cu *.Mask) (tstamp c40f6b33-19e8-4612-8cd7-e59fd3e1f1e9))
  (pad "6" thru_hole oval (at 0 12.7) (size 2.1 2.1) (drill 1) (layers *.Cu *.Mask) (tstamp 845825ec-3a6b-468c-b5fa-9bd461566529))
  (pad "7" thru_hole oval (at 0 15.24) (size 2.1 2.1) (drill 1) (layers *.Cu *.Mask) (tstamp cb6fb697-1ba3-42ef-835b-81d2d5d26d1e))
  (pad "8" thru_hole oval (at 0 17.78) (size 2.1 2.1) (drill 1) (layers *.Cu *.Mask) (tstamp 04682191-5ab2-441f-b900-86fb2c1e96e7))
  (pad "9" thru_hole oval (at 0 20.32) (size 2.1 2.1) (drill 1) (layers *.Cu *.Mask) (tstamp c9a06d4a-1705-417c-9dd6-8c7954a797fc))
  (pad "10" thru_hole oval (at 0 22.86) (size 2.1 2.1) (drill 1) (layers *.Cu *.Mask) (tstamp 87bb8bb2-bf32-4741-9739-c3613bc2e44c))
  (pad "11" thru_hole oval (at 0 25.4) (size 2.1 2.1) (drill 1) (layers *.Cu *.Mask) (tstamp 2965cf36-809f-44f8-83b4-d2155f56931f))
  (pad "12" thru_hole oval (at 0 27.94) (size 2.1 2.1) (drill 1) (layers *.Cu *.Mask) (tstamp 7e50cb8b-1ac7-4f32-9d2e-359a53e7c93f))
  (pad "13" thru_hole oval (at 0 30.48) (size 2.1 2.1) (drill 1) (layers *.Cu *.Mask) (tstamp c68729fd-bef7-4d8f-9134-efd6f92f8928))
  (pad "14" thru_hole oval (at 0 33.02) (size 2.1 2.1) (drill 1) (layers *.Cu *.Mask) (tstamp 5678de7b-c341-43f3-b6ee-e0f09d8b07e8))
  (pad "15" thru_hole oval (at 0 35.56) (size 2.1 2.1) (drill 1) (layers *.Cu *.Mask) (tstamp 59ccbaa2-7a1c-405a-ab70-98335f294f78))
  (pad "16" thru_hole oval (at 0 38.1) (size 2.1 2.1) (drill 1) (layers *.Cu *.Mask) (tstamp 158d2edd-b36e-496f-8d93-fa3604704bec))
  (pad "17" thru_hole oval (at 0 40.64) (size 2.1 2.1) (drill 1) (layers *.Cu *.Mask) (tstamp 86ca5710-f5ad-4b34-ad20-eef5ad6d08c5))
  (pad "18" thru_hole oval (at 0 43.18) (size 2.1 2.1) (drill 1) (layers *.Cu *.Mask) (tstamp 4177a676-f42f-4ec9-bb3a-5cc77c66505d))
  (pad "19" thru_hole oval (at 0 45.72) (size 2.1 2.1) (drill 1) (layers *.Cu *.Mask) (tstamp 217d6f76-b17b-4faf-b778-b634a0788b65))
  (pad "20" thru_hole oval (at 0 48.26) (size 2.1 2.1) (drill 1) (layers *.Cu *.Mask) (tstamp 1fbb0503-685e-4023-a68b-a31e3e7c0157))
  (pad "21" thru_hole oval (at 0 50.8) (size 2.1 2.1) (drill 1) (layers *.Cu *.Mask) (tstamp 5c8639f1-ece6-4294-97ff-aadc8713440b))
  (pad "22" thru_hole oval (at 0 53.34) (size 2.1 2.1) (drill 1) (layers *.Cu *.Mask) (tstamp 805b459e-c78b-48b2-8e98-f9bca91f53f5))
  (pad "23" thru_hole oval (at 0 55.88) (size 2.1 2.1) (drill 1) (layers *.Cu *.Mask) (tstamp 831efa9f-63cb-4704-a88d-cd7142d175a1))
  (pad "24" thru_hole oval (at 0 58.42) (size 2.1 2.1) (drill 1) (layers *.Cu *.Mask) (tstamp 551e7685-3b74-4fc0-9f9e-52c63efd5cc2))
  (pad "25" thru_hole oval (at 0 60.96) (size 2.1 2.1) (drill 1) (layers *.Cu *.Mask) (tstamp feb3c353-1b6c-405c-9f5e-0f830f437aad))
  (pad "26" thru_hole oval (at 0 63.5) (size 2.1 2.1) (drill 1) (layers *.Cu *.Mask) (tstamp 77691397-692b-427f-a19a-67874580d9cf))
  (pad "27" thru_hole oval (at 0 66.04) (size 2.1 2.1) (drill 1) (layers *.Cu *.Mask) (tstamp 20a2fc10-bb5f-40ad-9ee5-3d2d54cc5a65))
  (pad "28" thru_hole oval (at 0 68.58) (size 2.1 2.1) (drill 1) (layers *.Cu *.Mask) (tstamp 6f06aa0e-a445-43ab-9ea0-cc66c23621a6))
  (pad "29" thru_hole oval (at 0 71.12) (size 2.1 2.1) (drill 1) (layers *.Cu *.Mask) (tstamp d8856e0e-9733-4cf9-98bb-377edfb6f8a2))
  (pad "30" thru_hole oval (at 0 73.66) (size 2.1 2.1) (drill 1) (layers *.Cu *.Mask) (tstamp 9e4eee32-19c0-41c9-8481-35be22a50163))
  (pad "31" thru_hole oval (at 0 76.2) (size 2.1 2.1) (drill 1) (layers *.Cu *.Mask) (tstamp 4e98be58-fd08-442e-b524-4417cd15640b))
  (pad "32" thru_hole oval (at 0 78.74) (size 2.1 2.1) (drill 1) (layers *.Cu *.Mask) (tstamp 5ddcb9f3-6e2a-4433-a400-95d116d8d454))
  (pad "33" thru_hole oval (at 0 81.28) (size 2.1 2.1) (drill 1) (layers *.Cu *.Mask) (tstamp 8d9a1326-80d2-463c-9758-e6500d5faef6))
  (pad "34" thru_hole oval (at 0 83.82) (size 2.1 2.1) (drill 1) (layers *.Cu *.Mask) (tstamp 5559b84d-fd80-4210-b987-969140ad49a2))
  (pad "35" thru_hole oval (at 0 86.36) (size 2.1 2.1) (drill 1) (layers *.Cu *.Mask) (tstamp 7957bc1d-825b-42a2-b446-a4aaff4b7de2))
  (pad "36" thru_hole oval (at 0 88.9) (size 2.1 2.1) (drill 1) (layers *.Cu *.Mask) (tstamp 1e815a73-adc6-43fe-93d2-b3bf535f93d3))
  (pad "37" thru_hole oval (at 0 91.44) (size 2.1 2.1) (drill 1) (layers *.Cu *.Mask) (tstamp 0d1ea3e7-b917-4180-94ea-81ab27b18053))
  (pad "38" thru_hole oval (at 0 93.98) (size 2.1 2.1) (drill 1) (layers *.Cu *.Mask) (tstamp b7cdfe90-1acb-4d71-9276-6ef5646bf7ce))
  (pad "39" thru_hole oval (at 0 96.52) (size 2.1 2.1) (drill 1) (layers *.Cu *.Mask) (tstamp 01c697d6-f655-4782-859e-999b430f2eb6))
  (model "${KICAD6_3DMODEL_DIR}/Connector_PinHeader_2.54mm.3dshapes/PinHeader_1x39_P2.54mm_Vertical.wrl"
    (offset (xyz 0 0 0))
    (scale (xyz 1 1 1))
    (rotate (xyz 0 0 0))
  )
)
