(footprint "PinHeader_1x02_P2.54mm_Horizontal" (version 20211014) (generator pcbnew)
  (layer "F.Cu")
  (tedit 59FED5CB)
  (descr "Through hole angled pin header, 1x02, 2.54mm pitch, 6mm pin length, single row")
  (tags "Through hole angled pin header THT 1x02 2.54mm single row")
  (attr through_hole)
  (fp_text reference "REF**" (at 4.385 -2.27) (layer "F.SilkS")
    (effects (font (size 1 1) (thickness 0.15)))
    (tstamp 782edb27-5b92-48d3-ad5f-c2d0e1325746)
  )
  (fp_text value "PinHeader_1x02_P2.54mm_Horizontal" (at 4.385 4.81) (layer "F.Fab")
    (effects (font (size 1 1) (thickness 0.15)))
    (tstamp 421678c1-8ac8-425a-8cf8-02224747d661)
  )
  (fp_text user "${REFERENCE}" (at 2.77 1.27 90) (layer "F.Fab")
    (effects (font (size 1 1) (thickness 0.15)))
    (tstamp 810783ae-288d-40f5-b510-2df326c0bc84)
  )
  (fp_line (start 4.1 0.16) (end 10.1 0.16) (layer "F.SilkS") (width 0.12) (tstamp 00374322-5038-4785-8e2e-5038c84c496e))
  (fp_line (start 10.1 2.92) (end 4.1 2.92) (layer "F.SilkS") (width 0.12) (tstamp 00b12331-d724-48fe-8532-ee327d866139))
  (fp_line (start -1.27 -1.27) (end 0 -1.27) (layer "F.SilkS") (width 0.12) (tstamp 0aabcab4-e0c0-4113-9679-8eee4139dc4e))
  (fp_line (start 4.1 -0.08) (end 10.1 -0.08) (layer "F.SilkS") (width 0.12) (tstamp 1812fb90-fc10-43ff-8e19-41c5ab2060e3))
  (fp_line (start 4.1 -0.38) (end 10.1 -0.38) (layer "F.SilkS") (width 0.12) (tstamp 2233b594-095b-4962-8aa2-504e9c603e5b))
  (fp_line (start 10.1 0.38) (end 4.1 0.38) (layer "F.SilkS") (width 0.12) (tstamp 296f6663-269e-44c5-aa05-dbda0c90683d))
  (fp_line (start 4.1 -1.33) (end 1.44 -1.33) (layer "F.SilkS") (width 0.12) (tstamp 496e7216-7213-4290-9175-6b771edbf556))
  (fp_line (start 1.44 -1.33) (end 1.44 3.87) (layer "F.SilkS") (width 0.12) (tstamp 4a8c54b8-09ea-4c55-bea6-adc07ec645fe))
  (fp_line (start 4.1 -0.2) (end 10.1 -0.2) (layer "F.SilkS") (width 0.12) (tstamp 5afcf42a-6b92-490a-bc12-78d3429037d7))
  (fp_line (start 10.1 -0.38) (end 10.1 0.38) (layer "F.SilkS") (width 0.12) (tstamp 60c18ffd-ea28-44c9-b2c4-99ea7431af13))
  (fp_line (start 4.1 0.28) (end 10.1 0.28) (layer "F.SilkS") (width 0.12) (tstamp 661504d5-3f49-4330-a41b-c3d2d17f7de7))
  (fp_line (start 4.1 -0.32) (end 10.1 -0.32) (layer "F.SilkS") (width 0.12) (tstamp 69c2dd98-1034-43dd-892d-b78c6789ca61))
  (fp_line (start -1.27 0) (end -1.27 -1.27) (layer "F.SilkS") (width 0.12) (tstamp 6b4df48b-b6cc-4422-ac91-dbb152c80f4e))
  (fp_line (start 1.44 1.27) (end 4.1 1.27) (layer "F.SilkS") (width 0.12) (tstamp 7418659d-705f-4cf8-845a-792255be34ae))
  (fp_line (start 4.1 0.04) (end 10.1 0.04) (layer "F.SilkS") (width 0.12) (tstamp 84b2ff86-e64f-453b-9cdc-8e3b86af2364))
  (fp_line (start 1.44 3.87) (end 4.1 3.87) (layer "F.SilkS") (width 0.12) (tstamp 9af8ca28-f105-4263-a6e1-9cad915f40a4))
  (fp_line (start 1.11 0.38) (end 1.44 0.38) (layer "F.SilkS") (width 0.12) (tstamp a03d90a7-624a-4f31-a5f4-21c044891cb8))
  (fp_line (start 4.1 3.87) (end 4.1 -1.33) (layer "F.SilkS") (width 0.12) (tstamp bdb165bc-56ad-4215-978e-16e81b9d37e9))
  (fp_line (start 4.1 2.16) (end 10.1 2.16) (layer "F.SilkS") (width 0.12) (tstamp c29f1e0e-db6b-4886-88ec-b1d199d9572b))
  (fp_line (start 1.042929 2.92) (end 1.44 2.92) (layer "F.SilkS") (width 0.12) (tstamp cc9891d6-61ad-4103-b834-4c2001f9fbe4))
  (fp_line (start 1.11 -0.38) (end 1.44 -0.38) (layer "F.SilkS") (width 0.12) (tstamp d5801894-1678-43b1-acb6-09c68eaa69ec))
  (fp_line (start 10.1 2.16) (end 10.1 2.92) (layer "F.SilkS") (width 0.12) (tstamp ecdcf046-534d-4e49-b0ef-9180fb434692))
  (fp_line (start 1.042929 2.16) (end 1.44 2.16) (layer "F.SilkS") (width 0.12) (tstamp f62e7522-baec-4741-96a7-9de35808b95d))
  (fp_line (start 10.55 4.35) (end 10.55 -1.8) (layer "F.CrtYd") (width 0.05) (tstamp 88255c5d-f78e-4f95-b79f-773ee3113e88))
  (fp_line (start -1.8 4.35) (end 10.55 4.35) (layer "F.CrtYd") (width 0.05) (tstamp c6bc9f74-80fa-4007-bab0-869476539dba))
  (fp_line (start -1.8 -1.8) (end -1.8 4.35) (layer "F.CrtYd") (width 0.05) (tstamp eed90e9a-2854-4a7b-8159-8aa6b291d72f))
  (fp_line (start 10.55 -1.8) (end -1.8 -1.8) (layer "F.CrtYd") (width 0.05) (tstamp f5ed77f0-913a-4584-9bf9-db288e752db9))
  (fp_line (start -0.32 -0.32) (end 1.5 -0.32) (layer "F.Fab") (width 0.1) (tstamp 008ad631-d6f4-4443-b08e-6ab1cd651121))
  (fp_line (start 4.04 -1.27) (end 4.04 3.81) (layer "F.Fab") (width 0.1) (tstamp 0ec2d39b-75dd-4f16-a1e2-cf814f8f799a))
  (fp_line (start 4.04 -0.32) (end 10.04 -0.32) (layer "F.Fab") (width 0.1) (tstamp 10e06160-6b27-4d7f-80fc-ff059ea4d218))
  (fp_line (start 4.04 2.86) (end 10.04 2.86) (layer "F.Fab") (width 0.1) (tstamp 38757d0c-4e6b-42d0-955d-32ba275332e8))
  (fp_line (start 4.04 0.32) (end 10.04 0.32) (layer "F.Fab") (width 0.1) (tstamp 3bb85f2e-4994-4918-b313-1af186672457))
  (fp_line (start -0.32 -0.32) (end -0.32 0.32) (layer "F.Fab") (width 0.1) (tstamp 40a15634-77b7-4612-9626-9c3c282dd8e4))
  (fp_line (start 10.04 -0.32) (end 10.04 0.32) (layer "F.Fab") (width 0.1) (tstamp 51d7749e-7750-4086-91b6-3040dea22409))
  (fp_line (start -0.32 0.32) (end 1.5 0.32) (layer "F.Fab") (width 0.1) (tstamp 5cf23402-4948-4268-8ec9-f8a9e08a30a1))
  (fp_line (start 2.135 -1.27) (end 4.04 -1.27) (layer "F.Fab") (width 0.1) (tstamp 6bd239d6-dc91-456c-8f97-f2c3de8147d6))
  (fp_line (start 4.04 2.22) (end 10.04 2.22) (layer "F.Fab") (width 0.1) (tstamp 78b7561f-2592-4b9e-82f6-e1772ca25eee))
  (fp_line (start -0.32 2.22) (end 1.5 2.22) (layer "F.Fab") (width 0.1) (tstamp a446761e-f116-4b9d-bc3d-f38976e02aa8))
  (fp_line (start 1.5 -0.635) (end 2.135 -1.27) (layer "F.Fab") (width 0.1) (tstamp d4f7eb25-b548-4ad5-bca3-1cb7e0554443))
  (fp_line (start -0.32 2.86) (end 1.5 2.86) (layer "F.Fab") (width 0.1) (tstamp dad3f4dd-d144-4934-a7a8-2479fb395aee))
  (fp_line (start -0.32 2.22) (end -0.32 2.86) (layer "F.Fab") (width 0.1) (tstamp e40443d5-d17d-4dec-88b6-92b2b9591783))
  (fp_line (start 10.04 2.22) (end 10.04 2.86) (layer "F.Fab") (width 0.1) (tstamp f1678bdb-187b-404c-aa3c-362bbd7524b7))
  (fp_line (start 1.5 3.81) (end 1.5 -0.635) (layer "F.Fab") (width 0.1) (tstamp f3ad0065-36b1-4bf5-be7c-f10f7bcf51f6))
  (fp_line (start 4.04 3.81) (end 1.5 3.81) (layer "F.Fab") (width 0.1) (tstamp f9f8e0ec-1dd0-40fb-bfcc-9ca2d23bfbca))
  (pad "1" thru_hole rect (at 0 0) (size 2.1 2.1) (drill 1) (layers *.Cu *.Mask) (tstamp 0b7e51a2-ec52-4318-9a32-3757e58d6f90))
  (pad "2" thru_hole oval (at 0 2.54) (size 2.1 2.1) (drill 1) (layers *.Cu *.Mask) (tstamp 9ae28bc9-54e2-4739-b2f7-1cd4def6fa89))
  (model "${KICAD6_3DMODEL_DIR}/Connector_PinHeader_2.54mm.3dshapes/PinHeader_1x02_P2.54mm_Horizontal.wrl"
    (offset (xyz 0 0 0))
    (scale (xyz 1 1 1))
    (rotate (xyz 0 0 0))
  )
)
