(footprint "PinHeader_1x22_P2.54mm_Vertical" (version 20211014) (generator pcbnew)
  (layer "F.Cu")
  (tedit 59FED5CC)
  (descr "Through hole straight pin header, 1x22, 2.54mm pitch, single row")
  (tags "Through hole pin header THT 1x22 2.54mm single row")
  (attr through_hole)
  (fp_text reference "REF**" (at 0 -2.33) (layer "F.SilkS")
    (effects (font (size 1 1) (thickness 0.15)))
    (tstamp d5fe92a9-6a6e-4858-9d23-84ae62e17554)
  )
  (fp_text value "PinHeader_1x22_P2.54mm_Vertical" (at 0 55.67) (layer "F.Fab")
    (effects (font (size 1 1) (thickness 0.15)))
    (tstamp ee6b8153-5047-4665-a2d5-3b5ae72b5efe)
  )
  (fp_text user "${REFERENCE}" (at 0 26.67 90) (layer "F.Fab")
    (effects (font (size 1 1) (thickness 0.15)))
    (tstamp 0ef01293-4016-4b14-bdb1-6edcee911bf4)
  )
  (fp_line (start -1.33 54.67) (end 1.33 54.67) (layer "F.SilkS") (width 0.12) (tstamp 1e210573-1889-4f6f-9dec-58975834a41a))
  (fp_line (start -1.33 1.27) (end -1.33 54.67) (layer "F.SilkS") (width 0.12) (tstamp 608535f1-5ce9-4f76-a43a-d308308fb196))
  (fp_line (start -1.33 -1.33) (end 0 -1.33) (layer "F.SilkS") (width 0.12) (tstamp 650b107f-535e-4c27-ae8c-a36044dac8a2))
  (fp_line (start 1.33 1.27) (end 1.33 54.67) (layer "F.SilkS") (width 0.12) (tstamp 7eae6ce4-387e-4094-bf28-5d5c4701a0ef))
  (fp_line (start -1.33 0) (end -1.33 -1.33) (layer "F.SilkS") (width 0.12) (tstamp 9f7e3af5-bb77-497e-a5e0-6695149044c7))
  (fp_line (start -1.33 1.27) (end 1.33 1.27) (layer "F.SilkS") (width 0.12) (tstamp a723d86b-ac81-441e-b933-24c48a2d29ea))
  (fp_line (start 1.8 -1.8) (end -1.8 -1.8) (layer "F.CrtYd") (width 0.05) (tstamp 05aef107-7389-40f4-8633-1a3404e77477))
  (fp_line (start 1.8 55.15) (end 1.8 -1.8) (layer "F.CrtYd") (width 0.05) (tstamp 2e0745b6-e864-476e-99e3-0628098fd6da))
  (fp_line (start -1.8 -1.8) (end -1.8 55.15) (layer "F.CrtYd") (width 0.05) (tstamp cc948556-6b85-4b02-b214-c4aeb45e1544))
  (fp_line (start -1.8 55.15) (end 1.8 55.15) (layer "F.CrtYd") (width 0.05) (tstamp ed5d0919-97c8-40f8-9a54-7401b19fc904))
  (fp_line (start -1.27 54.61) (end -1.27 -0.635) (layer "F.Fab") (width 0.1) (tstamp 19816fd0-cb71-452e-9195-0bb840e4c4a6))
  (fp_line (start -1.27 -0.635) (end -0.635 -1.27) (layer "F.Fab") (width 0.1) (tstamp 2ee6ac19-5804-4d98-acb7-c6a58733168b))
  (fp_line (start 1.27 -1.27) (end 1.27 54.61) (layer "F.Fab") (width 0.1) (tstamp 587352a1-132c-47c8-9745-3f38fd203196))
  (fp_line (start 1.27 54.61) (end -1.27 54.61) (layer "F.Fab") (width 0.1) (tstamp 5fe77d7e-2d4f-4b4c-a2ce-53d89bd4a854))
  (fp_line (start -0.635 -1.27) (end 1.27 -1.27) (layer "F.Fab") (width 0.1) (tstamp 60de9ba2-d438-433a-b0ca-ae216d095976))
  (pad "1" thru_hole rect (at 0 0) (size 2.1 2.1) (drill 1) (layers *.Cu *.Mask) (tstamp 6be67dec-2e2b-45a2-83ff-bd5cfd3782c3))
  (pad "2" thru_hole oval (at 0 2.54) (size 2.1 2.1) (drill 1) (layers *.Cu *.Mask) (tstamp d82c2d93-e7ef-4081-b0c4-9fe715986b77))
  (pad "3" thru_hole oval (at 0 5.08) (size 2.1 2.1) (drill 1) (layers *.Cu *.Mask) (tstamp 9e0330c4-ef0b-4e93-9673-230152e4c596))
  (pad "4" thru_hole oval (at 0 7.62) (size 2.1 2.1) (drill 1) (layers *.Cu *.Mask) (tstamp 95bbbd77-c0b5-406d-a042-11637b8afc4f))
  (pad "5" thru_hole oval (at 0 10.16) (size 2.1 2.1) (drill 1) (layers *.Cu *.Mask) (tstamp b56e422b-f7c0-4d28-8968-6533880910f8))
  (pad "6" thru_hole oval (at 0 12.7) (size 2.1 2.1) (drill 1) (layers *.Cu *.Mask) (tstamp f457f325-2177-4f87-be4f-d4f51d0c69f6))
  (pad "7" thru_hole oval (at 0 15.24) (size 2.1 2.1) (drill 1) (layers *.Cu *.Mask) (tstamp 283034a2-a425-490d-a236-c721e58ef554))
  (pad "8" thru_hole oval (at 0 17.78) (size 2.1 2.1) (drill 1) (layers *.Cu *.Mask) (tstamp 399edbdd-ebf8-42af-9c2f-6f0d9f879df5))
  (pad "9" thru_hole oval (at 0 20.32) (size 2.1 2.1) (drill 1) (layers *.Cu *.Mask) (tstamp 0c4f4ee5-3191-4305-ae64-7cfe80de0af9))
  (pad "10" thru_hole oval (at 0 22.86) (size 2.1 2.1) (drill 1) (layers *.Cu *.Mask) (tstamp d7d621a7-38fd-40a4-a558-3567d5b7fcf2))
  (pad "11" thru_hole oval (at 0 25.4) (size 2.1 2.1) (drill 1) (layers *.Cu *.Mask) (tstamp 98229907-f022-41b3-9b57-4d420ae441b3))
  (pad "12" thru_hole oval (at 0 27.94) (size 2.1 2.1) (drill 1) (layers *.Cu *.Mask) (tstamp 7408349a-2240-4cb8-bdf7-566f684c397e))
  (pad "13" thru_hole oval (at 0 30.48) (size 2.1 2.1) (drill 1) (layers *.Cu *.Mask) (tstamp 7d15a27d-c083-4ff1-9e1b-8d6004455d92))
  (pad "14" thru_hole oval (at 0 33.02) (size 2.1 2.1) (drill 1) (layers *.Cu *.Mask) (tstamp a6ccc53e-4d97-440c-997d-3ea396519d12))
  (pad "15" thru_hole oval (at 0 35.56) (size 2.1 2.1) (drill 1) (layers *.Cu *.Mask) (tstamp d7ef339b-72f3-4a0b-8132-9d966fccb2f6))
  (pad "16" thru_hole oval (at 0 38.1) (size 2.1 2.1) (drill 1) (layers *.Cu *.Mask) (tstamp 1c025beb-7b30-4f58-9795-bc04ef34c747))
  (pad "17" thru_hole oval (at 0 40.64) (size 2.1 2.1) (drill 1) (layers *.Cu *.Mask) (tstamp c9d3d26f-57dc-4697-b936-c2880a1e1906))
  (pad "18" thru_hole oval (at 0 43.18) (size 2.1 2.1) (drill 1) (layers *.Cu *.Mask) (tstamp e6e61777-5b30-4bd8-82af-ab9998a2d95a))
  (pad "19" thru_hole oval (at 0 45.72) (size 2.1 2.1) (drill 1) (layers *.Cu *.Mask) (tstamp c7b1be62-f1c9-4c10-9cff-9106e4451bbc))
  (pad "20" thru_hole oval (at 0 48.26) (size 2.1 2.1) (drill 1) (layers *.Cu *.Mask) (tstamp 411c8812-370a-4ff5-9e13-ec419585bc93))
  (pad "21" thru_hole oval (at 0 50.8) (size 2.1 2.1) (drill 1) (layers *.Cu *.Mask) (tstamp 7b61d304-64ce-4edb-859c-e641ca83ea9f))
  (pad "22" thru_hole oval (at 0 53.34) (size 2.1 2.1) (drill 1) (layers *.Cu *.Mask) (tstamp daf7a9a1-4c71-462f-83e2-feea17c56b55))
  (model "${KICAD6_3DMODEL_DIR}/Connector_PinHeader_2.54mm.3dshapes/PinHeader_1x22_P2.54mm_Vertical.wrl"
    (offset (xyz 0 0 0))
    (scale (xyz 1 1 1))
    (rotate (xyz 0 0 0))
  )
)
