(footprint "PinHeader_1x10_P2.54mm_Vertical" (version 20211014) (generator pcbnew)
  (layer "F.Cu")
  (tedit 59FED5CC)
  (descr "Through hole straight pin header, 1x10, 2.54mm pitch, single row")
  (tags "Through hole pin header THT 1x10 2.54mm single row")
  (attr through_hole)
  (fp_text reference "REF**" (at 0 -2.33) (layer "F.SilkS")
    (effects (font (size 1 1) (thickness 0.15)))
    (tstamp 0c0fcf5f-51ce-4b38-b0e4-61fe1a9fe5b1)
  )
  (fp_text value "PinHeader_1x10_P2.54mm_Vertical" (at 0 25.19) (layer "F.Fab")
    (effects (font (size 1 1) (thickness 0.15)))
    (tstamp e8f5d89c-f7bb-412d-8bc0-af65d1d07613)
  )
  (fp_text user "${REFERENCE}" (at 0 11.43 90) (layer "F.Fab")
    (effects (font (size 1 1) (thickness 0.15)))
    (tstamp 74c2627f-4d86-4729-977d-5b86d89d874a)
  )
  (fp_line (start -1.33 24.19) (end 1.33 24.19) (layer "F.SilkS") (width 0.12) (tstamp 015fadff-bf5a-4baa-91c7-fd39d73b7af6))
  (fp_line (start -1.33 1.27) (end 1.33 1.27) (layer "F.SilkS") (width 0.12) (tstamp 1a98ec7e-8a0c-4522-a27f-6633ac1a454e))
  (fp_line (start -1.33 -1.33) (end 0 -1.33) (layer "F.SilkS") (width 0.12) (tstamp 3627373f-14da-433e-8e54-5bbe017e5de0))
  (fp_line (start -1.33 1.27) (end -1.33 24.19) (layer "F.SilkS") (width 0.12) (tstamp 3d22f173-fa3a-4b8a-9b93-94277757916a))
  (fp_line (start 1.33 1.27) (end 1.33 24.19) (layer "F.SilkS") (width 0.12) (tstamp 962525a2-9661-4fc9-b0b3-ebbfb6422466))
  (fp_line (start -1.33 0) (end -1.33 -1.33) (layer "F.SilkS") (width 0.12) (tstamp a5ceefb8-1927-4a8d-afd0-b3f46cb97d85))
  (fp_line (start -1.8 -1.8) (end -1.8 24.65) (layer "F.CrtYd") (width 0.05) (tstamp 72f43dec-0f1c-41cb-b5ce-a24a07a0b4db))
  (fp_line (start 1.8 -1.8) (end -1.8 -1.8) (layer "F.CrtYd") (width 0.05) (tstamp 84df60d8-0074-4e76-b9d5-aebc333ab086))
  (fp_line (start 1.8 24.65) (end 1.8 -1.8) (layer "F.CrtYd") (width 0.05) (tstamp bc0f1086-22fa-49c6-ac8d-1a179cf5fe7a))
  (fp_line (start -1.8 24.65) (end 1.8 24.65) (layer "F.CrtYd") (width 0.05) (tstamp c3cf9128-9034-4e93-84be-f0580994b99b))
  (fp_line (start -1.27 24.13) (end -1.27 -0.635) (layer "F.Fab") (width 0.1) (tstamp 0e407c89-7909-4fa5-a040-7def2ca71b03))
  (fp_line (start 1.27 -1.27) (end 1.27 24.13) (layer "F.Fab") (width 0.1) (tstamp 46538acc-de39-4257-b201-e91835df9619))
  (fp_line (start -0.635 -1.27) (end 1.27 -1.27) (layer "F.Fab") (width 0.1) (tstamp 661290cb-a88b-4cd6-ac55-cd69c286c2eb))
  (fp_line (start -1.27 -0.635) (end -0.635 -1.27) (layer "F.Fab") (width 0.1) (tstamp d7caa1c5-4919-400c-8b41-38a2e0698ad5))
  (fp_line (start 1.27 24.13) (end -1.27 24.13) (layer "F.Fab") (width 0.1) (tstamp d823328d-7b6a-42cd-b852-f6a1986fa25d))
  (pad "1" thru_hole rect (at 0 0) (size 2.1 2.1) (drill 1) (layers *.Cu *.Mask) (tstamp aadf7dcc-ed5e-4615-8c74-55a75c218607))
  (pad "2" thru_hole oval (at 0 2.54) (size 2.1 2.1) (drill 1) (layers *.Cu *.Mask) (tstamp bc649c7c-8cfd-4fc3-869e-c04eef603153))
  (pad "3" thru_hole oval (at 0 5.08) (size 2.1 2.1) (drill 1) (layers *.Cu *.Mask) (tstamp 68c98bd7-9bdd-4c14-bad0-0e7f7d6be4b8))
  (pad "4" thru_hole oval (at 0 7.62) (size 2.1 2.1) (drill 1) (layers *.Cu *.Mask) (tstamp 2fa4cbcf-dac2-42fd-b627-91ccb5cf6733))
  (pad "5" thru_hole oval (at 0 10.16) (size 2.1 2.1) (drill 1) (layers *.Cu *.Mask) (tstamp 5b3ac16f-c641-4546-9fac-4e2f257c992b))
  (pad "6" thru_hole oval (at 0 12.7) (size 2.1 2.1) (drill 1) (layers *.Cu *.Mask) (tstamp 6b532add-5e92-4e26-abf1-d820d9566f55))
  (pad "7" thru_hole oval (at 0 15.24) (size 2.1 2.1) (drill 1) (layers *.Cu *.Mask) (tstamp 522b0f4c-4956-4e7d-8bc7-42c2f73742a3))
  (pad "8" thru_hole oval (at 0 17.78) (size 2.1 2.1) (drill 1) (layers *.Cu *.Mask) (tstamp e45aeb17-55da-4857-9413-a9e9254e6979))
  (pad "9" thru_hole oval (at 0 20.32) (size 2.1 2.1) (drill 1) (layers *.Cu *.Mask) (tstamp 8f3c8d3d-34b2-4715-9d74-d83f3a87b393))
  (pad "10" thru_hole oval (at 0 22.86) (size 2.1 2.1) (drill 1) (layers *.Cu *.Mask) (tstamp 8284c393-b875-435d-af76-fe207cd8d6ee))
  (model "${KICAD6_3DMODEL_DIR}/Connector_PinHeader_2.54mm.3dshapes/PinHeader_1x10_P2.54mm_Vertical.wrl"
    (offset (xyz 0 0 0))
    (scale (xyz 1 1 1))
    (rotate (xyz 0 0 0))
  )
)
