(footprint "PinHeader_1x11_P2.54mm_Vertical" (version 20211014) (generator pcbnew)
  (layer "F.Cu")
  (tedit 59FED5CC)
  (descr "Through hole straight pin header, 1x11, 2.54mm pitch, single row")
  (tags "Through hole pin header THT 1x11 2.54mm single row")
  (attr through_hole)
  (fp_text reference "REF**" (at 0 -2.33) (layer "F.SilkS")
    (effects (font (size 1 1) (thickness 0.15)))
    (tstamp 51d1471d-f8a2-46c8-8ec9-928c7e0bc72b)
  )
  (fp_text value "PinHeader_1x11_P2.54mm_Vertical" (at 0 27.73) (layer "F.Fab")
    (effects (font (size 1 1) (thickness 0.15)))
    (tstamp 6cc95deb-a059-4975-954d-49e68bc7cd34)
  )
  (fp_text user "${REFERENCE}" (at 0 12.7 90) (layer "F.Fab")
    (effects (font (size 1 1) (thickness 0.15)))
    (tstamp 9698e2e7-a466-4ff4-82a4-69b5b09094fd)
  )
  (fp_line (start -1.33 -1.33) (end 0 -1.33) (layer "F.SilkS") (width 0.12) (tstamp 086b32cc-0c0f-4828-a2ac-321e15575185))
  (fp_line (start -1.33 1.27) (end -1.33 26.73) (layer "F.SilkS") (width 0.12) (tstamp 2e6bfb34-28e7-4292-aa8a-2cf8076c52b7))
  (fp_line (start -1.33 26.73) (end 1.33 26.73) (layer "F.SilkS") (width 0.12) (tstamp 558dc72f-eed9-44c6-9359-5639d9429df3))
  (fp_line (start -1.33 1.27) (end 1.33 1.27) (layer "F.SilkS") (width 0.12) (tstamp 67b7101a-7c8e-4f14-b85a-11dbc2390fa4))
  (fp_line (start 1.33 1.27) (end 1.33 26.73) (layer "F.SilkS") (width 0.12) (tstamp a2a610fe-8dcd-4a6e-b908-88cdfd166c57))
  (fp_line (start -1.33 0) (end -1.33 -1.33) (layer "F.SilkS") (width 0.12) (tstamp d7ad795a-6a5a-461f-bbff-ac4a133556e9))
  (fp_line (start -1.8 27.2) (end 1.8 27.2) (layer "F.CrtYd") (width 0.05) (tstamp 0dd34092-14f8-4349-ab40-42a305ba1399))
  (fp_line (start -1.8 -1.8) (end -1.8 27.2) (layer "F.CrtYd") (width 0.05) (tstamp 61b59bd4-cba3-47aa-8446-c679f7b7163b))
  (fp_line (start 1.8 27.2) (end 1.8 -1.8) (layer "F.CrtYd") (width 0.05) (tstamp 6f50fd86-0356-4f4d-a843-dec4331fb4ed))
  (fp_line (start 1.8 -1.8) (end -1.8 -1.8) (layer "F.CrtYd") (width 0.05) (tstamp cf7ddca4-1b3d-4d35-ab11-368a16c51841))
  (fp_line (start 1.27 26.67) (end -1.27 26.67) (layer "F.Fab") (width 0.1) (tstamp 091cce19-1685-4909-97ea-79544c7ecb7f))
  (fp_line (start -1.27 -0.635) (end -0.635 -1.27) (layer "F.Fab") (width 0.1) (tstamp 5551792b-01cd-45f0-a9ba-c033405ee660))
  (fp_line (start -0.635 -1.27) (end 1.27 -1.27) (layer "F.Fab") (width 0.1) (tstamp 6da139d9-00ad-40ee-af00-37dcedf17b77))
  (fp_line (start 1.27 -1.27) (end 1.27 26.67) (layer "F.Fab") (width 0.1) (tstamp 79ef0920-3ec6-46cf-8afd-706ce5bf47c7))
  (fp_line (start -1.27 26.67) (end -1.27 -0.635) (layer "F.Fab") (width 0.1) (tstamp bdf586f6-3a29-430b-9b4b-a4dc1fa0eb6d))
  (pad "1" thru_hole rect (at 0 0) (size 2.1 2.1) (drill 1) (layers *.Cu *.Mask) (tstamp 533799a1-ab77-47fb-bca7-1ba70fec7dcb))
  (pad "2" thru_hole oval (at 0 2.54) (size 2.1 2.1) (drill 1) (layers *.Cu *.Mask) (tstamp 134c2f54-a5aa-4c34-809d-cda1f2e424a1))
  (pad "3" thru_hole oval (at 0 5.08) (size 2.1 2.1) (drill 1) (layers *.Cu *.Mask) (tstamp 0a16b5c8-0994-4f09-bd7e-df6ae0f01386))
  (pad "4" thru_hole oval (at 0 7.62) (size 2.1 2.1) (drill 1) (layers *.Cu *.Mask) (tstamp 6fc3d9ab-68c7-43df-817b-1b588616f6c8))
  (pad "5" thru_hole oval (at 0 10.16) (size 2.1 2.1) (drill 1) (layers *.Cu *.Mask) (tstamp 813136c4-f951-45c4-b248-3a55e7b97bc8))
  (pad "6" thru_hole oval (at 0 12.7) (size 2.1 2.1) (drill 1) (layers *.Cu *.Mask) (tstamp 592eae20-4580-4d5b-9d21-1a14140a9d45))
  (pad "7" thru_hole oval (at 0 15.24) (size 2.1 2.1) (drill 1) (layers *.Cu *.Mask) (tstamp 563bed82-50ec-46fe-b248-80f18aa61240))
  (pad "8" thru_hole oval (at 0 17.78) (size 2.1 2.1) (drill 1) (layers *.Cu *.Mask) (tstamp 769bfb18-5e3b-4526-9561-ef20cb86c778))
  (pad "9" thru_hole oval (at 0 20.32) (size 2.1 2.1) (drill 1) (layers *.Cu *.Mask) (tstamp ad1522d3-2af2-43de-ab18-f5233352642c))
  (pad "10" thru_hole oval (at 0 22.86) (size 2.1 2.1) (drill 1) (layers *.Cu *.Mask) (tstamp 99532f04-0438-4c37-a176-941b50c7b810))
  (pad "11" thru_hole oval (at 0 25.4) (size 2.1 2.1) (drill 1) (layers *.Cu *.Mask) (tstamp 2dfe29d2-c426-409b-af1d-2777b1eac584))
  (model "${KICAD6_3DMODEL_DIR}/Connector_PinHeader_2.54mm.3dshapes/PinHeader_1x11_P2.54mm_Vertical.wrl"
    (offset (xyz 0 0 0))
    (scale (xyz 1 1 1))
    (rotate (xyz 0 0 0))
  )
)
