(footprint "PinHeader_1x13_P2.54mm_Horizontal" (version 20211014) (generator pcbnew)
  (layer "F.Cu")
  (tedit 59FED5CB)
  (descr "Through hole angled pin header, 1x13, 2.54mm pitch, 6mm pin length, single row")
  (tags "Through hole angled pin header THT 1x13 2.54mm single row")
  (attr through_hole)
  (fp_text reference "REF**" (at 4.385 -2.27) (layer "F.SilkS")
    (effects (font (size 1 1) (thickness 0.15)))
    (tstamp 25eaa07f-f349-46af-9f2a-7ba4424c46b6)
  )
  (fp_text value "PinHeader_1x13_P2.54mm_Horizontal" (at 4.385 32.75) (layer "F.Fab")
    (effects (font (size 1 1) (thickness 0.15)))
    (tstamp a0a119a7-88a1-44cf-b334-ef93f2c16b4d)
  )
  (fp_text user "${REFERENCE}" (at 2.77 15.24 90) (layer "F.Fab")
    (effects (font (size 1 1) (thickness 0.15)))
    (tstamp ed19eacf-733d-48e7-b210-96ad378e6196)
  )
  (fp_line (start 10.1 19.94) (end 10.1 20.7) (layer "F.SilkS") (width 0.12) (tstamp 01d1cfab-3691-4814-8ea8-52f85cd8edf5))
  (fp_line (start 4.1 25.02) (end 10.1 25.02) (layer "F.SilkS") (width 0.12) (tstamp 021da6a3-426d-40fc-8e7c-78543efc05d1))
  (fp_line (start 1.042929 14.86) (end 1.44 14.86) (layer "F.SilkS") (width 0.12) (tstamp 0491678a-3750-470e-b00d-e058ab433ea7))
  (fp_line (start 1.44 19.05) (end 4.1 19.05) (layer "F.SilkS") (width 0.12) (tstamp 05ab999b-9e7a-45a0-a9af-facf5cf11bd7))
  (fp_line (start 4.1 31.81) (end 4.1 -1.33) (layer "F.SilkS") (width 0.12) (tstamp 0a79e33f-1b30-4a41-9895-93f9e90dd626))
  (fp_line (start 4.1 12.32) (end 10.1 12.32) (layer "F.SilkS") (width 0.12) (tstamp 0a9207ae-879e-4716-b84a-4e1d01ba2c78))
  (fp_line (start 1.44 11.43) (end 4.1 11.43) (layer "F.SilkS") (width 0.12) (tstamp 0e554421-c5b1-4518-b983-a5e8f23a23cd))
  (fp_line (start 1.042929 5.46) (end 1.44 5.46) (layer "F.SilkS") (width 0.12) (tstamp 11c0d6bf-a3ae-4251-8264-53fd7a72f5e8))
  (fp_line (start 1.042929 18.16) (end 1.44 18.16) (layer "F.SilkS") (width 0.12) (tstamp 16c227a3-d35c-493e-94fe-2f06b1aeb75a))
  (fp_line (start 1.44 24.13) (end 4.1 24.13) (layer "F.SilkS") (width 0.12) (tstamp 18ad8b79-1ad1-43a5-bc3d-7c462e074982))
  (fp_line (start 1.042929 17.4) (end 1.44 17.4) (layer "F.SilkS") (width 0.12) (tstamp 1e28e84e-393c-4d4d-9737-503ed06b95d7))
  (fp_line (start 1.042929 8) (end 1.44 8) (layer "F.SilkS") (width 0.12) (tstamp 1e581595-a8df-414a-b45a-c2004be32a0f))
  (fp_line (start 4.1 30.1) (end 10.1 30.1) (layer "F.SilkS") (width 0.12) (tstamp 23e6add4-48bf-4567-a876-613315baeedf))
  (fp_line (start 4.1 17.4) (end 10.1 17.4) (layer "F.SilkS") (width 0.12) (tstamp 267ee1c5-59a4-499a-98dc-95dce485dcc4))
  (fp_line (start 10.1 25.78) (end 4.1 25.78) (layer "F.SilkS") (width 0.12) (tstamp 26861ad4-e582-4673-91f4-a5e3251a6c11))
  (fp_line (start 1.042929 30.86) (end 1.44 30.86) (layer "F.SilkS") (width 0.12) (tstamp 27cec2e9-7537-4e18-ab30-f0b27388d1d5))
  (fp_line (start 1.042929 19.94) (end 1.44 19.94) (layer "F.SilkS") (width 0.12) (tstamp 28b453c7-f968-4273-a9ba-4fdc4462d55b))
  (fp_line (start -1.27 -1.27) (end 0 -1.27) (layer "F.SilkS") (width 0.12) (tstamp 2a81a859-8873-4664-9853-a3aca56f4b49))
  (fp_line (start 1.44 16.51) (end 4.1 16.51) (layer "F.SilkS") (width 0.12) (tstamp 3307df8f-f574-4fd4-bd0a-64767d974176))
  (fp_line (start 1.042929 2.16) (end 1.44 2.16) (layer "F.SilkS") (width 0.12) (tstamp 391164db-3f18-4234-8984-71095d23669d))
  (fp_line (start 10.1 30.86) (end 4.1 30.86) (layer "F.SilkS") (width 0.12) (tstamp 39d8cf2f-2513-479f-b804-eba6117ecd04))
  (fp_line (start 1.042929 20.7) (end 1.44 20.7) (layer "F.SilkS") (width 0.12) (tstamp 3cdd6748-a5b8-4bda-82a2-d05aeb4f8b16))
  (fp_line (start 10.1 7.24) (end 10.1 8) (layer "F.SilkS") (width 0.12) (tstamp 41013993-0080-432a-a90a-1bb0076be4e4))
  (fp_line (start 10.1 10.54) (end 4.1 10.54) (layer "F.SilkS") (width 0.12) (tstamp 4805d72d-0ae7-4c28-a8cb-2836d8acff68))
  (fp_line (start 1.11 -0.38) (end 1.44 -0.38) (layer "F.SilkS") (width 0.12) (tstamp 4a7520df-38ec-4388-996c-119863291c3b))
  (fp_line (start 10.1 17.4) (end 10.1 18.16) (layer "F.SilkS") (width 0.12) (tstamp 4badd98e-d08a-44d8-9235-6d42d05a8a1d))
  (fp_line (start 10.1 22.48) (end 10.1 23.24) (layer "F.SilkS") (width 0.12) (tstamp 4e0496e4-3208-4af5-8bd0-192f748bf7b2))
  (fp_line (start 4.1 -0.38) (end 10.1 -0.38) (layer "F.SilkS") (width 0.12) (tstamp 4fb28ce7-2df4-400b-8c15-763162c5a066))
  (fp_line (start 1.042929 28.32) (end 1.44 28.32) (layer "F.SilkS") (width 0.12) (tstamp 53a63dac-52a3-46c8-a9a1-73a4e56b53b2))
  (fp_line (start 1.042929 2.92) (end 1.44 2.92) (layer "F.SilkS") (width 0.12) (tstamp 547ae63c-e401-42c1-ab24-6b37179d8b14))
  (fp_line (start 4.1 27.56) (end 10.1 27.56) (layer "F.SilkS") (width 0.12) (tstamp 54c3808c-e916-4ae3-beaa-cb5e7efab749))
  (fp_line (start 4.1 2.16) (end 10.1 2.16) (layer "F.SilkS") (width 0.12) (tstamp 5c81557a-3fed-42b9-b1e6-7e83b053f4b2))
  (fp_line (start 1.44 13.97) (end 4.1 13.97) (layer "F.SilkS") (width 0.12) (tstamp 65a78807-d8b7-492c-ba46-8236d3216d99))
  (fp_line (start 10.1 9.78) (end 10.1 10.54) (layer "F.SilkS") (width 0.12) (tstamp 6b075cea-8025-455f-8780-1e7df0ae67fd))
  (fp_line (start 4.1 -0.2) (end 10.1 -0.2) (layer "F.SilkS") (width 0.12) (tstamp 6f34215a-2a59-4553-ad6f-f13479de8654))
  (fp_line (start 1.44 8.89) (end 4.1 8.89) (layer "F.SilkS") (width 0.12) (tstamp 6fa8072f-73e3-4ea6-8503-e1ebebbb15ba))
  (fp_line (start 1.042929 22.48) (end 1.44 22.48) (layer "F.SilkS") (width 0.12) (tstamp 70a94d3a-b9a9-4cd1-a4f4-10445b008a5f))
  (fp_line (start 10.1 4.7) (end 10.1 5.46) (layer "F.SilkS") (width 0.12) (tstamp 71a2353e-8466-4470-97c9-26feb33df474))
  (fp_line (start 1.042929 4.7) (end 1.44 4.7) (layer "F.SilkS") (width 0.12) (tstamp 7282d8b5-2c9d-4adf-becc-55eacf646055))
  (fp_line (start 1.042929 10.54) (end 1.44 10.54) (layer "F.SilkS") (width 0.12) (tstamp 731f4825-4294-4b88-a1d6-b3e69b337f8d))
  (fp_line (start 10.1 30.1) (end 10.1 30.86) (layer "F.SilkS") (width 0.12) (tstamp 75e3f25a-1e50-495d-a3dc-210abb8352ca))
  (fp_line (start 4.1 9.78) (end 10.1 9.78) (layer "F.SilkS") (width 0.12) (tstamp 7da834f9-a354-450c-816b-ccf288773735))
  (fp_line (start -1.27 0) (end -1.27 -1.27) (layer "F.SilkS") (width 0.12) (tstamp 7e513686-8f28-4b50-9e9a-8ca8a1486adb))
  (fp_line (start 10.1 8) (end 4.1 8) (layer "F.SilkS") (width 0.12) (tstamp 82d000df-78ce-48c0-8653-fd2b7207e17a))
  (fp_line (start 10.1 18.16) (end 4.1 18.16) (layer "F.SilkS") (width 0.12) (tstamp 851ac08a-7256-464c-a2c3-203ece096d0a))
  (fp_line (start 10.1 23.24) (end 4.1 23.24) (layer "F.SilkS") (width 0.12) (tstamp 856d12f8-0e4d-4c96-ba25-2c87c944ac22))
  (fp_line (start 1.44 6.35) (end 4.1 6.35) (layer "F.SilkS") (width 0.12) (tstamp 85762036-3791-43e7-a0cc-c1364e6e21fd))
  (fp_line (start 4.1 22.48) (end 10.1 22.48) (layer "F.SilkS") (width 0.12) (tstamp 87850d74-6681-4951-99c4-314b2edc35b7))
  (fp_line (start 10.1 2.92) (end 4.1 2.92) (layer "F.SilkS") (width 0.12) (tstamp 88c7c46e-4599-4de0-b403-f0e41114ce9a))
  (fp_line (start 4.1 0.28) (end 10.1 0.28) (layer "F.SilkS") (width 0.12) (tstamp 8972f5c9-0ac7-4d40-aff7-3de086824b24))
  (fp_line (start 1.042929 25.02) (end 1.44 25.02) (layer "F.SilkS") (width 0.12) (tstamp 8f62ae3e-f9d8-45b5-88ff-25900ee7570e))
  (fp_line (start 10.1 25.02) (end 10.1 25.78) (layer "F.SilkS") (width 0.12) (tstamp 9a12d61d-3df9-42a7-bf7c-0649454f2715))
  (fp_line (start 10.1 12.32) (end 10.1 13.08) (layer "F.SilkS") (width 0.12) (tstamp 9ba0c114-8eed-44e1-81f5-9059ad88629b))
  (fp_line (start 4.1 -0.08) (end 10.1 -0.08) (layer "F.SilkS") (width 0.12) (tstamp 9be6da25-7e59-416c-879f-38dba8a0fa25))
  (fp_line (start 4.1 -1.33) (end 1.44 -1.33) (layer "F.SilkS") (width 0.12) (tstamp 9c0af472-f889-4c3a-9bb5-b1bf99a0c354))
  (fp_line (start 10.1 20.7) (end 4.1 20.7) (layer "F.SilkS") (width 0.12) (tstamp 9cf57407-d480-4be8-8dc3-b8485f3c9d84))
  (fp_line (start 4.1 7.24) (end 10.1 7.24) (layer "F.SilkS") (width 0.12) (tstamp 9da5a57b-aa1d-4196-9f93-eda79a3df054))
  (fp_line (start 10.1 -0.38) (end 10.1 0.38) (layer "F.SilkS") (width 0.12) (tstamp 9e4d8a28-08fe-41f8-bb6c-b146eecc4dc7))
  (fp_line (start 1.44 1.27) (end 4.1 1.27) (layer "F.SilkS") (width 0.12) (tstamp a16f5fb5-edd5-446e-b229-797e48099012))
  (fp_line (start 4.1 19.94) (end 10.1 19.94) (layer "F.SilkS") (width 0.12) (tstamp a2c5c158-aa1d-420b-91e0-7436d840f149))
  (fp_line (start 1.042929 15.62) (end 1.44 15.62) (layer "F.SilkS") (width 0.12) (tstamp a387c071-8549-4088-9351-319723e65f19))
  (fp_line (start 1.44 31.81) (end 4.1 31.81) (layer "F.SilkS") (width 0.12) (tstamp a3abcea5-c423-4464-9c5a-8889efb95129))
  (fp_line (start 10.1 13.08) (end 4.1 13.08) (layer "F.SilkS") (width 0.12) (tstamp a3fadc0b-ccc3-46a1-ae04-b8bfd001f845))
  (fp_line (start 1.042929 30.1) (end 1.44 30.1) (layer "F.SilkS") (width 0.12) (tstamp a405ceee-f739-492d-adca-98949ca0208b))
  (fp_line (start 1.042929 7.24) (end 1.44 7.24) (layer "F.SilkS") (width 0.12) (tstamp a5210e19-8b38-4016-b89f-611a324b4a9d))
  (fp_line (start 1.11 0.38) (end 1.44 0.38) (layer "F.SilkS") (width 0.12) (tstamp aaf0cc4d-79ce-4afd-96fc-88a1cdf84e9f))
  (fp_line (start 4.1 0.04) (end 10.1 0.04) (layer "F.SilkS") (width 0.12) (tstamp ac3882fd-8459-4294-8a85-532159a8c156))
  (fp_line (start 1.44 26.67) (end 4.1 26.67) (layer "F.SilkS") (width 0.12) (tstamp ac42df72-5d94-4124-a55d-50e08e6d1535))
  (fp_line (start 1.44 29.21) (end 4.1 29.21) (layer "F.SilkS") (width 0.12) (tstamp acfc09eb-2ca6-4d0e-bfa7-9445f572aafb))
  (fp_line (start 4.1 0.16) (end 10.1 0.16) (layer "F.SilkS") (width 0.12) (tstamp b416b637-4c53-4409-b128-887b323043e8))
  (fp_line (start 1.042929 13.08) (end 1.44 13.08) (layer "F.SilkS") (width 0.12) (tstamp b6c44a1f-f85e-4c28-b65f-189dbd723483))
  (fp_line (start 1.042929 27.56) (end 1.44 27.56) (layer "F.SilkS") (width 0.12) (tstamp b8e4a92f-fd93-48a3-8b20-1ada3afb3b19))
  (fp_line (start 10.1 2.16) (end 10.1 2.92) (layer "F.SilkS") (width 0.12) (tstamp bb5b6f37-147c-4e25-b552-60263b70bbef))
  (fp_line (start 1.042929 23.24) (end 1.44 23.24) (layer "F.SilkS") (width 0.12) (tstamp be2022cb-815d-4718-925d-b6f844f235db))
  (fp_line (start 4.1 -0.32) (end 10.1 -0.32) (layer "F.SilkS") (width 0.12) (tstamp bf8f1c4d-10db-4689-87f3-5abd841b839c))
  (fp_line (start 10.1 28.32) (end 4.1 28.32) (layer "F.SilkS") (width 0.12) (tstamp c1d66e2c-e279-4979-a710-10f218c16108))
  (fp_line (start 1.44 3.81) (end 4.1 3.81) (layer "F.SilkS") (width 0.12) (tstamp c3be7015-16e2-4430-9234-630b8689893a))
  (fp_line (start 1.042929 12.32) (end 1.44 12.32) (layer "F.SilkS") (width 0.12) (tstamp c716e92f-61b4-43d7-8448-b57210bc5e01))
  (fp_line (start 10.1 5.46) (end 4.1 5.46) (layer "F.SilkS") (width 0.12) (tstamp c9d4a64b-3fbc-4a5a-8d07-d6fb0e7d10be))
  (fp_line (start 4.1 4.7) (end 10.1 4.7) (layer "F.SilkS") (width 0.12) (tstamp ca071c5e-3bae-4ab3-8f20-5d5dc9d1afc2))
  (fp_line (start 1.44 21.59) (end 4.1 21.59) (layer "F.SilkS") (width 0.12) (tstamp d101d1a2-1b3e-446c-932d-b5cb456f0950))
  (fp_line (start 10.1 14.86) (end 10.1 15.62) (layer "F.SilkS") (width 0.12) (tstamp da4b17ae-8f1e-4650-bc49-2956420811d6))
  (fp_line (start 10.1 27.56) (end 10.1 28.32) (layer "F.SilkS") (width 0.12) (tstamp dcc18d6c-ec82-4a81-b6ea-649ee17e8ee5))
  (fp_line (start 1.042929 9.78) (end 1.44 9.78) (layer "F.SilkS") (width 0.12) (tstamp de5b57f6-0444-43f7-8007-4b04fefd57f2))
  (fp_line (start 4.1 14.86) (end 10.1 14.86) (layer "F.SilkS") (width 0.12) (tstamp ea7220f5-9bb9-4ec7-b666-ac8ec115db71))
  (fp_line (start 1.042929 25.78) (end 1.44 25.78) (layer "F.SilkS") (width 0.12) (tstamp f1d3a8c0-92fd-4f5b-999e-43f952809e0a))
  (fp_line (start 1.44 -1.33) (end 1.44 31.81) (layer "F.SilkS") (width 0.12) (tstamp f7117062-a58e-461f-9959-cbfa02090db9))
  (fp_line (start 10.1 15.62) (end 4.1 15.62) (layer "F.SilkS") (width 0.12) (tstamp fc6d826d-1bd1-421d-96d6-14b2d6b72359))
  (fp_line (start 10.1 0.38) (end 4.1 0.38) (layer "F.SilkS") (width 0.12) (tstamp fdafd286-e5e5-46f2-b1d7-efe2ae24954e))
  (fp_line (start 10.55 -1.8) (end -1.8 -1.8) (layer "F.CrtYd") (width 0.05) (tstamp 26c25191-5589-4bbc-9ab9-28befa5069b2))
  (fp_line (start -1.8 -1.8) (end -1.8 32.25) (layer "F.CrtYd") (width 0.05) (tstamp 94132ac4-938c-43ce-aa33-0d00b877c0be))
  (fp_line (start -1.8 32.25) (end 10.55 32.25) (layer "F.CrtYd") (width 0.05) (tstamp a236b906-7444-42a4-ab84-4822ffc121a0))
  (fp_line (start 10.55 32.25) (end 10.55 -1.8) (layer "F.CrtYd") (width 0.05) (tstamp fcd363d9-bf09-40f1-b82c-49da3889676e))
  (fp_line (start 4.04 27.62) (end 10.04 27.62) (layer "F.Fab") (width 0.1) (tstamp 029e7e0a-6420-4ee1-ab73-b0870836d0b1))
  (fp_line (start 4.04 5.4) (end 10.04 5.4) (layer "F.Fab") (width 0.1) (tstamp 02c5b03e-648a-4a69-b5fa-95f92a285df9))
  (fp_line (start -0.32 7.3) (end 1.5 7.3) (layer "F.Fab") (width 0.1) (tstamp 0a845091-df3e-40b4-aadc-69bce2748a87))
  (fp_line (start 10.04 7.3) (end 10.04 7.94) (layer "F.Fab") (width 0.1) (tstamp 0e2dd9ca-5828-49cc-b415-8537e177a9b6))
  (fp_line (start 4.04 14.92) (end 10.04 14.92) (layer "F.Fab") (width 0.1) (tstamp 0f367734-9628-4544-9385-8620059d905e))
  (fp_line (start -0.32 2.22) (end 1.5 2.22) (layer "F.Fab") (width 0.1) (tstamp 13ea10fd-a567-48c1-8581-f5cecb0a4741))
  (fp_line (start -0.32 30.8) (end 1.5 30.8) (layer "F.Fab") (width 0.1) (tstamp 1477a7e4-f78c-49b0-9e75-0d01c0ea6b50))
  (fp_line (start 4.04 -1.27) (end 4.04 31.75) (layer "F.Fab") (width 0.1) (tstamp 152e8fc3-59b0-4594-ae4a-34c7de869d23))
  (fp_line (start 10.04 27.62) (end 10.04 28.26) (layer "F.Fab") (width 0.1) (tstamp 1572ac0c-e917-4ad1-974f-9b26851563c9))
  (fp_line (start 4.04 31.75) (end 1.5 31.75) (layer "F.Fab") (width 0.1) (tstamp 1d1b5b36-d75a-4a79-b9d5-8bcb0cc6aaea))
  (fp_line (start 10.04 20) (end 10.04 20.64) (layer "F.Fab") (width 0.1) (tstamp 1f1cf1b6-0cd2-4642-acfd-8ecd1e9fd98a))
  (fp_line (start -0.32 7.3) (end -0.32 7.94) (layer "F.Fab") (width 0.1) (tstamp 26e21fba-38df-4e3a-93be-ca871742c871))
  (fp_line (start -0.32 25.08) (end 1.5 25.08) (layer "F.Fab") (width 0.1) (tstamp 29c8d64f-1342-4e13-89c8-31e4d6cccb64))
  (fp_line (start 10.04 2.22) (end 10.04 2.86) (layer "F.Fab") (width 0.1) (tstamp 2a8f4496-b89b-4f52-9b94-036914b5d632))
  (fp_line (start -0.32 27.62) (end 1.5 27.62) (layer "F.Fab") (width 0.1) (tstamp 2bab83b3-50ae-4420-832b-240391bdc98f))
  (fp_line (start 4.04 30.16) (end 10.04 30.16) (layer "F.Fab") (width 0.1) (tstamp 32435a3a-5e9c-42d2-83bc-9c58a05bd28c))
  (fp_line (start 10.04 9.84) (end 10.04 10.48) (layer "F.Fab") (width 0.1) (tstamp 35faf45f-758f-4198-a15e-68e05760c2c4))
  (fp_line (start -0.32 28.26) (end 1.5 28.26) (layer "F.Fab") (width 0.1) (tstamp 3c0f2193-2b53-4904-abc5-bad9fd3b2b77))
  (fp_line (start 10.04 30.16) (end 10.04 30.8) (layer "F.Fab") (width 0.1) (tstamp 3e3c341e-a473-450f-9e64-fe18d73d4d21))
  (fp_line (start -0.32 12.38) (end 1.5 12.38) (layer "F.Fab") (width 0.1) (tstamp 3f9d001a-ad62-4fe9-a0d9-8ad66ac85326))
  (fp_line (start -0.32 30.16) (end -0.32 30.8) (layer "F.Fab") (width 0.1) (tstamp 4020f66a-cf4a-43fc-8b05-b574e2ff3241))
  (fp_line (start 4.04 12.38) (end 10.04 12.38) (layer "F.Fab") (width 0.1) (tstamp 42831a09-b2c7-487f-911a-c7ac90c99f13))
  (fp_line (start -0.32 -0.32) (end 1.5 -0.32) (layer "F.Fab") (width 0.1) (tstamp 442eb2b3-2a7d-4f82-a3a5-7a747a31d197))
  (fp_line (start 4.04 20.64) (end 10.04 20.64) (layer "F.Fab") (width 0.1) (tstamp 47723d4b-4f1a-4e4c-9fc9-1d3daf812fd9))
  (fp_line (start 4.04 28.26) (end 10.04 28.26) (layer "F.Fab") (width 0.1) (tstamp 49b6e7be-c46b-4673-8ec4-cb15d90e0cd7))
  (fp_line (start -0.32 25.72) (end 1.5 25.72) (layer "F.Fab") (width 0.1) (tstamp 4a3c5707-3fa8-40d1-8ca9-f9f07bc8cdc3))
  (fp_line (start -0.32 2.22) (end -0.32 2.86) (layer "F.Fab") (width 0.1) (tstamp 4ccd875d-fab2-461c-8d9d-b25e62c5ae00))
  (fp_line (start -0.32 17.46) (end -0.32 18.1) (layer "F.Fab") (width 0.1) (tstamp 4e97b696-6f0f-406c-9892-9029de9624cf))
  (fp_line (start -0.32 7.94) (end 1.5 7.94) (layer "F.Fab") (width 0.1) (tstamp 4ede50d7-f0d4-49da-ab09-d848990fb8e6))
  (fp_line (start -0.32 17.46) (end 1.5 17.46) (layer "F.Fab") (width 0.1) (tstamp 4f7c87f1-e545-46cf-baec-28a37aa2d4d5))
  (fp_line (start 10.04 4.76) (end 10.04 5.4) (layer "F.Fab") (width 0.1) (tstamp 56546393-41e9-410b-a9f8-3cad08f1cbc6))
  (fp_line (start 10.04 17.46) (end 10.04 18.1) (layer "F.Fab") (width 0.1) (tstamp 5a4a8ef1-9358-473f-aa5c-3afa31db64e8))
  (fp_line (start 4.04 18.1) (end 10.04 18.1) (layer "F.Fab") (width 0.1) (tstamp 5d379b3c-ce56-41ed-98ee-66aaa9663127))
  (fp_line (start -0.32 20) (end 1.5 20) (layer "F.Fab") (width 0.1) (tstamp 60f280b0-a99d-4605-bee6-100375566445))
  (fp_line (start 1.5 31.75) (end 1.5 -0.635) (layer "F.Fab") (width 0.1) (tstamp 676b8fb6-1058-440a-8fc5-c9b826cf905c))
  (fp_line (start 4.04 25.72) (end 10.04 25.72) (layer "F.Fab") (width 0.1) (tstamp 6d922f4c-9078-4009-b63b-f79c9078fa63))
  (fp_line (start -0.32 22.54) (end -0.32 23.18) (layer "F.Fab") (width 0.1) (tstamp 70d36cc4-6d68-4fe9-9778-1a58bba9af32))
  (fp_line (start -0.32 27.62) (end -0.32 28.26) (layer "F.Fab") (width 0.1) (tstamp 71332f01-b8d1-4fa9-bc7d-21f67985cd32))
  (fp_line (start 10.04 14.92) (end 10.04 15.56) (layer "F.Fab") (width 0.1) (tstamp 72610f61-88fd-4a8d-9b59-c24add446890))
  (fp_line (start -0.32 5.4) (end 1.5 5.4) (layer "F.Fab") (width 0.1) (tstamp 77d578c7-3f1b-43e2-9dad-48f137161681))
  (fp_line (start 4.04 0.32) (end 10.04 0.32) (layer "F.Fab") (width 0.1) (tstamp 7895f9e3-fdb0-46b3-97b7-253e1f805699))
  (fp_line (start -0.32 14.92) (end 1.5 14.92) (layer "F.Fab") (width 0.1) (tstamp 78a752d1-3241-40d6-8877-5f62379005c1))
  (fp_line (start 4.04 22.54) (end 10.04 22.54) (layer "F.Fab") (width 0.1) (tstamp 7ae0caa3-b3ba-4b13-bdbe-e20e1d273c4b))
  (fp_line (start 1.5 -0.635) (end 2.135 -1.27) (layer "F.Fab") (width 0.1) (tstamp 7c364e56-db1b-411b-ab95-9102ea6a33e1))
  (fp_line (start 2.135 -1.27) (end 4.04 -1.27) (layer "F.Fab") (width 0.1) (tstamp 7d4c067e-8e86-4344-a3fb-53352a31cbc6))
  (fp_line (start -0.32 18.1) (end 1.5 18.1) (layer "F.Fab") (width 0.1) (tstamp 7f6eb164-eae1-4f78-a5b0-3c6d36736030))
  (fp_line (start -0.32 2.86) (end 1.5 2.86) (layer "F.Fab") (width 0.1) (tstamp 803ad9b8-6482-4893-9bac-022fc46d17ee))
  (fp_line (start -0.32 0.32) (end 1.5 0.32) (layer "F.Fab") (width 0.1) (tstamp 812f4018-44be-4ba2-8c3f-f30e34b046e1))
  (fp_line (start 4.04 -0.32) (end 10.04 -0.32) (layer "F.Fab") (width 0.1) (tstamp 86b5dc14-8d99-4c6c-9a3e-dafd6b8e2d5b))
  (fp_line (start -0.32 15.56) (end 1.5 15.56) (layer "F.Fab") (width 0.1) (tstamp 874a4528-d99d-48db-9a6a-eb3be7a66a60))
  (fp_line (start -0.32 10.48) (end 1.5 10.48) (layer "F.Fab") (width 0.1) (tstamp 888e1700-8d3c-4529-b148-7255bed36e8a))
  (fp_line (start 4.04 15.56) (end 10.04 15.56) (layer "F.Fab") (width 0.1) (tstamp 8f9dc9d9-b1b6-4017-8f7a-63e8d680e566))
  (fp_line (start 4.04 20) (end 10.04 20) (layer "F.Fab") (width 0.1) (tstamp 8fc9e325-79fc-4b0e-8bea-e907d9fac59d))
  (fp_line (start -0.32 9.84) (end 1.5 9.84) (layer "F.Fab") (width 0.1) (tstamp 94631ff2-ef0c-44a3-a913-44cf199eb0ca))
  (fp_line (start -0.32 20.64) (end 1.5 20.64) (layer "F.Fab") (width 0.1) (tstamp a4324823-e268-422f-8898-cac4e4d2494f))
  (fp_line (start 4.04 25.08) (end 10.04 25.08) (layer "F.Fab") (width 0.1) (tstamp a48b788a-a3fb-4f6a-b21d-5b1f66731d49))
  (fp_line (start -0.32 4.76) (end 1.5 4.76) (layer "F.Fab") (width 0.1) (tstamp a741ad53-565e-40b8-85c9-7e278e21cf88))
  (fp_line (start 4.04 2.22) (end 10.04 2.22) (layer "F.Fab") (width 0.1) (tstamp a80cc568-044e-42a6-b76c-f3b1df088e2c))
  (fp_line (start -0.32 22.54) (end 1.5 22.54) (layer "F.Fab") (width 0.1) (tstamp ad934f51-5c9c-4e4b-9773-e71480730f4a))
  (fp_line (start -0.32 4.76) (end -0.32 5.4) (layer "F.Fab") (width 0.1) (tstamp ad9e8c88-db1a-449c-a9c7-83228e4d429b))
  (fp_line (start -0.32 25.08) (end -0.32 25.72) (layer "F.Fab") (width 0.1) (tstamp b1718dfa-c804-4146-9465-259066e49d27))
  (fp_line (start -0.32 13.02) (end 1.5 13.02) (layer "F.Fab") (width 0.1) (tstamp ba8dbb2b-3dd1-4f71-81a1-054ebd6f9bf0))
  (fp_line (start 4.04 7.3) (end 10.04 7.3) (layer "F.Fab") (width 0.1) (tstamp bb860eb9-a583-460f-ad7a-aadbbf7d9e49))
  (fp_line (start -0.32 30.16) (end 1.5 30.16) (layer "F.Fab") (width 0.1) (tstamp bb8dc654-9050-43d5-95b8-90fe69101001))
  (fp_line (start 4.04 17.46) (end 10.04 17.46) (layer "F.Fab") (width 0.1) (tstamp bd7088ea-988d-487e-9eb9-7f2beb2940c5))
  (fp_line (start -0.32 23.18) (end 1.5 23.18) (layer "F.Fab") (width 0.1) (tstamp c390a2a0-2c3f-4443-ac5b-db210c381dc4))
  (fp_line (start 10.04 25.08) (end 10.04 25.72) (layer "F.Fab") (width 0.1) (tstamp c3c62e83-d816-4d71-8889-18acb2c68dcc))
  (fp_line (start -0.32 9.84) (end -0.32 10.48) (layer "F.Fab") (width 0.1) (tstamp cb928418-78e5-42c7-9886-bab9a96c4cb0))
  (fp_line (start 10.04 12.38) (end 10.04 13.02) (layer "F.Fab") (width 0.1) (tstamp da38723e-25f1-4a3c-be32-30cda9e97b07))
  (fp_line (start -0.32 12.38) (end -0.32 13.02) (layer "F.Fab") (width 0.1) (tstamp dd41e60d-e100-45ec-aa8a-3403a13be7eb))
  (fp_line (start 4.04 7.94) (end 10.04 7.94) (layer "F.Fab") (width 0.1) (tstamp de055944-4357-47dc-98b4-05fb34c582b7))
  (fp_line (start 4.04 2.86) (end 10.04 2.86) (layer "F.Fab") (width 0.1) (tstamp dedf5756-f469-41d3-a485-c994003543e9))
  (fp_line (start -0.32 14.92) (end -0.32 15.56) (layer "F.Fab") (width 0.1) (tstamp e0ff196a-3d4d-4846-bd4c-5dd472184c90))
  (fp_line (start 10.04 -0.32) (end 10.04 0.32) (layer "F.Fab") (width 0.1) (tstamp e4484b57-ac5b-4b66-94f9-e90345b66780))
  (fp_line (start 4.04 4.76) (end 10.04 4.76) (layer "F.Fab") (width 0.1) (tstamp e44c3749-f999-4b87-8d45-634f0f1f6ceb))
  (fp_line (start 4.04 23.18) (end 10.04 23.18) (layer "F.Fab") (width 0.1) (tstamp eb0a871c-da81-4fdb-abdf-b567b4ab9f25))
  (fp_line (start -0.32 -0.32) (end -0.32 0.32) (layer "F.Fab") (width 0.1) (tstamp ed3090f1-04b6-47b5-aa66-dafc94ee6625))
  (fp_line (start 4.04 30.8) (end 10.04 30.8) (layer "F.Fab") (width 0.1) (tstamp ed8c61fe-e79a-41de-9d9e-a4ede4dc72b6))
  (fp_line (start 10.04 22.54) (end 10.04 23.18) (layer "F.Fab") (width 0.1) (tstamp ee146ba3-dd59-43a5-ad90-820c36e7a8cc))
  (fp_line (start 4.04 10.48) (end 10.04 10.48) (layer "F.Fab") (width 0.1) (tstamp f3052e74-8516-47d4-9447-1b3fe66acfae))
  (fp_line (start -0.32 20) (end -0.32 20.64) (layer "F.Fab") (width 0.1) (tstamp f5d677cd-393a-4ec8-b753-f4e6d6632ffb))
  (fp_line (start 4.04 13.02) (end 10.04 13.02) (layer "F.Fab") (width 0.1) (tstamp f615e320-294c-4e37-9476-f36a23073472))
  (fp_line (start 4.04 9.84) (end 10.04 9.84) (layer "F.Fab") (width 0.1) (tstamp fc1146a9-cab7-45fb-bd1f-020ff05b2910))
  (pad "1" thru_hole rect (at 0 0) (size 2.1 2.1) (drill 1) (layers *.Cu *.Mask) (tstamp a4e7c48c-4d4f-445d-90fe-74bc8fe60f64))
  (pad "2" thru_hole oval (at 0 2.54) (size 2.1 2.1) (drill 1) (layers *.Cu *.Mask) (tstamp 8c194f26-c81d-44ad-892d-fe82e0445b78))
  (pad "3" thru_hole oval (at 0 5.08) (size 2.1 2.1) (drill 1) (layers *.Cu *.Mask) (tstamp 67323453-f6d5-4aa7-8b8d-c4adbccc1604))
  (pad "4" thru_hole oval (at 0 7.62) (size 2.1 2.1) (drill 1) (layers *.Cu *.Mask) (tstamp 5e3f5317-8fd0-4a24-a76c-763e91b00dc9))
  (pad "5" thru_hole oval (at 0 10.16) (size 2.1 2.1) (drill 1) (layers *.Cu *.Mask) (tstamp ac84d5ea-1176-49b1-a44a-54b5436fb03b))
  (pad "6" thru_hole oval (at 0 12.7) (size 2.1 2.1) (drill 1) (layers *.Cu *.Mask) (tstamp 04cd8fb0-df51-447d-987a-fcde19a0c5c0))
  (pad "7" thru_hole oval (at 0 15.24) (size 2.1 2.1) (drill 1) (layers *.Cu *.Mask) (tstamp 596bb606-08c2-496f-a642-9144a11f24d0))
  (pad "8" thru_hole oval (at 0 17.78) (size 2.1 2.1) (drill 1) (layers *.Cu *.Mask) (tstamp f0848624-db29-4787-b001-4882155456b4))
  (pad "9" thru_hole oval (at 0 20.32) (size 2.1 2.1) (drill 1) (layers *.Cu *.Mask) (tstamp efd1c796-f582-442f-8415-7a1bde5e41cc))
  (pad "10" thru_hole oval (at 0 22.86) (size 2.1 2.1) (drill 1) (layers *.Cu *.Mask) (tstamp 3da36b35-4150-4c9d-b0be-addff7cea59b))
  (pad "11" thru_hole oval (at 0 25.4) (size 2.1 2.1) (drill 1) (layers *.Cu *.Mask) (tstamp c5de9773-ef0e-46c9-8e1b-917b504200c5))
  (pad "12" thru_hole oval (at 0 27.94) (size 2.1 2.1) (drill 1) (layers *.Cu *.Mask) (tstamp 2b466aee-cac6-4c22-b723-8f3c28278a14))
  (pad "13" thru_hole oval (at 0 30.48) (size 2.1 2.1) (drill 1) (layers *.Cu *.Mask) (tstamp 0d9820e9-4ff4-4ab7-b54c-59f9b27b086e))
  (model "${KICAD6_3DMODEL_DIR}/Connector_PinHeader_2.54mm.3dshapes/PinHeader_1x13_P2.54mm_Horizontal.wrl"
    (offset (xyz 0 0 0))
    (scale (xyz 1 1 1))
    (rotate (xyz 0 0 0))
  )
)
