(footprint "PinHeader_2x30_P2.54mm_Horizontal" (version 20211014) (generator pcbnew)
  (layer "F.Cu")
  (tedit 59FED5CB)
  (descr "Through hole angled pin header, 2x30, 2.54mm pitch, 6mm pin length, double rows")
  (tags "Through hole angled pin header THT 2x30 2.54mm double row")
  (attr through_hole)
  (fp_text reference "REF**" (at 5.655 -2.27) (layer "F.SilkS")
    (effects (font (size 1 1) (thickness 0.15)))
    (tstamp fffac35e-a195-42e5-8609-2f1730cf734d)
  )
  (fp_text value "PinHeader_2x30_P2.54mm_Horizontal" (at 5.655 75.93) (layer "F.Fab")
    (effects (font (size 1 1) (thickness 0.15)))
    (tstamp 85142adc-9cd1-4d4a-a343-b36c9420672d)
  )
  (fp_text user "${REFERENCE}" (at 5.31 36.83 90) (layer "F.Fab")
    (effects (font (size 1 1) (thickness 0.15)))
    (tstamp 316224f9-f9c3-4013-8c7f-f97463df2829)
  )
  (fp_line (start 12.64 66.42) (end 6.64 66.42) (layer "F.SilkS") (width 0.12) (tstamp 00cdba83-562f-4bb5-a0fb-fe7deef51dcb))
  (fp_line (start 12.64 30.1) (end 12.64 30.86) (layer "F.SilkS") (width 0.12) (tstamp 03db0a0d-8076-407e-89b8-111dce644cb0))
  (fp_line (start 1.042929 10.54) (end 1.497071 10.54) (layer "F.SilkS") (width 0.12) (tstamp 0431b40d-3c6c-4504-8b1b-f7fb2eba46be))
  (fp_line (start 6.64 45.34) (end 12.64 45.34) (layer "F.SilkS") (width 0.12) (tstamp 06ab4256-d40d-46d0-ab01-e0d0f8cc407a))
  (fp_line (start 12.64 22.48) (end 12.64 23.24) (layer "F.SilkS") (width 0.12) (tstamp 07648fa3-3e30-4dc7-8986-50128b6f90ad))
  (fp_line (start 6.64 22.48) (end 12.64 22.48) (layer "F.SilkS") (width 0.12) (tstamp 087dde59-8f7c-4dd0-9563-a9e99342f8e1))
  (fp_line (start -1.27 0) (end -1.27 -1.27) (layer "F.SilkS") (width 0.12) (tstamp 08851863-8445-4db0-a39c-ef7ea74f62a3))
  (fp_line (start 12.64 63.88) (end 6.64 63.88) (layer "F.SilkS") (width 0.12) (tstamp 089eb390-84c4-4152-a028-dc44bea43a75))
  (fp_line (start 3.582929 66.42) (end 3.98 66.42) (layer "F.SilkS") (width 0.12) (tstamp 093715ac-3361-44c9-8b5a-25d00a343d08))
  (fp_line (start 3.582929 43.56) (end 3.98 43.56) (layer "F.SilkS") (width 0.12) (tstamp 0af7a368-0fc5-47f5-ad6a-77e5aa1e00ec))
  (fp_line (start 3.582929 9.78) (end 3.98 9.78) (layer "F.SilkS") (width 0.12) (tstamp 0b06e677-1ca5-4937-a58c-34b3cd756c5c))
  (fp_line (start 1.042929 27.56) (end 1.497071 27.56) (layer "F.SilkS") (width 0.12) (tstamp 0b0a6fa6-209b-4a6f-932d-f86f49fc3fd8))
  (fp_line (start 3.582929 55.5) (end 3.98 55.5) (layer "F.SilkS") (width 0.12) (tstamp 0c838543-623f-450c-8147-3bfafe192ed0))
  (fp_line (start 3.582929 20.7) (end 3.98 20.7) (layer "F.SilkS") (width 0.12) (tstamp 0d57b039-3aef-41b2-bfc7-e3c108874475))
  (fp_line (start 3.582929 32.64) (end 3.98 32.64) (layer "F.SilkS") (width 0.12) (tstamp 1005b46a-42fe-4854-aae5-85f373179403))
  (fp_line (start 1.042929 18.16) (end 1.497071 18.16) (layer "F.SilkS") (width 0.12) (tstamp 11987461-a057-48ca-b253-e6b97d55f349))
  (fp_line (start 3.582929 -0.38) (end 3.98 -0.38) (layer "F.SilkS") (width 0.12) (tstamp 13b19aac-65cb-411e-876b-cf2ff5fb2306))
  (fp_line (start 12.64 9.78) (end 12.64 10.54) (layer "F.SilkS") (width 0.12) (tstamp 13b63098-7231-4ad2-9099-557ece3dd27c))
  (fp_line (start 3.98 49.53) (end 6.64 49.53) (layer "F.SilkS") (width 0.12) (tstamp 144cc0bf-0191-42b2-92bd-4c8d1c99387e))
  (fp_line (start 6.64 -1.33) (end 3.98 -1.33) (layer "F.SilkS") (width 0.12) (tstamp 1806a338-f8c4-40bb-b347-30c4597c4e45))
  (fp_line (start 6.64 60.58) (end 12.64 60.58) (layer "F.SilkS") (width 0.12) (tstamp 184e5fe6-edd2-43d2-a6cc-404f2554e9ae))
  (fp_line (start 6.64 -0.32) (end 12.64 -0.32) (layer "F.SilkS") (width 0.12) (tstamp 18c0c4af-1453-4d43-86ae-097db5304448))
  (fp_line (start 1.042929 63.88) (end 1.497071 63.88) (layer "F.SilkS") (width 0.12) (tstamp 1a915f02-86a3-4ede-a042-857cc269c82d))
  (fp_line (start 12.64 35.18) (end 12.64 35.94) (layer "F.SilkS") (width 0.12) (tstamp 1b33f885-dfc5-413f-b468-eea24b05bd2d))
  (fp_line (start 12.64 45.34) (end 12.64 46.1) (layer "F.SilkS") (width 0.12) (tstamp 1b6ee425-c51c-4000-9746-49fb3a500578))
  (fp_line (start 3.98 24.13) (end 6.64 24.13) (layer "F.SilkS") (width 0.12) (tstamp 1d5f372d-9ed9-4ecb-8eb3-b88877296b2e))
  (fp_line (start 1.042929 52.96) (end 1.497071 52.96) (layer "F.SilkS") (width 0.12) (tstamp 1d686050-fe9a-4afc-9b0d-af5045caf476))
  (fp_line (start 6.64 32.64) (end 12.64 32.64) (layer "F.SilkS") (width 0.12) (tstamp 1e0190e1-3329-44e0-87b7-e3d87a6715c1))
  (fp_line (start 1.042929 58.04) (end 1.497071 58.04) (layer "F.SilkS") (width 0.12) (tstamp 1eaeefab-7e15-45d8-b518-97a751a5f532))
  (fp_line (start 6.64 30.1) (end 12.64 30.1) (layer "F.SilkS") (width 0.12) (tstamp 1eca4507-d0f0-4162-b40e-7d29bc6f0e7c))
  (fp_line (start 6.64 2.16) (end 12.64 2.16) (layer "F.SilkS") (width 0.12) (tstamp 1f22263a-00a1-4a13-8bc7-6a5a63b012b6))
  (fp_line (start 12.64 68.96) (end 6.64 68.96) (layer "F.SilkS") (width 0.12) (tstamp 1f7bc90f-bfe9-4461-88af-7f1ac0ee3ce1))
  (fp_line (start 3.582929 0.38) (end 3.98 0.38) (layer "F.SilkS") (width 0.12) (tstamp 223e2a83-2a9d-4081-9992-1ef2d115addc))
  (fp_line (start 6.64 -0.38) (end 12.64 -0.38) (layer "F.SilkS") (width 0.12) (tstamp 224a8c87-f2fc-431f-b1d7-e071f5ac9dcf))
  (fp_line (start 3.98 59.69) (end 6.64 59.69) (layer "F.SilkS") (width 0.12) (tstamp 23c306fb-6e69-48ae-b610-601dd742537e))
  (fp_line (start 1.042929 65.66) (end 1.497071 65.66) (layer "F.SilkS") (width 0.12) (tstamp 23e58f4b-246d-4f00-83b5-550b55655181))
  (fp_line (start 1.042929 25.02) (end 1.497071 25.02) (layer "F.SilkS") (width 0.12) (tstamp 2477e750-03d4-49b6-b6d7-715991b06a0d))
  (fp_line (start 12.64 35.94) (end 6.64 35.94) (layer "F.SilkS") (width 0.12) (tstamp 251b6a36-febe-4a81-8897-c5e852e43c5b))
  (fp_line (start 6.64 -0.08) (end 12.64 -0.08) (layer "F.SilkS") (width 0.12) (tstamp 26ad9ce2-994f-4acd-bc9d-ee9242a712c1))
  (fp_line (start 1.042929 33.4) (end 1.497071 33.4) (layer "F.SilkS") (width 0.12) (tstamp 274219a2-3c6d-49e3-917c-c9ca0beb512d))
  (fp_line (start 3.582929 18.16) (end 3.98 18.16) (layer "F.SilkS") (width 0.12) (tstamp 27612bd8-9646-462f-a3d5-d72f01c62f9f))
  (fp_line (start 3.582929 17.4) (end 3.98 17.4) (layer "F.SilkS") (width 0.12) (tstamp 282ffa26-4723-46d2-a2ed-57aa8b4a5239))
  (fp_line (start 12.64 70.74) (end 12.64 71.5) (layer "F.SilkS") (width 0.12) (tstamp 28613dd6-2a6f-4a52-9d49-78a4a910c3b1))
  (fp_line (start 12.64 18.16) (end 6.64 18.16) (layer "F.SilkS") (width 0.12) (tstamp 2a197c3c-c6ce-46c8-919a-31fdf36443f9))
  (fp_line (start 6.64 27.56) (end 12.64 27.56) (layer "F.SilkS") (width 0.12) (tstamp 2a318c1f-4af2-4655-9597-dc91f31cc0e2))
  (fp_line (start 12.64 4.7) (end 12.64 5.46) (layer "F.SilkS") (width 0.12) (tstamp 2b92ee41-55dd-40f5-8a8f-afb8fd5555c9))
  (fp_line (start 1.042929 15.62) (end 1.497071 15.62) (layer "F.SilkS") (width 0.12) (tstamp 2c40347d-17b8-4669-9adf-a0ced4de5b03))
  (fp_line (start 1.042929 2.16) (end 1.497071 2.16) (layer "F.SilkS") (width 0.12) (tstamp 2c76cc04-26eb-47de-9de7-a1fd6f19c672))
  (fp_line (start 12.64 46.1) (end 6.64 46.1) (layer "F.SilkS") (width 0.12) (tstamp 2cbbfd13-c930-4dda-8663-d1375934137c))
  (fp_line (start 3.582929 58.8) (end 3.98 58.8) (layer "F.SilkS") (width 0.12) (tstamp 2eb30824-5e46-444d-9909-6ad9e7a871d6))
  (fp_line (start 3.98 13.97) (end 6.64 13.97) (layer "F.SilkS") (width 0.12) (tstamp 2ee4efa1-27e5-42d5-81e9-7b2d984200da))
  (fp_line (start 3.98 29.21) (end 6.64 29.21) (layer "F.SilkS") (width 0.12) (tstamp 2f4fd77f-d7c4-43ab-8596-38479abca850))
  (fp_line (start 3.582929 63.88) (end 3.98 63.88) (layer "F.SilkS") (width 0.12) (tstamp 308935e7-c872-4ca2-8bb2-82c100890b84))
  (fp_line (start 12.64 74.04) (end 6.64 74.04) (layer "F.SilkS") (width 0.12) (tstamp 309e3502-3df8-4431-89f9-3dce6e6efeb2))
  (fp_line (start 3.98 44.45) (end 6.64 44.45) (layer "F.SilkS") (width 0.12) (tstamp 30bd5b2b-a9dc-40fd-a23e-8ea9c428d345))
  (fp_line (start 6.64 37.72) (end 12.64 37.72) (layer "F.SilkS") (width 0.12) (tstamp 320f3690-4600-4f6b-a2db-53c84cc6f46d))
  (fp_line (start 3.98 69.85) (end 6.64 69.85) (layer "F.SilkS") (width 0.12) (tstamp 32130885-0df9-4409-ab79-060f50a53f38))
  (fp_line (start 3.582929 61.34) (end 3.98 61.34) (layer "F.SilkS") (width 0.12) (tstamp 33086e0c-7722-4517-8675-613486e095bc))
  (fp_line (start 12.64 51.18) (end 6.64 51.18) (layer "F.SilkS") (width 0.12) (tstamp 3363a609-7f5f-49b5-b32c-4f714f5b6f6f))
  (fp_line (start 1.042929 40.26) (end 1.497071 40.26) (layer "F.SilkS") (width 0.12) (tstamp 345453c6-16c2-4de5-afb7-e9d220179c04))
  (fp_line (start 3.582929 37.72) (end 3.98 37.72) (layer "F.SilkS") (width 0.12) (tstamp 36a86da1-ccd3-47ce-b3b9-eabd2b2b4055))
  (fp_line (start 6.64 4.7) (end 12.64 4.7) (layer "F.SilkS") (width 0.12) (tstamp 38892e3c-13a7-4c96-87d9-c13b37de3e56))
  (fp_line (start 6.64 35.18) (end 12.64 35.18) (layer "F.SilkS") (width 0.12) (tstamp 39b590cc-cdf5-4d35-abf7-caaa05053580))
  (fp_line (start 1.042929 66.42) (end 1.497071 66.42) (layer "F.SilkS") (width 0.12) (tstamp 39c744f8-1c0a-4c95-b7ec-c48d8942240e))
  (fp_line (start 6.64 70.74) (end 12.64 70.74) (layer "F.SilkS") (width 0.12) (tstamp 3ad02d56-7e18-4e3f-82a7-c1499856b606))
  (fp_line (start 3.582929 35.18) (end 3.98 35.18) (layer "F.SilkS") (width 0.12) (tstamp 3add36b5-ae24-4331-960f-79fac950bfd1))
  (fp_line (start 12.64 -0.38) (end 12.64 0.38) (layer "F.SilkS") (width 0.12) (tstamp 3e182b07-7a73-4adb-9cda-0f058b4841dc))
  (fp_line (start 12.64 25.78) (end 6.64 25.78) (layer "F.SilkS") (width 0.12) (tstamp 4174fea9-0720-421a-a624-c77b1fc8d1a1))
  (fp_line (start 12.64 63.12) (end 12.64 63.88) (layer "F.SilkS") (width 0.12) (tstamp 4195af4d-535e-4174-aa3a-03a997685084))
  (fp_line (start 1.042929 63.12) (end 1.497071 63.12) (layer "F.SilkS") (width 0.12) (tstamp 41aac9ec-2cb0-4c74-9f44-fc67b78714b6))
  (fp_line (start 3.582929 2.92) (end 3.98 2.92) (layer "F.SilkS") (width 0.12) (tstamp 43120882-1bf3-4346-8f00-d9a6bd179fb1))
  (fp_line (start 1.042929 61.34) (end 1.497071 61.34) (layer "F.SilkS") (width 0.12) (tstamp 444ddaf5-227a-4b6b-aba9-0514a7e49d75))
  (fp_line (start 3.582929 38.48) (end 3.98 38.48) (layer "F.SilkS") (width 0.12) (tstamp 45117422-ebf0-433a-95d1-46d13e3a7893))
  (fp_line (start 3.98 1.27) (end 6.64 1.27) (layer "F.SilkS") (width 0.12) (tstamp 46b72ae0-1869-4d4b-807a-5e82899c9cb1))
  (fp_line (start 12.64 52.96) (end 12.64 53.72) (layer "F.SilkS") (width 0.12) (tstamp 46e2aaa0-6c1e-4d4b-8f76-a393ffb9ffcc))
  (fp_line (start 12.64 47.88) (end 12.64 48.64) (layer "F.SilkS") (width 0.12) (tstamp 472eebec-5d6e-4759-aa6c-1d933435a9f9))
  (fp_line (start 3.98 19.05) (end 6.64 19.05) (layer "F.SilkS") (width 0.12) (tstamp 4b0c81c9-b89b-46eb-b596-9e98ff40c695))
  (fp_line (start 3.98 26.67) (end 6.64 26.67) (layer "F.SilkS") (width 0.12) (tstamp 4bb0f21a-9e38-4b16-b019-e216637652dd))
  (fp_line (start 1.042929 73.28) (end 1.497071 73.28) (layer "F.SilkS") (width 0.12) (tstamp 4c2d37ac-4d89-4226-92cb-16e4719df570))
  (fp_line (start 3.582929 22.48) (end 3.98 22.48) (layer "F.SilkS") (width 0.12) (tstamp 4cf8f801-ed13-4998-8e20-c7972e6db963))
  (fp_line (start -1.27 -1.27) (end 0 -1.27) (layer "F.SilkS") (width 0.12) (tstamp 4ea47aa0-51f6-4b10-89f5-2d7720a83cfa))
  (fp_line (start 1.042929 19.94) (end 1.497071 19.94) (layer "F.SilkS") (width 0.12) (tstamp 4f245bf5-94f0-41ec-a3b3-7a242ad427d6))
  (fp_line (start 3.582929 27.56) (end 3.98 27.56) (layer "F.SilkS") (width 0.12) (tstamp 4f42e696-6a26-436d-87a0-27c44e7016bc))
  (fp_line (start 1.042929 28.32) (end 1.497071 28.32) (layer "F.SilkS") (width 0.12) (tstamp 4fe095dd-64a1-4955-a5f4-d545af039853))
  (fp_line (start 12.64 53.72) (end 6.64 53.72) (layer "F.SilkS") (width 0.12) (tstamp 50d165a6-0c36-40ca-8e35-48d14db237e6))
  (fp_line (start 6.64 58.04) (end 12.64 58.04) (layer "F.SilkS") (width 0.12) (tstamp 516cc2b8-4472-4b8c-8852-7db53e7c1aea))
  (fp_line (start 12.64 68.2) (end 12.64 68.96) (layer "F.SilkS") (width 0.12) (tstamp 52b20ac8-fc47-4527-a3b0-7e0b9b5fff86))
  (fp_line (start 1.042929 8) (end 1.497071 8) (layer "F.SilkS") (width 0.12) (tstamp 52b9afc8-ed7a-4b6e-b323-9229dbd14b71))
  (fp_line (start 3.582929 30.1) (end 3.98 30.1) (layer "F.SilkS") (width 0.12) (tstamp 53056f85-8478-45f5-9af4-0ebed8132b67))
  (fp_line (start 3.98 8.89) (end 6.64 8.89) (layer "F.SilkS") (width 0.12) (tstamp 5320d9ab-6a9f-4ac1-a54c-8a5616ccf084))
  (fp_line (start 6.64 9.78) (end 12.64 9.78) (layer "F.SilkS") (width 0.12) (tstamp 537394c1-a3aa-48f9-b467-3049fad7251b))
  (fp_line (start 3.582929 14.86) (end 3.98 14.86) (layer "F.SilkS") (width 0.12) (tstamp 5432f330-fe43-4495-ac46-3d80896a7aa8))
  (fp_line (start 3.582929 48.64) (end 3.98 48.64) (layer "F.SilkS") (width 0.12) (tstamp 54d337fc-31bd-429a-91fe-4e3a9aa6c786))
  (fp_line (start 1.042929 58.8) (end 1.497071 58.8) (layer "F.SilkS") (width 0.12) (tstamp 54f09443-15e3-4485-8b76-0b41260c5dc1))
  (fp_line (start 1.042929 30.1) (end 1.497071 30.1) (layer "F.SilkS") (width 0.12) (tstamp 575096db-0513-44c7-9567-a2e45a2d808a))
  (fp_line (start 1.042929 35.18) (end 1.497071 35.18) (layer "F.SilkS") (width 0.12) (tstamp 581176ad-1cd6-488f-8a35-de556ee9abca))
  (fp_line (start 3.98 3.81) (end 6.64 3.81) (layer "F.SilkS") (width 0.12) (tstamp 59bcd678-8c72-4f89-91bd-90d31d71e19b))
  (fp_line (start 3.98 62.23) (end 6.64 62.23) (layer "F.SilkS") (width 0.12) (tstamp 5af38e04-3d7b-4591-bf4d-c7775d028fb9))
  (fp_line (start 1.042929 37.72) (end 1.497071 37.72) (layer "F.SilkS") (width 0.12) (tstamp 5b9696fb-d4cc-4a70-b25c-efeec241e18c))
  (fp_line (start 3.582929 19.94) (end 3.98 19.94) (layer "F.SilkS") (width 0.12) (tstamp 5c7b1db3-9806-45df-b893-7181e9efdfc5))
  (fp_line (start 3.582929 23.24) (end 3.98 23.24) (layer "F.SilkS") (width 0.12) (tstamp 5f1f0de1-2d9d-4b07-a05e-a00003e2abb2))
  (fp_line (start 12.64 60.58) (end 12.64 61.34) (layer "F.SilkS") (width 0.12) (tstamp 5f62e6ff-876c-49e4-bd9c-d7cebadd227a))
  (fp_line (start 3.582929 47.88) (end 3.98 47.88) (layer "F.SilkS") (width 0.12) (tstamp 600bf749-6142-4630-95d0-c4478406fcfe))
  (fp_line (start 6.64 7.24) (end 12.64 7.24) (layer "F.SilkS") (width 0.12) (tstamp 60ab082f-66ab-4203-986d-65fd154e1189))
  (fp_line (start 3.582929 73.28) (end 3.98 73.28) (layer "F.SilkS") (width 0.12) (tstamp 61697f46-b807-4575-8e48-a31e19e81f67))
  (fp_line (start 3.582929 25.02) (end 3.98 25.02) (layer "F.SilkS") (width 0.12) (tstamp 61bed488-c3f6-4039-9976-4d130b702389))
  (fp_line (start 3.582929 46.1) (end 3.98 46.1) (layer "F.SilkS") (width 0.12) (tstamp 6548c1a0-18fb-4649-a237-8832f0430d70))
  (fp_line (start 3.582929 58.04) (end 3.98 58.04) (layer "F.SilkS") (width 0.12) (tstamp 65575247-0940-4b26-a07c-64baf85b6a90))
  (fp_line (start 3.582929 12.32) (end 3.98 12.32) (layer "F.SilkS") (width 0.12) (tstamp 66d98e94-ede0-4996-a72e-ccb1bcdca088))
  (fp_line (start 12.64 8) (end 6.64 8) (layer "F.SilkS") (width 0.12) (tstamp 672e15f8-d4fd-42a7-8f91-8d7a278fd989))
  (fp_line (start 12.64 73.28) (end 12.64 74.04) (layer "F.SilkS") (width 0.12) (tstamp 699fa4b4-a9a6-4373-96bc-e673bbb7b5e4))
  (fp_line (start 1.042929 68.2) (end 1.497071 68.2) (layer "F.SilkS") (width 0.12) (tstamp 6b39da32-1b0a-4e1f-ad01-c9071311b420))
  (fp_line (start 1.042929 12.32) (end 1.497071 12.32) (layer "F.SilkS") (width 0.12) (tstamp 6c10be6d-b866-4227-8693-51f30b37724e))
  (fp_line (start 3.582929 35.94) (end 3.98 35.94) (layer "F.SilkS") (width 0.12) (tstamp 6eaa5e32-d0ef-4a4f-99f6-42bbedf125ce))
  (fp_line (start 3.98 41.91) (end 6.64 41.91) (layer "F.SilkS") (width 0.12) (tstamp 705e5a72-f61e-4382-ba12-2f2685d2c0ad))
  (fp_line (start 3.98 72.39) (end 6.64 72.39) (layer "F.SilkS") (width 0.12) (tstamp 707f6c9c-3588-40a8-b074-a8511e1cb33a))
  (fp_line (start 3.582929 28.32) (end 3.98 28.32) (layer "F.SilkS") (width 0.12) (tstamp 73064513-23e4-4b69-a5d1-c8332af2b55f))
  (fp_line (start 1.042929 60.58) (end 1.497071 60.58) (layer "F.SilkS") (width 0.12) (tstamp 730de05b-5ade-43b2-9dee-f3fa2026346b))
  (fp_line (start 3.98 46.99) (end 6.64 46.99) (layer "F.SilkS") (width 0.12) (tstamp 73c554ce-12be-429a-b5dd-c6c53a163b24))
  (fp_line (start 12.64 61.34) (end 6.64 61.34) (layer "F.SilkS") (width 0.12) (tstamp 751bc1b2-40f8-438e-92f4-22456ab7a80f))
  (fp_line (start 12.64 65.66) (end 12.64 66.42) (layer "F.SilkS") (width 0.12) (tstamp 757d84f3-2f32-4cfd-a2bc-04a813487b2a))
  (fp_line (start 3.98 57.15) (end 6.64 57.15) (layer "F.SilkS") (width 0.12) (tstamp 75d387a7-ed03-49ef-b284-377ae54eaa25))
  (fp_line (start 12.64 10.54) (end 6.64 10.54) (layer "F.SilkS") (width 0.12) (tstamp 7783f2c3-d5e1-421b-97f2-96a25c8700b7))
  (fp_line (start 12.64 50.42) (end 12.64 51.18) (layer "F.SilkS") (width 0.12) (tstamp 77cef3d0-36ec-4efe-989c-fd0ed46c0e1a))
  (fp_line (start 6.64 47.88) (end 12.64 47.88) (layer "F.SilkS") (width 0.12) (tstamp 79cf641c-d21c-4070-af80-93f196ceb5a3))
  (fp_line (start 6.64 40.26) (end 12.64 40.26) (layer "F.SilkS") (width 0.12) (tstamp 7a0ea073-9612-4aab-8c83-bf0b0a005d63))
  (fp_line (start 1.042929 17.4) (end 1.497071 17.4) (layer "F.SilkS") (width 0.12) (tstamp 7a4e4dc6-e551-484d-bb8d-e28a34fc5b4f))
  (fp_line (start 3.98 39.37) (end 6.64 39.37) (layer "F.SilkS") (width 0.12) (tstamp 7b2b2a60-5d58-40ae-a453-48fdd32a59c8))
  (fp_line (start 1.042929 56.26) (end 1.497071 56.26) (layer "F.SilkS") (width 0.12) (tstamp 7c69ec1b-111e-4d88-b224-a4c73ac8291e))
  (fp_line (start 1.042929 43.56) (end 1.497071 43.56) (layer "F.SilkS") (width 0.12) (tstamp 7c8c79eb-5a8f-4dc8-a3b7-f1e6e015907e))
  (fp_line (start 3.98 11.43) (end 6.64 11.43) (layer "F.SilkS") (width 0.12) (tstamp 7cf5701b-5711-47b5-96ff-fdccf431f656))
  (fp_line (start 1.042929 5.46) (end 1.497071 5.46) (layer "F.SilkS") (width 0.12) (tstamp 7e02ebd0-92c4-49cc-8a84-5d8956aa4c3a))
  (fp_line (start 6.64 19.94) (end 12.64 19.94) (layer "F.SilkS") (width 0.12) (tstamp 81d83206-a944-4ddf-9ea9-dd3b8a240228))
  (fp_line (start 12.64 38.48) (end 6.64 38.48) (layer "F.SilkS") (width 0.12) (tstamp 82c03971-05ca-4a26-adba-cdbe77e4d7b8))
  (fp_line (start 3.98 64.77) (end 6.64 64.77) (layer "F.SilkS") (width 0.12) (tstamp 82cd5685-accb-4944-a8f0-e89913d03798))
  (fp_line (start 3.582929 10.54) (end 3.98 10.54) (layer "F.SilkS") (width 0.12) (tstamp 845e718d-c599-43c1-8e95-b6d3ba75f6ec))
  (fp_line (start 12.64 5.46) (end 6.64 5.46) (layer "F.SilkS") (width 0.12) (tstamp 8484fd9b-bd80-486f-952b-bff668d5fa64))
  (fp_line (start 1.042929 23.24) (end 1.497071 23.24) (layer "F.SilkS") (width 0.12) (tstamp 86026b78-0226-4622-b363-32d028d0e03f))
  (fp_line (start 3.582929 40.26) (end 3.98 40.26) (layer "F.SilkS") (width 0.12) (tstamp 8603fd41-9223-4f6b-8105-58dad3480399))
  (fp_line (start 3.98 36.83) (end 6.64 36.83) (layer "F.SilkS") (width 0.12) (tstamp 867b662d-371e-4257-bdde-39e5da34d64a))
  (fp_line (start 6.64 65.66) (end 12.64 65.66) (layer "F.SilkS") (width 0.12) (tstamp 86a9d08f-dcad-435d-ad6f-a3bd96d6149c))
  (fp_line (start 1.042929 22.48) (end 1.497071 22.48) (layer "F.SilkS") (width 0.12) (tstamp 86f1c199-5032-45a4-ae70-966659f23bba))
  (fp_line (start 12.64 56.26) (end 6.64 56.26) (layer "F.SilkS") (width 0.12) (tstamp 87c2f9f9-6a9f-45fc-951c-115b710fa076))
  (fp_line (start 3.582929 70.74) (end 3.98 70.74) (layer "F.SilkS") (width 0.12) (tstamp 8958c21e-6f42-418f-906f-dbea9d8d3afa))
  (fp_line (start 1.042929 14.86) (end 1.497071 14.86) (layer "F.SilkS") (width 0.12) (tstamp 896ef537-9fe2-4a0b-bd21-ed87b2b90e06))
  (fp_line (start 1.11 -0.38) (end 1.497071 -0.38) (layer "F.SilkS") (width 0.12) (tstamp 8b269473-cf5c-4820-a798-88f9575d9d53))
  (fp_line (start 1.042929 25.78) (end 1.497071 25.78) (layer "F.SilkS") (width 0.12) (tstamp 8d2332ea-8c00-499e-850b-f363760828f1))
  (fp_line (start 3.98 74.99) (end 6.64 74.99) (layer "F.SilkS") (width 0.12) (tstamp 8e0393cc-1785-4537-9ebb-598ffac76eb8))
  (fp_line (start 12.64 28.32) (end 6.64 28.32) (layer "F.SilkS") (width 0.12) (tstamp 8e513d7d-adb6-49d8-bcfa-49d6d065954f))
  (fp_line (start 3.582929 53.72) (end 3.98 53.72) (layer "F.SilkS") (width 0.12) (tstamp 8e8dc655-2cb7-4c01-b35a-26ddfc3a9271))
  (fp_line (start 12.64 42.8) (end 12.64 43.56) (layer "F.SilkS") (width 0.12) (tstamp 90077fc2-0715-4ea5-bacd-4270d80753c2))
  (fp_line (start 6.64 63.12) (end 12.64 63.12) (layer "F.SilkS") (width 0.12) (tstamp 920c2253-3228-496d-90b5-85a846ea47c6))
  (fp_line (start 1.042929 42.8) (end 1.497071 42.8) (layer "F.SilkS") (width 0.12) (tstamp 9233d89c-c2b6-4751-9caa-6e7ae744059f))
  (fp_line (start 1.11 0.38) (end 1.497071 0.38) (layer "F.SilkS") (width 0.12) (tstamp 938564ba-6572-414b-a417-a7a3ca56b235))
  (fp_line (start 3.582929 15.62) (end 3.98 15.62) (layer "F.SilkS") (width 0.12) (tstamp 93ea8a4f-b8fb-44fb-ba07-6546a05543e5))
  (fp_line (start 12.64 71.5) (end 6.64 71.5) (layer "F.SilkS") (width 0.12) (tstamp 94f9ddc7-bbd0-42d6-af52-0a2ba83326a3))
  (fp_line (start 1.042929 74.04) (end 1.497071 74.04) (layer "F.SilkS") (width 0.12) (tstamp 9502f21c-fa88-4af6-add7-5c9d4724a943))
  (fp_line (start 3.582929 68.96) (end 3.98 68.96) (layer "F.SilkS") (width 0.12) (tstamp 95ac2c75-7217-41f3-9b03-a361b5f956d3))
  (fp_line (start 6.64 68.2) (end 12.64 68.2) (layer "F.SilkS") (width 0.12) (tstamp 963a4534-de52-409a-80f9-f8a95cddb78d))
  (fp_line (start 3.98 6.35) (end 6.64 6.35) (layer "F.SilkS") (width 0.12) (tstamp 963df7c0-299c-4b76-8e41-3ae2c34a6593))
  (fp_line (start 12.64 2.16) (end 12.64 2.92) (layer "F.SilkS") (width 0.12) (tstamp 96fc55cb-c711-48f2-ba86-e3816cf277cf))
  (fp_line (start 3.582929 45.34) (end 3.98 45.34) (layer "F.SilkS") (width 0.12) (tstamp 9c84ceb6-79cc-48eb-8972-30a3cdfc30d0))
  (fp_line (start 12.64 7.24) (end 12.64 8) (layer "F.SilkS") (width 0.12) (tstamp 9d68f9cc-a47b-4f4f-9786-80ad5b81b9dc))
  (fp_line (start 12.64 40.26) (end 12.64 41.02) (layer "F.SilkS") (width 0.12) (tstamp 9e2d5c96-a7f4-48fc-b7d8-0d97c11f1172))
  (fp_line (start 12.64 12.32) (end 12.64 13.08) (layer "F.SilkS") (width 0.12) (tstamp 9e2e3b24-16b2-43f2-a140-f72041af5d3f))
  (fp_line (start 3.582929 41.02) (end 3.98 41.02) (layer "F.SilkS") (width 0.12) (tstamp 9f0c8ba5-0bfc-4a28-98df-963a2f0a0a58))
  (fp_line (start 1.042929 13.08) (end 1.497071 13.08) (layer "F.SilkS") (width 0.12) (tstamp 9f673be1-650c-4fa2-9bac-e1b6d46e7d28))
  (fp_line (start 12.64 48.64) (end 6.64 48.64) (layer "F.SilkS") (width 0.12) (tstamp a05cdd06-b1ed-4bd5-84d3-e6e47d060736))
  (fp_line (start 6.64 0.04) (end 12.64 0.04) (layer "F.SilkS") (width 0.12) (tstamp a0ea5703-9285-42d4-86b3-18cdf53e1ce1))
  (fp_line (start 3.582929 63.12) (end 3.98 63.12) (layer "F.SilkS") (width 0.12) (tstamp a17441bc-dfa1-496c-9217-0f0835398f39))
  (fp_line (start 3.98 31.75) (end 6.64 31.75) (layer "F.SilkS") (width 0.12) (tstamp a1891fe1-ccc2-4f04-a72e-c122c822b30d))
  (fp_line (start 1.042929 30.86) (end 1.497071 30.86) (layer "F.SilkS") (width 0.12) (tstamp a18a4210-0e60-4486-89e2-0f9c8348f258))
  (fp_line (start 1.042929 48.64) (end 1.497071 48.64) (layer "F.SilkS") (width 0.12) (tstamp a262a455-e42c-4446-b3e5-33a807ffb047))
  (fp_line (start 3.582929 42.8) (end 3.98 42.8) (layer "F.SilkS") (width 0.12) (tstamp a4c83b77-a3f7-4a65-b19e-0095a4775f0d))
  (fp_line (start 12.64 23.24) (end 6.64 23.24) (layer "F.SilkS") (width 0.12) (tstamp a5062e37-0f48-4d56-a100-0f7cedcce1e6))
  (fp_line (start 6.64 42.8) (end 12.64 42.8) (layer "F.SilkS") (width 0.12) (tstamp a55de6bc-f6bd-4a5e-aa31-bcdcd91df6ee))
  (fp_line (start 1.042929 50.42) (end 1.497071 50.42) (layer "F.SilkS") (width 0.12) (tstamp a57a53cb-6bc9-4263-b239-aef6a440bd1d))
  (fp_line (start 6.64 14.86) (end 12.64 14.86) (layer "F.SilkS") (width 0.12) (tstamp a5f75bcb-3f92-479c-ad93-edcde1bc9d86))
  (fp_line (start 1.042929 55.5) (end 1.497071 55.5) (layer "F.SilkS") (width 0.12) (tstamp a69ad5e5-c1e6-49a2-b23d-8643b81adc8a))
  (fp_line (start 12.64 33.4) (end 6.64 33.4) (layer "F.SilkS") (width 0.12) (tstamp a8814e0b-d039-40f2-8561-2fb0efd1e840))
  (fp_line (start 1.042929 2.92) (end 1.497071 2.92) (layer "F.SilkS") (width 0.12) (tstamp a9308f83-d69c-4aed-86d7-66d5677115d2))
  (fp_line (start 1.042929 51.18) (end 1.497071 51.18) (layer "F.SilkS") (width 0.12) (tstamp ab5a9d63-7ac4-4a5b-b7be-a243c074b144))
  (fp_line (start 3.98 21.59) (end 6.64 21.59) (layer "F.SilkS") (width 0.12) (tstamp af55fbe9-93e2-4fbc-919e-973e7e9ecf02))
  (fp_line (start 3.582929 30.86) (end 3.98 30.86) (layer "F.SilkS") (width 0.12) (tstamp b0019633-93da-463a-af37-09b855055b6f))
  (fp_line (start 3.98 54.61) (end 6.64 54.61) (layer "F.SilkS") (width 0.12) (tstamp b0dd3066-edbd-4a85-8028-14163af2854e))
  (fp_line (start 12.64 58.04) (end 12.64 58.8) (layer "F.SilkS") (width 0.12) (tstamp b0f284cb-53cb-4b5d-8554-4f4f9aa6bd5d))
  (fp_line (start 1.042929 71.5) (end 1.497071 71.5) (layer "F.SilkS") (width 0.12) (tstamp b1671f36-5537-45f2-b861-a9e50b48f3b5))
  (fp_line (start 1.042929 68.96) (end 1.497071 68.96) (layer "F.SilkS") (width 0.12) (tstamp b37f5dc4-59ed-4ec8-9f48-af815aba6f5c))
  (fp_line (start 1.042929 9.78) (end 1.497071 9.78) (layer "F.SilkS") (width 0.12) (tstamp b48ac84e-b251-449d-9b4c-6aac9ed21fa7))
  (fp_line (start 6.64 52.96) (end 12.64 52.96) (layer "F.SilkS") (width 0.12) (tstamp b6661a30-61fd-4b80-98f4-dfea7ef0b3a0))
  (fp_line (start 1.042929 20.7) (end 1.497071 20.7) (layer "F.SilkS") (width 0.12) (tstamp b6da7719-5b1c-42db-a308-eb39e8b1807a))
  (fp_line (start 3.582929 51.18) (end 3.98 51.18) (layer "F.SilkS") (width 0.12) (tstamp b7db607e-a634-4352-9ef3-c99b8c9c3278))
  (fp_line (start 12.64 41.02) (end 6.64 41.02) (layer "F.SilkS") (width 0.12) (tstamp b98b8acf-14b0-42f1-ab2b-cdbc37686e12))
  (fp_line (start 6.64 0.28) (end 12.64 0.28) (layer "F.SilkS") (width 0.12) (tstamp ba24c671-3e26-46ff-8164-4b011c69102e))
  (fp_line (start 1.042929 70.74) (end 1.497071 70.74) (layer "F.SilkS") (width 0.12) (tstamp ba4c469d-78f5-4465-a706-236c51e2ab5c))
  (fp_line (start 12.64 55.5) (end 12.64 56.26) (layer "F.SilkS") (width 0.12) (tstamp bbc8a8e0-a559-4337-9961-5f5830015c16))
  (fp_line (start 1.042929 4.7) (end 1.497071 4.7) (layer "F.SilkS") (width 0.12) (tstamp bbed7d53-a3c9-4fb7-b7c3-47ab2fe50ea5))
  (fp_line (start 3.582929 5.46) (end 3.98 5.46) (layer "F.SilkS") (width 0.12) (tstamp bc57d7d6-1f33-4b87-985c-397b5c42cb84))
  (fp_line (start 1.042929 45.34) (end 1.497071 45.34) (layer "F.SilkS") (width 0.12) (tstamp bc767b96-c1ff-4512-b297-c0123aac0cfd))
  (fp_line (start 3.582929 25.78) (end 3.98 25.78) (layer "F.SilkS") (width 0.12) (tstamp bd35e61b-6e80-41ef-897e-649d3377a784))
  (fp_line (start 3.582929 60.58) (end 3.98 60.58) (layer "F.SilkS") (width 0.12) (tstamp bdb6ed2d-7171-494b-bbd3-83eb368ed2b5))
  (fp_line (start 12.64 17.4) (end 12.64 18.16) (layer "F.SilkS") (width 0.12) (tstamp bef3197c-7172-4541-9d12-9b431c83986b))
  (fp_line (start 12.64 14.86) (end 12.64 15.62) (layer "F.SilkS") (width 0.12) (tstamp bf48472c-2bfe-4cf1-bb8b-13f3451cc7a5))
  (fp_line (start 12.64 2.92) (end 6.64 2.92) (layer "F.SilkS") (width 0.12) (tstamp bf9238c6-c51f-4772-aec4-07a9e21a7d1f))
  (fp_line (start 3.582929 71.5) (end 3.98 71.5) (layer "F.SilkS") (width 0.12) (tstamp c0300e82-a7ef-4e3a-b242-8db0a704aa0c))
  (fp_line (start 6.64 74.99) (end 6.64 -1.33) (layer "F.SilkS") (width 0.12) (tstamp c2bffcc6-6d48-4ee7-81f9-7c0c2717c652))
  (fp_line (start 3.582929 50.42) (end 3.98 50.42) (layer "F.SilkS") (width 0.12) (tstamp c2c035a6-f8b1-40c5-9378-e03422265029))
  (fp_line (start 12.64 37.72) (end 12.64 38.48) (layer "F.SilkS") (width 0.12) (tstamp c35e3f14-a194-468b-a07c-36e8d082a97b))
  (fp_line (start 6.64 12.32) (end 12.64 12.32) (layer "F.SilkS") (width 0.12) (tstamp c4aa1d36-8da7-4df4-ac47-2db4580f4370))
  (fp_line (start 3.582929 52.96) (end 3.98 52.96) (layer "F.SilkS") (width 0.12) (tstamp c62d8d0f-0fae-42e8-bcd0-6a14754f4a16))
  (fp_line (start 12.64 32.64) (end 12.64 33.4) (layer "F.SilkS") (width 0.12) (tstamp c75056be-2022-448c-a972-be6d6e67754e))
  (fp_line (start 1.042929 47.88) (end 1.497071 47.88) (layer "F.SilkS") (width 0.12) (tstamp c75072ce-c04a-4220-b750-3e3630729f60))
  (fp_line (start 6.64 25.02) (end 12.64 25.02) (layer "F.SilkS") (width 0.12) (tstamp c75f86a2-c441-4a9d-abbc-92814fb8345e))
  (fp_line (start 12.64 27.56) (end 12.64 28.32) (layer "F.SilkS") (width 0.12) (tstamp ca97f7cf-f443-4836-b027-92ed80ddd89f))
  (fp_line (start 1.042929 46.1) (end 1.497071 46.1) (layer "F.SilkS") (width 0.12) (tstamp caed3b21-cd09-422b-868c-00633d2eb723))
  (fp_line (start 3.98 34.29) (end 6.64 34.29) (layer "F.SilkS") (width 0.12) (tstamp cc11ee05-ce81-4f5b-af0b-2139bb26e605))
  (fp_line (start 3.98 16.51) (end 6.64 16.51) (layer "F.SilkS") (width 0.12) (tstamp ce0fcf04-a748-49c4-9aef-c365df84e4a3))
  (fp_line (start 3.582929 68.2) (end 3.98 68.2) (layer "F.SilkS") (width 0.12) (tstamp cf7f0ab4-109c-4354-8a24-65dd6ae18f17))
  (fp_line (start 12.64 58.8) (end 6.64 58.8) (layer "F.SilkS") (width 0.12) (tstamp cfc6ea41-1b69-4442-88bb-2678980345df))
  (fp_line (start 12.64 15.62) (end 6.64 15.62) (layer "F.SilkS") (width 0.12) (tstamp cffebf73-21fe-43a7-b022-d195625e4bee))
  (fp_line (start 6.64 55.5) (end 12.64 55.5) (layer "F.SilkS") (width 0.12) (tstamp d1bd5288-8461-4088-ac2e-f5d761a9b39f))
  (fp_line (start 3.582929 7.24) (end 3.98 7.24) (layer "F.SilkS") (width 0.12) (tstamp d21c73de-fcc0-4c3e-bb80-f41bb571669b))
  (fp_line (start 1.042929 35.94) (end 1.497071 35.94) (layer "F.SilkS") (width 0.12) (tstamp d263b4bc-77a6-4d49-813b-a854cf7c680e))
  (fp_line (start 12.64 43.56) (end 6.64 43.56) (layer "F.SilkS") (width 0.12) (tstamp d49b10fa-e431-4c6a-bea3-15b865de6854))
  (fp_line (start 3.98 52.07) (end 6.64 52.07) (layer "F.SilkS") (width 0.12) (tstamp d4f8ed1d-d8b8-4f91-9b7e-111ba73cc294))
  (fp_line (start 3.98 -1.33) (end 3.98 74.99) (layer "F.SilkS") (width 0.12) (tstamp d5af7e41-f6ac-4cf7-8f2a-07dd7213a061))
  (fp_line (start 3.582929 2.16) (end 3.98 2.16) (layer "F.SilkS") (width 0.12) (tstamp d69e7fa9-c5db-4295-bc76-bac2a1958190))
  (fp_line (start 12.64 0.38) (end 6.64 0.38) (layer "F.SilkS") (width 0.12) (tstamp d72b65f6-e587-48a2-b295-6e075995bc18))
  (fp_line (start 1.042929 32.64) (end 1.497071 32.64) (layer "F.SilkS") (width 0.12) (tstamp d8b40a6e-69be-4fb2-b728-8290ed889443))
  (fp_line (start 3.582929 13.08) (end 3.98 13.08) (layer "F.SilkS") (width 0.12) (tstamp ddf0b57d-0bfc-4760-b6e5-3de6917349fc))
  (fp_line (start 6.64 17.4) (end 12.64 17.4) (layer "F.SilkS") (width 0.12) (tstamp de205a71-28b7-4d23-8ebe-6f44ec5e7a24))
  (fp_line (start 12.64 13.08) (end 6.64 13.08) (layer "F.SilkS") (width 0.12) (tstamp de92342f-53e8-4c7e-8d44-ad7e8e495978))
  (fp_line (start 1.042929 38.48) (end 1.497071 38.48) (layer "F.SilkS") (width 0.12) (tstamp e12bdb81-92d9-4fc1-a49c-a5cd600482e5))
  (fp_line (start 3.582929 8) (end 3.98 8) (layer "F.SilkS") (width 0.12) (tstamp e2257ad8-38b7-4f7d-8d07-12f6eaa33eff))
  (fp_line (start 12.64 20.7) (end 6.64 20.7) (layer "F.SilkS") (width 0.12) (tstamp e408a709-2bdb-4e16-a407-6faa0cb2ce5d))
  (fp_line (start 3.582929 56.26) (end 3.98 56.26) (layer "F.SilkS") (width 0.12) (tstamp e412775a-3d2c-408c-a09d-ce8617f07a33))
  (fp_line (start 1.042929 7.24) (end 1.497071 7.24) (layer "F.SilkS") (width 0.12) (tstamp e5eb892a-5f0c-4ab8-ab56-3e7ce8c7fecf))
  (fp_line (start 6.64 73.28) (end 12.64 73.28) (layer "F.SilkS") (width 0.12) (tstamp e7a622e6-78d9-413a-b1d1-dd290136fffe))
  (fp_line (start 6.64 0.16) (end 12.64 0.16) (layer "F.SilkS") (width 0.12) (tstamp e81c1a46-81a8-4d9d-8694-3da7c901b37c))
  (fp_line (start 12.64 25.02) (end 12.64 25.78) (layer "F.SilkS") (width 0.12) (tstamp e9530695-344a-42c3-82bd-3e1accd4c24d))
  (fp_line (start 12.64 30.86) (end 6.64 30.86) (layer "F.SilkS") (width 0.12) (tstamp ec0d4132-ffdb-4bd4-8d67-fad18ceaac85))
  (fp_line (start 3.582929 65.66) (end 3.98 65.66) (layer "F.SilkS") (width 0.12) (tstamp ed0a798a-7bd5-4865-8a7b-96bdcfc27fc3))
  (fp_line (start 6.64 50.42) (end 12.64 50.42) (layer "F.SilkS") (width 0.12) (tstamp ed2ea3dd-fe8b-4ea8-917a-068f65f08663))
  (fp_line (start 3.582929 4.7) (end 3.98 4.7) (layer "F.SilkS") (width 0.12) (tstamp edd1d2f9-7aa1-416a-92ab-89d8a52f5fe6))
  (fp_line (start 1.042929 41.02) (end 1.497071 41.02) (layer "F.SilkS") (width 0.12) (tstamp f093c72e-b809-4c72-b606-3a31cb3b3ba2))
  (fp_line (start 3.582929 33.4) (end 3.98 33.4) (layer "F.SilkS") (width 0.12) (tstamp f1ab65af-c03b-4c51-82e7-b4c10f7a1e1e))
  (fp_line (start 1.042929 53.72) (end 1.497071 53.72) (layer "F.SilkS") (width 0.12) (tstamp f22b71f8-3151-424c-a7b4-2171c351c3ba))
  (fp_line (start 6.64 -0.2) (end 12.64 -0.2) (layer "F.SilkS") (width 0.12) (tstamp f27a7e93-fdf0-4c2f-b85b-d2d9086e252b))
  (fp_line (start 12.64 19.94) (end 12.64 20.7) (layer "F.SilkS") (width 0.12) (tstamp f3d5b233-2f6e-445a-899c-4391dbf1de35))
  (fp_line (start 3.98 67.31) (end 6.64 67.31) (layer "F.SilkS") (width 0.12) (tstamp fa63ab87-1bbb-4a7e-9313-7b7ecb42c3da))
  (fp_line (start 3.582929 74.04) (end 3.98 74.04) (layer "F.SilkS") (width 0.12) (tstamp fb24c41d-0808-4178-8d38-66cbd4fbc3e6))
  (fp_line (start -1.8 -1.8) (end -1.8 75.45) (layer "F.CrtYd") (width 0.05) (tstamp 2d311302-c113-4a44-aab7-f8b7d08a0799))
  (fp_line (start 13.1 -1.8) (end -1.8 -1.8) (layer "F.CrtYd") (width 0.05) (tstamp 57760da6-1e99-4d7f-9761-52f174420e1e))
  (fp_line (start 13.1 75.45) (end 13.1 -1.8) (layer "F.CrtYd") (width 0.05) (tstamp 5970b818-b292-4de5-9a5d-2191ba5bbc58))
  (fp_line (start -1.8 75.45) (end 13.1 75.45) (layer "F.CrtYd") (width 0.05) (tstamp e8e3a4d6-207f-4da3-a0bd-2c6c7578c9f4))
  (fp_line (start 12.58 45.4) (end 12.58 46.04) (layer "F.Fab") (width 0.1) (tstamp 0304dd7f-6853-4ec6-a1e1-e032cca9ab33))
  (fp_line (start -0.32 12.38) (end 4.04 12.38) (layer "F.Fab") (width 0.1) (tstamp 0347d0dc-5aa2-46de-8bd2-d3fa93069ec0))
  (fp_line (start -0.32 63.18) (end 4.04 63.18) (layer "F.Fab") (width 0.1) (tstamp 03a68a4b-90ae-4433-a253-6ddbf1b5777b))
  (fp_line (start -0.32 33.34) (end 4.04 33.34) (layer "F.Fab") (width 0.1) (tstamp 04ab27d8-52e7-4f02-b458-f34954deffd4))
  (fp_line (start -0.32 25.08) (end 4.04 25.08) (layer "F.Fab") (width 0.1) (tstamp 06e4ef13-e1c4-49aa-8b1f-b2aa75e0b581))
  (fp_line (start -0.32 17.46) (end 4.04 17.46) (layer "F.Fab") (width 0.1) (tstamp 0721ea6c-25b4-450e-ab18-1c45c4136fd8))
  (fp_line (start -0.32 42.86) (end 4.04 42.86) (layer "F.Fab") (width 0.1) (tstamp 0742a216-34ca-4a39-a371-e4e27984d22b))
  (fp_line (start -0.32 70.8) (end 4.04 70.8) (layer "F.Fab") (width 0.1) (tstamp 079edc3d-7f72-429c-b55e-70dcc2573ece))
  (fp_line (start -0.32 4.76) (end 4.04 4.76) (layer "F.Fab") (width 0.1) (tstamp 07a5dead-fb3c-41ae-a40a-a332aaf1b2a1))
  (fp_line (start 12.58 42.86) (end 12.58 43.5) (layer "F.Fab") (width 0.1) (tstamp 0829614b-45f8-427f-a6b9-7ca278177dcb))
  (fp_line (start 12.58 70.8) (end 12.58 71.44) (layer "F.Fab") (width 0.1) (tstamp 08304dc3-6f55-4627-9e46-8bf0c13f3ca3))
  (fp_line (start 12.58 14.92) (end 12.58 15.56) (layer "F.Fab") (width 0.1) (tstamp 0870bb93-0138-4c43-9d5d-fcce75b5f7c9))
  (fp_line (start -0.32 5.4) (end 4.04 5.4) (layer "F.Fab") (width 0.1) (tstamp 0ace3045-f364-40d9-906e-8e2e1c2eee53))
  (fp_line (start 6.58 74.93) (end 4.04 74.93) (layer "F.Fab") (width 0.1) (tstamp 0b547730-b587-4984-972a-678b017dbd6e))
  (fp_line (start 6.58 43.5) (end 12.58 43.5) (layer "F.Fab") (width 0.1) (tstamp 0d19c7ea-d6b6-44e4-9d07-082c5c435cc0))
  (fp_line (start -0.32 65.72) (end 4.04 65.72) (layer "F.Fab") (width 0.1) (tstamp 0d7e55db-4314-4dfa-be91-07dbe4e40410))
  (fp_line (start 6.58 20.64) (end 12.58 20.64) (layer "F.Fab") (width 0.1) (tstamp 0f351110-a68d-4267-b4e0-68878ba0aee1))
  (fp_line (start 6.58 66.36) (end 12.58 66.36) (layer "F.Fab") (width 0.1) (tstamp 129715fd-91f9-42a3-b444-52fcdbdf9f8c))
  (fp_line (start -0.32 50.48) (end 4.04 50.48) (layer "F.Fab") (width 0.1) (tstamp 14617dbc-0269-4733-b94d-1f87d44a21be))
  (fp_line (start -0.32 63.82) (end 4.04 63.82) (layer "F.Fab") (width 0.1) (tstamp 17de35fd-695e-40e8-9278-1bbe33e4cc36))
  (fp_line (start -0.32 63.18) (end -0.32 63.82) (layer "F.Fab") (width 0.1) (tstamp 18be62f8-4789-4a34-89d6-498a0925d6dd))
  (fp_line (start 12.58 50.48) (end 12.58 51.12) (layer "F.Fab") (width 0.1) (tstamp 19072ceb-3659-49b6-9094-b9a0ac941378))
  (fp_line (start 6.58 40.96) (end 12.58 40.96) (layer "F.Fab") (width 0.1) (tstamp 1e0941b0-c3f6-4233-91a1-78da0f90f154))
  (fp_line (start 6.58 30.8) (end 12.58 30.8) (layer "F.Fab") (width 0.1) (tstamp 1f14d645-ea3b-4411-89ad-581fccb34d34))
  (fp_line (start -0.32 30.16) (end 4.04 30.16) (layer "F.Fab") (width 0.1) (tstamp 1f4c968e-b9de-44ac-87f5-f0f451897522))
  (fp_line (start -0.32 7.94) (end 4.04 7.94) (layer "F.Fab") (width 0.1) (tstamp 22b531b3-bc55-474c-9c5a-54e50184d7dc))
  (fp_line (start 6.58 63.82) (end 12.58 63.82) (layer "F.Fab") (width 0.1) (tstamp 236723d1-b0be-4ddb-b047-0158a8da9aa3))
  (fp_line (start 6.58 42.86) (end 12.58 42.86) (layer "F.Fab") (width 0.1) (tstamp 250fce42-9070-4fe6-8139-f87582c1f462))
  (fp_line (start 12.58 17.46) (end 12.58 18.1) (layer "F.Fab") (width 0.1) (tstamp 26e2e595-76b7-4034-905a-fe4a856713ff))
  (fp_line (start 6.58 14.92) (end 12.58 14.92) (layer "F.Fab") (width 0.1) (tstamp 2776c1ae-5fc3-4d4a-9451-c73b1093c3cc))
  (fp_line (start 6.58 73.98) (end 12.58 73.98) (layer "F.Fab") (width 0.1) (tstamp 27badac5-11d9-4981-9b5e-13a8e7f8e387))
  (fp_line (start -0.32 22.54) (end -0.32 23.18) (layer "F.Fab") (width 0.1) (tstamp 28c143c9-0c9e-4e7c-8062-a2c9d8d3da41))
  (fp_line (start -0.32 20) (end -0.32 20.64) (layer "F.Fab") (width 0.1) (tstamp 28eda5c2-efac-41f5-a6b8-711e8e06711f))
  (fp_line (start -0.32 60.64) (end 4.04 60.64) (layer "F.Fab") (width 0.1) (tstamp 28f00875-35f8-4737-a9d6-cbfddafff907))
  (fp_line (start -0.32 48.58) (end 4.04 48.58) (layer "F.Fab") (width 0.1) (tstamp 2bf51ad4-24a2-4a1e-b3fd-898895930c2f))
  (fp_line (start 12.58 73.34) (end 12.58 73.98) (layer "F.Fab") (width 0.1) (tstamp 2ecb8558-1af6-4640-a418-3c0b37ebb701))
  (fp_line (start -0.32 45.4) (end -0.32 46.04) (layer "F.Fab") (width 0.1) (tstamp 2fd685c7-6773-4b3f-b48a-f71a90c04065))
  (fp_line (start 4.04 74.93) (end 4.04 -0.635) (layer "F.Fab") (width 0.1) (tstamp 30255655-4b16-4c26-ad39-de366b410e51))
  (fp_line (start -0.32 47.94) (end 4.04 47.94) (layer "F.Fab") (width 0.1) (tstamp 3048b9dc-9ed2-48b7-97a5-8a82ac4b1ff8))
  (fp_line (start 6.58 0.32) (end 12.58 0.32) (layer "F.Fab") (width 0.1) (tstamp 307c39b7-86b2-4638-81ff-00e16290b99e))
  (fp_line (start -0.32 9.84) (end 4.04 9.84) (layer "F.Fab") (width 0.1) (tstamp 319ab043-1a5e-46c6-8222-bd30dc6a3f05))
  (fp_line (start 12.58 9.84) (end 12.58 10.48) (layer "F.Fab") (width 0.1) (tstamp 31bb671d-0cef-42cb-ae3e-1c5d814d748a))
  (fp_line (start -0.32 58.74) (end 4.04 58.74) (layer "F.Fab") (width 0.1) (tstamp 33f16b96-da5f-4d97-807b-f2b9f4ae491c))
  (fp_line (start -0.32 -0.32) (end -0.32 0.32) (layer "F.Fab") (width 0.1) (tstamp 350a9fe1-9181-4844-a7f5-fbd772b09207))
  (fp_line (start 6.58 68.9) (end 12.58 68.9) (layer "F.Fab") (width 0.1) (tstamp 36ac1923-dc2c-4f57-8682-7385deb99c6c))
  (fp_line (start -0.32 68.26) (end -0.32 68.9) (layer "F.Fab") (width 0.1) (tstamp 37278305-7eea-4907-9e79-a6303e9d3328))
  (fp_line (start -0.32 45.4) (end 4.04 45.4) (layer "F.Fab") (width 0.1) (tstamp 378327d5-a377-48c5-9fc3-5ac35d1f6d1f))
  (fp_line (start -0.32 68.9) (end 4.04 68.9) (layer "F.Fab") (width 0.1) (tstamp 389ee881-05c1-4163-9a14-e0e1da699fe6))
  (fp_line (start 6.58 9.84) (end 12.58 9.84) (layer "F.Fab") (width 0.1) (tstamp 3b96cd47-4784-43ed-b8c8-4706e23620fe))
  (fp_line (start 12.58 32.7) (end 12.58 33.34) (layer "F.Fab") (width 0.1) (tstamp 3d20606f-d39c-447b-a4a3-ede59ad9d4e7))
  (fp_line (start -0.32 10.48) (end 4.04 10.48) (layer "F.Fab") (width 0.1) (tstamp 3de85c8e-5ed1-4a35-93b9-77f4aa793c77))
  (fp_line (start 6.58 56.2) (end 12.58 56.2) (layer "F.Fab") (width 0.1) (tstamp 3e7c8c51-983d-459d-bc45-902071492453))
  (fp_line (start -0.32 53.66) (end 4.04 53.66) (layer "F.Fab") (width 0.1) (tstamp 3fe0fe1a-902a-4f82-8a27-158a6f61bbd9))
  (fp_line (start 12.58 25.08) (end 12.58 25.72) (layer "F.Fab") (width 0.1) (tstamp 40af4ca3-48d5-473a-b230-6e227379e794))
  (fp_line (start 12.58 4.76) (end 12.58 5.4) (layer "F.Fab") (width 0.1) (tstamp 40df816d-1a0c-4843-8cf1-f36dfe0ddd55))
  (fp_line (start -0.32 38.42) (end 4.04 38.42) (layer "F.Fab") (width 0.1) (tstamp 42d0e629-7777-41dc-bdde-efd62efa79d5))
  (fp_line (start 6.58 61.28) (end 12.58 61.28) (layer "F.Fab") (width 0.1) (tstamp 44291eac-f8a6-443c-9a37-733f1fb76da3))
  (fp_line (start 12.58 12.38) (end 12.58 13.02) (layer "F.Fab") (width 0.1) (tstamp 4468b0c4-2650-4630-a8ef-54f5686d2821))
  (fp_line (start -0.32 32.7) (end 4.04 32.7) (layer "F.Fab") (width 0.1) (tstamp 492ad609-d73c-4861-ad37-8671767acccb))
  (fp_line (start 12.58 53.02) (end 12.58 53.66) (layer "F.Fab") (width 0.1) (tstamp 498ca0ab-2fb1-41fd-a73c-f073a6c7c31f))
  (fp_line (start -0.32 2.22) (end 4.04 2.22) (layer "F.Fab") (width 0.1) (tstamp 49c03a3e-ec87-4e67-9cee-764fbcdf0b6c))
  (fp_line (start 12.58 65.72) (end 12.58 66.36) (layer "F.Fab") (width 0.1) (tstamp 49ce71e6-3666-4cb9-9c63-1d9ecada5eb2))
  (fp_line (start 6.58 18.1) (end 12.58 18.1) (layer "F.Fab") (width 0.1) (tstamp 4a529b08-6383-47d9-88f9-4413789f638f))
  (fp_line (start -0.32 47.94) (end -0.32 48.58) (layer "F.Fab") (width 0.1) (tstamp 4b662c62-67e6-4416-a45f-1e7e69d0479b))
  (fp_line (start -0.32 7.3) (end 4.04 7.3) (layer "F.Fab") (width 0.1) (tstamp 4dafdec6-389b-4073-87a3-26476d391af2))
  (fp_line (start -0.32 9.84) (end -0.32 10.48) (layer "F.Fab") (width 0.1) (tstamp 4dbf7069-8ce6-49dd-b9ce-0b5261198474))
  (fp_line (start 6.58 71.44) (end 12.58 71.44) (layer "F.Fab") (width 0.1) (tstamp 52810e27-3fac-4368-b283-d68b4f9becdd))
  (fp_line (start 12.58 35.24) (end 12.58 35.88) (layer "F.Fab") (width 0.1) (tstamp 53758829-4ac2-432b-9ff1-67fc30a6382c))
  (fp_line (start 6.58 65.72) (end 12.58 65.72) (layer "F.Fab") (width 0.1) (tstamp 53b144fd-8dd0-4238-a9a5-ea8a38716368))
  (fp_line (start -0.32 71.44) (end 4.04 71.44) (layer "F.Fab") (width 0.1) (tstamp 58584b88-537c-41f8-ab4a-4810caa821a8))
  (fp_line (start 6.58 12.38) (end 12.58 12.38) (layer "F.Fab") (width 0.1) (tstamp 5a5324ed-ec51-4dad-ba6d-297d1b87d11a))
  (fp_line (start 6.58 2.86) (end 12.58 2.86) (layer "F.Fab") (width 0.1) (tstamp 5ab7669b-0af1-4f04-b7d3-0013d287e320))
  (fp_line (start 4.675 -1.27) (end 6.58 -1.27) (layer "F.Fab") (width 0.1) (tstamp 5b097afa-ac2a-4642-8a34-ae211353f508))
  (fp_line (start 6.58 46.04) (end 12.58 46.04) (layer "F.Fab") (width 0.1) (tstamp 5b0e80b9-93a4-4d8c-86e3-f5aa9d745cfb))
  (fp_line (start -0.32 51.12) (end 4.04 51.12) (layer "F.Fab") (width 0.1) (tstamp 5b4eb3a1-3553-4d07-9469-913700f2401a))
  (fp_line (start 6.58 53.02) (end 12.58 53.02) (layer "F.Fab") (width 0.1) (tstamp 5b646c38-4b10-4260-b776-1ecbf8660b44))
  (fp_line (start 6.58 38.42) (end 12.58 38.42) (layer "F.Fab") (width 0.1) (tstamp 5bd47d20-828e-4581-96df-b57fa6d857ef))
  (fp_line (start 6.58 22.54) (end 12.58 22.54) (layer "F.Fab") (width 0.1) (tstamp 5c6a9bad-7be9-49be-9ec3-7715ca0e4afe))
  (fp_line (start 12.58 22.54) (end 12.58 23.18) (layer "F.Fab") (width 0.1) (tstamp 5e95cd27-9396-43e0-88b2-496642afbdf0))
  (fp_line (start -0.32 58.1) (end 4.04 58.1) (layer "F.Fab") (width 0.1) (tstamp 5fd7ba7a-c97a-4904-896c-8fef2984d6bf))
  (fp_line (start -0.32 73.98) (end 4.04 73.98) (layer "F.Fab") (width 0.1) (tstamp 5fefedde-a549-41de-986c-557392e2a5a8))
  (fp_line (start 12.58 7.3) (end 12.58 7.94) (layer "F.Fab") (width 0.1) (tstamp 63299e06-612b-4b66-851c-4a8c55a8544a))
  (fp_line (start 6.58 60.64) (end 12.58 60.64) (layer "F.Fab") (width 0.1) (tstamp 63bf8e31-429b-46a5-bc7d-26b12c531799))
  (fp_line (start -0.32 27.62) (end -0.32 28.26) (layer "F.Fab") (width 0.1) (tstamp 655f1950-af8d-4c46-8b08-8e23c001b8d0))
  (fp_line (start 6.58 37.78) (end 12.58 37.78) (layer "F.Fab") (width 0.1) (tstamp 67e291b6-b8fc-4761-b33b-8653429a75ec))
  (fp_line (start 6.58 70.8) (end 12.58 70.8) (layer "F.Fab") (width 0.1) (tstamp 68a2b209-77f3-4d0a-8ad1-dc8465a5d4c6))
  (fp_line (start -0.32 2.22) (end -0.32 2.86) (layer "F.Fab") (width 0.1) (tstamp 6ad115c1-7376-4d3e-9e0b-b61a9d50f684))
  (fp_line (start 6.58 15.56) (end 12.58 15.56) (layer "F.Fab") (width 0.1) (tstamp 6bfe9e23-7a4e-4c9a-8c3d-a84f04dc9f2b))
  (fp_line (start -0.32 35.24) (end -0.32 35.88) (layer "F.Fab") (width 0.1) (tstamp 74a35a38-8aef-4bfc-8302-3feab5321649))
  (fp_line (start -0.32 68.26) (end 4.04 68.26) (layer "F.Fab") (width 0.1) (tstamp 75e0707b-69ee-4e06-83d9-ab69097c1d2f))
  (fp_line (start -0.32 28.26) (end 4.04 28.26) (layer "F.Fab") (width 0.1) (tstamp 772b8db5-819f-474a-87f5-843df92bba43))
  (fp_line (start -0.32 40.32) (end -0.32 40.96) (layer "F.Fab") (width 0.1) (tstamp 77528505-2050-4dd1-86ef-70c5f6b07958))
  (fp_line (start -0.32 25.08) (end -0.32 25.72) (layer "F.Fab") (width 0.1) (tstamp 777eb7a3-616f-4ca9-aa2c-e46622501d22))
  (fp_line (start 12.58 27.62) (end 12.58 28.26) (layer "F.Fab") (width 0.1) (tstamp 784a8b04-6ced-408b-8f81-eed08cc3a695))
  (fp_line (start -0.32 56.2) (end 4.04 56.2) (layer "F.Fab") (width 0.1) (tstamp 7b5a1a1b-12d3-4669-85c6-288d58e4ab48))
  (fp_line (start -0.32 61.28) (end 4.04 61.28) (layer "F.Fab") (width 0.1) (tstamp 7eb14bee-480f-4cec-87dc-b3ea29d8158d))
  (fp_line (start -0.32 40.32) (end 4.04 40.32) (layer "F.Fab") (width 0.1) (tstamp 834b202e-9fbd-4134-95e6-a4c6dbd3fb8c))
  (fp_line (start 6.58 58.1) (end 12.58 58.1) (layer "F.Fab") (width 0.1) (tstamp 834de961-0897-4811-b9e9-4784fed92768))
  (fp_line (start -0.32 23.18) (end 4.04 23.18) (layer "F.Fab") (width 0.1) (tstamp 86d06a38-4ba7-4c6e-9c4c-75807119588b))
  (fp_line (start -0.32 58.1) (end -0.32 58.74) (layer "F.Fab") (width 0.1) (tstamp 872536aa-8d9d-4849-9f98-4aca586a630d))
  (fp_line (start 6.58 27.62) (end 12.58 27.62) (layer "F.Fab") (width 0.1) (tstamp 87e53365-63e2-4b75-8d37-e615c16466b8))
  (fp_line (start -0.32 30.16) (end -0.32 30.8) (layer "F.Fab") (width 0.1) (tstamp 897a03c3-7b78-4b52-a945-59e78fae01e9))
  (fp_line (start -0.32 42.86) (end -0.32 43.5) (layer "F.Fab") (width 0.1) (tstamp 89c2e52e-5932-4830-b513-96d68d010985))
  (fp_line (start -0.32 55.56) (end -0.32 56.2) (layer "F.Fab") (width 0.1) (tstamp 8a3fc725-6c35-4c26-8ffc-ad6066e3dc65))
  (fp_line (start 6.58 5.4) (end 12.58 5.4) (layer "F.Fab") (width 0.1) (tstamp 8a4a7c93-2cb6-4510-82f9-da46e75d14ff))
  (fp_line (start 6.58 10.48) (end 12.58 10.48) (layer "F.Fab") (width 0.1) (tstamp 8c5ea4fc-3a41-4635-9670-20efb0bd33fa))
  (fp_line (start 12.58 47.94) (end 12.58 48.58) (layer "F.Fab") (width 0.1) (tstamp 8c6d5c58-c227-489d-b4d7-9210550ffb22))
  (fp_line (start -0.32 35.24) (end 4.04 35.24) (layer "F.Fab") (width 0.1) (tstamp 8d335baa-2824-42b0-ad7b-856f66dfa78b))
  (fp_line (start -0.32 37.78) (end -0.32 38.42) (layer "F.Fab") (width 0.1) (tstamp 8f2c4ade-e3e8-4744-9980-2c1f18826180))
  (fp_line (start 12.58 40.32) (end 12.58 40.96) (layer "F.Fab") (width 0.1) (tstamp 8f540fe7-37c8-41b2-ae76-0854dbe11bcd))
  (fp_line (start -0.32 37.78) (end 4.04 37.78) (layer "F.Fab") (width 0.1) (tstamp 8f77029d-4716-493a-ae5c-dee29f05af10))
  (fp_line (start 6.58 -0.32) (end 12.58 -0.32) (layer "F.Fab") (width 0.1) (tstamp 903ed44e-64b5-4b09-949c-40685cebc907))
  (fp_line (start 12.58 20) (end 12.58 20.64) (layer "F.Fab") (width 0.1) (tstamp 906c072d-1c72-4453-a00c-068f06cf639e))
  (fp_line (start 6.58 63.18) (end 12.58 63.18) (layer "F.Fab") (width 0.1) (tstamp 964c91ae-ee54-445a-ad8d-5bc9c96cb77a))
  (fp_line (start 12.58 2.22) (end 12.58 2.86) (layer "F.Fab") (width 0.1) (tstamp 970c0f58-acdd-45f1-a0ea-247361e568f8))
  (fp_line (start 4.04 -0.635) (end 4.675 -1.27) (layer "F.Fab") (width 0.1) (tstamp 97e9b259-cec7-4716-8e24-8a9b6203368c))
  (fp_line (start -0.32 73.34) (end 4.04 73.34) (layer "F.Fab") (width 0.1) (tstamp 98901205-cc4d-4513-9445-5ee828253a55))
  (fp_line (start -0.32 14.92) (end -0.32 15.56) (layer "F.Fab") (width 0.1) (tstamp 9b1faa13-af1b-4045-bd2f-974dfe7b124d))
  (fp_line (start -0.32 50.48) (end -0.32 51.12) (layer "F.Fab") (width 0.1) (tstamp 9edc1c00-a652-4038-8158-7347a6b79356))
  (fp_line (start -0.32 0.32) (end 4.04 0.32) (layer "F.Fab") (width 0.1) (tstamp 9fd0f817-2a8f-4851-97a2-6e48cccc98b8))
  (fp_line (start 6.58 35.24) (end 12.58 35.24) (layer "F.Fab") (width 0.1) (tstamp a07272f7-4458-4660-aa39-876c0d84b34f))
  (fp_line (start 6.58 7.3) (end 12.58 7.3) (layer "F.Fab") (width 0.1) (tstamp a3ee42c3-10fc-4b07-9c9c-c3d51349e94b))
  (fp_line (start 6.58 25.08) (end 12.58 25.08) (layer "F.Fab") (width 0.1) (tstamp a556f06c-4251-4d78-8862-a869da583c38))
  (fp_line (start 6.58 48.58) (end 12.58 48.58) (layer "F.Fab") (width 0.1) (tstamp a65eacdf-419a-48d7-8b1f-4bc01f16049c))
  (fp_line (start 6.58 53.66) (end 12.58 53.66) (layer "F.Fab") (width 0.1) (tstamp a76e7fe5-04b2-47ff-a893-98da24bff614))
  (fp_line (start -0.32 70.8) (end -0.32 71.44) (layer "F.Fab") (width 0.1) (tstamp a8406818-7240-4be9-a543-fee2eeccfc1e))
  (fp_line (start 6.58 40.32) (end 12.58 40.32) (layer "F.Fab") (width 0.1) (tstamp a91e440a-cba7-44fc-a3f1-736170627fc6))
  (fp_line (start 6.58 28.26) (end 12.58 28.26) (layer "F.Fab") (width 0.1) (tstamp ab3fc27e-3953-4f33-9601-e1230e802122))
  (fp_line (start -0.32 53.02) (end -0.32 53.66) (layer "F.Fab") (width 0.1) (tstamp abbc575e-aba4-4527-a14f-28f6b69ec59f))
  (fp_line (start 6.58 58.74) (end 12.58 58.74) (layer "F.Fab") (width 0.1) (tstamp b0324685-2977-4ec0-81c1-4d02399b976b))
  (fp_line (start 12.58 30.16) (end 12.58 30.8) (layer "F.Fab") (width 0.1) (tstamp b09847a8-0717-46e2-8a86-d7414ac5cd49))
  (fp_line (start -0.32 27.62) (end 4.04 27.62) (layer "F.Fab") (width 0.1) (tstamp b116f479-26e5-44d4-9eb5-4d6e31ab269b))
  (fp_line (start -0.32 20.64) (end 4.04 20.64) (layer "F.Fab") (width 0.1) (tstamp b20ff81b-4f94-4e47-9b87-dd826a857d12))
  (fp_line (start -0.32 66.36) (end 4.04 66.36) (layer "F.Fab") (width 0.1) (tstamp b230ca0d-fe1e-4954-9735-62b367f04c75))
  (fp_line (start 6.58 2.22) (end 12.58 2.22) (layer "F.Fab") (width 0.1) (tstamp b366d7a6-9a52-4cd7-91fb-c7c4ef143bea))
  (fp_line (start -0.32 17.46) (end -0.32 18.1) (layer "F.Fab") (width 0.1) (tstamp b3c51eda-a8fd-4708-9dd5-ccf46e2af536))
  (fp_line (start 6.58 17.46) (end 12.58 17.46) (layer "F.Fab") (width 0.1) (tstamp b91959aa-4c37-475f-88f5-b421fe9502d4))
  (fp_line (start 6.58 23.18) (end 12.58 23.18) (layer "F.Fab") (width 0.1) (tstamp baa36236-0830-45c2-835b-a18d2a35fd56))
  (fp_line (start -0.32 40.96) (end 4.04 40.96) (layer "F.Fab") (width 0.1) (tstamp bb15fb0a-bf92-4d54-9587-115f9b9454e6))
  (fp_line (start -0.32 53.02) (end 4.04 53.02) (layer "F.Fab") (width 0.1) (tstamp bcb7381f-ea7d-424b-8075-a1cf7cd4fdaf))
  (fp_line (start -0.32 2.86) (end 4.04 2.86) (layer "F.Fab") (width 0.1) (tstamp bcdd83fa-dc24-4374-a7e3-c90e3b39a0bb))
  (fp_line (start 6.58 30.16) (end 12.58 30.16) (layer "F.Fab") (width 0.1) (tstamp c1b5a381-a6a4-4f6e-9799-9c231dbca4db))
  (fp_line (start 6.58 20) (end 12.58 20) (layer "F.Fab") (width 0.1) (tstamp c315c0cb-4fc0-4405-abcd-8f9bd5cd3c41))
  (fp_line (start -0.32 4.76) (end -0.32 5.4) (layer "F.Fab") (width 0.1) (tstamp c3b2895e-2f9d-4472-acff-f4cfbb8944bb))
  (fp_line (start -0.32 15.56) (end 4.04 15.56) (layer "F.Fab") (width 0.1) (tstamp c6021f18-1195-4a72-8d74-88b3b620a019))
  (fp_line (start 12.58 63.18) (end 12.58 63.82) (layer "F.Fab") (width 0.1) (tstamp c93c49bd-ef39-44f2-a5c4-6602e9df63fa))
  (fp_line (start 6.58 -1.27) (end 6.58 74.93) (layer "F.Fab") (width 0.1) (tstamp c9daa876-9b89-445e-9cd2-2ae904052f3d))
  (fp_line (start -0.32 25.72) (end 4.04 25.72) (layer "F.Fab") (width 0.1) (tstamp ca00ba98-44a1-4d76-bd72-e9dff7a338f0))
  (fp_line (start -0.32 22.54) (end 4.04 22.54) (layer "F.Fab") (width 0.1) (tstamp d0a00b85-8357-4398-80ae-3c70fb357e9c))
  (fp_line (start 6.58 50.48) (end 12.58 50.48) (layer "F.Fab") (width 0.1) (tstamp d25cab02-66ee-479b-b117-79e2301af98d))
  (fp_line (start 6.58 4.76) (end 12.58 4.76) (layer "F.Fab") (width 0.1) (tstamp d44ffe3d-ecf6-40e0-be50-96c4674766f3))
  (fp_line (start 6.58 35.88) (end 12.58 35.88) (layer "F.Fab") (width 0.1) (tstamp d4f362ec-70c0-466f-8d70-de82526e1382))
  (fp_line (start 12.58 58.1) (end 12.58 58.74) (layer "F.Fab") (width 0.1) (tstamp d5a0a026-889a-42dc-b753-154dbab56207))
  (fp_line (start -0.32 13.02) (end 4.04 13.02) (layer "F.Fab") (width 0.1) (tstamp d5c3f949-bb6f-4f81-91a1-0b79894c8dcc))
  (fp_line (start 6.58 55.56) (end 12.58 55.56) (layer "F.Fab") (width 0.1) (tstamp d60e88f0-d5db-4897-9e72-573c0e1ec801))
  (fp_line (start -0.32 73.34) (end -0.32 73.98) (layer "F.Fab") (width 0.1) (tstamp d7a26118-4c25-4e49-abed-3526a1e36ffe))
  (fp_line (start 12.58 37.78) (end 12.58 38.42) (layer "F.Fab") (width 0.1) (tstamp d8037cdc-2aa0-4251-a6bb-0f66f8e5f594))
  (fp_line (start 6.58 51.12) (end 12.58 51.12) (layer "F.Fab") (width 0.1) (tstamp d80c95f4-ec34-4037-b05b-83f33a337c5c))
  (fp_line (start 12.58 68.26) (end 12.58 68.9) (layer "F.Fab") (width 0.1) (tstamp da0e630a-223a-4ac1-953f-858b8217e79f))
  (fp_line (start 12.58 60.64) (end 12.58 61.28) (layer "F.Fab") (width 0.1) (tstamp db25c26f-93e4-445a-a4ef-c9f02bbefbd8))
  (fp_line (start -0.32 35.88) (end 4.04 35.88) (layer "F.Fab") (width 0.1) (tstamp e418c7a8-554c-429e-b684-2723528cc316))
  (fp_line (start 6.58 33.34) (end 12.58 33.34) (layer "F.Fab") (width 0.1) (tstamp e48b4c58-ec5f-422e-9e33-aee7e987a494))
  (fp_line (start -0.32 43.5) (end 4.04 43.5) (layer "F.Fab") (width 0.1) (tstamp e5e9387e-0d2a-4b06-9520-659dad2a88b8))
  (fp_line (start -0.32 14.92) (end 4.04 14.92) (layer "F.Fab") (width 0.1) (tstamp e99565fd-f02c-4e88-89a3-062db091b83d))
  (fp_line (start -0.32 32.7) (end -0.32 33.34) (layer "F.Fab") (width 0.1) (tstamp e9a4c53f-72fd-49fd-8032-ba2d70018403))
  (fp_line (start -0.32 60.64) (end -0.32 61.28) (layer "F.Fab") (width 0.1) (tstamp eb0b16b0-a24d-4acb-ade3-27b26d85d2c2))
  (fp_line (start 6.58 13.02) (end 12.58 13.02) (layer "F.Fab") (width 0.1) (tstamp eb16d2a5-6f44-4ab9-98bf-41014eb3e27c))
  (fp_line (start 12.58 -0.32) (end 12.58 0.32) (layer "F.Fab") (width 0.1) (tstamp eb5c2d23-243b-41e8-a992-4c5a2e251cf0))
  (fp_line (start 6.58 7.94) (end 12.58 7.94) (layer "F.Fab") (width 0.1) (tstamp ebf1c10a-bacc-4a3c-9296-5c1394c22924))
  (fp_line (start 6.58 68.26) (end 12.58 68.26) (layer "F.Fab") (width 0.1) (tstamp ec2fa68b-1914-436b-8c8c-eaefc96135b9))
  (fp_line (start -0.32 65.72) (end -0.32 66.36) (layer "F.Fab") (width 0.1) (tstamp eeb98843-f6b9-497a-bb19-908c99029dd5))
  (fp_line (start 6.58 47.94) (end 12.58 47.94) (layer "F.Fab") (width 0.1) (tstamp f039c2cd-4096-4bd5-b7e0-a0101a3eb36c))
  (fp_line (start -0.32 -0.32) (end 4.04 -0.32) (layer "F.Fab") (width 0.1) (tstamp f0d13c70-0aaf-4d56-a60b-43d92b026260))
  (fp_line (start -0.32 46.04) (end 4.04 46.04) (layer "F.Fab") (width 0.1) (tstamp f1ff0b4b-3599-48c7-b2ed-5d5eb7d84745))
  (fp_line (start 6.58 32.7) (end 12.58 32.7) (layer "F.Fab") (width 0.1) (tstamp f35cc7ad-dcbd-4932-983e-e47ab12da076))
  (fp_line (start 12.58 55.56) (end 12.58 56.2) (layer "F.Fab") (width 0.1) (tstamp f401534a-9d9b-4d44-946c-d429c148a0c1))
  (fp_line (start -0.32 55.56) (end 4.04 55.56) (layer "F.Fab") (width 0.1) (tstamp f464f143-22e4-4f45-812d-8d454ff55842))
  (fp_line (start -0.32 12.38) (end -0.32 13.02) (layer "F.Fab") (width 0.1) (tstamp f66529fb-481a-4b42-ad64-f62d373d01bc))
  (fp_line (start 6.58 45.4) (end 12.58 45.4) (layer "F.Fab") (width 0.1) (tstamp f6f1dd20-6c7f-4455-8f2b-4d66104d6ae7))
  (fp_line (start -0.32 18.1) (end 4.04 18.1) (layer "F.Fab") (width 0.1) (tstamp f8fd6325-d161-4be9-a016-3cabc7a48620))
  (fp_line (start 6.58 73.34) (end 12.58 73.34) (layer "F.Fab") (width 0.1) (tstamp fbd3c4d1-7dd5-4593-9199-e72583cce0d5))
  (fp_line (start -0.32 7.3) (end -0.32 7.94) (layer "F.Fab") (width 0.1) (tstamp fbe0003a-bdf2-42e9-8d2e-8fd468c486a7))
  (fp_line (start -0.32 30.8) (end 4.04 30.8) (layer "F.Fab") (width 0.1) (tstamp fce97e2d-4b09-4780-aefe-9d09c858f291))
  (fp_line (start 6.58 25.72) (end 12.58 25.72) (layer "F.Fab") (width 0.1) (tstamp fdb2a87b-39d6-4101-b67e-8bca7c782440))
  (fp_line (start -0.32 20) (end 4.04 20) (layer "F.Fab") (width 0.1) (tstamp fdeb4cff-84c5-448c-8025-864e6b5552a8))
  (pad "1" thru_hole rect (at 0 0) (size 2.1 2.1) (drill 1) (layers *.Cu *.Mask) (tstamp f245eb99-ecc5-4390-b8ca-e2dcfbcfdca5))
  (pad "2" thru_hole oval (at 2.54 0) (size 2.1 2.1) (drill 1) (layers *.Cu *.Mask) (tstamp 1731220e-574b-4786-96e7-a53488b10a7d))
  (pad "3" thru_hole oval (at 0 2.54) (size 2.1 2.1) (drill 1) (layers *.Cu *.Mask) (tstamp 912b43cf-b222-46a3-b35b-9ce04649d475))
  (pad "4" thru_hole oval (at 2.54 2.54) (size 2.1 2.1) (drill 1) (layers *.Cu *.Mask) (tstamp b86d1de1-7312-4bfb-96d3-d8b470b4dcd8))
  (pad "5" thru_hole oval (at 0 5.08) (size 2.1 2.1) (drill 1) (layers *.Cu *.Mask) (tstamp ca89a369-690a-4249-9147-9266e6e65461))
  (pad "6" thru_hole oval (at 2.54 5.08) (size 2.1 2.1) (drill 1) (layers *.Cu *.Mask) (tstamp 2da7ec84-ae3f-495b-854c-6984599fc6d1))
  (pad "7" thru_hole oval (at 0 7.62) (size 2.1 2.1) (drill 1) (layers *.Cu *.Mask) (tstamp 7fc23668-60f3-4e55-a0c2-e238261c1c57))
  (pad "8" thru_hole oval (at 2.54 7.62) (size 2.1 2.1) (drill 1) (layers *.Cu *.Mask) (tstamp 57886a3b-b587-4ac5-97b7-28879a734993))
  (pad "9" thru_hole oval (at 0 10.16) (size 2.1 2.1) (drill 1) (layers *.Cu *.Mask) (tstamp 9d9dd86f-ccc0-4258-acf1-843d282352c1))
  (pad "10" thru_hole oval (at 2.54 10.16) (size 2.1 2.1) (drill 1) (layers *.Cu *.Mask) (tstamp c10e2548-a88b-423a-9edb-263ba3237253))
  (pad "11" thru_hole oval (at 0 12.7) (size 2.1 2.1) (drill 1) (layers *.Cu *.Mask) (tstamp 41774bd5-ad64-4bd2-9482-51bd658dda33))
  (pad "12" thru_hole oval (at 2.54 12.7) (size 2.1 2.1) (drill 1) (layers *.Cu *.Mask) (tstamp 492f225a-ac86-40cd-8da1-c80baed1920d))
  (pad "13" thru_hole oval (at 0 15.24) (size 2.1 2.1) (drill 1) (layers *.Cu *.Mask) (tstamp bf0dd64a-db50-44e2-b69f-71ff30dd0840))
  (pad "14" thru_hole oval (at 2.54 15.24) (size 2.1 2.1) (drill 1) (layers *.Cu *.Mask) (tstamp 8a17f3d3-524b-4373-ab74-de7e42d47269))
  (pad "15" thru_hole oval (at 0 17.78) (size 2.1 2.1) (drill 1) (layers *.Cu *.Mask) (tstamp 1476df78-e6ad-498b-9ab8-c5b7d1db5054))
  (pad "16" thru_hole oval (at 2.54 17.78) (size 2.1 2.1) (drill 1) (layers *.Cu *.Mask) (tstamp 380b6492-ce73-44fb-b701-df95e4ddc018))
  (pad "17" thru_hole oval (at 0 20.32) (size 2.1 2.1) (drill 1) (layers *.Cu *.Mask) (tstamp 1d0b5ad6-a5e2-4695-84c9-da4ae8899a97))
  (pad "18" thru_hole oval (at 2.54 20.32) (size 2.1 2.1) (drill 1) (layers *.Cu *.Mask) (tstamp e8112bcc-c762-4736-ab7f-ead4f508bd3a))
  (pad "19" thru_hole oval (at 0 22.86) (size 2.1 2.1) (drill 1) (layers *.Cu *.Mask) (tstamp ea81acd1-cd30-4210-8ad1-e0231ecf53fa))
  (pad "20" thru_hole oval (at 2.54 22.86) (size 2.1 2.1) (drill 1) (layers *.Cu *.Mask) (tstamp 95a90980-dd0f-447b-bca6-9a3abf74a4a2))
  (pad "21" thru_hole oval (at 0 25.4) (size 2.1 2.1) (drill 1) (layers *.Cu *.Mask) (tstamp 30a743e4-617d-4d3a-8448-6b80840d2591))
  (pad "22" thru_hole oval (at 2.54 25.4) (size 2.1 2.1) (drill 1) (layers *.Cu *.Mask) (tstamp a9e3c0f2-16d1-4576-8da8-bebfb3333f3a))
  (pad "23" thru_hole oval (at 0 27.94) (size 2.1 2.1) (drill 1) (layers *.Cu *.Mask) (tstamp b345ebc4-2d39-471b-8d8e-16a8109f9311))
  (pad "24" thru_hole oval (at 2.54 27.94) (size 2.1 2.1) (drill 1) (layers *.Cu *.Mask) (tstamp e2cf461d-587b-4d56-8f2a-6d2b4020f830))
  (pad "25" thru_hole oval (at 0 30.48) (size 2.1 2.1) (drill 1) (layers *.Cu *.Mask) (tstamp e8582068-436c-4b4f-8155-7fe0e60fc0af))
  (pad "26" thru_hole oval (at 2.54 30.48) (size 2.1 2.1) (drill 1) (layers *.Cu *.Mask) (tstamp bc132c57-640b-49da-b911-daa2717aad4f))
  (pad "27" thru_hole oval (at 0 33.02) (size 2.1 2.1) (drill 1) (layers *.Cu *.Mask) (tstamp 185ec537-92ef-47b7-b90b-8d11c0f097a2))
  (pad "28" thru_hole oval (at 2.54 33.02) (size 2.1 2.1) (drill 1) (layers *.Cu *.Mask) (tstamp 0dee05d0-d9a1-4793-b3b5-e8e632eefac2))
  (pad "29" thru_hole oval (at 0 35.56) (size 2.1 2.1) (drill 1) (layers *.Cu *.Mask) (tstamp 2dae1f05-2006-4577-8b62-6101c876b861))
  (pad "30" thru_hole oval (at 2.54 35.56) (size 2.1 2.1) (drill 1) (layers *.Cu *.Mask) (tstamp 6148e424-17b5-48a1-91c7-5b98cdbc18f3))
  (pad "31" thru_hole oval (at 0 38.1) (size 2.1 2.1) (drill 1) (layers *.Cu *.Mask) (tstamp b36f1d4c-81e9-4828-99c9-86d6e31fc6d5))
  (pad "32" thru_hole oval (at 2.54 38.1) (size 2.1 2.1) (drill 1) (layers *.Cu *.Mask) (tstamp 35cbb84d-c68c-4bd8-ab2c-cc7d9e799852))
  (pad "33" thru_hole oval (at 0 40.64) (size 2.1 2.1) (drill 1) (layers *.Cu *.Mask) (tstamp 659e199e-c7cb-4e3d-a8cf-735428fb4d46))
  (pad "34" thru_hole oval (at 2.54 40.64) (size 2.1 2.1) (drill 1) (layers *.Cu *.Mask) (tstamp ad1f6ae9-6e81-4aba-96c0-25b0e4b5da08))
  (pad "35" thru_hole oval (at 0 43.18) (size 2.1 2.1) (drill 1) (layers *.Cu *.Mask) (tstamp d638b1af-6823-42c2-b45c-061e31af93c3))
  (pad "36" thru_hole oval (at 2.54 43.18) (size 2.1 2.1) (drill 1) (layers *.Cu *.Mask) (tstamp c00d57c5-8191-4334-ad78-2ec4e29031b2))
  (pad "37" thru_hole oval (at 0 45.72) (size 2.1 2.1) (drill 1) (layers *.Cu *.Mask) (tstamp e4495a1e-f99f-4972-a0ce-a25163a83ff3))
  (pad "38" thru_hole oval (at 2.54 45.72) (size 2.1 2.1) (drill 1) (layers *.Cu *.Mask) (tstamp a81c146b-e331-4e09-97b2-1f16a042cbe9))
  (pad "39" thru_hole oval (at 0 48.26) (size 2.1 2.1) (drill 1) (layers *.Cu *.Mask) (tstamp f77a458c-0864-491e-8985-290ec7a4f90d))
  (pad "40" thru_hole oval (at 2.54 48.26) (size 2.1 2.1) (drill 1) (layers *.Cu *.Mask) (tstamp c4476e89-66f9-44d2-911a-b3c067c8a5a4))
  (pad "41" thru_hole oval (at 0 50.8) (size 2.1 2.1) (drill 1) (layers *.Cu *.Mask) (tstamp dc168e18-e8eb-4c1b-ad0b-2ca7193d7df8))
  (pad "42" thru_hole oval (at 2.54 50.8) (size 2.1 2.1) (drill 1) (layers *.Cu *.Mask) (tstamp d892ce87-df85-41ba-8c12-a0b6d54a5a80))
  (pad "43" thru_hole oval (at 0 53.34) (size 2.1 2.1) (drill 1) (layers *.Cu *.Mask) (tstamp 3bdafce4-4fc6-4f5c-b110-1b4c94990439))
  (pad "44" thru_hole oval (at 2.54 53.34) (size 2.1 2.1) (drill 1) (layers *.Cu *.Mask) (tstamp b60b939a-7ba0-4940-ad11-2590554aab3f))
  (pad "45" thru_hole oval (at 0 55.88) (size 2.1 2.1) (drill 1) (layers *.Cu *.Mask) (tstamp 55929b50-89bc-43da-a9f6-7703919ae207))
  (pad "46" thru_hole oval (at 2.54 55.88) (size 2.1 2.1) (drill 1) (layers *.Cu *.Mask) (tstamp ce045712-60b4-4db5-968b-aea3b0bff9e7))
  (pad "47" thru_hole oval (at 0 58.42) (size 2.1 2.1) (drill 1) (layers *.Cu *.Mask) (tstamp 5bb80c4b-9316-44b5-ab77-01539a65a904))
  (pad "48" thru_hole oval (at 2.54 58.42) (size 2.1 2.1) (drill 1) (layers *.Cu *.Mask) (tstamp 86870020-d389-4b85-b911-72fdc7c92a40))
  (pad "49" thru_hole oval (at 0 60.96) (size 2.1 2.1) (drill 1) (layers *.Cu *.Mask) (tstamp 68123039-600b-4706-b6df-f40a2d3c13f3))
  (pad "50" thru_hole oval (at 2.54 60.96) (size 2.1 2.1) (drill 1) (layers *.Cu *.Mask) (tstamp 8433c51d-b280-45b7-b64e-310ab98097dc))
  (pad "51" thru_hole oval (at 0 63.5) (size 2.1 2.1) (drill 1) (layers *.Cu *.Mask) (tstamp cedaa016-38fc-4ab4-866c-6dae1dd22c92))
  (pad "52" thru_hole oval (at 2.54 63.5) (size 2.1 2.1) (drill 1) (layers *.Cu *.Mask) (tstamp d1793ba6-1e7b-48b7-80ed-8d9409942fec))
  (pad "53" thru_hole oval (at 0 66.04) (size 2.1 2.1) (drill 1) (layers *.Cu *.Mask) (tstamp 821bd0e1-9949-44bd-874d-ef8e07cdff3d))
  (pad "54" thru_hole oval (at 2.54 66.04) (size 2.1 2.1) (drill 1) (layers *.Cu *.Mask) (tstamp cc42b0ea-4896-48ec-8c79-db51445cd8a1))
  (pad "55" thru_hole oval (at 0 68.58) (size 2.1 2.1) (drill 1) (layers *.Cu *.Mask) (tstamp 70695478-1b79-4483-9441-0987c1f8d184))
  (pad "56" thru_hole oval (at 2.54 68.58) (size 2.1 2.1) (drill 1) (layers *.Cu *.Mask) (tstamp 9f27f642-3805-4d49-a6fc-3b56e2cb38a9))
  (pad "57" thru_hole oval (at 0 71.12) (size 2.1 2.1) (drill 1) (layers *.Cu *.Mask) (tstamp 5a6bd19f-f008-4237-b8f3-4af735d553f6))
  (pad "58" thru_hole oval (at 2.54 71.12) (size 2.1 2.1) (drill 1) (layers *.Cu *.Mask) (tstamp f5b5465b-cc74-44ca-b229-42bd09ce2152))
  (pad "59" thru_hole oval (at 0 73.66) (size 2.1 2.1) (drill 1) (layers *.Cu *.Mask) (tstamp d1c81c13-9034-419c-8426-9fa6608a2e5d))
  (pad "60" thru_hole oval (at 2.54 73.66) (size 2.1 2.1) (drill 1) (layers *.Cu *.Mask) (tstamp bafcd09d-4ec1-4daa-8d74-3b1b3e7d6772))
  (model "${KICAD6_3DMODEL_DIR}/Connector_PinHeader_2.54mm.3dshapes/PinHeader_2x30_P2.54mm_Horizontal.wrl"
    (offset (xyz 0 0 0))
    (scale (xyz 1 1 1))
    (rotate (xyz 0 0 0))
  )
)
