(footprint "PinHeader_1x11_P2.54mm_Horizontal" (version 20211014) (generator pcbnew)
  (layer "F.Cu")
  (tedit 59FED5CB)
  (descr "Through hole angled pin header, 1x11, 2.54mm pitch, 6mm pin length, single row")
  (tags "Through hole angled pin header THT 1x11 2.54mm single row")
  (attr through_hole)
  (fp_text reference "REF**" (at 4.385 -2.27) (layer "F.SilkS")
    (effects (font (size 1 1) (thickness 0.15)))
    (tstamp 6ecf4427-dd4b-4863-a46e-6b1c7f393aa7)
  )
  (fp_text value "PinHeader_1x11_P2.54mm_Horizontal" (at 4.385 27.67) (layer "F.Fab")
    (effects (font (size 1 1) (thickness 0.15)))
    (tstamp 84e8ca2b-675b-46ae-a0f8-be25d7019607)
  )
  (fp_text user "${REFERENCE}" (at 2.77 12.7 90) (layer "F.Fab")
    (effects (font (size 1 1) (thickness 0.15)))
    (tstamp 9f96b566-0ff6-446a-8372-9cef2dea24bf)
  )
  (fp_line (start 1.042929 14.86) (end 1.44 14.86) (layer "F.SilkS") (width 0.12) (tstamp 00bd8b4c-d5a4-4802-a25a-0149897f5288))
  (fp_line (start 4.1 26.73) (end 4.1 -1.33) (layer "F.SilkS") (width 0.12) (tstamp 0b884cd3-7497-4686-8ad4-148082e7d21d))
  (fp_line (start 10.1 17.4) (end 10.1 18.16) (layer "F.SilkS") (width 0.12) (tstamp 0ff8dc07-3bf9-4194-a95e-94ee1cbfeb33))
  (fp_line (start 1.042929 25.02) (end 1.44 25.02) (layer "F.SilkS") (width 0.12) (tstamp 0ffe4b57-251e-4314-9d25-a56f5c8f80b9))
  (fp_line (start 4.1 -1.33) (end 1.44 -1.33) (layer "F.SilkS") (width 0.12) (tstamp 1238da7c-9ced-457a-aa1e-e10876b26f1f))
  (fp_line (start 10.1 15.62) (end 4.1 15.62) (layer "F.SilkS") (width 0.12) (tstamp 149f00a0-6cb3-430a-acd9-2187049cd847))
  (fp_line (start 4.1 17.4) (end 10.1 17.4) (layer "F.SilkS") (width 0.12) (tstamp 16d6d44c-e934-4776-b750-de63342f85b1))
  (fp_line (start 10.1 14.86) (end 10.1 15.62) (layer "F.SilkS") (width 0.12) (tstamp 16f44390-c202-4252-9119-380c3757e585))
  (fp_line (start -1.27 -1.27) (end 0 -1.27) (layer "F.SilkS") (width 0.12) (tstamp 186ef4c6-0962-46ee-8d2f-a20e50187a67))
  (fp_line (start 10.1 0.38) (end 4.1 0.38) (layer "F.SilkS") (width 0.12) (tstamp 1982bc07-c239-4f10-b6f0-7128569f64ce))
  (fp_line (start 10.1 13.08) (end 4.1 13.08) (layer "F.SilkS") (width 0.12) (tstamp 1a4b1e3b-a6a9-4ecf-a4d6-155f19f06103))
  (fp_line (start 4.1 14.86) (end 10.1 14.86) (layer "F.SilkS") (width 0.12) (tstamp 1b1ff3c0-0179-49db-9d2f-a9027afd4deb))
  (fp_line (start 1.042929 13.08) (end 1.44 13.08) (layer "F.SilkS") (width 0.12) (tstamp 1cf78f85-04bf-4097-8fb5-1e4fe5c0664e))
  (fp_line (start 10.1 -0.38) (end 10.1 0.38) (layer "F.SilkS") (width 0.12) (tstamp 1d7ae809-518a-4346-8103-0aae55fc48d7))
  (fp_line (start 1.44 19.05) (end 4.1 19.05) (layer "F.SilkS") (width 0.12) (tstamp 24805b9b-a1e0-45b0-98d1-3f5af458a709))
  (fp_line (start 1.042929 9.78) (end 1.44 9.78) (layer "F.SilkS") (width 0.12) (tstamp 286c974d-3e6b-4529-a955-b11ffe52fb21))
  (fp_line (start 1.11 0.38) (end 1.44 0.38) (layer "F.SilkS") (width 0.12) (tstamp 29ba283a-910f-4bec-9a36-18957ad9fb91))
  (fp_line (start 1.44 21.59) (end 4.1 21.59) (layer "F.SilkS") (width 0.12) (tstamp 2e1e7a09-edb5-4f90-90d7-404fc6ba1ad4))
  (fp_line (start -1.27 0) (end -1.27 -1.27) (layer "F.SilkS") (width 0.12) (tstamp 31b959bd-533f-4889-a247-6c53a53d301a))
  (fp_line (start 4.1 4.7) (end 10.1 4.7) (layer "F.SilkS") (width 0.12) (tstamp 37337b1e-5592-430c-99bc-51a1c2c45d59))
  (fp_line (start 10.1 7.24) (end 10.1 8) (layer "F.SilkS") (width 0.12) (tstamp 3bb7125a-0715-4ed0-9fd8-63730cc339df))
  (fp_line (start 1.44 1.27) (end 4.1 1.27) (layer "F.SilkS") (width 0.12) (tstamp 3bd3085e-ab7b-4b60-a340-b1daa57199ef))
  (fp_line (start 10.1 23.24) (end 4.1 23.24) (layer "F.SilkS") (width 0.12) (tstamp 416bb9ac-c1ef-4202-81f4-d25ebdcfd1fb))
  (fp_line (start 4.1 9.78) (end 10.1 9.78) (layer "F.SilkS") (width 0.12) (tstamp 44c6d425-d3a7-4c99-afc8-d6055c455bdb))
  (fp_line (start 1.042929 19.94) (end 1.44 19.94) (layer "F.SilkS") (width 0.12) (tstamp 4939669b-2bff-4686-8750-6455fb80da08))
  (fp_line (start 10.1 9.78) (end 10.1 10.54) (layer "F.SilkS") (width 0.12) (tstamp 4e7c0635-ec44-48a1-a355-ec397cf6f1b2))
  (fp_line (start 1.042929 22.48) (end 1.44 22.48) (layer "F.SilkS") (width 0.12) (tstamp 50c7b9ab-054a-4027-af22-a51caf3dc083))
  (fp_line (start 1.44 3.81) (end 4.1 3.81) (layer "F.SilkS") (width 0.12) (tstamp 5338057d-1c8c-4392-b3ac-236ee29e275d))
  (fp_line (start 1.042929 4.7) (end 1.44 4.7) (layer "F.SilkS") (width 0.12) (tstamp 594c0db4-5ff3-4663-b9f8-6a055e6c98b9))
  (fp_line (start 10.1 20.7) (end 4.1 20.7) (layer "F.SilkS") (width 0.12) (tstamp 5f1907f9-ee4a-4525-aae4-ecf1904e4423))
  (fp_line (start 4.1 19.94) (end 10.1 19.94) (layer "F.SilkS") (width 0.12) (tstamp 5fa6ca9b-c51a-462f-891c-4f9de430d11d))
  (fp_line (start 4.1 0.16) (end 10.1 0.16) (layer "F.SilkS") (width 0.12) (tstamp 60c5a8c4-6d75-466f-a73f-d96324558507))
  (fp_line (start 1.11 -0.38) (end 1.44 -0.38) (layer "F.SilkS") (width 0.12) (tstamp 629862b9-db70-4263-8797-6a70d091b7ed))
  (fp_line (start 10.1 19.94) (end 10.1 20.7) (layer "F.SilkS") (width 0.12) (tstamp 631fe8ad-9906-4ccc-ae07-42a0cf895d60))
  (fp_line (start 10.1 10.54) (end 4.1 10.54) (layer "F.SilkS") (width 0.12) (tstamp 6d174ade-55bb-40b1-b78f-3eacad9cb238))
  (fp_line (start 1.44 13.97) (end 4.1 13.97) (layer "F.SilkS") (width 0.12) (tstamp 706fb580-1838-4c73-8756-eace3b2bbb97))
  (fp_line (start 1.042929 2.92) (end 1.44 2.92) (layer "F.SilkS") (width 0.12) (tstamp 717fe1ab-239e-4603-a4ec-67de9d45e950))
  (fp_line (start 10.1 12.32) (end 10.1 13.08) (layer "F.SilkS") (width 0.12) (tstamp 75fd79bb-663d-4f3c-a58c-93b600755352))
  (fp_line (start 10.1 25.02) (end 10.1 25.78) (layer "F.SilkS") (width 0.12) (tstamp 762adb99-1ddc-45cf-baf0-e0b4fc646690))
  (fp_line (start 1.042929 15.62) (end 1.44 15.62) (layer "F.SilkS") (width 0.12) (tstamp 79239479-4dbe-40a1-818b-3b5546abdf80))
  (fp_line (start 10.1 8) (end 4.1 8) (layer "F.SilkS") (width 0.12) (tstamp 7e6369d2-5b6b-471c-83a6-9288c9ad44e9))
  (fp_line (start 4.1 0.04) (end 10.1 0.04) (layer "F.SilkS") (width 0.12) (tstamp 88ef53ac-339e-4a05-ae90-b79aa9b22a34))
  (fp_line (start 4.1 -0.08) (end 10.1 -0.08) (layer "F.SilkS") (width 0.12) (tstamp 8d38d6b4-b909-491d-b3ac-6c4748894a65))
  (fp_line (start 1.44 16.51) (end 4.1 16.51) (layer "F.SilkS") (width 0.12) (tstamp 8dfdfcb7-7d8c-479e-a701-0486da96db3b))
  (fp_line (start 10.1 22.48) (end 10.1 23.24) (layer "F.SilkS") (width 0.12) (tstamp 8e42dba4-9bd3-40c7-9834-10cc88805e65))
  (fp_line (start 1.44 24.13) (end 4.1 24.13) (layer "F.SilkS") (width 0.12) (tstamp 8e887fec-5540-4b81-9c84-cd6e5b7dee53))
  (fp_line (start 1.44 -1.33) (end 1.44 26.73) (layer "F.SilkS") (width 0.12) (tstamp 987aef1d-b8f0-4022-bc31-20951348141a))
  (fp_line (start 1.042929 20.7) (end 1.44 20.7) (layer "F.SilkS") (width 0.12) (tstamp 9f096b8d-122d-4386-8023-d91ab9ac29d9))
  (fp_line (start 1.042929 2.16) (end 1.44 2.16) (layer "F.SilkS") (width 0.12) (tstamp a2f385e6-dda3-47df-bfcb-0e5a436accb9))
  (fp_line (start 4.1 -0.32) (end 10.1 -0.32) (layer "F.SilkS") (width 0.12) (tstamp a45c707d-36f4-442c-91a2-c4b34d22c2c2))
  (fp_line (start 10.1 25.78) (end 4.1 25.78) (layer "F.SilkS") (width 0.12) (tstamp a630958c-ec63-4990-b4fa-213eb3bf5938))
  (fp_line (start 1.44 11.43) (end 4.1 11.43) (layer "F.SilkS") (width 0.12) (tstamp a7ac35c8-e8f8-4411-9508-e39a586bec93))
  (fp_line (start 10.1 2.92) (end 4.1 2.92) (layer "F.SilkS") (width 0.12) (tstamp a8e561df-f8ed-4fc7-9bdd-3d7cb0b37bf3))
  (fp_line (start 4.1 7.24) (end 10.1 7.24) (layer "F.SilkS") (width 0.12) (tstamp b2c84d2a-3fb4-4998-9987-7e8212448d3d))
  (fp_line (start 1.44 6.35) (end 4.1 6.35) (layer "F.SilkS") (width 0.12) (tstamp b7ce3b4d-21e1-4fa8-921d-5d06b3495c03))
  (fp_line (start 1.042929 17.4) (end 1.44 17.4) (layer "F.SilkS") (width 0.12) (tstamp b96c4ae7-e08b-41d2-9c1a-a1f5c26e30cc))
  (fp_line (start 1.44 8.89) (end 4.1 8.89) (layer "F.SilkS") (width 0.12) (tstamp bd0cf43c-87b6-445c-ae7b-8b1cfd4c2149))
  (fp_line (start 4.1 12.32) (end 10.1 12.32) (layer "F.SilkS") (width 0.12) (tstamp c0efd77d-ca28-4652-89d7-26159a6ce12d))
  (fp_line (start 4.1 -0.38) (end 10.1 -0.38) (layer "F.SilkS") (width 0.12) (tstamp c4ed4ddd-8654-457d-86c6-d068b98a2bd1))
  (fp_line (start 1.042929 23.24) (end 1.44 23.24) (layer "F.SilkS") (width 0.12) (tstamp c65112c7-31fe-4247-a191-99db57c8ff6d))
  (fp_line (start 1.44 26.73) (end 4.1 26.73) (layer "F.SilkS") (width 0.12) (tstamp c7852ef8-7998-45bc-b63e-22f0418a6b9b))
  (fp_line (start 1.042929 12.32) (end 1.44 12.32) (layer "F.SilkS") (width 0.12) (tstamp c7cfa204-7956-494f-ab27-1f4a01d1c16d))
  (fp_line (start 10.1 4.7) (end 10.1 5.46) (layer "F.SilkS") (width 0.12) (tstamp c921dcfc-f1e2-4664-93cf-371857a73ffd))
  (fp_line (start 4.1 0.28) (end 10.1 0.28) (layer "F.SilkS") (width 0.12) (tstamp ce823a24-d276-4825-a0c1-679e052a0460))
  (fp_line (start 4.1 2.16) (end 10.1 2.16) (layer "F.SilkS") (width 0.12) (tstamp d5d02d9f-259f-4903-a640-52405025efb0))
  (fp_line (start 1.042929 8) (end 1.44 8) (layer "F.SilkS") (width 0.12) (tstamp d8cceaae-44be-4aca-a068-ecf139098d2c))
  (fp_line (start 1.042929 5.46) (end 1.44 5.46) (layer "F.SilkS") (width 0.12) (tstamp dcf925f0-9034-4a7a-a999-8d09ea782c22))
  (fp_line (start 4.1 22.48) (end 10.1 22.48) (layer "F.SilkS") (width 0.12) (tstamp dddeb426-f9ee-4e00-9b5b-6fe5e3d9427a))
  (fp_line (start 1.042929 18.16) (end 1.44 18.16) (layer "F.SilkS") (width 0.12) (tstamp e689afe5-19df-4258-95f6-2fa085e5d4d8))
  (fp_line (start 1.042929 25.78) (end 1.44 25.78) (layer "F.SilkS") (width 0.12) (tstamp e91dea1a-70c2-474d-ba64-f9c9d1e453bf))
  (fp_line (start 10.1 2.16) (end 10.1 2.92) (layer "F.SilkS") (width 0.12) (tstamp f10bd7f8-bf1b-4fe2-a9e5-0cbc8f77b410))
  (fp_line (start 4.1 25.02) (end 10.1 25.02) (layer "F.SilkS") (width 0.12) (tstamp f8643d14-2fe2-4721-a36d-bd506f836572))
  (fp_line (start 10.1 18.16) (end 4.1 18.16) (layer "F.SilkS") (width 0.12) (tstamp f957f520-2685-42b8-ac0d-e3791afdfe5d))
  (fp_line (start 10.1 5.46) (end 4.1 5.46) (layer "F.SilkS") (width 0.12) (tstamp f958e7ee-6191-4e99-aa66-82cc85cc8c2e))
  (fp_line (start 4.1 -0.2) (end 10.1 -0.2) (layer "F.SilkS") (width 0.12) (tstamp fd3ebbbd-938b-46b8-9c75-81118beac345))
  (fp_line (start 1.042929 10.54) (end 1.44 10.54) (layer "F.SilkS") (width 0.12) (tstamp fefbcbd5-2beb-47cc-8159-4c26cf6463a5))
  (fp_line (start 1.042929 7.24) (end 1.44 7.24) (layer "F.SilkS") (width 0.12) (tstamp fff70116-b3a2-47f8-bca7-475d63ee65e9))
  (fp_line (start -1.8 -1.8) (end -1.8 27.2) (layer "F.CrtYd") (width 0.05) (tstamp 17228002-92d4-4b6d-b70a-b1cb5bf590b7))
  (fp_line (start -1.8 27.2) (end 10.55 27.2) (layer "F.CrtYd") (width 0.05) (tstamp 5041cbdc-06aa-41bd-8c1e-ea9e3a38e481))
  (fp_line (start 10.55 -1.8) (end -1.8 -1.8) (layer "F.CrtYd") (width 0.05) (tstamp 6100aa72-4f67-4ded-b78f-25482b3d7ad2))
  (fp_line (start 10.55 27.2) (end 10.55 -1.8) (layer "F.CrtYd") (width 0.05) (tstamp db3eda81-c45f-4aef-a55a-81ad7c094a97))
  (fp_line (start 10.04 22.54) (end 10.04 23.18) (layer "F.Fab") (width 0.1) (tstamp 04be7953-df2d-4bd5-aa06-290daad71832))
  (fp_line (start 10.04 2.22) (end 10.04 2.86) (layer "F.Fab") (width 0.1) (tstamp 079992ac-9704-4cdc-8d05-08379ada116f))
  (fp_line (start -0.32 -0.32) (end 1.5 -0.32) (layer "F.Fab") (width 0.1) (tstamp 082c0b8a-9267-4534-a2cd-f50bbbcb9f52))
  (fp_line (start -0.32 14.92) (end 1.5 14.92) (layer "F.Fab") (width 0.1) (tstamp 0c9825a6-3cf0-4d00-9103-917b79c7e5cb))
  (fp_line (start -0.32 0.32) (end 1.5 0.32) (layer "F.Fab") (width 0.1) (tstamp 0f7de559-ae7d-4bea-ad8b-0cf7af059b0d))
  (fp_line (start -0.32 12.38) (end -0.32 13.02) (layer "F.Fab") (width 0.1) (tstamp 127b9e87-f3ce-4b82-a073-b36695daeb0f))
  (fp_line (start -0.32 20) (end 1.5 20) (layer "F.Fab") (width 0.1) (tstamp 14c762f2-ce50-4162-96c8-8c10e7237746))
  (fp_line (start -0.32 5.4) (end 1.5 5.4) (layer "F.Fab") (width 0.1) (tstamp 1640dd2c-ab22-4420-86bb-0aeed51d1d97))
  (fp_line (start -0.32 25.08) (end -0.32 25.72) (layer "F.Fab") (width 0.1) (tstamp 1d69deb8-9c8d-4d6c-9001-b7ec6c086fe3))
  (fp_line (start 4.04 20) (end 10.04 20) (layer "F.Fab") (width 0.1) (tstamp 21a1c5ef-96c8-4bc3-9d97-72bd55b17c2e))
  (fp_line (start -0.32 2.22) (end 1.5 2.22) (layer "F.Fab") (width 0.1) (tstamp 244d4788-ca72-4c4b-b3b4-61e2499ed36f))
  (fp_line (start -0.32 2.86) (end 1.5 2.86) (layer "F.Fab") (width 0.1) (tstamp 28235ac9-6e70-4c1e-8069-b915f13f4ce2))
  (fp_line (start -0.32 13.02) (end 1.5 13.02) (layer "F.Fab") (width 0.1) (tstamp 29cbeba6-b788-45c5-a9e3-f74e6b6863be))
  (fp_line (start 1.5 -0.635) (end 2.135 -1.27) (layer "F.Fab") (width 0.1) (tstamp 2a45ec5f-9343-42b6-9fcc-69b4d5093cad))
  (fp_line (start 4.04 2.22) (end 10.04 2.22) (layer "F.Fab") (width 0.1) (tstamp 3177a9b8-3e34-41d7-b330-f692bbafd177))
  (fp_line (start 4.04 14.92) (end 10.04 14.92) (layer "F.Fab") (width 0.1) (tstamp 3501b8a3-783a-4ef1-b414-1db0214d353b))
  (fp_line (start 4.04 2.86) (end 10.04 2.86) (layer "F.Fab") (width 0.1) (tstamp 38da5a19-ff18-4b0f-b9be-86dd25d177cb))
  (fp_line (start -0.32 23.18) (end 1.5 23.18) (layer "F.Fab") (width 0.1) (tstamp 39d07dd4-eb78-47cb-8598-4a4aff08597c))
  (fp_line (start 4.04 15.56) (end 10.04 15.56) (layer "F.Fab") (width 0.1) (tstamp 3f06a429-8e7b-4348-a5d7-ebba33482193))
  (fp_line (start -0.32 15.56) (end 1.5 15.56) (layer "F.Fab") (width 0.1) (tstamp 3f8dac42-6993-4732-8826-ba2a2e86ee77))
  (fp_line (start 10.04 14.92) (end 10.04 15.56) (layer "F.Fab") (width 0.1) (tstamp 40763490-320a-4115-b484-c4326fbcdd44))
  (fp_line (start -0.32 2.22) (end -0.32 2.86) (layer "F.Fab") (width 0.1) (tstamp 497dfca0-220d-424c-b47f-63866be8415b))
  (fp_line (start 4.04 12.38) (end 10.04 12.38) (layer "F.Fab") (width 0.1) (tstamp 4994c600-a8df-4eb5-87df-5cef7ed13d63))
  (fp_line (start 4.04 23.18) (end 10.04 23.18) (layer "F.Fab") (width 0.1) (tstamp 49a3c63f-7b27-4c75-962c-611d87239246))
  (fp_line (start 10.04 4.76) (end 10.04 5.4) (layer "F.Fab") (width 0.1) (tstamp 56ff469e-3c5a-4668-a7a2-7ff67e110ad5))
  (fp_line (start -0.32 9.84) (end 1.5 9.84) (layer "F.Fab") (width 0.1) (tstamp 5ce3e5e0-d67e-4b96-81c7-a32613e0efef))
  (fp_line (start 10.04 12.38) (end 10.04 13.02) (layer "F.Fab") (width 0.1) (tstamp 5e1bff9f-27d4-462d-89f7-ec2f1c500dbb))
  (fp_line (start -0.32 4.76) (end -0.32 5.4) (layer "F.Fab") (width 0.1) (tstamp 66036257-4014-405b-8d09-73fe67d8e012))
  (fp_line (start 4.04 9.84) (end 10.04 9.84) (layer "F.Fab") (width 0.1) (tstamp 6b91bf06-82ad-4399-b2c0-e8fb38980de2))
  (fp_line (start -0.32 20.64) (end 1.5 20.64) (layer "F.Fab") (width 0.1) (tstamp 704070ff-55f5-4672-b5d0-a608339c5d00))
  (fp_line (start 10.04 7.3) (end 10.04 7.94) (layer "F.Fab") (width 0.1) (tstamp 723c1f7a-9bc0-469d-81a6-d31ce05887c7))
  (fp_line (start 4.04 7.3) (end 10.04 7.3) (layer "F.Fab") (width 0.1) (tstamp 72db0c47-79f3-4e4d-bbec-1ba208e2f627))
  (fp_line (start 4.04 18.1) (end 10.04 18.1) (layer "F.Fab") (width 0.1) (tstamp 752fcbcf-c511-4d2a-af90-bb53be167921))
  (fp_line (start 4.04 4.76) (end 10.04 4.76) (layer "F.Fab") (width 0.1) (tstamp 75ea69a1-a8d8-4992-9ce3-8ec82fada64b))
  (fp_line (start 4.04 22.54) (end 10.04 22.54) (layer "F.Fab") (width 0.1) (tstamp 80323814-b744-40e9-8633-41a032714489))
  (fp_line (start 4.04 7.94) (end 10.04 7.94) (layer "F.Fab") (width 0.1) (tstamp 81920a35-dce7-497a-be21-7502df6b64c2))
  (fp_line (start 4.04 13.02) (end 10.04 13.02) (layer "F.Fab") (width 0.1) (tstamp 8246113d-165b-4da2-8ecf-e254b80ffe80))
  (fp_line (start -0.32 25.72) (end 1.5 25.72) (layer "F.Fab") (width 0.1) (tstamp 8395d67f-7f73-4198-9760-fa2c0ada91cd))
  (fp_line (start -0.32 4.76) (end 1.5 4.76) (layer "F.Fab") (width 0.1) (tstamp 8cc265b4-78af-4abb-8556-b2a99f707e47))
  (fp_line (start -0.32 25.08) (end 1.5 25.08) (layer "F.Fab") (width 0.1) (tstamp 936d22f8-fabe-4052-8e5d-f0ab415d6217))
  (fp_line (start 4.04 17.46) (end 10.04 17.46) (layer "F.Fab") (width 0.1) (tstamp 94b10b4a-da30-4e15-b6d6-0df5ada4fd14))
  (fp_line (start 10.04 17.46) (end 10.04 18.1) (layer "F.Fab") (width 0.1) (tstamp 9aab108f-c58a-44b3-9562-a89bc94746ac))
  (fp_line (start 4.04 10.48) (end 10.04 10.48) (layer "F.Fab") (width 0.1) (tstamp 9d064214-73f9-4bd7-b4c3-7df65a16ca12))
  (fp_line (start 4.04 -1.27) (end 4.04 26.67) (layer "F.Fab") (width 0.1) (tstamp 9d55244f-fda5-4bd6-81d8-967646c5ef16))
  (fp_line (start 10.04 9.84) (end 10.04 10.48) (layer "F.Fab") (width 0.1) (tstamp a3f1dc81-ba5e-4cf7-9187-66ecd027cd59))
  (fp_line (start -0.32 9.84) (end -0.32 10.48) (layer "F.Fab") (width 0.1) (tstamp a5626fb0-6c39-451e-8a80-d8fc1565f112))
  (fp_line (start 10.04 25.08) (end 10.04 25.72) (layer "F.Fab") (width 0.1) (tstamp a70160b3-0086-4a3e-87df-5f897fda168f))
  (fp_line (start 1.5 26.67) (end 1.5 -0.635) (layer "F.Fab") (width 0.1) (tstamp b281415a-657b-4547-98b6-48729f738e54))
  (fp_line (start 4.04 20.64) (end 10.04 20.64) (layer "F.Fab") (width 0.1) (tstamp b32410ae-6dad-4d84-9c5d-3dec20c9802e))
  (fp_line (start 4.04 25.72) (end 10.04 25.72) (layer "F.Fab") (width 0.1) (tstamp b391fbad-5f04-4940-9e99-e1cd92108295))
  (fp_line (start 4.04 0.32) (end 10.04 0.32) (layer "F.Fab") (width 0.1) (tstamp b7d29088-3351-4f81-aafc-5975c759a675))
  (fp_line (start -0.32 12.38) (end 1.5 12.38) (layer "F.Fab") (width 0.1) (tstamp b8677657-a9fc-465f-918f-96058f15933d))
  (fp_line (start 4.04 26.67) (end 1.5 26.67) (layer "F.Fab") (width 0.1) (tstamp c05a73b2-1abf-44c2-b078-b92c58f93ba3))
  (fp_line (start -0.32 22.54) (end -0.32 23.18) (layer "F.Fab") (width 0.1) (tstamp c3487682-b77d-4572-a2a2-1245e2164851))
  (fp_line (start 2.135 -1.27) (end 4.04 -1.27) (layer "F.Fab") (width 0.1) (tstamp c441065b-8704-428b-b0eb-223539a78580))
  (fp_line (start -0.32 17.46) (end -0.32 18.1) (layer "F.Fab") (width 0.1) (tstamp cb093cd1-fdc3-4de6-8ce8-d860737e3294))
  (fp_line (start 4.04 5.4) (end 10.04 5.4) (layer "F.Fab") (width 0.1) (tstamp cc70e8e4-c4c9-4aea-9e37-0a1443b33f8a))
  (fp_line (start -0.32 7.3) (end -0.32 7.94) (layer "F.Fab") (width 0.1) (tstamp cf6d84b6-e459-4a52-b81a-a0c96f14c213))
  (fp_line (start -0.32 7.3) (end 1.5 7.3) (layer "F.Fab") (width 0.1) (tstamp d02d0ff4-dbf8-4318-ae57-f5a3868bc115))
  (fp_line (start -0.32 18.1) (end 1.5 18.1) (layer "F.Fab") (width 0.1) (tstamp d307ec93-bdf3-47bb-a052-d9126a9d32c7))
  (fp_line (start 10.04 -0.32) (end 10.04 0.32) (layer "F.Fab") (width 0.1) (tstamp d3b2a0a2-f2fb-4c1b-baa1-e1e5b52630c4))
  (fp_line (start -0.32 22.54) (end 1.5 22.54) (layer "F.Fab") (width 0.1) (tstamp d567d572-659b-43fd-9fe0-00fa7112b62a))
  (fp_line (start 10.04 20) (end 10.04 20.64) (layer "F.Fab") (width 0.1) (tstamp e295186b-bcc5-4e4c-8ab5-559376fbfaa0))
  (fp_line (start -0.32 20) (end -0.32 20.64) (layer "F.Fab") (width 0.1) (tstamp e476c531-4c61-4990-ac0e-1c465501deb1))
  (fp_line (start -0.32 14.92) (end -0.32 15.56) (layer "F.Fab") (width 0.1) (tstamp e69389d0-6136-40e6-8ef7-64175cb34bab))
  (fp_line (start -0.32 7.94) (end 1.5 7.94) (layer "F.Fab") (width 0.1) (tstamp e735998b-0335-41e6-8d4e-761ad7b57a20))
  (fp_line (start -0.32 10.48) (end 1.5 10.48) (layer "F.Fab") (width 0.1) (tstamp e89e635c-65a4-45a9-bfc6-3ac75b091a5f))
  (fp_line (start -0.32 -0.32) (end -0.32 0.32) (layer "F.Fab") (width 0.1) (tstamp f0d10d55-ce1c-4ff1-b041-6f9a7b6923b5))
  (fp_line (start -0.32 17.46) (end 1.5 17.46) (layer "F.Fab") (width 0.1) (tstamp f2b0ee7c-998d-4970-8344-6ecc498df360))
  (fp_line (start 4.04 -0.32) (end 10.04 -0.32) (layer "F.Fab") (width 0.1) (tstamp fa52370d-efd6-429a-9830-1fef881201c7))
  (fp_line (start 4.04 25.08) (end 10.04 25.08) (layer "F.Fab") (width 0.1) (tstamp fcbd93a0-093d-46f8-9d2d-c7e6c04f6c7c))
  (pad "1" thru_hole rect (at 0 0) (size 2.1 2.1) (drill 1) (layers *.Cu *.Mask) (tstamp 06d690d7-ac08-4b4c-98e5-b387e83a52fc))
  (pad "2" thru_hole oval (at 0 2.54) (size 2.1 2.1) (drill 1) (layers *.Cu *.Mask) (tstamp 398c34aa-fbd6-4add-ada2-0506505d4d8d))
  (pad "3" thru_hole oval (at 0 5.08) (size 2.1 2.1) (drill 1) (layers *.Cu *.Mask) (tstamp 2c41dea9-4e79-4f6d-bc6d-1565247dbc64))
  (pad "4" thru_hole oval (at 0 7.62) (size 2.1 2.1) (drill 1) (layers *.Cu *.Mask) (tstamp 6bcc592a-f428-4b74-ab55-5b411c6fd8ca))
  (pad "5" thru_hole oval (at 0 10.16) (size 2.1 2.1) (drill 1) (layers *.Cu *.Mask) (tstamp 265c6fe2-8c24-4c67-87eb-eb9f30be95a6))
  (pad "6" thru_hole oval (at 0 12.7) (size 2.1 2.1) (drill 1) (layers *.Cu *.Mask) (tstamp 280be00e-713d-46dd-a4e0-44f095215a34))
  (pad "7" thru_hole oval (at 0 15.24) (size 2.1 2.1) (drill 1) (layers *.Cu *.Mask) (tstamp 29979cb4-8e60-4b61-b8e6-8ba45099def5))
  (pad "8" thru_hole oval (at 0 17.78) (size 2.1 2.1) (drill 1) (layers *.Cu *.Mask) (tstamp cb258e94-a807-461c-ab23-18f32e27b7a0))
  (pad "9" thru_hole oval (at 0 20.32) (size 2.1 2.1) (drill 1) (layers *.Cu *.Mask) (tstamp beac5cca-a7c4-4905-a0c5-f89c878f0baf))
  (pad "10" thru_hole oval (at 0 22.86) (size 2.1 2.1) (drill 1) (layers *.Cu *.Mask) (tstamp bfd96e77-a83b-4940-a11a-4eeda91306c8))
  (pad "11" thru_hole oval (at 0 25.4) (size 2.1 2.1) (drill 1) (layers *.Cu *.Mask) (tstamp dc268af9-87e6-4646-bc32-996b5ea6abfd))
  (model "${KICAD6_3DMODEL_DIR}/Connector_PinHeader_2.54mm.3dshapes/PinHeader_1x11_P2.54mm_Horizontal.wrl"
    (offset (xyz 0 0 0))
    (scale (xyz 1 1 1))
    (rotate (xyz 0 0 0))
  )
)
