(footprint "PinHeader_1x19_P2.54mm_Vertical" (version 20211014) (generator pcbnew)
  (layer "F.Cu")
  (tedit 59FED5CC)
  (descr "Through hole straight pin header, 1x19, 2.54mm pitch, single row")
  (tags "Through hole pin header THT 1x19 2.54mm single row")
  (attr through_hole)
  (fp_text reference "REF**" (at 0 -2.33) (layer "F.SilkS")
    (effects (font (size 1 1) (thickness 0.15)))
    (tstamp 549d7c57-56cc-4dc9-b098-304d01d6ffc9)
  )
  (fp_text value "PinHeader_1x19_P2.54mm_Vertical" (at 0 48.05) (layer "F.Fab")
    (effects (font (size 1 1) (thickness 0.15)))
    (tstamp f02e3eb6-2ebc-4867-a0f5-8d8cfd30fe97)
  )
  (fp_text user "${REFERENCE}" (at 0 22.86 90) (layer "F.Fab")
    (effects (font (size 1 1) (thickness 0.15)))
    (tstamp 004cb951-8ba9-40c2-af5b-95f602d7f22b)
  )
  (fp_line (start -1.33 1.27) (end 1.33 1.27) (layer "F.SilkS") (width 0.12) (tstamp 05935b21-7593-434c-8dfa-686f105df707))
  (fp_line (start -1.33 1.27) (end -1.33 47.05) (layer "F.SilkS") (width 0.12) (tstamp 5f28fb63-563d-4f37-aa10-94108c08361d))
  (fp_line (start -1.33 47.05) (end 1.33 47.05) (layer "F.SilkS") (width 0.12) (tstamp 6ea5d1cc-ddb9-453e-853a-30b37b11b45e))
  (fp_line (start -1.33 0) (end -1.33 -1.33) (layer "F.SilkS") (width 0.12) (tstamp b16787fa-f9d8-4b1c-ae87-77753bdf74bc))
  (fp_line (start -1.33 -1.33) (end 0 -1.33) (layer "F.SilkS") (width 0.12) (tstamp bb1f180c-2181-4a45-ba05-61bb9af79245))
  (fp_line (start 1.33 1.27) (end 1.33 47.05) (layer "F.SilkS") (width 0.12) (tstamp eb5a46f7-ceb2-4180-9d0c-934b75c0bd81))
  (fp_line (start 1.8 47.5) (end 1.8 -1.8) (layer "F.CrtYd") (width 0.05) (tstamp 0d5a8e61-c9f8-417a-9914-3e77435e9d0a))
  (fp_line (start -1.8 47.5) (end 1.8 47.5) (layer "F.CrtYd") (width 0.05) (tstamp 36ad3ea8-dd19-4540-bd6a-ac5d0bc01c7c))
  (fp_line (start -1.8 -1.8) (end -1.8 47.5) (layer "F.CrtYd") (width 0.05) (tstamp 5793c3fe-a7dd-43eb-a231-d8053bb94772))
  (fp_line (start 1.8 -1.8) (end -1.8 -1.8) (layer "F.CrtYd") (width 0.05) (tstamp 8f3d2c83-7a45-4888-aac1-def3c34b3581))
  (fp_line (start 1.27 46.99) (end -1.27 46.99) (layer "F.Fab") (width 0.1) (tstamp 022a35b9-0455-40e8-bb6f-58764df99d4f))
  (fp_line (start -1.27 -0.635) (end -0.635 -1.27) (layer "F.Fab") (width 0.1) (tstamp 82e7937f-86ca-4e71-aec4-473bfd9f799b))
  (fp_line (start 1.27 -1.27) (end 1.27 46.99) (layer "F.Fab") (width 0.1) (tstamp b08e098f-d3b2-420d-9b75-524b87693515))
  (fp_line (start -1.27 46.99) (end -1.27 -0.635) (layer "F.Fab") (width 0.1) (tstamp ca864864-0c0c-45e1-be41-ca313f85bd94))
  (fp_line (start -0.635 -1.27) (end 1.27 -1.27) (layer "F.Fab") (width 0.1) (tstamp f088b905-5c88-443a-85d0-bb93a9320eee))
  (pad "1" thru_hole rect (at 0 0) (size 2.1 2.1) (drill 1) (layers *.Cu *.Mask) (tstamp 098d9d98-cbcb-451a-badb-6360f8c143c8))
  (pad "2" thru_hole oval (at 0 2.54) (size 2.1 2.1) (drill 1) (layers *.Cu *.Mask) (tstamp 209fbff3-f548-445d-954d-350be0a84199))
  (pad "3" thru_hole oval (at 0 5.08) (size 2.1 2.1) (drill 1) (layers *.Cu *.Mask) (tstamp b8cb1ed6-d672-4c57-b8a4-3c161e7587ad))
  (pad "4" thru_hole oval (at 0 7.62) (size 2.1 2.1) (drill 1) (layers *.Cu *.Mask) (tstamp 4d46315f-f275-4cd6-a0ad-593ed1afb350))
  (pad "5" thru_hole oval (at 0 10.16) (size 2.1 2.1) (drill 1) (layers *.Cu *.Mask) (tstamp 03624e79-1c29-4b4e-b393-ef9447bcab81))
  (pad "6" thru_hole oval (at 0 12.7) (size 2.1 2.1) (drill 1) (layers *.Cu *.Mask) (tstamp ebc48501-8352-42d9-a011-cac0e09ab85e))
  (pad "7" thru_hole oval (at 0 15.24) (size 2.1 2.1) (drill 1) (layers *.Cu *.Mask) (tstamp 969e7bc4-9d51-46a6-b8de-e1a7418ce14d))
  (pad "8" thru_hole oval (at 0 17.78) (size 2.1 2.1) (drill 1) (layers *.Cu *.Mask) (tstamp f1c84a78-24ac-4e04-ac43-46ba6aec68b4))
  (pad "9" thru_hole oval (at 0 20.32) (size 2.1 2.1) (drill 1) (layers *.Cu *.Mask) (tstamp 8d0aee24-7f49-46d0-b40f-e2d944b0acf2))
  (pad "10" thru_hole oval (at 0 22.86) (size 2.1 2.1) (drill 1) (layers *.Cu *.Mask) (tstamp 9609f446-d803-4ff4-97cc-bc651a0673da))
  (pad "11" thru_hole oval (at 0 25.4) (size 2.1 2.1) (drill 1) (layers *.Cu *.Mask) (tstamp 5df83e19-d183-4171-848e-09e4da1e544e))
  (pad "12" thru_hole oval (at 0 27.94) (size 2.1 2.1) (drill 1) (layers *.Cu *.Mask) (tstamp a8290687-976e-4cda-b19b-8c2e3fd90ff5))
  (pad "13" thru_hole oval (at 0 30.48) (size 2.1 2.1) (drill 1) (layers *.Cu *.Mask) (tstamp 3e56c1af-0e9e-4fbf-97d0-e48babbd3814))
  (pad "14" thru_hole oval (at 0 33.02) (size 2.1 2.1) (drill 1) (layers *.Cu *.Mask) (tstamp 755208e7-1cb0-417d-9ebf-6726a028a1f0))
  (pad "15" thru_hole oval (at 0 35.56) (size 2.1 2.1) (drill 1) (layers *.Cu *.Mask) (tstamp 6bd23320-3ecc-4822-8757-33f61541fde5))
  (pad "16" thru_hole oval (at 0 38.1) (size 2.1 2.1) (drill 1) (layers *.Cu *.Mask) (tstamp ff79dd0d-feae-4961-90a5-7023248fa8ba))
  (pad "17" thru_hole oval (at 0 40.64) (size 2.1 2.1) (drill 1) (layers *.Cu *.Mask) (tstamp 2613923f-7f5b-4a12-9195-51f73eafbd74))
  (pad "18" thru_hole oval (at 0 43.18) (size 2.1 2.1) (drill 1) (layers *.Cu *.Mask) (tstamp a23c4a71-db8e-4af7-af89-2854982d8204))
  (pad "19" thru_hole oval (at 0 45.72) (size 2.1 2.1) (drill 1) (layers *.Cu *.Mask) (tstamp 49b46b2e-a660-426e-aa4e-d74fc9e61bdd))
  (model "${KICAD6_3DMODEL_DIR}/Connector_PinHeader_2.54mm.3dshapes/PinHeader_1x19_P2.54mm_Vertical.wrl"
    (offset (xyz 0 0 0))
    (scale (xyz 1 1 1))
    (rotate (xyz 0 0 0))
  )
)
