(footprint "PinHeader_2x11_P2.54mm_Horizontal" (version 20211014) (generator pcbnew)
  (layer "F.Cu")
  (tedit 59FED5CB)
  (descr "Through hole angled pin header, 2x11, 2.54mm pitch, 6mm pin length, double rows")
  (tags "Through hole angled pin header THT 2x11 2.54mm double row")
  (attr through_hole)
  (fp_text reference "REF**" (at 5.655 -2.27) (layer "F.SilkS")
    (effects (font (size 1 1) (thickness 0.15)))
    (tstamp 1a87f538-927a-441d-8503-3c3752850f8c)
  )
  (fp_text value "PinHeader_2x11_P2.54mm_Horizontal" (at 5.655 27.67) (layer "F.Fab")
    (effects (font (size 1 1) (thickness 0.15)))
    (tstamp aed507cf-34ea-49f1-b9e6-e64e510b9895)
  )
  (fp_text user "${REFERENCE}" (at 5.31 12.7 90) (layer "F.Fab")
    (effects (font (size 1 1) (thickness 0.15)))
    (tstamp e97634f1-6ed1-4fae-9722-7acc6f2b5cdd)
  )
  (fp_line (start 1.042929 9.78) (end 1.497071 9.78) (layer "F.SilkS") (width 0.12) (tstamp 007efdf4-98b1-49cf-8761-e084779be480))
  (fp_line (start 12.64 9.78) (end 12.64 10.54) (layer "F.SilkS") (width 0.12) (tstamp 0113fe6d-c03f-4e93-ad7d-5edbd73b7ab8))
  (fp_line (start 3.98 3.81) (end 6.64 3.81) (layer "F.SilkS") (width 0.12) (tstamp 058d7cdc-d835-46cb-bee8-123bb64f7afe))
  (fp_line (start 1.042929 14.86) (end 1.497071 14.86) (layer "F.SilkS") (width 0.12) (tstamp 08f547ed-8ead-4513-ae56-5a51cbac1c7a))
  (fp_line (start 3.98 26.73) (end 6.64 26.73) (layer "F.SilkS") (width 0.12) (tstamp 0a833dd0-d2aa-48e5-b11d-55627c1e2d6d))
  (fp_line (start 1.11 -0.38) (end 1.497071 -0.38) (layer "F.SilkS") (width 0.12) (tstamp 0b0696a4-057a-4854-a3c9-09cea0872eb2))
  (fp_line (start 6.64 0.04) (end 12.64 0.04) (layer "F.SilkS") (width 0.12) (tstamp 0e382f47-92d1-40d3-99c8-7e04fbbc6569))
  (fp_line (start 3.98 16.51) (end 6.64 16.51) (layer "F.SilkS") (width 0.12) (tstamp 1a5624a0-5334-4050-8f57-dabe276e08ab))
  (fp_line (start 3.98 24.13) (end 6.64 24.13) (layer "F.SilkS") (width 0.12) (tstamp 1ab6ee97-187e-4d5b-9ddf-6688098f73a8))
  (fp_line (start 3.582929 25.02) (end 3.98 25.02) (layer "F.SilkS") (width 0.12) (tstamp 1b3d978d-b5fb-41bb-a189-815668d8e108))
  (fp_line (start 3.582929 5.46) (end 3.98 5.46) (layer "F.SilkS") (width 0.12) (tstamp 1ba1692c-735c-43e1-8b58-e2a4e2871536))
  (fp_line (start 3.98 -1.33) (end 3.98 26.73) (layer "F.SilkS") (width 0.12) (tstamp 1ec57e9a-66c7-4b58-8ee4-bbf4f32bcf39))
  (fp_line (start 3.582929 17.4) (end 3.98 17.4) (layer "F.SilkS") (width 0.12) (tstamp 217a791e-ad7e-4b16-a492-46c29800352a))
  (fp_line (start 12.64 0.38) (end 6.64 0.38) (layer "F.SilkS") (width 0.12) (tstamp 231ca92b-fa59-451e-a919-e41350630066))
  (fp_line (start 6.64 17.4) (end 12.64 17.4) (layer "F.SilkS") (width 0.12) (tstamp 23a62797-de86-40f8-a2b6-20a1f2e8e042))
  (fp_line (start 12.64 19.94) (end 12.64 20.7) (layer "F.SilkS") (width 0.12) (tstamp 265bea0b-6c19-491b-9d14-c14e4bbb7fde))
  (fp_line (start 6.64 0.16) (end 12.64 0.16) (layer "F.SilkS") (width 0.12) (tstamp 2a4e617e-c6fa-4883-a0d2-73e84222d548))
  (fp_line (start 6.64 -0.32) (end 12.64 -0.32) (layer "F.SilkS") (width 0.12) (tstamp 2b14934f-a113-4e02-b403-f7c5afa9de96))
  (fp_line (start 1.042929 4.7) (end 1.497071 4.7) (layer "F.SilkS") (width 0.12) (tstamp 304f9cca-45d2-435f-a9bc-cf175b07b39c))
  (fp_line (start 3.582929 12.32) (end 3.98 12.32) (layer "F.SilkS") (width 0.12) (tstamp 31ce9454-ba44-43c5-97e8-485b6aa6412d))
  (fp_line (start 3.582929 22.48) (end 3.98 22.48) (layer "F.SilkS") (width 0.12) (tstamp 31f49f1f-41d2-4886-a4c4-79210f2622de))
  (fp_line (start 3.582929 9.78) (end 3.98 9.78) (layer "F.SilkS") (width 0.12) (tstamp 3396b0d2-7682-4c71-a5e1-cebf4e2eabff))
  (fp_line (start 1.11 0.38) (end 1.497071 0.38) (layer "F.SilkS") (width 0.12) (tstamp 34e89f04-0e03-4003-8683-da690b43c664))
  (fp_line (start 1.042929 7.24) (end 1.497071 7.24) (layer "F.SilkS") (width 0.12) (tstamp 34f6fb82-f998-4616-8e99-00efa9270ee7))
  (fp_line (start 3.582929 2.92) (end 3.98 2.92) (layer "F.SilkS") (width 0.12) (tstamp 36564c43-6f1d-4bf5-bc1b-a08ac183ae4e))
  (fp_line (start 1.042929 20.7) (end 1.497071 20.7) (layer "F.SilkS") (width 0.12) (tstamp 428d8980-09db-44ae-bdeb-fe4a886a87fb))
  (fp_line (start 6.64 7.24) (end 12.64 7.24) (layer "F.SilkS") (width 0.12) (tstamp 44a9d7a1-ffdf-46bd-bf58-f9a5259b0eb8))
  (fp_line (start 1.042929 2.92) (end 1.497071 2.92) (layer "F.SilkS") (width 0.12) (tstamp 479293dc-efca-45f2-be25-a4c4d7ef528c))
  (fp_line (start 6.64 2.16) (end 12.64 2.16) (layer "F.SilkS") (width 0.12) (tstamp 47aa6c9d-8a20-41a2-90c7-d2bb18d9fc60))
  (fp_line (start 6.64 -0.38) (end 12.64 -0.38) (layer "F.SilkS") (width 0.12) (tstamp 48e188ed-e4a1-43f2-88a9-2f7695e21a70))
  (fp_line (start 1.042929 15.62) (end 1.497071 15.62) (layer "F.SilkS") (width 0.12) (tstamp 48e79ed8-c038-4b91-beaa-d1d68d56a52f))
  (fp_line (start 3.582929 8) (end 3.98 8) (layer "F.SilkS") (width 0.12) (tstamp 4aacd060-07f3-4b16-b238-ac99d0a36178))
  (fp_line (start 1.042929 18.16) (end 1.497071 18.16) (layer "F.SilkS") (width 0.12) (tstamp 4b1cdc25-c679-4876-b8f0-381f43a51856))
  (fp_line (start 3.98 21.59) (end 6.64 21.59) (layer "F.SilkS") (width 0.12) (tstamp 4c50b628-491e-47bf-840c-ea8b8e68dfb7))
  (fp_line (start 1.042929 25.02) (end 1.497071 25.02) (layer "F.SilkS") (width 0.12) (tstamp 4ca91502-dd3c-4998-9fa9-47d9d81aac3a))
  (fp_line (start 3.582929 25.78) (end 3.98 25.78) (layer "F.SilkS") (width 0.12) (tstamp 4ee5f889-678c-49f9-8f12-40bbeed91d7a))
  (fp_line (start 12.64 8) (end 6.64 8) (layer "F.SilkS") (width 0.12) (tstamp 4f7535bb-7faf-4b2c-820e-eda2e3626196))
  (fp_line (start 3.582929 19.94) (end 3.98 19.94) (layer "F.SilkS") (width 0.12) (tstamp 527dfee6-d5b3-4b37-8eec-21033e8cdb5a))
  (fp_line (start 1.042929 8) (end 1.497071 8) (layer "F.SilkS") (width 0.12) (tstamp 5446e2d8-34f8-4318-90b4-d9a882bee9ce))
  (fp_line (start 12.64 2.92) (end 6.64 2.92) (layer "F.SilkS") (width 0.12) (tstamp 55d003f3-4a0b-4b4c-976c-c5065284d0c1))
  (fp_line (start 3.582929 2.16) (end 3.98 2.16) (layer "F.SilkS") (width 0.12) (tstamp 59c0f32d-24d8-443c-a912-6dda55ca1f14))
  (fp_line (start -1.27 -1.27) (end 0 -1.27) (layer "F.SilkS") (width 0.12) (tstamp 5ad6292b-30c4-4705-9e1d-3cecd9d349b1))
  (fp_line (start 12.64 20.7) (end 6.64 20.7) (layer "F.SilkS") (width 0.12) (tstamp 5aee5256-bab0-4e86-86a4-85bcab7f59ba))
  (fp_line (start 1.042929 19.94) (end 1.497071 19.94) (layer "F.SilkS") (width 0.12) (tstamp 5cbc22a7-1638-4551-81ba-18d361908333))
  (fp_line (start 12.64 23.24) (end 6.64 23.24) (layer "F.SilkS") (width 0.12) (tstamp 5e6e03ab-3c6a-478a-bc34-a167291b8429))
  (fp_line (start 6.64 0.28) (end 12.64 0.28) (layer "F.SilkS") (width 0.12) (tstamp 5ec454a2-d94a-4122-8cdb-cf64148e4458))
  (fp_line (start 6.64 12.32) (end 12.64 12.32) (layer "F.SilkS") (width 0.12) (tstamp 64b4767a-0c2e-41fa-bd49-6d0337a7fc30))
  (fp_line (start 3.98 1.27) (end 6.64 1.27) (layer "F.SilkS") (width 0.12) (tstamp 651987c2-7515-45eb-92ef-cee08bc1a3cd))
  (fp_line (start 3.98 6.35) (end 6.64 6.35) (layer "F.SilkS") (width 0.12) (tstamp 67637802-69d2-43da-b692-af55cc7c391e))
  (fp_line (start 3.582929 18.16) (end 3.98 18.16) (layer "F.SilkS") (width 0.12) (tstamp 69c8f93b-aa37-4d71-a013-7841cd71ef5f))
  (fp_line (start 6.64 4.7) (end 12.64 4.7) (layer "F.SilkS") (width 0.12) (tstamp 701bcb5d-e49c-4610-9a88-a252c141520e))
  (fp_line (start 6.64 -0.2) (end 12.64 -0.2) (layer "F.SilkS") (width 0.12) (tstamp 70c7e17d-3c20-48c7-9448-815e5d32e977))
  (fp_line (start 12.64 18.16) (end 6.64 18.16) (layer "F.SilkS") (width 0.12) (tstamp 73756387-1bf9-440f-8d0d-a44ce66c8c11))
  (fp_line (start 3.98 19.05) (end 6.64 19.05) (layer "F.SilkS") (width 0.12) (tstamp 7985521e-13cb-4e0d-b8d0-0d0c0c38174d))
  (fp_line (start 6.64 19.94) (end 12.64 19.94) (layer "F.SilkS") (width 0.12) (tstamp 7cd1bc3d-7338-4784-a829-dd1218e906e1))
  (fp_line (start 3.582929 20.7) (end 3.98 20.7) (layer "F.SilkS") (width 0.12) (tstamp 7d0a0202-bb54-4661-ae3c-0bd4298fa360))
  (fp_line (start 1.042929 2.16) (end 1.497071 2.16) (layer "F.SilkS") (width 0.12) (tstamp 80f010e3-71f0-4e49-b415-e25ad75b1ee2))
  (fp_line (start 6.64 14.86) (end 12.64 14.86) (layer "F.SilkS") (width 0.12) (tstamp 815b0f57-b180-457d-9dc4-ac1786611e6b))
  (fp_line (start 3.582929 0.38) (end 3.98 0.38) (layer "F.SilkS") (width 0.12) (tstamp 8398679b-e5d3-4a35-ac6a-0fdc751fac92))
  (fp_line (start 12.64 7.24) (end 12.64 8) (layer "F.SilkS") (width 0.12) (tstamp 846f23be-5593-4828-b210-12e637e4d55a))
  (fp_line (start 12.64 14.86) (end 12.64 15.62) (layer "F.SilkS") (width 0.12) (tstamp 86312d60-b7c8-4329-95e4-07aeda4e9818))
  (fp_line (start 12.64 25.02) (end 12.64 25.78) (layer "F.SilkS") (width 0.12) (tstamp 8ca2d988-0795-4518-9daf-9e55aa8b7f56))
  (fp_line (start 12.64 2.16) (end 12.64 2.92) (layer "F.SilkS") (width 0.12) (tstamp 90132ec9-76c4-4755-94b6-ad15b0270000))
  (fp_line (start 3.582929 14.86) (end 3.98 14.86) (layer "F.SilkS") (width 0.12) (tstamp 90739a78-bc6e-4b12-ad53-e59afb55d558))
  (fp_line (start 3.582929 7.24) (end 3.98 7.24) (layer "F.SilkS") (width 0.12) (tstamp 94ddd92b-e9ca-4be8-9e91-0f806e3a5eb3))
  (fp_line (start 1.042929 17.4) (end 1.497071 17.4) (layer "F.SilkS") (width 0.12) (tstamp 96c3191d-adb8-4f08-b8a0-ba530f661037))
  (fp_line (start 12.64 12.32) (end 12.64 13.08) (layer "F.SilkS") (width 0.12) (tstamp 97900f85-3762-48a8-a64e-5bb4b9b85ac8))
  (fp_line (start 3.582929 -0.38) (end 3.98 -0.38) (layer "F.SilkS") (width 0.12) (tstamp 98776735-e50e-481b-a6e3-b917c93eccce))
  (fp_line (start -1.27 0) (end -1.27 -1.27) (layer "F.SilkS") (width 0.12) (tstamp 9c0de9cb-6c60-43ba-94e3-7de402c4aab6))
  (fp_line (start 12.64 15.62) (end 6.64 15.62) (layer "F.SilkS") (width 0.12) (tstamp 9c438fde-66e0-4e22-a390-234c198afd39))
  (fp_line (start 1.042929 10.54) (end 1.497071 10.54) (layer "F.SilkS") (width 0.12) (tstamp 9d66a208-77fd-4e9a-8a72-d2ceb8b83cf2))
  (fp_line (start 6.64 26.73) (end 6.64 -1.33) (layer "F.SilkS") (width 0.12) (tstamp 9df45261-c1df-467b-99cb-c234369dd13b))
  (fp_line (start 12.64 10.54) (end 6.64 10.54) (layer "F.SilkS") (width 0.12) (tstamp 9e58b08d-f695-43a1-b676-c3f2b501cd73))
  (fp_line (start 6.64 9.78) (end 12.64 9.78) (layer "F.SilkS") (width 0.12) (tstamp a495ddce-dbbf-4ced-aec8-bf39d1219414))
  (fp_line (start 3.582929 13.08) (end 3.98 13.08) (layer "F.SilkS") (width 0.12) (tstamp a4c7910c-6143-4c4c-a264-8c5fc38d7a08))
  (fp_line (start 12.64 4.7) (end 12.64 5.46) (layer "F.SilkS") (width 0.12) (tstamp a64c3a97-db80-4acb-829b-4bb0c11e3a26))
  (fp_line (start 1.042929 5.46) (end 1.497071 5.46) (layer "F.SilkS") (width 0.12) (tstamp b0d8c479-8c84-4cef-bc9e-d93d980b1196))
  (fp_line (start 12.64 17.4) (end 12.64 18.16) (layer "F.SilkS") (width 0.12) (tstamp b1a0e322-0a0f-49c0-96cd-b330af0b2124))
  (fp_line (start 3.98 11.43) (end 6.64 11.43) (layer "F.SilkS") (width 0.12) (tstamp b2953483-5cba-4e4c-b119-991970cbed88))
  (fp_line (start 1.042929 13.08) (end 1.497071 13.08) (layer "F.SilkS") (width 0.12) (tstamp b2c53051-e205-4ea6-82f1-4ec14c324118))
  (fp_line (start 12.64 25.78) (end 6.64 25.78) (layer "F.SilkS") (width 0.12) (tstamp c05c1b9e-74fd-4a68-92f9-8ef99dd8363c))
  (fp_line (start 3.582929 15.62) (end 3.98 15.62) (layer "F.SilkS") (width 0.12) (tstamp c4ca273c-9f9b-47b9-92a1-376adc5c06d7))
  (fp_line (start 12.64 13.08) (end 6.64 13.08) (layer "F.SilkS") (width 0.12) (tstamp e064c53a-b35c-422b-8119-6d820b9cec36))
  (fp_line (start 6.64 25.02) (end 12.64 25.02) (layer "F.SilkS") (width 0.12) (tstamp e15813c2-1bfb-4d4d-abca-2e3c0a1b74d9))
  (fp_line (start 1.042929 23.24) (end 1.497071 23.24) (layer "F.SilkS") (width 0.12) (tstamp e35aa449-5ba5-4d53-a77b-14c995b2bc46))
  (fp_line (start 6.64 -1.33) (end 3.98 -1.33) (layer "F.SilkS") (width 0.12) (tstamp e416e513-2a58-4dee-9093-e070b8163440))
  (fp_line (start 12.64 5.46) (end 6.64 5.46) (layer "F.SilkS") (width 0.12) (tstamp e50c4682-e801-40fd-9204-4028d9d50902))
  (fp_line (start 12.64 -0.38) (end 12.64 0.38) (layer "F.SilkS") (width 0.12) (tstamp e8b2dfad-d7de-44e8-b92f-0a59c826cb3c))
  (fp_line (start 1.042929 12.32) (end 1.497071 12.32) (layer "F.SilkS") (width 0.12) (tstamp ec4d22cd-0f7a-4ed7-b8ab-f62c87645dac))
  (fp_line (start 3.582929 10.54) (end 3.98 10.54) (layer "F.SilkS") (width 0.12) (tstamp ec9744cd-bf7e-4510-89ce-104eb00e0fbe))
  (fp_line (start 6.64 -0.08) (end 12.64 -0.08) (layer "F.SilkS") (width 0.12) (tstamp ee7c0e69-4d85-4ff5-a7b3-554e6363f648))
  (fp_line (start 3.98 13.97) (end 6.64 13.97) (layer "F.SilkS") (width 0.12) (tstamp ee9a5a6a-fc35-47a2-bf60-0ff2fe6fce60))
  (fp_line (start 1.042929 22.48) (end 1.497071 22.48) (layer "F.SilkS") (width 0.12) (tstamp f137462a-f628-46da-b1f4-00964cdd6009))
  (fp_line (start 12.64 22.48) (end 12.64 23.24) (layer "F.SilkS") (width 0.12) (tstamp f1dca6a8-0672-41f0-ab5d-7eb7e770c718))
  (fp_line (start 3.98 8.89) (end 6.64 8.89) (layer "F.SilkS") (width 0.12) (tstamp f35b4257-9cc4-481d-9024-c4f716b5c731))
  (fp_line (start 3.582929 4.7) (end 3.98 4.7) (layer "F.SilkS") (width 0.12) (tstamp f3de5b7f-0b4e-41e6-a596-4c71395ff731))
  (fp_line (start 3.582929 23.24) (end 3.98 23.24) (layer "F.SilkS") (width 0.12) (tstamp f4ecc85d-5d9e-4b00-9e67-fc70b44c3d11))
  (fp_line (start 6.64 22.48) (end 12.64 22.48) (layer "F.SilkS") (width 0.12) (tstamp f72a964e-a165-4e00-98e4-bf104d665549))
  (fp_line (start 1.042929 25.78) (end 1.497071 25.78) (layer "F.SilkS") (width 0.12) (tstamp fcfee6aa-09d3-4424-951a-3ff8d8969dd2))
  (fp_line (start -1.8 27.2) (end 13.1 27.2) (layer "F.CrtYd") (width 0.05) (tstamp 0568e5ff-d189-46db-a8fe-cb0d97a27c52))
  (fp_line (start -1.8 -1.8) (end -1.8 27.2) (layer "F.CrtYd") (width 0.05) (tstamp 0ddf3c51-00e8-4d23-9d0a-de50ba7309b7))
  (fp_line (start 13.1 -1.8) (end -1.8 -1.8) (layer "F.CrtYd") (width 0.05) (tstamp 26debe2c-b9c4-4f7e-a5fa-19fb55ab54e0))
  (fp_line (start 13.1 27.2) (end 13.1 -1.8) (layer "F.CrtYd") (width 0.05) (tstamp d7198a62-8ec4-4ea6-8489-eb3b143a7f3d))
  (fp_line (start 12.58 -0.32) (end 12.58 0.32) (layer "F.Fab") (width 0.1) (tstamp 0771c1e9-5a59-4bf8-a111-e0fe30a2b9db))
  (fp_line (start -0.32 4.76) (end 4.04 4.76) (layer "F.Fab") (width 0.1) (tstamp 0efd9b0a-2483-4497-943d-dd30a65da3d0))
  (fp_line (start 6.58 15.56) (end 12.58 15.56) (layer "F.Fab") (width 0.1) (tstamp 10303eb0-7c7c-47f8-93a1-23c3184f682a))
  (fp_line (start -0.32 7.94) (end 4.04 7.94) (layer "F.Fab") (width 0.1) (tstamp 1178a785-3781-49da-8437-2816ddfb6efb))
  (fp_line (start -0.32 22.54) (end 4.04 22.54) (layer "F.Fab") (width 0.1) (tstamp 149f5c1b-1880-46fd-8b2a-5106a82d7a7e))
  (fp_line (start -0.32 25.72) (end 4.04 25.72) (layer "F.Fab") (width 0.1) (tstamp 1b2e4575-c6cc-4ac7-95d0-86d97ecacdc3))
  (fp_line (start 6.58 14.92) (end 12.58 14.92) (layer "F.Fab") (width 0.1) (tstamp 22428476-37c6-4c27-b6cf-d7c40f49f613))
  (fp_line (start 6.58 4.76) (end 12.58 4.76) (layer "F.Fab") (width 0.1) (tstamp 22e6388d-c05f-4699-bef2-714af2673092))
  (fp_line (start -0.32 14.92) (end 4.04 14.92) (layer "F.Fab") (width 0.1) (tstamp 24c8a820-b277-42bd-bdce-e96dd764692d))
  (fp_line (start 6.58 5.4) (end 12.58 5.4) (layer "F.Fab") (width 0.1) (tstamp 287ad225-eb19-473c-ba20-ba5d2df83a88))
  (fp_line (start -0.32 17.46) (end 4.04 17.46) (layer "F.Fab") (width 0.1) (tstamp 2b538d3f-7787-4dba-8182-008936d5b55b))
  (fp_line (start -0.32 14.92) (end -0.32 15.56) (layer "F.Fab") (width 0.1) (tstamp 32478bf2-f80f-4637-a1f6-6201cb37ff37))
  (fp_line (start -0.32 25.08) (end 4.04 25.08) (layer "F.Fab") (width 0.1) (tstamp 348a5e86-310b-44ee-9f71-10cadc7d62fb))
  (fp_line (start -0.32 -0.32) (end 4.04 -0.32) (layer "F.Fab") (width 0.1) (tstamp 3529f8bf-a9e7-4e54-9ae2-cb1ffcf1ae34))
  (fp_line (start -0.32 20) (end 4.04 20) (layer "F.Fab") (width 0.1) (tstamp 35f62be3-f014-4907-8172-a7d8406196d8))
  (fp_line (start 6.58 25.72) (end 12.58 25.72) (layer "F.Fab") (width 0.1) (tstamp 372845a4-72ef-4ad0-b09b-6d558c6e78bf))
  (fp_line (start 6.58 22.54) (end 12.58 22.54) (layer "F.Fab") (width 0.1) (tstamp 37c0a7a7-fee1-4847-9b04-185413ed9aa8))
  (fp_line (start 6.58 7.94) (end 12.58 7.94) (layer "F.Fab") (width 0.1) (tstamp 37c8d57f-98d0-4926-9174-35d73684faea))
  (fp_line (start -0.32 2.22) (end 4.04 2.22) (layer "F.Fab") (width 0.1) (tstamp 3ac123f7-a91e-4c97-9220-5ace1ab6a541))
  (fp_line (start -0.32 15.56) (end 4.04 15.56) (layer "F.Fab") (width 0.1) (tstamp 3bab898b-9c3c-46fd-b2b6-4fb9d4666958))
  (fp_line (start -0.32 -0.32) (end -0.32 0.32) (layer "F.Fab") (width 0.1) (tstamp 3e6e86df-2eef-4e7e-b43b-401cf788383d))
  (fp_line (start 6.58 2.86) (end 12.58 2.86) (layer "F.Fab") (width 0.1) (tstamp 4454c3d6-506d-4291-8fa4-e144706e018a))
  (fp_line (start -0.32 10.48) (end 4.04 10.48) (layer "F.Fab") (width 0.1) (tstamp 49d784b7-faa2-4e07-bedf-313aea723595))
  (fp_line (start 12.58 2.22) (end 12.58 2.86) (layer "F.Fab") (width 0.1) (tstamp 4de74fab-2eff-4057-b54d-47d86d416685))
  (fp_line (start 6.58 12.38) (end 12.58 12.38) (layer "F.Fab") (width 0.1) (tstamp 4e6d906f-0e5d-4a27-b640-576d5c002612))
  (fp_line (start 6.58 10.48) (end 12.58 10.48) (layer "F.Fab") (width 0.1) (tstamp 50e25d36-1f50-4be2-baef-9c9d035b7da0))
  (fp_line (start 12.58 12.38) (end 12.58 13.02) (layer "F.Fab") (width 0.1) (tstamp 549bf1a8-5914-4ff3-8d3f-1faff1475d9d))
  (fp_line (start 12.58 4.76) (end 12.58 5.4) (layer "F.Fab") (width 0.1) (tstamp 5519da59-75e7-4c2c-b705-8e3ba36da916))
  (fp_line (start 6.58 23.18) (end 12.58 23.18) (layer "F.Fab") (width 0.1) (tstamp 55fff970-8f5b-4490-ac28-206de0b4038b))
  (fp_line (start 6.58 0.32) (end 12.58 0.32) (layer "F.Fab") (width 0.1) (tstamp 5a269fc1-bd99-4f12-a3e9-37676c7cc965))
  (fp_line (start -0.32 18.1) (end 4.04 18.1) (layer "F.Fab") (width 0.1) (tstamp 6223d877-e743-4762-bfd6-5b66c6637df2))
  (fp_line (start -0.32 9.84) (end 4.04 9.84) (layer "F.Fab") (width 0.1) (tstamp 62c03978-9cce-4770-ae41-2be66f438da2))
  (fp_line (start 6.58 17.46) (end 12.58 17.46) (layer "F.Fab") (width 0.1) (tstamp 630668f9-7edc-4bde-96ca-6ddc7be17379))
  (fp_line (start 6.58 25.08) (end 12.58 25.08) (layer "F.Fab") (width 0.1) (tstamp 637bff42-42a7-4cc0-888a-e71e91c922a5))
  (fp_line (start -0.32 5.4) (end 4.04 5.4) (layer "F.Fab") (width 0.1) (tstamp 64b8e848-a51e-4a41-9e56-26732db3b00e))
  (fp_line (start 12.58 25.08) (end 12.58 25.72) (layer "F.Fab") (width 0.1) (tstamp 6ef6799e-d43c-42e9-8bd8-6ef99d404748))
  (fp_line (start 6.58 20) (end 12.58 20) (layer "F.Fab") (width 0.1) (tstamp 712fac6c-58b0-42ee-a74a-9ef391701292))
  (fp_line (start -0.32 4.76) (end -0.32 5.4) (layer "F.Fab") (width 0.1) (tstamp 76677f4a-4f7b-4a87-8b42-b2b95847fd7f))
  (fp_line (start -0.32 0.32) (end 4.04 0.32) (layer "F.Fab") (width 0.1) (tstamp 7a052100-fa07-4c26-9c29-7551f7454074))
  (fp_line (start -0.32 20.64) (end 4.04 20.64) (layer "F.Fab") (width 0.1) (tstamp 7e2483c6-99ce-410d-9e50-255addf15aa5))
  (fp_line (start -0.32 12.38) (end 4.04 12.38) (layer "F.Fab") (width 0.1) (tstamp 7f63e99c-e0c6-4d70-b34c-63886ed26531))
  (fp_line (start -0.32 20) (end -0.32 20.64) (layer "F.Fab") (width 0.1) (tstamp 84e28aa8-821f-48f8-ad36-3cc90b389694))
  (fp_line (start -0.32 12.38) (end -0.32 13.02) (layer "F.Fab") (width 0.1) (tstamp 85764274-88c0-4991-b392-2de4f4789299))
  (fp_line (start 6.58 13.02) (end 12.58 13.02) (layer "F.Fab") (width 0.1) (tstamp 86649967-3f39-4fcf-ada1-5f45ec41d0eb))
  (fp_line (start 6.58 20.64) (end 12.58 20.64) (layer "F.Fab") (width 0.1) (tstamp 88134515-dac9-40e4-84e9-818056a3ad9e))
  (fp_line (start -0.32 22.54) (end -0.32 23.18) (layer "F.Fab") (width 0.1) (tstamp 89ef1b71-69aa-457c-b47e-2dd12d80cd8c))
  (fp_line (start 6.58 26.67) (end 4.04 26.67) (layer "F.Fab") (width 0.1) (tstamp 90329737-8a3b-4f65-b2d9-6cde324b78ba))
  (fp_line (start 4.675 -1.27) (end 6.58 -1.27) (layer "F.Fab") (width 0.1) (tstamp 9358ac6b-19b0-4e6c-b6f1-5e4370d48790))
  (fp_line (start 12.58 22.54) (end 12.58 23.18) (layer "F.Fab") (width 0.1) (tstamp 95a76f26-bd79-4da6-98e9-8cddba845937))
  (fp_line (start -0.32 2.22) (end -0.32 2.86) (layer "F.Fab") (width 0.1) (tstamp 964e8a68-11d1-4787-a834-975c738f19c2))
  (fp_line (start 4.04 -0.635) (end 4.675 -1.27) (layer "F.Fab") (width 0.1) (tstamp 9eeeedf5-70d4-423d-a36c-451d639f0409))
  (fp_line (start 6.58 7.3) (end 12.58 7.3) (layer "F.Fab") (width 0.1) (tstamp a1a43287-c8d2-44ad-8ae6-6d45b97aec51))
  (fp_line (start -0.32 17.46) (end -0.32 18.1) (layer "F.Fab") (width 0.1) (tstamp a6295bc4-db63-4dbd-bdd7-ed7e8232a14b))
  (fp_line (start 6.58 18.1) (end 12.58 18.1) (layer "F.Fab") (width 0.1) (tstamp a70a3bd1-eceb-4808-a006-cca45e617584))
  (fp_line (start -0.32 2.86) (end 4.04 2.86) (layer "F.Fab") (width 0.1) (tstamp a7358c48-360b-4350-97be-bf78940fe10f))
  (fp_line (start 6.58 -0.32) (end 12.58 -0.32) (layer "F.Fab") (width 0.1) (tstamp b50a4100-a2d3-4731-89c4-4e0756e38fbc))
  (fp_line (start 12.58 20) (end 12.58 20.64) (layer "F.Fab") (width 0.1) (tstamp b7bbe797-9a39-4874-a3f0-802d7bedb028))
  (fp_line (start 12.58 17.46) (end 12.58 18.1) (layer "F.Fab") (width 0.1) (tstamp b9ce5df3-bb48-42a7-b4c4-897c0a7b9a23))
  (fp_line (start 4.04 26.67) (end 4.04 -0.635) (layer "F.Fab") (width 0.1) (tstamp bb25bc00-c1cb-42e7-8c18-2d0585c0be0a))
  (fp_line (start -0.32 25.08) (end -0.32 25.72) (layer "F.Fab") (width 0.1) (tstamp c4479bc9-d929-4fe5-b268-2d2c5e5419a1))
  (fp_line (start 12.58 7.3) (end 12.58 7.94) (layer "F.Fab") (width 0.1) (tstamp d070d3f2-8734-40ef-8df6-3b12d7380177))
  (fp_line (start -0.32 23.18) (end 4.04 23.18) (layer "F.Fab") (width 0.1) (tstamp d12037e0-982d-4678-98a3-8b3dc933d464))
  (fp_line (start 6.58 2.22) (end 12.58 2.22) (layer "F.Fab") (width 0.1) (tstamp d661d3a5-5529-4dbc-8409-029fe94a1d1f))
  (fp_line (start 6.58 -1.27) (end 6.58 26.67) (layer "F.Fab") (width 0.1) (tstamp d74e06b8-9ab5-4731-8475-3a7622c0a6c7))
  (fp_line (start 6.58 9.84) (end 12.58 9.84) (layer "F.Fab") (width 0.1) (tstamp d7e2bead-5333-4db4-9bb8-f906c4c794af))
  (fp_line (start 12.58 9.84) (end 12.58 10.48) (layer "F.Fab") (width 0.1) (tstamp e3bb1acb-a275-474b-9956-86cac9510344))
  (fp_line (start -0.32 7.3) (end 4.04 7.3) (layer "F.Fab") (width 0.1) (tstamp ea47dda3-8d24-4ca1-b3fc-1d7f55bc4c6c))
  (fp_line (start -0.32 7.3) (end -0.32 7.94) (layer "F.Fab") (width 0.1) (tstamp f5cdd453-cc79-4e1b-bc68-f9bf3298259f))
  (fp_line (start 12.58 14.92) (end 12.58 15.56) (layer "F.Fab") (width 0.1) (tstamp f6544717-e69f-41e9-b45f-09c6214a4e13))
  (fp_line (start -0.32 13.02) (end 4.04 13.02) (layer "F.Fab") (width 0.1) (tstamp fa328602-a755-4eb2-bc63-43d8964d8970))
  (fp_line (start -0.32 9.84) (end -0.32 10.48) (layer "F.Fab") (width 0.1) (tstamp fc5dd7b8-2de9-48b8-9494-78f82689a7b8))
  (pad "1" thru_hole rect (at 0 0) (size 2.1 2.1) (drill 1) (layers *.Cu *.Mask) (tstamp 755a8e07-1e2d-452b-82b0-8ad3ab02ee04))
  (pad "2" thru_hole oval (at 2.54 0) (size 2.1 2.1) (drill 1) (layers *.Cu *.Mask) (tstamp 31a96ae3-7b94-4b85-a3e4-b41dc2520737))
  (pad "3" thru_hole oval (at 0 2.54) (size 2.1 2.1) (drill 1) (layers *.Cu *.Mask) (tstamp d5521083-8784-4275-94d9-718640069c24))
  (pad "4" thru_hole oval (at 2.54 2.54) (size 2.1 2.1) (drill 1) (layers *.Cu *.Mask) (tstamp 552b40f3-259f-4616-a16a-bb5df92f9df3))
  (pad "5" thru_hole oval (at 0 5.08) (size 2.1 2.1) (drill 1) (layers *.Cu *.Mask) (tstamp 868c6eaf-e1fb-4225-9bc7-0ba78d8679c3))
  (pad "6" thru_hole oval (at 2.54 5.08) (size 2.1 2.1) (drill 1) (layers *.Cu *.Mask) (tstamp 428d0f8b-90e2-48f4-a551-8233946b15b5))
  (pad "7" thru_hole oval (at 0 7.62) (size 2.1 2.1) (drill 1) (layers *.Cu *.Mask) (tstamp 2517d65c-87d3-41e7-adeb-a7b030eb4657))
  (pad "8" thru_hole oval (at 2.54 7.62) (size 2.1 2.1) (drill 1) (layers *.Cu *.Mask) (tstamp 62e6fa14-673e-42b7-9468-90cdb41d2ede))
  (pad "9" thru_hole oval (at 0 10.16) (size 2.1 2.1) (drill 1) (layers *.Cu *.Mask) (tstamp af936388-8e14-4974-ab5f-790860efd8bb))
  (pad "10" thru_hole oval (at 2.54 10.16) (size 2.1 2.1) (drill 1) (layers *.Cu *.Mask) (tstamp f5c1dea4-6a8d-4c87-975d-17c3f95f9a55))
  (pad "11" thru_hole oval (at 0 12.7) (size 2.1 2.1) (drill 1) (layers *.Cu *.Mask) (tstamp b28cf813-2dcf-4e3a-9f89-395fbf8ee2b6))
  (pad "12" thru_hole oval (at 2.54 12.7) (size 2.1 2.1) (drill 1) (layers *.Cu *.Mask) (tstamp 7a153bf1-40db-494a-83b7-a3127d634b47))
  (pad "13" thru_hole oval (at 0 15.24) (size 2.1 2.1) (drill 1) (layers *.Cu *.Mask) (tstamp fc880c45-0f89-4275-8505-2b656051e5b6))
  (pad "14" thru_hole oval (at 2.54 15.24) (size 2.1 2.1) (drill 1) (layers *.Cu *.Mask) (tstamp e4eeac57-77a4-4ceb-b3a7-73371677d62f))
  (pad "15" thru_hole oval (at 0 17.78) (size 2.1 2.1) (drill 1) (layers *.Cu *.Mask) (tstamp a2b5a94c-0e1d-4c6c-b1d6-1d304d7ea4f8))
  (pad "16" thru_hole oval (at 2.54 17.78) (size 2.1 2.1) (drill 1) (layers *.Cu *.Mask) (tstamp f15bc6bb-649c-4589-b3df-64b3b8575ad1))
  (pad "17" thru_hole oval (at 0 20.32) (size 2.1 2.1) (drill 1) (layers *.Cu *.Mask) (tstamp be2cd095-a6d7-4eb5-b465-ba9775763aad))
  (pad "18" thru_hole oval (at 2.54 20.32) (size 2.1 2.1) (drill 1) (layers *.Cu *.Mask) (tstamp 04be9ede-a9ed-4103-8993-5edaa79608dd))
  (pad "19" thru_hole oval (at 0 22.86) (size 2.1 2.1) (drill 1) (layers *.Cu *.Mask) (tstamp 55f8f28c-2201-419f-9c4f-c2667c912c5f))
  (pad "20" thru_hole oval (at 2.54 22.86) (size 2.1 2.1) (drill 1) (layers *.Cu *.Mask) (tstamp c883230d-db7d-45cd-8976-fe89b2511053))
  (pad "21" thru_hole oval (at 0 25.4) (size 2.1 2.1) (drill 1) (layers *.Cu *.Mask) (tstamp b29a48f4-a7ae-46c1-b5fb-5650bdd224bd))
  (pad "22" thru_hole oval (at 2.54 25.4) (size 2.1 2.1) (drill 1) (layers *.Cu *.Mask) (tstamp 19aea0a7-e060-4cef-8da6-e6f71a68223d))
  (model "${KICAD6_3DMODEL_DIR}/Connector_PinHeader_2.54mm.3dshapes/PinHeader_2x11_P2.54mm_Horizontal.wrl"
    (offset (xyz 0 0 0))
    (scale (xyz 1 1 1))
    (rotate (xyz 0 0 0))
  )
)
