(footprint "PinHeader_1x27_P2.54mm_Horizontal" (version 20211014) (generator pcbnew)
  (layer "F.Cu")
  (tedit 59FED5CB)
  (descr "Through hole angled pin header, 1x27, 2.54mm pitch, 6mm pin length, single row")
  (tags "Through hole angled pin header THT 1x27 2.54mm single row")
  (attr through_hole)
  (fp_text reference "REF**" (at 4.385 -2.27) (layer "F.SilkS")
    (effects (font (size 1 1) (thickness 0.15)))
    (tstamp 6798faea-a9d0-4a94-aeb1-7a11e7707dc9)
  )
  (fp_text value "PinHeader_1x27_P2.54mm_Horizontal" (at 4.385 68.31) (layer "F.Fab")
    (effects (font (size 1 1) (thickness 0.15)))
    (tstamp 0a118c8f-5580-4805-ae20-6ce5d1da61f3)
  )
  (fp_text user "${REFERENCE}" (at 2.77 33.02 90) (layer "F.Fab")
    (effects (font (size 1 1) (thickness 0.15)))
    (tstamp 2a408046-2df6-441f-94e7-46509390f453)
  )
  (fp_line (start 10.1 58.04) (end 10.1 58.8) (layer "F.SilkS") (width 0.12) (tstamp 0084ffe0-bad6-4477-9ddb-d49321944c3d))
  (fp_line (start 1.042929 14.86) (end 1.44 14.86) (layer "F.SilkS") (width 0.12) (tstamp 00f98c39-2ea3-47d4-a853-7225ab218f1b))
  (fp_line (start 4.1 2.16) (end 10.1 2.16) (layer "F.SilkS") (width 0.12) (tstamp 012a2392-4793-4266-8214-d7de0fddb309))
  (fp_line (start 1.042929 40.26) (end 1.44 40.26) (layer "F.SilkS") (width 0.12) (tstamp 0152420b-07a8-444d-9adb-f46c36634a12))
  (fp_line (start 1.042929 18.16) (end 1.44 18.16) (layer "F.SilkS") (width 0.12) (tstamp 08de4a1e-f620-440a-b218-c7e21a765301))
  (fp_line (start 4.1 37.72) (end 10.1 37.72) (layer "F.SilkS") (width 0.12) (tstamp 0936396e-c13d-4861-be51-f52b6aad08e8))
  (fp_line (start 1.44 -1.33) (end 1.44 67.37) (layer "F.SilkS") (width 0.12) (tstamp 0baff3f0-4435-4475-8de1-f8a1d57bab84))
  (fp_line (start 10.1 50.42) (end 10.1 51.18) (layer "F.SilkS") (width 0.12) (tstamp 0c722ee8-1668-426c-b0d0-6d3c44f03775))
  (fp_line (start 1.042929 37.72) (end 1.44 37.72) (layer "F.SilkS") (width 0.12) (tstamp 10cf9fb4-55a7-4d58-9980-6fd7104eaea0))
  (fp_line (start 1.042929 63.88) (end 1.44 63.88) (layer "F.SilkS") (width 0.12) (tstamp 10fec176-4168-43e5-a352-12662b9928c2))
  (fp_line (start 1.042929 41.02) (end 1.44 41.02) (layer "F.SilkS") (width 0.12) (tstamp 119e09cf-6262-4896-bead-a2a5ee67a66b))
  (fp_line (start 4.1 50.42) (end 10.1 50.42) (layer "F.SilkS") (width 0.12) (tstamp 134737a3-a196-42ae-b67a-8ed7af3f454a))
  (fp_line (start 1.44 16.51) (end 4.1 16.51) (layer "F.SilkS") (width 0.12) (tstamp 139cfb50-5c04-4ef7-9bea-cc05af0c8b73))
  (fp_line (start 1.042929 25.78) (end 1.44 25.78) (layer "F.SilkS") (width 0.12) (tstamp 142907c9-a0d0-4b9c-a000-c04eea89e056))
  (fp_line (start 10.1 4.7) (end 10.1 5.46) (layer "F.SilkS") (width 0.12) (tstamp 15f32e18-6ffc-4635-b685-56aeed8086f5))
  (fp_line (start 10.1 22.48) (end 10.1 23.24) (layer "F.SilkS") (width 0.12) (tstamp 16e3dc0a-01de-4341-b2d0-f7334b114a08))
  (fp_line (start 10.1 10.54) (end 4.1 10.54) (layer "F.SilkS") (width 0.12) (tstamp 175b200c-453e-41ac-97d0-cada221263b4))
  (fp_line (start 1.042929 45.34) (end 1.44 45.34) (layer "F.SilkS") (width 0.12) (tstamp 18f1203b-7401-4e68-be8f-ceb4f5a56d0b))
  (fp_line (start 10.1 55.5) (end 10.1 56.26) (layer "F.SilkS") (width 0.12) (tstamp 19a00870-2aa9-4919-8273-4ca1da17f55b))
  (fp_line (start 1.042929 46.1) (end 1.44 46.1) (layer "F.SilkS") (width 0.12) (tstamp 1ae83f97-8646-4ef2-9d03-bae217000ef5))
  (fp_line (start 1.042929 5.46) (end 1.44 5.46) (layer "F.SilkS") (width 0.12) (tstamp 1cb4b031-e5e6-4b15-91ff-81e908e33332))
  (fp_line (start 10.1 30.86) (end 4.1 30.86) (layer "F.SilkS") (width 0.12) (tstamp 1f149e9f-1726-45df-9661-f976ec44aea9))
  (fp_line (start 10.1 52.96) (end 10.1 53.72) (layer "F.SilkS") (width 0.12) (tstamp 1f50ec35-e8c6-468f-86e6-bc47418978da))
  (fp_line (start 1.042929 65.66) (end 1.44 65.66) (layer "F.SilkS") (width 0.12) (tstamp 24a4197d-7ef4-45d4-b933-2056132f3774))
  (fp_line (start 10.1 25.78) (end 4.1 25.78) (layer "F.SilkS") (width 0.12) (tstamp 268c320e-7db5-4de9-999c-d588475fbc79))
  (fp_line (start 4.1 -0.38) (end 10.1 -0.38) (layer "F.SilkS") (width 0.12) (tstamp 28d0246f-f72b-4764-afb0-59f9ca8c19a4))
  (fp_line (start 1.44 21.59) (end 4.1 21.59) (layer "F.SilkS") (width 0.12) (tstamp 2a7ca65a-77cd-4b96-a973-5417a18219d6))
  (fp_line (start 10.1 33.4) (end 4.1 33.4) (layer "F.SilkS") (width 0.12) (tstamp 2b3aa8c2-00f9-427c-b662-d6c88ec38f17))
  (fp_line (start 1.44 41.91) (end 4.1 41.91) (layer "F.SilkS") (width 0.12) (tstamp 2b8e2b80-916c-4536-bda7-c6af6007f7be))
  (fp_line (start -1.27 0) (end -1.27 -1.27) (layer "F.SilkS") (width 0.12) (tstamp 2e518cce-9aeb-41e5-99f5-06892b2874aa))
  (fp_line (start 1.042929 58.04) (end 1.44 58.04) (layer "F.SilkS") (width 0.12) (tstamp 2f011dea-35ab-4c8a-9a3a-7d242c37e01f))
  (fp_line (start 1.44 54.61) (end 4.1 54.61) (layer "F.SilkS") (width 0.12) (tstamp 30b7a767-88b2-468d-a64f-a22189ee5e07))
  (fp_line (start 10.1 53.72) (end 4.1 53.72) (layer "F.SilkS") (width 0.12) (tstamp 31c6308c-54dc-467c-85d1-6e0e27d8184c))
  (fp_line (start 1.44 64.77) (end 4.1 64.77) (layer "F.SilkS") (width 0.12) (tstamp 325af313-0cbd-44e4-93f5-983500b00be2))
  (fp_line (start 1.042929 27.56) (end 1.44 27.56) (layer "F.SilkS") (width 0.12) (tstamp 33d65eac-57ea-4002-9730-be711cf1882b))
  (fp_line (start 10.1 58.8) (end 4.1 58.8) (layer "F.SilkS") (width 0.12) (tstamp 355b5e8a-d611-49b5-b070-260894ebe3ec))
  (fp_line (start 10.1 23.24) (end 4.1 23.24) (layer "F.SilkS") (width 0.12) (tstamp 361e609e-b3fa-4745-a1cc-2b12643595ec))
  (fp_line (start 4.1 12.32) (end 10.1 12.32) (layer "F.SilkS") (width 0.12) (tstamp 365c3b17-a0bc-4f42-8245-cadd230331ba))
  (fp_line (start 4.1 14.86) (end 10.1 14.86) (layer "F.SilkS") (width 0.12) (tstamp 36ddcabe-22b9-4977-81ba-4c4062c16933))
  (fp_line (start 10.1 45.34) (end 10.1 46.1) (layer "F.SilkS") (width 0.12) (tstamp 3732882a-d73b-47ce-93fd-38ed21e667fd))
  (fp_line (start 4.1 32.64) (end 10.1 32.64) (layer "F.SilkS") (width 0.12) (tstamp 376daf15-b304-434d-a0d0-bc7f7fe95987))
  (fp_line (start 1.042929 2.16) (end 1.44 2.16) (layer "F.SilkS") (width 0.12) (tstamp 37957cf8-7ff4-4951-b004-dbf63e2a6c49))
  (fp_line (start 10.1 40.26) (end 10.1 41.02) (layer "F.SilkS") (width 0.12) (tstamp 383722fc-8a48-418d-a083-0e4928d8e1a2))
  (fp_line (start 4.1 60.58) (end 10.1 60.58) (layer "F.SilkS") (width 0.12) (tstamp 3942a235-5b5c-4102-8995-2e5b43b61df9))
  (fp_line (start 1.042929 15.62) (end 1.44 15.62) (layer "F.SilkS") (width 0.12) (tstamp 3a6cea79-7f86-4192-8f62-6aac8357d608))
  (fp_line (start 10.1 5.46) (end 4.1 5.46) (layer "F.SilkS") (width 0.12) (tstamp 3ad030d2-f2e0-473b-95d2-69f8f21ffea2))
  (fp_line (start 10.1 9.78) (end 10.1 10.54) (layer "F.SilkS") (width 0.12) (tstamp 3b67bbb3-e19a-479b-8d4f-ae54c395cddb))
  (fp_line (start 10.1 12.32) (end 10.1 13.08) (layer "F.SilkS") (width 0.12) (tstamp 3c04a717-0038-491b-a6f3-08398a980540))
  (fp_line (start 1.042929 48.64) (end 1.44 48.64) (layer "F.SilkS") (width 0.12) (tstamp 3d180438-6854-4c23-842f-f2533455da19))
  (fp_line (start 1.042929 51.18) (end 1.44 51.18) (layer "F.SilkS") (width 0.12) (tstamp 3da1a62b-7c0d-4cb8-81f6-dd7ea85f3324))
  (fp_line (start 4.1 63.12) (end 10.1 63.12) (layer "F.SilkS") (width 0.12) (tstamp 3df004c3-afa9-42cb-9d1e-243b82d15cb6))
  (fp_line (start 10.1 2.92) (end 4.1 2.92) (layer "F.SilkS") (width 0.12) (tstamp 3e67154b-feea-4005-a0ed-ad4511b4d96d))
  (fp_line (start 10.1 48.64) (end 4.1 48.64) (layer "F.SilkS") (width 0.12) (tstamp 3fce2943-4f2f-44fb-8623-9fc748a12ecd))
  (fp_line (start 1.44 46.99) (end 4.1 46.99) (layer "F.SilkS") (width 0.12) (tstamp 40dd445f-ed56-460a-8dbe-512de84d9b40))
  (fp_line (start 4.1 9.78) (end 10.1 9.78) (layer "F.SilkS") (width 0.12) (tstamp 41fc273a-dc64-428a-83ea-0d9553e765c7))
  (fp_line (start 10.1 -0.38) (end 10.1 0.38) (layer "F.SilkS") (width 0.12) (tstamp 44ad68d6-5a90-41d5-be97-f721cecfc85c))
  (fp_line (start 1.44 62.23) (end 4.1 62.23) (layer "F.SilkS") (width 0.12) (tstamp 455bd4b1-d3e9-4be1-9dbb-e77d2c3e88d3))
  (fp_line (start 1.042929 52.96) (end 1.44 52.96) (layer "F.SilkS") (width 0.12) (tstamp 46f7e835-00af-47c6-b469-04e6b1b5409b))
  (fp_line (start 1.042929 7.24) (end 1.44 7.24) (layer "F.SilkS") (width 0.12) (tstamp 4a88d01d-7445-4c8a-93ad-858a1bea54cb))
  (fp_line (start 10.1 61.34) (end 4.1 61.34) (layer "F.SilkS") (width 0.12) (tstamp 4abd6c67-70f9-42d9-ac02-b6769eb63d59))
  (fp_line (start 4.1 -1.33) (end 1.44 -1.33) (layer "F.SilkS") (width 0.12) (tstamp 4accd2a0-5c98-453c-a765-c8c4f6bb9feb))
  (fp_line (start 4.1 25.02) (end 10.1 25.02) (layer "F.SilkS") (width 0.12) (tstamp 4b74ecb1-bcc5-4e55-85e4-439bad6310f6))
  (fp_line (start 4.1 4.7) (end 10.1 4.7) (layer "F.SilkS") (width 0.12) (tstamp 4f777027-bf32-4116-a2c6-be5584ece064))
  (fp_line (start 1.042929 35.18) (end 1.44 35.18) (layer "F.SilkS") (width 0.12) (tstamp 5026ce32-cb8d-42dd-8758-a2712ce28d38))
  (fp_line (start 1.042929 55.5) (end 1.44 55.5) (layer "F.SilkS") (width 0.12) (tstamp 514472f3-d227-41c9-9765-5af3f68bbda2))
  (fp_line (start 1.44 13.97) (end 4.1 13.97) (layer "F.SilkS") (width 0.12) (tstamp 53fd6dd3-673e-4c16-9729-26639fc86000))
  (fp_line (start 10.1 37.72) (end 10.1 38.48) (layer "F.SilkS") (width 0.12) (tstamp 5572febf-a2eb-4da7-b9b3-c81770859e79))
  (fp_line (start 4.1 7.24) (end 10.1 7.24) (layer "F.SilkS") (width 0.12) (tstamp 5816a388-170a-48ba-835c-066c06a1f92b))
  (fp_line (start 1.44 44.45) (end 4.1 44.45) (layer "F.SilkS") (width 0.12) (tstamp 5825a1d8-866d-4cd0-bbc4-52074b3ac9eb))
  (fp_line (start 1.042929 13.08) (end 1.44 13.08) (layer "F.SilkS") (width 0.12) (tstamp 58901d6d-8920-4191-a926-e6fd3584c134))
  (fp_line (start 1.042929 61.34) (end 1.44 61.34) (layer "F.SilkS") (width 0.12) (tstamp 5953a471-2c21-41f9-b4cb-e36bddf11d1f))
  (fp_line (start -1.27 -1.27) (end 0 -1.27) (layer "F.SilkS") (width 0.12) (tstamp 5f522a17-89c2-432c-ba03-66ea332c280e))
  (fp_line (start 1.042929 22.48) (end 1.44 22.48) (layer "F.SilkS") (width 0.12) (tstamp 641e1545-8ed8-49c0-9c00-2993ecbbf8cc))
  (fp_line (start 1.042929 25.02) (end 1.44 25.02) (layer "F.SilkS") (width 0.12) (tstamp 64f92707-19e3-4d87-985c-89affd1602e2))
  (fp_line (start 1.042929 23.24) (end 1.44 23.24) (layer "F.SilkS") (width 0.12) (tstamp 672c196b-7d8f-4e28-9cc9-52cb22752260))
  (fp_line (start 10.1 20.7) (end 4.1 20.7) (layer "F.SilkS") (width 0.12) (tstamp 67ab7c12-aea7-4078-97b8-19d87f4e4b4e))
  (fp_line (start 10.1 8) (end 4.1 8) (layer "F.SilkS") (width 0.12) (tstamp 69dbad60-c6a5-4524-9ab2-d220fdfad88b))
  (fp_line (start 10.1 32.64) (end 10.1 33.4) (layer "F.SilkS") (width 0.12) (tstamp 6a5a5eef-b141-4ffa-b432-5c0a27c84a03))
  (fp_line (start 1.44 67.37) (end 4.1 67.37) (layer "F.SilkS") (width 0.12) (tstamp 6a5b1f4d-669d-4b44-87ba-e82e594094bc))
  (fp_line (start 10.1 41.02) (end 4.1 41.02) (layer "F.SilkS") (width 0.12) (tstamp 6d937365-bf3a-4b82-86b1-5e0627e64792))
  (fp_line (start 4.1 19.94) (end 10.1 19.94) (layer "F.SilkS") (width 0.12) (tstamp 6e4ec907-d9c7-4e12-aaf4-97ad9446af82))
  (fp_line (start 1.042929 56.26) (end 1.44 56.26) (layer "F.SilkS") (width 0.12) (tstamp 6ea1c585-74e0-4f69-88d2-0555da9cc182))
  (fp_line (start 10.1 46.1) (end 4.1 46.1) (layer "F.SilkS") (width 0.12) (tstamp 70a9ed61-dcf5-4313-a7fb-686994a6e093))
  (fp_line (start 1.042929 53.72) (end 1.44 53.72) (layer "F.SilkS") (width 0.12) (tstamp 72747329-169a-4cf8-ad7b-19464862e6ca))
  (fp_line (start 4.1 17.4) (end 10.1 17.4) (layer "F.SilkS") (width 0.12) (tstamp 74723fc6-572e-4531-a1f2-f094569a6465))
  (fp_line (start 1.042929 12.32) (end 1.44 12.32) (layer "F.SilkS") (width 0.12) (tstamp 76f51fe8-f70f-4876-b1ba-d92b13df8cc0))
  (fp_line (start 4.1 -0.2) (end 10.1 -0.2) (layer "F.SilkS") (width 0.12) (tstamp 79bd1ed5-cf0d-44f3-bc55-0e148068f23f))
  (fp_line (start 1.44 36.83) (end 4.1 36.83) (layer "F.SilkS") (width 0.12) (tstamp 79dba4a7-837f-4ff8-a107-c754554a8bc2))
  (fp_line (start 4.1 67.37) (end 4.1 -1.33) (layer "F.SilkS") (width 0.12) (tstamp 7a482774-06fb-47c0-bb0f-da513eef2484))
  (fp_line (start 1.44 59.69) (end 4.1 59.69) (layer "F.SilkS") (width 0.12) (tstamp 7a85e813-29fe-4103-9537-a6d53610bb2f))
  (fp_line (start 4.1 -0.08) (end 10.1 -0.08) (layer "F.SilkS") (width 0.12) (tstamp 7ab7210f-eee8-468b-9ef4-bc167a91bb17))
  (fp_line (start 1.44 24.13) (end 4.1 24.13) (layer "F.SilkS") (width 0.12) (tstamp 7c2f3c2d-0363-435a-bf30-5f7bf453b9bf))
  (fp_line (start 1.042929 30.86) (end 1.44 30.86) (layer "F.SilkS") (width 0.12) (tstamp 7c84f4e1-7e2b-46e9-ba22-cac9d9566bbe))
  (fp_line (start 10.1 13.08) (end 4.1 13.08) (layer "F.SilkS") (width 0.12) (tstamp 7d02a404-ec78-42ff-85e8-1afe03eb3c59))
  (fp_line (start 10.1 28.32) (end 4.1 28.32) (layer "F.SilkS") (width 0.12) (tstamp 7fa8e797-1b63-4420-9de5-35cee36d5764))
  (fp_line (start 10.1 60.58) (end 10.1 61.34) (layer "F.SilkS") (width 0.12) (tstamp 8014985f-f6a5-4ad5-8bf9-32ac817c28a9))
  (fp_line (start 10.1 7.24) (end 10.1 8) (layer "F.SilkS") (width 0.12) (tstamp 803884dd-82f0-4561-83dd-b76d125484f6))
  (fp_line (start 1.042929 10.54) (end 1.44 10.54) (layer "F.SilkS") (width 0.12) (tstamp 8086465a-a95c-40a1-93da-3b215a42bb57))
  (fp_line (start 10.1 63.88) (end 4.1 63.88) (layer "F.SilkS") (width 0.12) (tstamp 81a4316a-3a26-4f7d-b92d-967cd3013710))
  (fp_line (start 4.1 0.04) (end 10.1 0.04) (layer "F.SilkS") (width 0.12) (tstamp 8809f624-bc1d-465e-9a1c-cff190d274b0))
  (fp_line (start 1.44 29.21) (end 4.1 29.21) (layer "F.SilkS") (width 0.12) (tstamp 89c7b884-b2c0-4132-a239-9bc454e36785))
  (fp_line (start 1.042929 2.92) (end 1.44 2.92) (layer "F.SilkS") (width 0.12) (tstamp 8a16e7c4-ba20-41d2-a738-83e23727ed27))
  (fp_line (start 4.1 30.1) (end 10.1 30.1) (layer "F.SilkS") (width 0.12) (tstamp 8cea344c-1a32-4fe1-a72b-093503dd3fb7))
  (fp_line (start 10.1 65.66) (end 10.1 66.42) (layer "F.SilkS") (width 0.12) (tstamp 8e8f64a2-a3c6-461d-9404-073c6943783c))
  (fp_line (start 1.042929 33.4) (end 1.44 33.4) (layer "F.SilkS") (width 0.12) (tstamp 8feb9784-f545-4dd7-be90-b87b9226875d))
  (fp_line (start 10.1 47.88) (end 10.1 48.64) (layer "F.SilkS") (width 0.12) (tstamp 901ed42d-688e-4557-b612-ffb889cd3e31))
  (fp_line (start 10.1 2.16) (end 10.1 2.92) (layer "F.SilkS") (width 0.12) (tstamp 9035967b-a698-4e27-8641-bb6df80783e3))
  (fp_line (start 4.1 65.66) (end 10.1 65.66) (layer "F.SilkS") (width 0.12) (tstamp 91610a8b-d15a-4b88-ba1c-631533c39633))
  (fp_line (start 1.11 -0.38) (end 1.44 -0.38) (layer "F.SilkS") (width 0.12) (tstamp 927b696a-12d1-486b-9778-93d1be186a53))
  (fp_line (start 1.042929 58.8) (end 1.44 58.8) (layer "F.SilkS") (width 0.12) (tstamp 92b24466-7778-426d-b294-d4e2b659bc2a))
  (fp_line (start 4.1 0.16) (end 10.1 0.16) (layer "F.SilkS") (width 0.12) (tstamp 93032996-8eda-4c6d-84d4-5b774723c3fd))
  (fp_line (start 1.44 11.43) (end 4.1 11.43) (layer "F.SilkS") (width 0.12) (tstamp 9470babd-4e95-47e6-9292-383147878eb7))
  (fp_line (start 1.44 19.05) (end 4.1 19.05) (layer "F.SilkS") (width 0.12) (tstamp 9806b018-c340-460a-9ac3-9e6391790937))
  (fp_line (start 10.1 15.62) (end 4.1 15.62) (layer "F.SilkS") (width 0.12) (tstamp 986a8d96-e459-4e86-ba63-9243c4532395))
  (fp_line (start 4.1 35.18) (end 10.1 35.18) (layer "F.SilkS") (width 0.12) (tstamp 997760e6-835e-4166-b85f-4efc76a62ee4))
  (fp_line (start 1.44 26.67) (end 4.1 26.67) (layer "F.SilkS") (width 0.12) (tstamp 9a1ca2b9-b45f-4a15-a0e5-d53dcd91cec6))
  (fp_line (start 10.1 42.8) (end 10.1 43.56) (layer "F.SilkS") (width 0.12) (tstamp 9ad84f40-8dc0-4825-9fd5-9ed824d9dd55))
  (fp_line (start 1.042929 60.58) (end 1.44 60.58) (layer "F.SilkS") (width 0.12) (tstamp 9bf8d31c-507d-440d-ad37-ca7db74eb640))
  (fp_line (start 1.042929 43.56) (end 1.44 43.56) (layer "F.SilkS") (width 0.12) (tstamp 9c627c97-3f60-43e1-953d-3cc758babdce))
  (fp_line (start 4.1 42.8) (end 10.1 42.8) (layer "F.SilkS") (width 0.12) (tstamp 9d47e76c-8149-41cd-a6ac-750bc4201e66))
  (fp_line (start 10.1 35.18) (end 10.1 35.94) (layer "F.SilkS") (width 0.12) (tstamp 9e99b077-2388-413e-a65e-124b4ba1f711))
  (fp_line (start 1.44 49.53) (end 4.1 49.53) (layer "F.SilkS") (width 0.12) (tstamp 9f4dde1b-7a38-475f-a369-f3e89b9f371b))
  (fp_line (start 4.1 22.48) (end 10.1 22.48) (layer "F.SilkS") (width 0.12) (tstamp a1e8c2ab-2bb7-4359-b655-331fc7dbff64))
  (fp_line (start 4.1 47.88) (end 10.1 47.88) (layer "F.SilkS") (width 0.12) (tstamp a42951e2-5b46-4911-a6eb-2a9a83fd4b3f))
  (fp_line (start 1.44 3.81) (end 4.1 3.81) (layer "F.SilkS") (width 0.12) (tstamp a5072450-b737-496b-863b-570eb3128322))
  (fp_line (start 4.1 0.28) (end 10.1 0.28) (layer "F.SilkS") (width 0.12) (tstamp a6e16252-2b1b-4426-9136-5b605069a522))
  (fp_line (start 1.44 57.15) (end 4.1 57.15) (layer "F.SilkS") (width 0.12) (tstamp aca77746-6859-4d10-8762-f76970a7e96f))
  (fp_line (start 1.042929 42.8) (end 1.44 42.8) (layer "F.SilkS") (width 0.12) (tstamp ad6258c9-60ee-46c4-9d19-adf2079b55d7))
  (fp_line (start 1.042929 30.1) (end 1.44 30.1) (layer "F.SilkS") (width 0.12) (tstamp ad90b022-1d07-41a8-b62d-f83cc453df66))
  (fp_line (start 4.1 52.96) (end 10.1 52.96) (layer "F.SilkS") (width 0.12) (tstamp ae01664a-3e52-4b2a-95e5-dc3c8d58c430))
  (fp_line (start 10.1 27.56) (end 10.1 28.32) (layer "F.SilkS") (width 0.12) (tstamp ae5de9e1-10a0-435c-9b01-e7a6e1a5a8de))
  (fp_line (start 1.042929 9.78) (end 1.44 9.78) (layer "F.SilkS") (width 0.12) (tstamp ae7e6ea6-e209-4559-89cd-731d4626b432))
  (fp_line (start 1.44 8.89) (end 4.1 8.89) (layer "F.SilkS") (width 0.12) (tstamp af6618e8-8a9c-48b4-a4ac-f9279bfb02ae))
  (fp_line (start 1.042929 20.7) (end 1.44 20.7) (layer "F.SilkS") (width 0.12) (tstamp b5a86df5-3716-4b83-9554-7c17e2407a06))
  (fp_line (start 10.1 66.42) (end 4.1 66.42) (layer "F.SilkS") (width 0.12) (tstamp b68e484c-4dc2-4ff6-85d7-914f7e7a5c0c))
  (fp_line (start 1.042929 32.64) (end 1.44 32.64) (layer "F.SilkS") (width 0.12) (tstamp b6b7df78-d6f8-4f23-b61f-653f9619e2d6))
  (fp_line (start 10.1 56.26) (end 4.1 56.26) (layer "F.SilkS") (width 0.12) (tstamp b7f50145-43fb-496f-b16d-b6eca6f64560))
  (fp_line (start 1.042929 50.42) (end 1.44 50.42) (layer "F.SilkS") (width 0.12) (tstamp b874dbdb-c80b-4a24-8eac-82b0c5ceba67))
  (fp_line (start 1.042929 8) (end 1.44 8) (layer "F.SilkS") (width 0.12) (tstamp b8e32ebc-687a-487c-a439-d21c6e3274b9))
  (fp_line (start 10.1 30.1) (end 10.1 30.86) (layer "F.SilkS") (width 0.12) (tstamp bbff1d56-efe9-47bd-a1a0-bee634e66926))
  (fp_line (start 10.1 18.16) (end 4.1 18.16) (layer "F.SilkS") (width 0.12) (tstamp bc5bfeae-eac5-4fcf-a9c1-f8786175b990))
  (fp_line (start 10.1 51.18) (end 4.1 51.18) (layer "F.SilkS") (width 0.12) (tstamp bfcf6940-a21b-434f-8e7a-2e5757237f1b))
  (fp_line (start 1.042929 4.7) (end 1.44 4.7) (layer "F.SilkS") (width 0.12) (tstamp c23eeb79-2c67-43ca-8cae-72c5a00c583b))
  (fp_line (start 4.1 55.5) (end 10.1 55.5) (layer "F.SilkS") (width 0.12) (tstamp c31315de-983d-4800-927f-060526bffaae))
  (fp_line (start 4.1 27.56) (end 10.1 27.56) (layer "F.SilkS") (width 0.12) (tstamp c56d6b76-393e-4531-b5c0-af814e56aeb6))
  (fp_line (start 1.44 34.29) (end 4.1 34.29) (layer "F.SilkS") (width 0.12) (tstamp c587c3a1-f4c3-445f-b718-03dde6bb4c90))
  (fp_line (start 1.44 6.35) (end 4.1 6.35) (layer "F.SilkS") (width 0.12) (tstamp c5a702ea-baa5-42fb-bc34-f71ee24b2e68))
  (fp_line (start 1.042929 19.94) (end 1.44 19.94) (layer "F.SilkS") (width 0.12) (tstamp c71d6f24-d6a9-4c67-96ec-346b597c5ac2))
  (fp_line (start 10.1 19.94) (end 10.1 20.7) (layer "F.SilkS") (width 0.12) (tstamp c86f89f9-aa55-410c-9e1a-6698984951cf))
  (fp_line (start 4.1 -0.32) (end 10.1 -0.32) (layer "F.SilkS") (width 0.12) (tstamp c877cb64-aac4-43c5-8e3e-c4367e22ed34))
  (fp_line (start 1.042929 17.4) (end 1.44 17.4) (layer "F.SilkS") (width 0.12) (tstamp d16338b9-869f-402e-a946-2af05c7899d6))
  (fp_line (start 1.44 31.75) (end 4.1 31.75) (layer "F.SilkS") (width 0.12) (tstamp d17d67dc-c94f-46c5-87fd-3d9a776075ea))
  (fp_line (start 1.042929 47.88) (end 1.44 47.88) (layer "F.SilkS") (width 0.12) (tstamp d2547904-41b6-4398-9a99-627971d6c4ce))
  (fp_line (start 1.042929 63.12) (end 1.44 63.12) (layer "F.SilkS") (width 0.12) (tstamp d4021aae-c4c1-41ef-beb2-88bf138ed56b))
  (fp_line (start 1.042929 38.48) (end 1.44 38.48) (layer "F.SilkS") (width 0.12) (tstamp db5ba02d-ead6-4ba7-b668-34e9abaf9098))
  (fp_line (start 10.1 14.86) (end 10.1 15.62) (layer "F.SilkS") (width 0.12) (tstamp dc29058c-5bb5-45d2-b0fe-6f581c237b6f))
  (fp_line (start 10.1 63.12) (end 10.1 63.88) (layer "F.SilkS") (width 0.12) (tstamp dc519ee7-5935-4a75-a339-6cd0db1c4ef1))
  (fp_line (start 10.1 17.4) (end 10.1 18.16) (layer "F.SilkS") (width 0.12) (tstamp de3f8f8e-f3d6-4457-83df-cde245cfa582))
  (fp_line (start 4.1 40.26) (end 10.1 40.26) (layer "F.SilkS") (width 0.12) (tstamp e278238e-5f43-4dd0-96ad-868e69a57a2d))
  (fp_line (start 4.1 58.04) (end 10.1 58.04) (layer "F.SilkS") (width 0.12) (tstamp e553cd06-5d0d-44c8-aeab-2e255e947cce))
  (fp_line (start 1.042929 35.94) (end 1.44 35.94) (layer "F.SilkS") (width 0.12) (tstamp e61fa2ea-3543-4b4d-b885-349dced5ac37))
  (fp_line (start 10.1 0.38) (end 4.1 0.38) (layer "F.SilkS") (width 0.12) (tstamp e6cdcb36-5825-41c8-bc0f-b01ffa1c5f2e))
  (fp_line (start 1.44 39.37) (end 4.1 39.37) (layer "F.SilkS") (width 0.12) (tstamp e927099c-6e78-4463-8b20-39e562d42051))
  (fp_line (start 1.11 0.38) (end 1.44 0.38) (layer "F.SilkS") (width 0.12) (tstamp ead113df-2266-4989-9602-5c24b86a0863))
  (fp_line (start 10.1 25.02) (end 10.1 25.78) (layer "F.SilkS") (width 0.12) (tstamp ead28125-e9b3-4ba8-bece-4069d36164dc))
  (fp_line (start 10.1 38.48) (end 4.1 38.48) (layer "F.SilkS") (width 0.12) (tstamp eb411e34-8822-45fc-a120-fd2fe7e00bd7))
  (fp_line (start 10.1 43.56) (end 4.1 43.56) (layer "F.SilkS") (width 0.12) (tstamp ec3d72bb-06d4-4db0-9709-a4dd07c4fc49))
  (fp_line (start 1.44 52.07) (end 4.1 52.07) (layer "F.SilkS") (width 0.12) (tstamp ed51fdfd-1b76-465b-b307-c8e79fa41d2b))
  (fp_line (start 10.1 35.94) (end 4.1 35.94) (layer "F.SilkS") (width 0.12) (tstamp f4d658f8-4791-4687-adb6-757d7300e520))
  (fp_line (start 1.44 1.27) (end 4.1 1.27) (layer "F.SilkS") (width 0.12) (tstamp f4ff0000-3dce-4800-a89f-685239dbe4e3))
  (fp_line (start 4.1 45.34) (end 10.1 45.34) (layer "F.SilkS") (width 0.12) (tstamp f5001a35-4eee-4ef8-8cbd-dab46e7d9de2))
  (fp_line (start 1.042929 28.32) (end 1.44 28.32) (layer "F.SilkS") (width 0.12) (tstamp f6281bdd-d873-4681-acd7-de93502e7898))
  (fp_line (start 1.042929 66.42) (end 1.44 66.42) (layer "F.SilkS") (width 0.12) (tstamp f7a7a715-dc50-454e-adc4-0db5d5367d9c))
  (fp_line (start 10.55 67.85) (end 10.55 -1.8) (layer "F.CrtYd") (width 0.05) (tstamp 54e588f4-a49d-43d4-9b9e-a7ae2514809b))
  (fp_line (start 10.55 -1.8) (end -1.8 -1.8) (layer "F.CrtYd") (width 0.05) (tstamp 9ba6e3a1-3898-4fea-989e-3dd342045903))
  (fp_line (start -1.8 -1.8) (end -1.8 67.85) (layer "F.CrtYd") (width 0.05) (tstamp c15698c9-5e58-44d1-a9bc-6ded9ac25fdf))
  (fp_line (start -1.8 67.85) (end 10.55 67.85) (layer "F.CrtYd") (width 0.05) (tstamp c79ca915-f136-4ef4-b16e-c956241d0e34))
  (fp_line (start -0.32 14.92) (end 1.5 14.92) (layer "F.Fab") (width 0.1) (tstamp 018fc3ab-9de9-46c0-881f-f1ecc70f5fdd))
  (fp_line (start -0.32 48.58) (end 1.5 48.58) (layer "F.Fab") (width 0.1) (tstamp 01ef818a-2eb8-42b2-b58b-9ca66cff604c))
  (fp_line (start -0.32 25.72) (end 1.5 25.72) (layer "F.Fab") (width 0.1) (tstamp 0398ee77-cd00-4dc1-8617-2974508575a7))
  (fp_line (start 10.04 12.38) (end 10.04 13.02) (layer "F.Fab") (width 0.1) (tstamp 06a62f8c-5b0b-40d7-bb3a-696ba320f4e0))
  (fp_line (start 4.04 15.56) (end 10.04 15.56) (layer "F.Fab") (width 0.1) (tstamp 06e362d5-78fa-4b4a-a525-1d1d74b6391d))
  (fp_line (start -0.32 40.32) (end 1.5 40.32) (layer "F.Fab") (width 0.1) (tstamp 074bfdee-56a8-4a93-98d9-f4b44991e521))
  (fp_line (start -0.32 66.36) (end 1.5 66.36) (layer "F.Fab") (width 0.1) (tstamp 07886081-bcf5-42d2-8f85-942a125ac6e1))
  (fp_line (start 1.5 -0.635) (end 2.135 -1.27) (layer "F.Fab") (width 0.1) (tstamp 08dd6069-7625-4da7-bee2-fdb3a388254e))
  (fp_line (start 4.04 33.34) (end 10.04 33.34) (layer "F.Fab") (width 0.1) (tstamp 09f69472-f42e-42bc-b9cd-900cb50de921))
  (fp_line (start 4.04 47.94) (end 10.04 47.94) (layer "F.Fab") (width 0.1) (tstamp 0a584386-bdf8-4fac-8e05-e10ca679ce8e))
  (fp_line (start 4.04 56.2) (end 10.04 56.2) (layer "F.Fab") (width 0.1) (tstamp 0c9a6e75-0813-4458-a648-ea8dc63bd610))
  (fp_line (start -0.32 20) (end -0.32 20.64) (layer "F.Fab") (width 0.1) (tstamp 0d28e0a3-a80c-447f-abf6-95b685522c8a))
  (fp_line (start 10.04 20) (end 10.04 20.64) (layer "F.Fab") (width 0.1) (tstamp 118b10c2-5ea1-4359-ab87-6e25b7348a52))
  (fp_line (start -0.32 50.48) (end -0.32 51.12) (layer "F.Fab") (width 0.1) (tstamp 12c86b6f-4d3e-4da0-bf7f-87fb30d68862))
  (fp_line (start -0.32 2.22) (end 1.5 2.22) (layer "F.Fab") (width 0.1) (tstamp 16112ac3-9d78-4acf-bac8-c907c98fafb5))
  (fp_line (start 10.04 9.84) (end 10.04 10.48) (layer "F.Fab") (width 0.1) (tstamp 188e2a87-27d8-4a8f-8fcf-129978fc4630))
  (fp_line (start 10.04 58.1) (end 10.04 58.74) (layer "F.Fab") (width 0.1) (tstamp 1afb8a97-447a-4ae9-8982-628a8034e438))
  (fp_line (start 10.04 30.16) (end 10.04 30.8) (layer "F.Fab") (width 0.1) (tstamp 1c27e63e-8886-4ec9-ad75-d839a97160ff))
  (fp_line (start 4.04 55.56) (end 10.04 55.56) (layer "F.Fab") (width 0.1) (tstamp 1d0c7ef9-c4d3-4165-8d14-e01ef8c85c7e))
  (fp_line (start -0.32 18.1) (end 1.5 18.1) (layer "F.Fab") (width 0.1) (tstamp 1f5eac9d-f7b0-4830-aac7-0c0ef5974e63))
  (fp_line (start 10.04 42.86) (end 10.04 43.5) (layer "F.Fab") (width 0.1) (tstamp 218af800-5ef7-43e5-9b89-a046dd60a264))
  (fp_line (start 4.04 38.42) (end 10.04 38.42) (layer "F.Fab") (width 0.1) (tstamp 224513d2-db3b-4d8a-803a-ff20bd52746a))
  (fp_line (start 4.04 30.8) (end 10.04 30.8) (layer "F.Fab") (width 0.1) (tstamp 22f2b506-43c4-4b04-91d5-3ac691e8e5d6))
  (fp_line (start -0.32 28.26) (end 1.5 28.26) (layer "F.Fab") (width 0.1) (tstamp 244e5650-d1b4-44b4-9a92-5b8e77656b14))
  (fp_line (start 4.04 2.86) (end 10.04 2.86) (layer "F.Fab") (width 0.1) (tstamp 271d4c5e-1ee1-4092-a871-3b9d4275cd02))
  (fp_line (start -0.32 15.56) (end 1.5 15.56) (layer "F.Fab") (width 0.1) (tstamp 27df1b68-a602-4b2e-981f-f245a5bc8a75))
  (fp_line (start -0.32 56.2) (end 1.5 56.2) (layer "F.Fab") (width 0.1) (tstamp 2807f0c6-8e4c-4522-a3b7-6e544917fd76))
  (fp_line (start 10.04 40.32) (end 10.04 40.96) (layer "F.Fab") (width 0.1) (tstamp 2a38e228-e723-4888-81ed-939146205359))
  (fp_line (start -0.32 47.94) (end -0.32 48.58) (layer "F.Fab") (width 0.1) (tstamp 2a988ac0-29d5-4760-a1ae-1e920e3b7c53))
  (fp_line (start 4.04 4.76) (end 10.04 4.76) (layer "F.Fab") (width 0.1) (tstamp 2e7e5852-737a-4901-8dc7-85a6a42046b0))
  (fp_line (start 10.04 -0.32) (end 10.04 0.32) (layer "F.Fab") (width 0.1) (tstamp 307f8d6e-59eb-4f39-b2bd-467ae5fe55ce))
  (fp_line (start -0.32 7.94) (end 1.5 7.94) (layer "F.Fab") (width 0.1) (tstamp 31a23ee8-0c43-4f0a-8240-9782d7c478aa))
  (fp_line (start 4.04 30.16) (end 10.04 30.16) (layer "F.Fab") (width 0.1) (tstamp 365d3678-1677-44af-8e34-7703d1a88717))
  (fp_line (start 10.04 14.92) (end 10.04 15.56) (layer "F.Fab") (width 0.1) (tstamp 37363fd7-fbd1-46e0-a146-f0d7ec2dddb9))
  (fp_line (start -0.32 40.32) (end -0.32 40.96) (layer "F.Fab") (width 0.1) (tstamp 377af4c9-afa7-43c6-8599-7cb8d5b332f0))
  (fp_line (start -0.32 9.84) (end -0.32 10.48) (layer "F.Fab") (width 0.1) (tstamp 37e3ba1f-1ba7-4e8e-9be4-fdd038db5b97))
  (fp_line (start -0.32 46.04) (end 1.5 46.04) (layer "F.Fab") (width 0.1) (tstamp 3a559737-f443-4b00-b807-75413e8732af))
  (fp_line (start -0.32 14.92) (end -0.32 15.56) (layer "F.Fab") (width 0.1) (tstamp 40fba782-39bc-4590-8e9e-5e5ed7239ff2))
  (fp_line (start -0.32 63.82) (end 1.5 63.82) (layer "F.Fab") (width 0.1) (tstamp 423260d0-af26-4a8a-bddd-5c488d45d68d))
  (fp_line (start 4.04 32.7) (end 10.04 32.7) (layer "F.Fab") (width 0.1) (tstamp 46fc571a-dcd9-456e-a81c-20ada3d11ea5))
  (fp_line (start -0.32 53.02) (end -0.32 53.66) (layer "F.Fab") (width 0.1) (tstamp 481dc890-56b0-40f8-a00a-0aa634b13589))
  (fp_line (start 4.04 63.18) (end 10.04 63.18) (layer "F.Fab") (width 0.1) (tstamp 492a79b0-1470-41aa-aeec-de7cff5647e3))
  (fp_line (start -0.32 2.86) (end 1.5 2.86) (layer "F.Fab") (width 0.1) (tstamp 4a94f0b3-1735-4a36-a216-1862e43511e5))
  (fp_line (start 10.04 27.62) (end 10.04 28.26) (layer "F.Fab") (width 0.1) (tstamp 4ab58ef3-010e-4344-9c6c-b340450ba1a4))
  (fp_line (start -0.32 42.86) (end -0.32 43.5) (layer "F.Fab") (width 0.1) (tstamp 4b1dbe30-98b4-4c08-8a11-986410be46b0))
  (fp_line (start -0.32 12.38) (end 1.5 12.38) (layer "F.Fab") (width 0.1) (tstamp 4be7e80c-06ec-43a3-905f-fc85380ecd11))
  (fp_line (start -0.32 30.16) (end 1.5 30.16) (layer "F.Fab") (width 0.1) (tstamp 4c0f6dac-b480-46b7-8280-3ff041c5fa1c))
  (fp_line (start 10.04 45.4) (end 10.04 46.04) (layer "F.Fab") (width 0.1) (tstamp 50e54787-a976-4d75-8bb0-010041f2fd6c))
  (fp_line (start 10.04 22.54) (end 10.04 23.18) (layer "F.Fab") (width 0.1) (tstamp 519ffe11-4e21-4b8c-89bb-6ea27c344c12))
  (fp_line (start 4.04 9.84) (end 10.04 9.84) (layer "F.Fab") (width 0.1) (tstamp 5209d9d2-98c8-4349-b4b3-e3692df28931))
  (fp_line (start 4.04 42.86) (end 10.04 42.86) (layer "F.Fab") (width 0.1) (tstamp 5243c112-36d0-496d-97aa-aad8b1c2689c))
  (fp_line (start -0.32 4.76) (end -0.32 5.4) (layer "F.Fab") (width 0.1) (tstamp 52452d28-d433-4485-a5ca-fc237f6ff369))
  (fp_line (start 4.04 5.4) (end 10.04 5.4) (layer "F.Fab") (width 0.1) (tstamp 53356160-f811-4251-981a-1e5c59ee501e))
  (fp_line (start 4.04 40.32) (end 10.04 40.32) (layer "F.Fab") (width 0.1) (tstamp 540b32c2-9b9e-49ce-a4eb-7b749d581cc0))
  (fp_line (start 4.04 20.64) (end 10.04 20.64) (layer "F.Fab") (width 0.1) (tstamp 547d4122-a1fc-4665-9aaa-8a3b5eb4e5ef))
  (fp_line (start 10.04 47.94) (end 10.04 48.58) (layer "F.Fab") (width 0.1) (tstamp 54c30fa3-2238-4d6f-a93d-bfd26371ce55))
  (fp_line (start 4.04 40.96) (end 10.04 40.96) (layer "F.Fab") (width 0.1) (tstamp 55097f70-3eac-4896-a57a-824cc697e745))
  (fp_line (start 4.04 50.48) (end 10.04 50.48) (layer "F.Fab") (width 0.1) (tstamp 55d9287b-f1be-4126-99be-880c99e0714e))
  (fp_line (start 2.135 -1.27) (end 4.04 -1.27) (layer "F.Fab") (width 0.1) (tstamp 5b14d385-687b-4e0e-b9c4-cb893f64eb11))
  (fp_line (start -0.32 37.78) (end -0.32 38.42) (layer "F.Fab") (width 0.1) (tstamp 5df2c8d0-4289-42ce-96b4-00aa21b1034b))
  (fp_line (start -0.32 45.4) (end 1.5 45.4) (layer "F.Fab") (width 0.1) (tstamp 5fcccf47-2880-4b56-aeae-8b78285a2098))
  (fp_line (start -0.32 40.96) (end 1.5 40.96) (layer "F.Fab") (width 0.1) (tstamp 5fcfef60-9254-4ace-bab7-0aeab2f1ce29))
  (fp_line (start -0.32 10.48) (end 1.5 10.48) (layer "F.Fab") (width 0.1) (tstamp 60e7d0e8-ed6d-4379-8261-9873c88346fb))
  (fp_line (start -0.32 9.84) (end 1.5 9.84) (layer "F.Fab") (width 0.1) (tstamp 63f1b50d-757b-4cbe-ad47-784a1e1845be))
  (fp_line (start -0.32 65.72) (end 1.5 65.72) (layer "F.Fab") (width 0.1) (tstamp 6501a8ad-452a-4486-b6c5-c68219fe4a3e))
  (fp_line (start -0.32 4.76) (end 1.5 4.76) (layer "F.Fab") (width 0.1) (tstamp 666be01b-125c-4c34-b03f-2aecf13ddf0b))
  (fp_line (start 10.04 65.72) (end 10.04 66.36) (layer "F.Fab") (width 0.1) (tstamp 66e844c6-af39-4b22-af16-5afb8e361908))
  (fp_line (start -0.32 43.5) (end 1.5 43.5) (layer "F.Fab") (width 0.1) (tstamp 6a2d7fb1-31f1-4db6-8eb8-2107d502eb3e))
  (fp_line (start 4.04 25.72) (end 10.04 25.72) (layer "F.Fab") (width 0.1) (tstamp 6c509b75-1565-46ea-85d7-6c9fdcb6f58a))
  (fp_line (start -0.32 53.66) (end 1.5 53.66) (layer "F.Fab") (width 0.1) (tstamp 7084b809-1cfe-4f68-b2fd-996accfe299a))
  (fp_line (start 4.04 17.46) (end 10.04 17.46) (layer "F.Fab") (width 0.1) (tstamp 7402bc6f-35f1-4aaa-a93d-b7dc8f4f3163))
  (fp_line (start 4.04 0.32) (end 10.04 0.32) (layer "F.Fab") (width 0.1) (tstamp 764b3466-5bdd-4b0b-9a96-d7fa672a64b5))
  (fp_line (start -0.32 25.08) (end -0.32 25.72) (layer "F.Fab") (width 0.1) (tstamp 76f150ee-7443-4060-bd57-8f177812bc96))
  (fp_line (start 4.04 53.66) (end 10.04 53.66) (layer "F.Fab") (width 0.1) (tstamp 772a16c0-ad3c-4b99-b99e-659489a13885))
  (fp_line (start 4.04 18.1) (end 10.04 18.1) (layer "F.Fab") (width 0.1) (tstamp 77917a33-45f7-414a-931e-de1884f3bb09))
  (fp_line (start 4.04 22.54) (end 10.04 22.54) (layer "F.Fab") (width 0.1) (tstamp 77fa14f0-5e56-4323-ab7f-e214ce9d69a6))
  (fp_line (start 4.04 46.04) (end 10.04 46.04) (layer "F.Fab") (width 0.1) (tstamp 781f10dc-8d61-42d1-b704-44c9f22965c1))
  (fp_line (start -0.32 35.24) (end 1.5 35.24) (layer "F.Fab") (width 0.1) (tstamp 784cdbb2-fb27-43f7-9d44-1aada9e6bbf2))
  (fp_line (start -0.32 61.28) (end 1.5 61.28) (layer "F.Fab") (width 0.1) (tstamp 7a3b0641-9896-4ed3-a93b-f50138a08220))
  (fp_line (start 10.04 4.76) (end 10.04 5.4) (layer "F.Fab") (width 0.1) (tstamp 7af70a59-89e2-40af-882c-5f9b6fed7e2a))
  (fp_line (start -0.32 65.72) (end -0.32 66.36) (layer "F.Fab") (width 0.1) (tstamp 7d169f08-33d0-420b-a4d2-79e1290a2825))
  (fp_line (start 10.04 53.02) (end 10.04 53.66) (layer "F.Fab") (width 0.1) (tstamp 7ecb8216-ca47-4d30-8dac-4105572aae6c))
  (fp_line (start -0.32 -0.32) (end -0.32 0.32) (layer "F.Fab") (width 0.1) (tstamp 7ef47a27-1017-48bc-8c9c-abca47c15d46))
  (fp_line (start 10.04 63.18) (end 10.04 63.82) (layer "F.Fab") (width 0.1) (tstamp 7fbda671-a3fe-4c0a-809c-730ab824f444))
  (fp_line (start -0.32 32.7) (end 1.5 32.7) (layer "F.Fab") (width 0.1) (tstamp 8164f733-39e4-4314-acf5-52912d5a9dab))
  (fp_line (start 4.04 53.02) (end 10.04 53.02) (layer "F.Fab") (width 0.1) (tstamp 81ffd631-e7f7-4f77-86c0-4a6273984251))
  (fp_line (start -0.32 35.24) (end -0.32 35.88) (layer "F.Fab") (width 0.1) (tstamp 838d696d-2812-4d16-b186-927d08bf4ab8))
  (fp_line (start 4.04 60.64) (end 10.04 60.64) (layer "F.Fab") (width 0.1) (tstamp 85555c6a-0897-4424-bbc6-8cfd01e6037a))
  (fp_line (start -0.32 2.22) (end -0.32 2.86) (layer "F.Fab") (width 0.1) (tstamp 871e50f1-1d92-4f34-8e4f-2097996c6e58))
  (fp_line (start 4.04 45.4) (end 10.04 45.4) (layer "F.Fab") (width 0.1) (tstamp 884ac851-4268-4ee6-b1fb-671f34cf9c66))
  (fp_line (start 4.04 25.08) (end 10.04 25.08) (layer "F.Fab") (width 0.1) (tstamp 8933e903-8666-4479-838b-ea3d2531ce48))
  (fp_line (start 4.04 13.02) (end 10.04 13.02) (layer "F.Fab") (width 0.1) (tstamp 8a6b4be5-a72a-4732-b1cf-98c48375cdd0))
  (fp_line (start 4.04 63.82) (end 10.04 63.82) (layer "F.Fab") (width 0.1) (tstamp 8c0d6cf3-e150-46a9-97ae-2915bd332dd2))
  (fp_line (start 4.04 7.94) (end 10.04 7.94) (layer "F.Fab") (width 0.1) (tstamp 8df63a0c-16d0-411b-9568-582f3f0c00ca))
  (fp_line (start 10.04 32.7) (end 10.04 33.34) (layer "F.Fab") (width 0.1) (tstamp 8e3bc172-3755-4b7d-87b6-8ecd8eaaae0d))
  (fp_line (start 4.04 61.28) (end 10.04 61.28) (layer "F.Fab") (width 0.1) (tstamp 8f65f0b4-577c-491a-81b1-a8d7bf8b6c70))
  (fp_line (start 10.04 55.56) (end 10.04 56.2) (layer "F.Fab") (width 0.1) (tstamp 95be8e19-1c7b-41c4-9256-d5c437b0d3e5))
  (fp_line (start -0.32 60.64) (end 1.5 60.64) (layer "F.Fab") (width 0.1) (tstamp 97c09c29-958e-47b0-b4f3-507a29a177c4))
  (fp_line (start -0.32 38.42) (end 1.5 38.42) (layer "F.Fab") (width 0.1) (tstamp 9936f0bc-ed6f-4451-a540-50723b2032a5))
  (fp_line (start -0.32 17.46) (end 1.5 17.46) (layer "F.Fab") (width 0.1) (tstamp 9a351377-a612-479c-ab7d-50dee5b1c2ed))
  (fp_line (start 4.04 -1.27) (end 4.04 67.31) (layer "F.Fab") (width 0.1) (tstamp 9e05c205-0a5e-47a5-95f7-a0037cadec2f))
  (fp_line (start -0.32 0.32) (end 1.5 0.32) (layer "F.Fab") (width 0.1) (tstamp 9e903655-2272-4924-8dd5-ddf3e3872613))
  (fp_line (start 4.04 10.48) (end 10.04 10.48) (layer "F.Fab") (width 0.1) (tstamp a04f922b-e6af-4233-9735-e38088280a95))
  (fp_line (start 4.04 58.74) (end 10.04 58.74) (layer "F.Fab") (width 0.1) (tstamp a082e272-161c-4b6d-9824-56aa51d57f24))
  (fp_line (start 10.04 60.64) (end 10.04 61.28) (layer "F.Fab") (width 0.1) (tstamp a21a76be-e5b1-412d-b29d-910e65849636))
  (fp_line (start 10.04 25.08) (end 10.04 25.72) (layer "F.Fab") (width 0.1) (tstamp a91b5665-9756-49e7-be1d-09a6708c12f2))
  (fp_line (start -0.32 25.08) (end 1.5 25.08) (layer "F.Fab") (width 0.1) (tstamp aaf37bbe-46fa-45eb-b957-e04084ddc65d))
  (fp_line (start -0.32 13.02) (end 1.5 13.02) (layer "F.Fab") (width 0.1) (tstamp ab098ce6-f119-42f3-b24c-99f230ae745b))
  (fp_line (start -0.32 22.54) (end 1.5 22.54) (layer "F.Fab") (width 0.1) (tstamp ad2f5780-7e09-42e5-8512-83595b85ee38))
  (fp_line (start 10.04 50.48) (end 10.04 51.12) (layer "F.Fab") (width 0.1) (tstamp adf198e3-1ed6-4b7d-90c5-f944302e2211))
  (fp_line (start 10.04 37.78) (end 10.04 38.42) (layer "F.Fab") (width 0.1) (tstamp af571fb0-3320-4033-89b5-a6ffc3700479))
  (fp_line (start -0.32 58.1) (end 1.5 58.1) (layer "F.Fab") (width 0.1) (tstamp b1a5560b-a3c9-41c3-ba1f-33035f3fece4))
  (fp_line (start 10.04 2.22) (end 10.04 2.86) (layer "F.Fab") (width 0.1) (tstamp b3188e8e-e4b3-421c-91f7-e3c9fa398fed))
  (fp_line (start 4.04 48.58) (end 10.04 48.58) (layer "F.Fab") (width 0.1) (tstamp b3af05dc-5019-4579-9f21-54e51baaddcd))
  (fp_line (start -0.32 27.62) (end 1.5 27.62) (layer "F.Fab") (width 0.1) (tstamp b51e4141-3621-496b-8115-50bf78b5af27))
  (fp_line (start -0.32 7.3) (end 1.5 7.3) (layer "F.Fab") (width 0.1) (tstamp b5dfb8f5-7dc9-42b2-8e60-9ee3e3a21c61))
  (fp_line (start 10.04 7.3) (end 10.04 7.94) (layer "F.Fab") (width 0.1) (tstamp b702d524-410c-45d4-bb52-0c5b888c0bd9))
  (fp_line (start -0.32 30.16) (end -0.32 30.8) (layer "F.Fab") (width 0.1) (tstamp b7b135ff-c94c-49b7-8c80-3dc1944bc21c))
  (fp_line (start -0.32 35.88) (end 1.5 35.88) (layer "F.Fab") (width 0.1) (tstamp b99daf0f-860a-463b-9669-aba1f794666b))
  (fp_line (start 10.04 35.24) (end 10.04 35.88) (layer "F.Fab") (width 0.1) (tstamp bb8a0e75-3cea-4b4d-8efc-d33f898ff3de))
  (fp_line (start -0.32 53.02) (end 1.5 53.02) (layer "F.Fab") (width 0.1) (tstamp bc092d57-6537-4997-856e-5c8d0ae7f846))
  (fp_line (start 4.04 23.18) (end 10.04 23.18) (layer "F.Fab") (width 0.1) (tstamp be3478c8-a46b-4f42-bd0c-5494ace36666))
  (fp_line (start -0.32 51.12) (end 1.5 51.12) (layer "F.Fab") (width 0.1) (tstamp bffc7667-a601-4d81-9cf7-32deac964b2c))
  (fp_line (start -0.32 30.8) (end 1.5 30.8) (layer "F.Fab") (width 0.1) (tstamp c03859b9-37fb-4439-8e4f-15f626352e8d))
  (fp_line (start 4.04 67.31) (end 1.5 67.31) (layer "F.Fab") (width 0.1) (tstamp c05902d5-2415-4241-9f5a-1895b4289a55))
  (fp_line (start -0.32 58.1) (end -0.32 58.74) (layer "F.Fab") (width 0.1) (tstamp c1e9be45-4dc0-42eb-8ff6-1066c0da1017))
  (fp_line (start 4.04 51.12) (end 10.04 51.12) (layer "F.Fab") (width 0.1) (tstamp c3163354-ff30-45fe-9152-c644c2c8019c))
  (fp_line (start 4.04 28.26) (end 10.04 28.26) (layer "F.Fab") (width 0.1) (tstamp c33f772f-ffc9-48c2-bc1a-8130dc24e980))
  (fp_line (start -0.32 58.74) (end 1.5 58.74) (layer "F.Fab") (width 0.1) (tstamp c35abe9e-b48f-4916-8103-c1982ed25673))
  (fp_line (start -0.32 5.4) (end 1.5 5.4) (layer "F.Fab") (width 0.1) (tstamp c4d19516-8edc-4331-9dbb-ffbe66397165))
  (fp_line (start 4.04 43.5) (end 10.04 43.5) (layer "F.Fab") (width 0.1) (tstamp c5dfac50-9b40-4027-99ed-a020079968b0))
  (fp_line (start -0.32 27.62) (end -0.32 28.26) (layer "F.Fab") (width 0.1) (tstamp c67830fd-0525-4d83-ac2f-52afa3247fca))
  (fp_line (start -0.32 55.56) (end 1.5 55.56) (layer "F.Fab") (width 0.1) (tstamp c69eb190-8a60-401e-828b-77d68e23e613))
  (fp_line (start -0.32 32.7) (end -0.32 33.34) (layer "F.Fab") (width 0.1) (tstamp c6c25d7e-5f99-48fd-b2b7-6eb901e3c9aa))
  (fp_line (start -0.32 23.18) (end 1.5 23.18) (layer "F.Fab") (width 0.1) (tstamp c7f4ab83-0f90-43ea-a831-992aeb73ffbc))
  (fp_line (start 4.04 35.24) (end 10.04 35.24) (layer "F.Fab") (width 0.1) (tstamp ca17e9d8-19dd-493d-a24d-a0b6db4322d5))
  (fp_line (start -0.32 63.18) (end 1.5 63.18) (layer "F.Fab") (width 0.1) (tstamp ca9d1d08-608a-46da-9a03-2fd9369a274b))
  (fp_line (start 1.5 67.31) (end 1.5 -0.635) (layer "F.Fab") (width 0.1) (tstamp cc1112f4-e080-4513-b16c-7989f1e3a58d))
  (fp_line (start 4.04 7.3) (end 10.04 7.3) (layer "F.Fab") (width 0.1) (tstamp cdf7070e-ad65-4754-9fb2-e60e099d23e5))
  (fp_line (start -0.32 22.54) (end -0.32 23.18) (layer "F.Fab") (width 0.1) (tstamp ce51a61f-8dbe-4522-bd5d-ca3eb34c0f03))
  (fp_line (start 4.04 -0.32) (end 10.04 -0.32) (layer "F.Fab") (width 0.1) (tstamp cedae878-94f1-4629-954b-99f7af0b25c7))
  (fp_line (start 4.04 58.1) (end 10.04 58.1) (layer "F.Fab") (width 0.1) (tstamp d1c01cdc-3ebd-4af8-af0b-e69b048dacaf))
  (fp_line (start 4.04 14.92) (end 10.04 14.92) (layer "F.Fab") (width 0.1) (tstamp d38bf7b9-beed-421e-ba4e-9de25215f22a))
  (fp_line (start 4.04 20) (end 10.04 20) (layer "F.Fab") (width 0.1) (tstamp d78f5727-8f19-42ca-a053-c53381d944a7))
  (fp_line (start -0.32 33.34) (end 1.5 33.34) (layer "F.Fab") (width 0.1) (tstamp d80f2037-a402-435a-81aa-970ffef4be95))
  (fp_line (start 4.04 2.22) (end 10.04 2.22) (layer "F.Fab") (width 0.1) (tstamp da52ff37-a65f-453c-b07e-632f9d2c97bd))
  (fp_line (start -0.32 12.38) (end -0.32 13.02) (layer "F.Fab") (width 0.1) (tstamp da95bc5b-8168-4752-9383-cea2a800c1d1))
  (fp_line (start -0.32 37.78) (end 1.5 37.78) (layer "F.Fab") (width 0.1) (tstamp dd8e2802-87f3-4b80-a976-7aa081150a3e))
  (fp_line (start -0.32 45.4) (end -0.32 46.04) (layer "F.Fab") (width 0.1) (tstamp e013c178-bdad-4120-956e-f98db90d321b))
  (fp_line (start -0.32 55.56) (end -0.32 56.2) (layer "F.Fab") (width 0.1) (tstamp e32a1736-40e3-4247-8e8b-7c1fa3b39c23))
  (fp_line (start -0.32 7.3) (end -0.32 7.94) (layer "F.Fab") (width 0.1) (tstamp e43cac84-ec84-432e-9c41-2a97d0125880))
  (fp_line (start 4.04 35.88) (end 10.04 35.88) (layer "F.Fab") (width 0.1) (tstamp ed3a524c-f54a-4504-a4b7-a5e763a897b7))
  (fp_line (start -0.32 20.64) (end 1.5 20.64) (layer "F.Fab") (width 0.1) (tstamp ef16e8e7-5335-4b11-ad89-2a471322a6b5))
  (fp_line (start 4.04 12.38) (end 10.04 12.38) (layer "F.Fab") (width 0.1) (tstamp f094f9de-4843-409c-a285-e9374e79c302))
  (fp_line (start -0.32 60.64) (end -0.32 61.28) (layer "F.Fab") (width 0.1) (tstamp f0998ffe-6e45-48dc-abf5-a63eabe02ceb))
  (fp_line (start -0.32 50.48) (end 1.5 50.48) (layer "F.Fab") (width 0.1) (tstamp f295ba32-2484-4ddf-a6d6-fae66e8bd6de))
  (fp_line (start 4.04 37.78) (end 10.04 37.78) (layer "F.Fab") (width 0.1) (tstamp f2af8ae5-d36b-4310-9c33-88ae7addbfed))
  (fp_line (start -0.32 47.94) (end 1.5 47.94) (layer "F.Fab") (width 0.1) (tstamp f2b76f72-6feb-497b-8acf-48b927d9308e))
  (fp_line (start 10.04 17.46) (end 10.04 18.1) (layer "F.Fab") (width 0.1) (tstamp f4042336-d48a-4ddb-9a14-cd8875a11a0d))
  (fp_line (start -0.32 42.86) (end 1.5 42.86) (layer "F.Fab") (width 0.1) (tstamp f41db783-933f-467b-b1e4-360cbfc311de))
  (fp_line (start 4.04 27.62) (end 10.04 27.62) (layer "F.Fab") (width 0.1) (tstamp f559d842-cf8d-44b5-b92d-2bd1655e51bb))
  (fp_line (start -0.32 -0.32) (end 1.5 -0.32) (layer "F.Fab") (width 0.1) (tstamp f6c6e3da-7927-456c-9c5c-05b571022d01))
  (fp_line (start -0.32 17.46) (end -0.32 18.1) (layer "F.Fab") (width 0.1) (tstamp f908f127-0afc-49ca-9bf8-d9d65c951376))
  (fp_line (start -0.32 63.18) (end -0.32 63.82) (layer "F.Fab") (width 0.1) (tstamp fa3df8e2-4da8-4452-bcf2-7077935c0b5b))
  (fp_line (start 4.04 66.36) (end 10.04 66.36) (layer "F.Fab") (width 0.1) (tstamp fa72f207-3159-41f5-9bad-8bee5ae87e7c))
  (fp_line (start -0.32 20) (end 1.5 20) (layer "F.Fab") (width 0.1) (tstamp fda93bfd-cffe-4515-8e12-1297be7ea306))
  (fp_line (start 4.04 65.72) (end 10.04 65.72) (layer "F.Fab") (width 0.1) (tstamp ff2b279c-264d-4e37-94b5-57434ca4840e))
  (pad "1" thru_hole rect (at 0 0) (size 2.1 2.1) (drill 1) (layers *.Cu *.Mask) (tstamp 4222c0c2-ddbd-4284-ba1a-7fc722d9ee75))
  (pad "2" thru_hole oval (at 0 2.54) (size 2.1 2.1) (drill 1) (layers *.Cu *.Mask) (tstamp ffcf9f9b-c97a-4f14-b6b0-1802adebdd65))
  (pad "3" thru_hole oval (at 0 5.08) (size 2.1 2.1) (drill 1) (layers *.Cu *.Mask) (tstamp 8f56bd52-56b5-4491-850e-5e3022418604))
  (pad "4" thru_hole oval (at 0 7.62) (size 2.1 2.1) (drill 1) (layers *.Cu *.Mask) (tstamp 825e8821-9351-464f-b53e-752528a81015))
  (pad "5" thru_hole oval (at 0 10.16) (size 2.1 2.1) (drill 1) (layers *.Cu *.Mask) (tstamp 0b6e06ea-a9e4-4589-ac0a-3dc6b9a3b58c))
  (pad "6" thru_hole oval (at 0 12.7) (size 2.1 2.1) (drill 1) (layers *.Cu *.Mask) (tstamp 6e16f8f3-399b-4364-ad56-a40573f79359))
  (pad "7" thru_hole oval (at 0 15.24) (size 2.1 2.1) (drill 1) (layers *.Cu *.Mask) (tstamp 45c1fc52-5cd4-44bf-95e7-89175dd2a406))
  (pad "8" thru_hole oval (at 0 17.78) (size 2.1 2.1) (drill 1) (layers *.Cu *.Mask) (tstamp ec522037-ed36-4edc-9ba8-b9c759997316))
  (pad "9" thru_hole oval (at 0 20.32) (size 2.1 2.1) (drill 1) (layers *.Cu *.Mask) (tstamp 7cbdb805-1bfc-40b7-8ef2-713075fff014))
  (pad "10" thru_hole oval (at 0 22.86) (size 2.1 2.1) (drill 1) (layers *.Cu *.Mask) (tstamp 670c99e4-f62d-49e8-9309-2624ad42b09d))
  (pad "11" thru_hole oval (at 0 25.4) (size 2.1 2.1) (drill 1) (layers *.Cu *.Mask) (tstamp 2b0a7b25-a8cc-42a2-9e97-3bca4be5704a))
  (pad "12" thru_hole oval (at 0 27.94) (size 2.1 2.1) (drill 1) (layers *.Cu *.Mask) (tstamp 7609bf65-0303-4589-8a1a-4c01ca2ec808))
  (pad "13" thru_hole oval (at 0 30.48) (size 2.1 2.1) (drill 1) (layers *.Cu *.Mask) (tstamp 203b8b3e-a91f-418f-8f84-0de3d441df7e))
  (pad "14" thru_hole oval (at 0 33.02) (size 2.1 2.1) (drill 1) (layers *.Cu *.Mask) (tstamp 2cc14592-6fcd-41be-bc19-481661875b25))
  (pad "15" thru_hole oval (at 0 35.56) (size 2.1 2.1) (drill 1) (layers *.Cu *.Mask) (tstamp ca018287-9dea-415e-ac0d-664cb57ca26f))
  (pad "16" thru_hole oval (at 0 38.1) (size 2.1 2.1) (drill 1) (layers *.Cu *.Mask) (tstamp d341711a-1289-4320-bd6e-e24fd84ad47c))
  (pad "17" thru_hole oval (at 0 40.64) (size 2.1 2.1) (drill 1) (layers *.Cu *.Mask) (tstamp fb68458c-b601-4a6d-988c-630072237b49))
  (pad "18" thru_hole oval (at 0 43.18) (size 2.1 2.1) (drill 1) (layers *.Cu *.Mask) (tstamp dd3a55b2-48c3-4bf6-a9a6-972bc08803fa))
  (pad "19" thru_hole oval (at 0 45.72) (size 2.1 2.1) (drill 1) (layers *.Cu *.Mask) (tstamp afc97864-8967-42aa-a295-448b742ed312))
  (pad "20" thru_hole oval (at 0 48.26) (size 2.1 2.1) (drill 1) (layers *.Cu *.Mask) (tstamp 83b16006-dc53-4518-94b9-ac82c78c0d9d))
  (pad "21" thru_hole oval (at 0 50.8) (size 2.1 2.1) (drill 1) (layers *.Cu *.Mask) (tstamp c8031b24-fcae-419b-b351-3941cdd8f88a))
  (pad "22" thru_hole oval (at 0 53.34) (size 2.1 2.1) (drill 1) (layers *.Cu *.Mask) (tstamp 35312d6c-7041-4ff6-a83d-64a0919abc94))
  (pad "23" thru_hole oval (at 0 55.88) (size 2.1 2.1) (drill 1) (layers *.Cu *.Mask) (tstamp 48c78f4b-5497-4300-8e58-1d8aa835f1a7))
  (pad "24" thru_hole oval (at 0 58.42) (size 2.1 2.1) (drill 1) (layers *.Cu *.Mask) (tstamp 49e4f221-57d4-4e89-a273-390a30ac2a65))
  (pad "25" thru_hole oval (at 0 60.96) (size 2.1 2.1) (drill 1) (layers *.Cu *.Mask) (tstamp 934b2e7e-c9c8-4fdb-bda7-26b1ea2c9630))
  (pad "26" thru_hole oval (at 0 63.5) (size 2.1 2.1) (drill 1) (layers *.Cu *.Mask) (tstamp 84d639b5-ae29-4ac7-a8e1-9077e5ec77a6))
  (pad "27" thru_hole oval (at 0 66.04) (size 2.1 2.1) (drill 1) (layers *.Cu *.Mask) (tstamp 62aa7fc1-0411-40e8-84c6-190ef163777a))
  (model "${KICAD6_3DMODEL_DIR}/Connector_PinHeader_2.54mm.3dshapes/PinHeader_1x27_P2.54mm_Horizontal.wrl"
    (offset (xyz 0 0 0))
    (scale (xyz 1 1 1))
    (rotate (xyz 0 0 0))
  )
)
