(footprint "PinHeader_2x21_P2.54mm_Horizontal" (version 20211014) (generator pcbnew)
  (layer "F.Cu")
  (tedit 59FED5CB)
  (descr "Through hole angled pin header, 2x21, 2.54mm pitch, 6mm pin length, double rows")
  (tags "Through hole angled pin header THT 2x21 2.54mm double row")
  (attr through_hole)
  (fp_text reference "REF**" (at 5.655 -2.27) (layer "F.SilkS")
    (effects (font (size 1 1) (thickness 0.15)))
    (tstamp e3ae49e6-83b9-406a-80e4-8b77ef32d000)
  )
  (fp_text value "PinHeader_2x21_P2.54mm_Horizontal" (at 5.655 53.07) (layer "F.Fab")
    (effects (font (size 1 1) (thickness 0.15)))
    (tstamp 31f9d478-0e7a-46cd-a472-a8ba85fd3ee2)
  )
  (fp_text user "${REFERENCE}" (at 5.31 25.4 90) (layer "F.Fab")
    (effects (font (size 1 1) (thickness 0.15)))
    (tstamp 6be7b4a4-4324-4b41-8d8b-ce409ba4713e)
  )
  (fp_line (start 12.64 38.48) (end 6.64 38.48) (layer "F.SilkS") (width 0.12) (tstamp 003da8eb-3674-459b-bfc2-a2b6c2f2ab16))
  (fp_line (start 6.64 32.64) (end 12.64 32.64) (layer "F.SilkS") (width 0.12) (tstamp 0501be2e-9079-4caf-9445-b98275ec0f39))
  (fp_line (start 3.98 11.43) (end 6.64 11.43) (layer "F.SilkS") (width 0.12) (tstamp 05bcf935-7e61-415e-80a1-abd5520bac3c))
  (fp_line (start 3.582929 51.18) (end 3.98 51.18) (layer "F.SilkS") (width 0.12) (tstamp 085d7b13-97d5-4519-b7d8-35d90e27fd53))
  (fp_line (start 3.98 8.89) (end 6.64 8.89) (layer "F.SilkS") (width 0.12) (tstamp 0ae7b64d-fee4-471f-a0c6-c1c01e3019ed))
  (fp_line (start 12.64 46.1) (end 6.64 46.1) (layer "F.SilkS") (width 0.12) (tstamp 0af517a4-254a-42ac-a9c0-b2f5a41ba874))
  (fp_line (start 3.582929 27.56) (end 3.98 27.56) (layer "F.SilkS") (width 0.12) (tstamp 0ceca672-cc9f-41a3-950b-fe68d29f265d))
  (fp_line (start 3.98 49.53) (end 6.64 49.53) (layer "F.SilkS") (width 0.12) (tstamp 1085e004-f9df-4660-80ba-6c7d4ea8b83d))
  (fp_line (start -1.27 0) (end -1.27 -1.27) (layer "F.SilkS") (width 0.12) (tstamp 10b2f476-b58d-4857-afe7-7a68085ec62d))
  (fp_line (start 12.64 14.86) (end 12.64 15.62) (layer "F.SilkS") (width 0.12) (tstamp 11e3d3a7-2a1b-4a8b-8b5c-e1d6deedb272))
  (fp_line (start 6.64 0.28) (end 12.64 0.28) (layer "F.SilkS") (width 0.12) (tstamp 125879db-0542-4a69-8a1e-7956cb786a79))
  (fp_line (start 12.64 2.92) (end 6.64 2.92) (layer "F.SilkS") (width 0.12) (tstamp 13ec7c82-66ea-4cb6-a3d9-2c8980221596))
  (fp_line (start 3.582929 4.7) (end 3.98 4.7) (layer "F.SilkS") (width 0.12) (tstamp 1524616b-8805-4fbe-b725-1f375090d057))
  (fp_line (start 6.64 -0.32) (end 12.64 -0.32) (layer "F.SilkS") (width 0.12) (tstamp 164f505c-422d-410a-a24e-7f81f7d7958d))
  (fp_line (start 1.042929 18.16) (end 1.497071 18.16) (layer "F.SilkS") (width 0.12) (tstamp 1669d259-d3c9-40d9-977a-cc722d8826a5))
  (fp_line (start 1.042929 45.34) (end 1.497071 45.34) (layer "F.SilkS") (width 0.12) (tstamp 16d6c7bf-f147-4436-ad2b-d6b902f4bfe9))
  (fp_line (start 3.582929 48.64) (end 3.98 48.64) (layer "F.SilkS") (width 0.12) (tstamp 1759f093-e961-4efa-bd84-66ab2d7d6613))
  (fp_line (start 6.64 -0.08) (end 12.64 -0.08) (layer "F.SilkS") (width 0.12) (tstamp 191977ad-eba1-48b9-8d9a-3dbb41c54934))
  (fp_line (start 12.64 37.72) (end 12.64 38.48) (layer "F.SilkS") (width 0.12) (tstamp 1bf2bc98-b7aa-427d-b82b-7e41c72f2ef0))
  (fp_line (start 12.64 12.32) (end 12.64 13.08) (layer "F.SilkS") (width 0.12) (tstamp 1c76184c-eb47-44ab-9532-ad9fe64e62dc))
  (fp_line (start 12.64 8) (end 6.64 8) (layer "F.SilkS") (width 0.12) (tstamp 201b3458-3e50-41e5-a091-0437f6838e91))
  (fp_line (start 3.582929 13.08) (end 3.98 13.08) (layer "F.SilkS") (width 0.12) (tstamp 203a368e-5d17-4b19-9c4b-7bdcace6dd02))
  (fp_line (start 6.64 45.34) (end 12.64 45.34) (layer "F.SilkS") (width 0.12) (tstamp 22058f53-c0fc-4c7e-8b4c-94ede5988a39))
  (fp_line (start 3.582929 32.64) (end 3.98 32.64) (layer "F.SilkS") (width 0.12) (tstamp 22d61964-a038-4f49-999d-968c1dd9554d))
  (fp_line (start 12.64 25.02) (end 12.64 25.78) (layer "F.SilkS") (width 0.12) (tstamp 2548b8a5-8481-4056-80da-db73330fde46))
  (fp_line (start 3.582929 28.32) (end 3.98 28.32) (layer "F.SilkS") (width 0.12) (tstamp 258fe293-de89-4418-8c58-a8c2c420cfd2))
  (fp_line (start 12.64 28.32) (end 6.64 28.32) (layer "F.SilkS") (width 0.12) (tstamp 2691e9f2-8c25-4d5e-8948-686ababad2e4))
  (fp_line (start 1.042929 35.18) (end 1.497071 35.18) (layer "F.SilkS") (width 0.12) (tstamp 27022af4-713e-41c7-8563-05b608adfb45))
  (fp_line (start 1.042929 25.78) (end 1.497071 25.78) (layer "F.SilkS") (width 0.12) (tstamp 2a6477b3-f17d-46f1-8811-8ca809692d21))
  (fp_line (start 1.042929 4.7) (end 1.497071 4.7) (layer "F.SilkS") (width 0.12) (tstamp 2b755603-c591-4786-a711-855cf8bf0e38))
  (fp_line (start 3.582929 25.78) (end 3.98 25.78) (layer "F.SilkS") (width 0.12) (tstamp 2c1d261f-e39b-470c-aab5-490fa62fcfaf))
  (fp_line (start 3.98 19.05) (end 6.64 19.05) (layer "F.SilkS") (width 0.12) (tstamp 2d1703d3-b419-4ce5-a7eb-a2a4d35d6b47))
  (fp_line (start 3.582929 38.48) (end 3.98 38.48) (layer "F.SilkS") (width 0.12) (tstamp 2f6d4e05-4f0a-4efa-a920-1bd76383f4f1))
  (fp_line (start 12.64 7.24) (end 12.64 8) (layer "F.SilkS") (width 0.12) (tstamp 328bbc8b-a8e5-4e4e-bc0b-c55b507f83a4))
  (fp_line (start 12.64 30.86) (end 6.64 30.86) (layer "F.SilkS") (width 0.12) (tstamp 35d411d0-1e15-4a0f-8b09-440bbc832d85))
  (fp_line (start 3.582929 41.02) (end 3.98 41.02) (layer "F.SilkS") (width 0.12) (tstamp 37343bb0-6e5a-4763-addd-1ff314445ad9))
  (fp_line (start 6.64 47.88) (end 12.64 47.88) (layer "F.SilkS") (width 0.12) (tstamp 3784e432-a0a8-4978-a343-2f133314e71d))
  (fp_line (start 1.042929 10.54) (end 1.497071 10.54) (layer "F.SilkS") (width 0.12) (tstamp 37f55be7-2e65-4f27-a9f3-950e69504194))
  (fp_line (start 3.98 16.51) (end 6.64 16.51) (layer "F.SilkS") (width 0.12) (tstamp 3b196aa2-9617-4840-bd87-ffcae1b28699))
  (fp_line (start 1.042929 8) (end 1.497071 8) (layer "F.SilkS") (width 0.12) (tstamp 3ef63790-f9a5-4475-b328-a1ca6e6727df))
  (fp_line (start 1.042929 51.18) (end 1.497071 51.18) (layer "F.SilkS") (width 0.12) (tstamp 40e3ad83-ab7f-4f4e-9ab3-8b216128893a))
  (fp_line (start 3.582929 9.78) (end 3.98 9.78) (layer "F.SilkS") (width 0.12) (tstamp 417598a7-e104-4e42-88c1-82b151ab64d2))
  (fp_line (start 6.64 17.4) (end 12.64 17.4) (layer "F.SilkS") (width 0.12) (tstamp 43f469b6-c28d-4777-91a6-3f8e669a79ea))
  (fp_line (start 1.042929 48.64) (end 1.497071 48.64) (layer "F.SilkS") (width 0.12) (tstamp 444fa2fe-7c2c-4841-b752-edc953a954ef))
  (fp_line (start 6.64 14.86) (end 12.64 14.86) (layer "F.SilkS") (width 0.12) (tstamp 4701a9ef-0540-4dc3-a675-85e549befbc1))
  (fp_line (start 3.582929 47.88) (end 3.98 47.88) (layer "F.SilkS") (width 0.12) (tstamp 47fb42d9-751b-4dbd-a9bd-f8686a6ad1db))
  (fp_line (start 3.582929 12.32) (end 3.98 12.32) (layer "F.SilkS") (width 0.12) (tstamp 48b6d00e-70a2-473b-9d2b-570948a2b282))
  (fp_line (start 12.64 45.34) (end 12.64 46.1) (layer "F.SilkS") (width 0.12) (tstamp 48c1f730-9f5d-44a2-b089-331a891b7941))
  (fp_line (start 12.64 47.88) (end 12.64 48.64) (layer "F.SilkS") (width 0.12) (tstamp 4bf38157-727e-48b4-9481-9bba4b6fe2d4))
  (fp_line (start 6.64 2.16) (end 12.64 2.16) (layer "F.SilkS") (width 0.12) (tstamp 4c2c2590-543c-43c3-9770-8cc4a3115123))
  (fp_line (start 3.582929 0.38) (end 3.98 0.38) (layer "F.SilkS") (width 0.12) (tstamp 4cd87bd6-4dd2-4d23-82fa-d04e77698251))
  (fp_line (start 3.98 29.21) (end 6.64 29.21) (layer "F.SilkS") (width 0.12) (tstamp 4d6f2853-0cf3-4eb6-9940-14418c38913e))
  (fp_line (start 3.98 36.83) (end 6.64 36.83) (layer "F.SilkS") (width 0.12) (tstamp 4f3f4772-8e3b-41df-ad44-0f3cba4a97ec))
  (fp_line (start 12.64 5.46) (end 6.64 5.46) (layer "F.SilkS") (width 0.12) (tstamp 4fac4dae-5bc0-49e8-a616-6eb2b0e869e2))
  (fp_line (start 1.042929 7.24) (end 1.497071 7.24) (layer "F.SilkS") (width 0.12) (tstamp 5005d0e3-1ffe-42a3-952a-93bf925c4a20))
  (fp_line (start 3.582929 46.1) (end 3.98 46.1) (layer "F.SilkS") (width 0.12) (tstamp 52720661-5ca7-49b5-ae1b-7845ceb0b767))
  (fp_line (start 6.64 52.13) (end 6.64 -1.33) (layer "F.SilkS") (width 0.12) (tstamp 5403a538-1c24-49f5-809d-e3cb9f6b2317))
  (fp_line (start 3.98 26.67) (end 6.64 26.67) (layer "F.SilkS") (width 0.12) (tstamp 54fd2916-e2bc-4fa4-aabb-5a7ad81b81a0))
  (fp_line (start 12.64 9.78) (end 12.64 10.54) (layer "F.SilkS") (width 0.12) (tstamp 550d72a5-c689-4841-a12d-a2f12716cbf8))
  (fp_line (start 1.042929 42.8) (end 1.497071 42.8) (layer "F.SilkS") (width 0.12) (tstamp 5596422e-88be-4ad4-b61b-b267cdb9e8a9))
  (fp_line (start 3.582929 43.56) (end 3.98 43.56) (layer "F.SilkS") (width 0.12) (tstamp 559e50f5-4fef-45cc-a67d-5142d3203841))
  (fp_line (start 6.64 -1.33) (end 3.98 -1.33) (layer "F.SilkS") (width 0.12) (tstamp 55f4a42e-6782-4577-8bdf-910ddfc14bae))
  (fp_line (start 3.98 39.37) (end 6.64 39.37) (layer "F.SilkS") (width 0.12) (tstamp 57497267-8b6b-439f-ba28-f9d213ab0c9d))
  (fp_line (start 3.582929 7.24) (end 3.98 7.24) (layer "F.SilkS") (width 0.12) (tstamp 577d395a-1e9b-441a-9cbb-680974cc9646))
  (fp_line (start 12.64 19.94) (end 12.64 20.7) (layer "F.SilkS") (width 0.12) (tstamp 57a7167d-631c-4938-b304-d9328ba51da6))
  (fp_line (start -1.27 -1.27) (end 0 -1.27) (layer "F.SilkS") (width 0.12) (tstamp 5846ebe5-262c-4282-8ed8-696cbe7d4147))
  (fp_line (start 3.582929 50.42) (end 3.98 50.42) (layer "F.SilkS") (width 0.12) (tstamp 58f23f57-f868-4733-b52d-bfe1425210a0))
  (fp_line (start 1.042929 46.1) (end 1.497071 46.1) (layer "F.SilkS") (width 0.12) (tstamp 596a7897-cb53-4296-b90f-0c8e8f84569f))
  (fp_line (start 1.042929 37.72) (end 1.497071 37.72) (layer "F.SilkS") (width 0.12) (tstamp 5bd19430-ca76-498b-9847-8f61f4b291a2))
  (fp_line (start 12.64 0.38) (end 6.64 0.38) (layer "F.SilkS") (width 0.12) (tstamp 5c86ef9c-6f70-4b58-90d0-1af543db0ced))
  (fp_line (start 1.042929 41.02) (end 1.497071 41.02) (layer "F.SilkS") (width 0.12) (tstamp 5e8ae35b-0f0d-41e5-9ffe-24468c8314d5))
  (fp_line (start 1.042929 38.48) (end 1.497071 38.48) (layer "F.SilkS") (width 0.12) (tstamp 602b62ef-2a3d-4dea-a4e8-8a0306c951fb))
  (fp_line (start 1.042929 27.56) (end 1.497071 27.56) (layer "F.SilkS") (width 0.12) (tstamp 6081e817-1b9f-4e59-b8ab-769316b6dafc))
  (fp_line (start 3.582929 2.92) (end 3.98 2.92) (layer "F.SilkS") (width 0.12) (tstamp 67118daf-4186-4ea9-a206-5875f3f3d718))
  (fp_line (start 3.582929 25.02) (end 3.98 25.02) (layer "F.SilkS") (width 0.12) (tstamp 67dd8ec7-c3c1-48b7-885e-bb29231dff66))
  (fp_line (start 1.042929 30.1) (end 1.497071 30.1) (layer "F.SilkS") (width 0.12) (tstamp 6b0873bd-7460-4511-9ae9-5b1751967353))
  (fp_line (start 1.042929 43.56) (end 1.497071 43.56) (layer "F.SilkS") (width 0.12) (tstamp 6c8d9f14-070d-4a1d-b0c0-c49eb7dd21ee))
  (fp_line (start 1.042929 20.7) (end 1.497071 20.7) (layer "F.SilkS") (width 0.12) (tstamp 6c9baab8-c826-41d9-b458-6a4b6ce23051))
  (fp_line (start 3.582929 5.46) (end 3.98 5.46) (layer "F.SilkS") (width 0.12) (tstamp 6d5d97d2-15a9-4d38-a8bd-f597137cd018))
  (fp_line (start 3.582929 30.1) (end 3.98 30.1) (layer "F.SilkS") (width 0.12) (tstamp 6d8d26d9-6303-4df2-a554-d6f7a7d876b4))
  (fp_line (start 12.64 32.64) (end 12.64 33.4) (layer "F.SilkS") (width 0.12) (tstamp 6f43fc35-09d4-4cb1-a0a5-009064f2bd65))
  (fp_line (start 6.64 25.02) (end 12.64 25.02) (layer "F.SilkS") (width 0.12) (tstamp 73519b28-4ce3-4b3a-86c1-a136594b2ed1))
  (fp_line (start 1.042929 19.94) (end 1.497071 19.94) (layer "F.SilkS") (width 0.12) (tstamp 7398aa29-2164-4fa4-8a24-a2a1cd3c2066))
  (fp_line (start 3.98 31.75) (end 6.64 31.75) (layer "F.SilkS") (width 0.12) (tstamp 75f7d41d-7a63-4034-9d9f-303f4f76e609))
  (fp_line (start 1.042929 14.86) (end 1.497071 14.86) (layer "F.SilkS") (width 0.12) (tstamp 76d64e60-72a7-4df8-a847-9af39135d0ee))
  (fp_line (start 1.042929 30.86) (end 1.497071 30.86) (layer "F.SilkS") (width 0.12) (tstamp 77e54523-71b9-4ad6-97d6-1697ba021176))
  (fp_line (start 6.64 42.8) (end 12.64 42.8) (layer "F.SilkS") (width 0.12) (tstamp 7a5cd4ca-bf5f-4d5b-a97c-0a83928f9f09))
  (fp_line (start 3.582929 19.94) (end 3.98 19.94) (layer "F.SilkS") (width 0.12) (tstamp 7add35a1-f273-439c-819f-ce32f088ff6c))
  (fp_line (start 1.042929 40.26) (end 1.497071 40.26) (layer "F.SilkS") (width 0.12) (tstamp 7dfe9353-d883-4f17-bf2c-b14dc3c5b1e1))
  (fp_line (start 6.64 4.7) (end 12.64 4.7) (layer "F.SilkS") (width 0.12) (tstamp 826c583a-5721-4298-ad9b-6d7b5d9454b8))
  (fp_line (start 3.582929 18.16) (end 3.98 18.16) (layer "F.SilkS") (width 0.12) (tstamp 839a3f31-4175-436d-af13-900b8e201f2e))
  (fp_line (start 3.582929 15.62) (end 3.98 15.62) (layer "F.SilkS") (width 0.12) (tstamp 84294b08-f8a5-4ac0-9190-5b97ce444235))
  (fp_line (start 1.11 -0.38) (end 1.497071 -0.38) (layer "F.SilkS") (width 0.12) (tstamp 88f78ecb-d374-4b0a-a8c7-0dfa7aa366bc))
  (fp_line (start 12.64 -0.38) (end 12.64 0.38) (layer "F.SilkS") (width 0.12) (tstamp 8982004f-1d80-40b3-a040-30cfc2b1379e))
  (fp_line (start 6.64 40.26) (end 12.64 40.26) (layer "F.SilkS") (width 0.12) (tstamp 8992b726-c1b3-488d-9700-8e7a81a4176e))
  (fp_line (start 3.582929 35.18) (end 3.98 35.18) (layer "F.SilkS") (width 0.12) (tstamp 8a0c4397-e4d8-41a8-9564-6f69461d148b))
  (fp_line (start 12.64 10.54) (end 6.64 10.54) (layer "F.SilkS") (width 0.12) (tstamp 8c09b9f1-8905-4b92-a922-2a586a66cb7b))
  (fp_line (start 3.582929 22.48) (end 3.98 22.48) (layer "F.SilkS") (width 0.12) (tstamp 8c792508-bc88-49c4-90eb-7e7237e9f806))
  (fp_line (start 3.582929 33.4) (end 3.98 33.4) (layer "F.SilkS") (width 0.12) (tstamp 9082d9da-0afb-49e8-8e87-aec0bc084325))
  (fp_line (start 1.042929 33.4) (end 1.497071 33.4) (layer "F.SilkS") (width 0.12) (tstamp 92ed06d6-7fa7-4096-81fc-3d7aa1d6c51f))
  (fp_line (start 3.98 1.27) (end 6.64 1.27) (layer "F.SilkS") (width 0.12) (tstamp 9725f606-9a8c-42c9-ba4a-956ed21a934f))
  (fp_line (start 12.64 35.94) (end 6.64 35.94) (layer "F.SilkS") (width 0.12) (tstamp 99cb8bd9-9e73-48df-8750-75d6d18959c1))
  (fp_line (start 12.64 25.78) (end 6.64 25.78) (layer "F.SilkS") (width 0.12) (tstamp 99d1ffda-196c-41d8-a8a4-e906d27af3da))
  (fp_line (start 12.64 51.18) (end 6.64 51.18) (layer "F.SilkS") (width 0.12) (tstamp 9a250bc4-8851-46cb-9fc6-b0c9feeaa9f1))
  (fp_line (start 3.98 13.97) (end 6.64 13.97) (layer "F.SilkS") (width 0.12) (tstamp 9c7d1302-a9ff-4048-9eaa-c6f9d22fd8d9))
  (fp_line (start 6.64 12.32) (end 12.64 12.32) (layer "F.SilkS") (width 0.12) (tstamp 9d142943-4acf-4602-b9fe-8e325f340e01))
  (fp_line (start 3.98 41.91) (end 6.64 41.91) (layer "F.SilkS") (width 0.12) (tstamp 9dc9e23c-726d-4d86-b240-0dfb7fee3b55))
  (fp_line (start 1.042929 50.42) (end 1.497071 50.42) (layer "F.SilkS") (width 0.12) (tstamp 9ffac062-8882-445b-8089-89ad9ceaee40))
  (fp_line (start 12.64 20.7) (end 6.64 20.7) (layer "F.SilkS") (width 0.12) (tstamp a0d84e5b-bd8d-4dbe-9254-d72137e14866))
  (fp_line (start 1.042929 22.48) (end 1.497071 22.48) (layer "F.SilkS") (width 0.12) (tstamp a0f07991-f365-46b4-ae17-b510ea873d22))
  (fp_line (start 3.582929 45.34) (end 3.98 45.34) (layer "F.SilkS") (width 0.12) (tstamp a39a6632-417a-49c1-a2e1-c288a11aeb47))
  (fp_line (start 12.64 41.02) (end 6.64 41.02) (layer "F.SilkS") (width 0.12) (tstamp a477abe0-faab-45b1-9128-7c9ac59dd590))
  (fp_line (start 3.582929 23.24) (end 3.98 23.24) (layer "F.SilkS") (width 0.12) (tstamp a584bdf6-57d7-4c11-a6e1-355d4e26e8ab))
  (fp_line (start 6.64 0.16) (end 12.64 0.16) (layer "F.SilkS") (width 0.12) (tstamp a838f2b6-f81a-4604-9839-53bd7663d767))
  (fp_line (start 6.64 7.24) (end 12.64 7.24) (layer "F.SilkS") (width 0.12) (tstamp a8debb25-09c0-4f41-830b-6ca07b01af25))
  (fp_line (start 3.582929 14.86) (end 3.98 14.86) (layer "F.SilkS") (width 0.12) (tstamp a93a3e9c-d18b-4727-86fc-420a33b27fb8))
  (fp_line (start 1.042929 28.32) (end 1.497071 28.32) (layer "F.SilkS") (width 0.12) (tstamp a97479e9-dc69-490d-8e88-8ff3255af228))
  (fp_line (start 6.64 0.04) (end 12.64 0.04) (layer "F.SilkS") (width 0.12) (tstamp ae2622c1-4c36-4885-aea6-416acc1c894b))
  (fp_line (start 3.582929 2.16) (end 3.98 2.16) (layer "F.SilkS") (width 0.12) (tstamp af0f3b8a-0702-4eeb-ae74-fd884fbb7d86))
  (fp_line (start 3.582929 -0.38) (end 3.98 -0.38) (layer "F.SilkS") (width 0.12) (tstamp af9cf187-0a01-4d23-ac34-8dd6193f4bad))
  (fp_line (start 6.64 37.72) (end 12.64 37.72) (layer "F.SilkS") (width 0.12) (tstamp b0a40b12-3a9d-45dc-a09c-82dbb1116308))
  (fp_line (start 3.98 -1.33) (end 3.98 52.13) (layer "F.SilkS") (width 0.12) (tstamp b1e35ab1-4635-4b10-a877-b1ecbf813758))
  (fp_line (start 12.64 50.42) (end 12.64 51.18) (layer "F.SilkS") (width 0.12) (tstamp b419d343-baf3-4548-9878-59c78b6d6516))
  (fp_line (start 3.98 34.29) (end 6.64 34.29) (layer "F.SilkS") (width 0.12) (tstamp b5e13b22-c307-42a9-965f-994d857ccbd3))
  (fp_line (start 3.98 52.13) (end 6.64 52.13) (layer "F.SilkS") (width 0.12) (tstamp b60f06a2-0994-44ba-bdd2-f9218dad9b58))
  (fp_line (start 3.582929 30.86) (end 3.98 30.86) (layer "F.SilkS") (width 0.12) (tstamp b6d305c2-9861-4533-bac1-92cabecba987))
  (fp_line (start 3.582929 17.4) (end 3.98 17.4) (layer "F.SilkS") (width 0.12) (tstamp b79bdf5c-09da-4ef5-b288-af0f04ae9f9b))
  (fp_line (start 3.582929 20.7) (end 3.98 20.7) (layer "F.SilkS") (width 0.12) (tstamp bb210f22-fad4-4a05-8645-42d762730bcf))
  (fp_line (start 1.042929 32.64) (end 1.497071 32.64) (layer "F.SilkS") (width 0.12) (tstamp bb724c68-f7dc-43b3-9abd-2c87b0900f71))
  (fp_line (start 3.98 44.45) (end 6.64 44.45) (layer "F.SilkS") (width 0.12) (tstamp bb7d8adc-3525-4c8f-a7d7-efdbc90287d3))
  (fp_line (start 1.042929 23.24) (end 1.497071 23.24) (layer "F.SilkS") (width 0.12) (tstamp bdc7a0e5-ded1-43d1-b850-cdce7b5c06d6))
  (fp_line (start 3.98 46.99) (end 6.64 46.99) (layer "F.SilkS") (width 0.12) (tstamp bdf2e139-ba33-414b-965a-8797dfc9ae6c))
  (fp_line (start 12.64 40.26) (end 12.64 41.02) (layer "F.SilkS") (width 0.12) (tstamp c6a7f316-90d8-4cb9-8451-cb45abe28074))
  (fp_line (start 1.042929 15.62) (end 1.497071 15.62) (layer "F.SilkS") (width 0.12) (tstamp c85e10dd-834c-4ca0-8dec-7eef3fd142f3))
  (fp_line (start 12.64 18.16) (end 6.64 18.16) (layer "F.SilkS") (width 0.12) (tstamp c8faf46e-b0bd-4d80-b6dd-6df02323d28c))
  (fp_line (start 12.64 2.16) (end 12.64 2.92) (layer "F.SilkS") (width 0.12) (tstamp c9599f15-3db1-475e-bd8b-5fdca340fb30))
  (fp_line (start 1.042929 9.78) (end 1.497071 9.78) (layer "F.SilkS") (width 0.12) (tstamp ca006467-ec95-461f-b008-061a5f8ef2c6))
  (fp_line (start 6.64 -0.38) (end 12.64 -0.38) (layer "F.SilkS") (width 0.12) (tstamp cab8dbf6-e3ca-4731-9587-8c913af27000))
  (fp_line (start 6.64 9.78) (end 12.64 9.78) (layer "F.SilkS") (width 0.12) (tstamp cd64a25d-81ec-4b3b-8064-64ff91e8e9e9))
  (fp_line (start 1.042929 47.88) (end 1.497071 47.88) (layer "F.SilkS") (width 0.12) (tstamp ce0eecd8-5a4e-4a1f-bb6c-b8ee065a7bb8))
  (fp_line (start 12.64 15.62) (end 6.64 15.62) (layer "F.SilkS") (width 0.12) (tstamp ce1c4b2d-fce8-4a5a-b04a-6a50678b0a09))
  (fp_line (start 6.64 50.42) (end 12.64 50.42) (layer "F.SilkS") (width 0.12) (tstamp ceaa6d21-216b-48df-8719-e8d8d5c70e09))
  (fp_line (start 3.582929 40.26) (end 3.98 40.26) (layer "F.SilkS") (width 0.12) (tstamp cefbe66a-990f-4409-834b-eea2f6632e51))
  (fp_line (start 12.64 43.56) (end 6.64 43.56) (layer "F.SilkS") (width 0.12) (tstamp cf00b8dc-859a-40a9-8b1a-8a954e634f22))
  (fp_line (start 12.64 22.48) (end 12.64 23.24) (layer "F.SilkS") (width 0.12) (tstamp d04516b2-344f-44a1-bbc6-eff6f9c93b2b))
  (fp_line (start 3.98 21.59) (end 6.64 21.59) (layer "F.SilkS") (width 0.12) (tstamp d0acf357-8520-41ab-996f-65255371ac60))
  (fp_line (start 1.042929 17.4) (end 1.497071 17.4) (layer "F.SilkS") (width 0.12) (tstamp d0fb8aef-e560-40d9-9257-729e0808aeb0))
  (fp_line (start 6.64 -0.2) (end 12.64 -0.2) (layer "F.SilkS") (width 0.12) (tstamp d1d4cfb4-80b4-47d9-8db4-928b165bde6a))
  (fp_line (start 12.64 42.8) (end 12.64 43.56) (layer "F.SilkS") (width 0.12) (tstamp d2c62e3b-db7f-48d0-8f0d-94139120c5f6))
  (fp_line (start 6.64 22.48) (end 12.64 22.48) (layer "F.SilkS") (width 0.12) (tstamp d32cedac-5d43-4693-9ca4-814125f969c4))
  (fp_line (start 1.042929 35.94) (end 1.497071 35.94) (layer "F.SilkS") (width 0.12) (tstamp d405ba34-5310-41b0-9ebd-8fd6cafd2bab))
  (fp_line (start 1.042929 5.46) (end 1.497071 5.46) (layer "F.SilkS") (width 0.12) (tstamp d6c90c6a-f477-4a7c-8bd3-b35b4fb2d257))
  (fp_line (start 3.582929 8) (end 3.98 8) (layer "F.SilkS") (width 0.12) (tstamp dd956e35-46fe-46c4-9cae-f65f707f0a90))
  (fp_line (start 3.98 24.13) (end 6.64 24.13) (layer "F.SilkS") (width 0.12) (tstamp df72662c-7e47-4907-8631-91d1931d9ae5))
  (fp_line (start 6.64 19.94) (end 12.64 19.94) (layer "F.SilkS") (width 0.12) (tstamp e0710f66-4ab2-43d7-a62f-745ea45855ef))
  (fp_line (start 3.582929 35.94) (end 3.98 35.94) (layer "F.SilkS") (width 0.12) (tstamp e0f51236-273c-4233-92cd-f118bf31655d))
  (fp_line (start 12.64 13.08) (end 6.64 13.08) (layer "F.SilkS") (width 0.12) (tstamp e129fc6b-9e67-446c-ae54-3e658d6338e2))
  (fp_line (start 1.042929 13.08) (end 1.497071 13.08) (layer "F.SilkS") (width 0.12) (tstamp e2b0729d-8c64-4229-a6ac-f6a7668aa23c))
  (fp_line (start 3.98 3.81) (end 6.64 3.81) (layer "F.SilkS") (width 0.12) (tstamp e4e70867-6641-410e-b45f-72ce0ad41b1f))
  (fp_line (start 12.64 27.56) (end 12.64 28.32) (layer "F.SilkS") (width 0.12) (tstamp e51c07a4-a4fc-49e5-9b1f-1631ef8bea10))
  (fp_line (start 3.582929 10.54) (end 3.98 10.54) (layer "F.SilkS") (width 0.12) (tstamp e90cf409-e5b3-4743-a5e3-ef32db15d0b6))
  (fp_line (start 1.042929 2.16) (end 1.497071 2.16) (layer "F.SilkS") (width 0.12) (tstamp e94cfad5-35d1-4e83-babb-70f6ded30533))
  (fp_line (start 1.042929 2.92) (end 1.497071 2.92) (layer "F.SilkS") (width 0.12) (tstamp ea78fb0e-cc4c-4b6d-8740-7af4840c911b))
  (fp_line (start 12.64 33.4) (end 6.64 33.4) (layer "F.SilkS") (width 0.12) (tstamp eb2d8dd2-608c-4820-9882-886cc13e26dd))
  (fp_line (start 6.64 27.56) (end 12.64 27.56) (layer "F.SilkS") (width 0.12) (tstamp ebdfec10-a219-4958-8d1a-2f7e2912cbbe))
  (fp_line (start 6.64 30.1) (end 12.64 30.1) (layer "F.SilkS") (width 0.12) (tstamp ec339d30-9bca-494c-8e2c-37c11287828f))
  (fp_line (start 12.64 23.24) (end 6.64 23.24) (layer "F.SilkS") (width 0.12) (tstamp ed31bf84-3938-4069-a40c-9e4ba8f20125))
  (fp_line (start 12.64 4.7) (end 12.64 5.46) (layer "F.SilkS") (width 0.12) (tstamp ed854cc3-829e-4793-b349-4574ca5a3b7d))
  (fp_line (start 1.11 0.38) (end 1.497071 0.38) (layer "F.SilkS") (width 0.12) (tstamp ee36e36d-9170-4e22-be9a-119a8e55b5c3))
  (fp_line (start 12.64 17.4) (end 12.64 18.16) (layer "F.SilkS") (width 0.12) (tstamp ef229b62-1e75-4168-9218-ae0e24996df2))
  (fp_line (start 3.582929 37.72) (end 3.98 37.72) (layer "F.SilkS") (width 0.12) (tstamp f2f8a58b-626f-4a2c-9807-e96f24988bd4))
  (fp_line (start 1.042929 12.32) (end 1.497071 12.32) (layer "F.SilkS") (width 0.12) (tstamp f49c6f53-55ff-488e-a1a5-4c7993cf56e0))
  (fp_line (start 12.64 48.64) (end 6.64 48.64) (layer "F.SilkS") (width 0.12) (tstamp f605944e-94be-482e-9f42-e3d9b5b6bc2f))
  (fp_line (start 6.64 35.18) (end 12.64 35.18) (layer "F.SilkS") (width 0.12) (tstamp f7114b12-bf8f-4446-aa15-adba9185ad81))
  (fp_line (start 3.98 6.35) (end 6.64 6.35) (layer "F.SilkS") (width 0.12) (tstamp f83e36f7-37fb-4d5b-bb60-226229f99575))
  (fp_line (start 12.64 35.18) (end 12.64 35.94) (layer "F.SilkS") (width 0.12) (tstamp f91785f4-f0ba-4bad-9177-9c74f5f3e514))
  (fp_line (start 1.042929 25.02) (end 1.497071 25.02) (layer "F.SilkS") (width 0.12) (tstamp fc8d21e8-4c82-46c2-949c-17a0a957dca0))
  (fp_line (start 12.64 30.1) (end 12.64 30.86) (layer "F.SilkS") (width 0.12) (tstamp fd2ad886-d4d9-467e-92d9-01be56c1a323))
  (fp_line (start 3.582929 42.8) (end 3.98 42.8) (layer "F.SilkS") (width 0.12) (tstamp ffdeeca9-3997-45a0-b7b5-1ab994d0286a))
  (fp_line (start -1.8 52.6) (end 13.1 52.6) (layer "F.CrtYd") (width 0.05) (tstamp 00a7d086-bf1c-4730-99b5-b02cd96ce3cb))
  (fp_line (start -1.8 -1.8) (end -1.8 52.6) (layer "F.CrtYd") (width 0.05) (tstamp 1583db75-0352-444f-a524-402d6bc66710))
  (fp_line (start 13.1 -1.8) (end -1.8 -1.8) (layer "F.CrtYd") (width 0.05) (tstamp b9a7f098-f6ed-4cf3-a042-1cc0632e4651))
  (fp_line (start 13.1 52.6) (end 13.1 -1.8) (layer "F.CrtYd") (width 0.05) (tstamp f4e92dc5-d99b-49d5-9ac3-cadd22c6ed38))
  (fp_line (start 6.58 13.02) (end 12.58 13.02) (layer "F.Fab") (width 0.1) (tstamp 01dc257a-3c16-4761-bed1-fee76e9ea550))
  (fp_line (start -0.32 -0.32) (end -0.32 0.32) (layer "F.Fab") (width 0.1) (tstamp 042c03da-f12f-42f4-94a1-9f6b27f4a1d6))
  (fp_line (start -0.32 25.08) (end -0.32 25.72) (layer "F.Fab") (width 0.1) (tstamp 05c0fc88-1b9f-483c-80bb-c1303295ffaf))
  (fp_line (start -0.32 35.24) (end -0.32 35.88) (layer "F.Fab") (width 0.1) (tstamp 0785c3be-f5c0-4f92-b456-3b9a4c6ec705))
  (fp_line (start 6.58 5.4) (end 12.58 5.4) (layer "F.Fab") (width 0.1) (tstamp 08cd61ca-4666-4224-a580-f4a557afe263))
  (fp_line (start 6.58 38.42) (end 12.58 38.42) (layer "F.Fab") (width 0.1) (tstamp 0901ff85-f24f-4e90-ad26-b3ae870bd2ba))
  (fp_line (start -0.32 37.78) (end 4.04 37.78) (layer "F.Fab") (width 0.1) (tstamp 0c0d8068-d4c5-44d6-b886-825c9b6b3161))
  (fp_line (start 6.58 22.54) (end 12.58 22.54) (layer "F.Fab") (width 0.1) (tstamp 0d8fd6f7-f116-44a5-bed4-eef7b32dea7b))
  (fp_line (start 12.58 9.84) (end 12.58 10.48) (layer "F.Fab") (width 0.1) (tstamp 0f1eed4e-d2e9-4c6f-9a2f-254c76d6f2cc))
  (fp_line (start -0.32 5.4) (end 4.04 5.4) (layer "F.Fab") (width 0.1) (tstamp 0fab5290-2d45-4aa8-9762-9d7defc4d93c))
  (fp_line (start -0.32 14.92) (end 4.04 14.92) (layer "F.Fab") (width 0.1) (tstamp 12c420a8-04f7-46ad-a204-8032a9cc83f6))
  (fp_line (start -0.32 12.38) (end -0.32 13.02) (layer "F.Fab") (width 0.1) (tstamp 178cddb8-c3b5-4fee-97a2-282d57949778))
  (fp_line (start 6.58 7.94) (end 12.58 7.94) (layer "F.Fab") (width 0.1) (tstamp 17ec3ebe-2c65-4840-b49e-58720544791f))
  (fp_line (start 6.58 28.26) (end 12.58 28.26) (layer "F.Fab") (width 0.1) (tstamp 1c615819-3365-42bc-bb63-55dfe2c3188e))
  (fp_line (start -0.32 17.46) (end 4.04 17.46) (layer "F.Fab") (width 0.1) (tstamp 20f48a74-16f0-4beb-9fa4-758923d8b738))
  (fp_line (start -0.32 14.92) (end -0.32 15.56) (layer "F.Fab") (width 0.1) (tstamp 212c3ae4-d4f2-47a0-b77a-bd579c17c8be))
  (fp_line (start -0.32 15.56) (end 4.04 15.56) (layer "F.Fab") (width 0.1) (tstamp 2345d13f-d40c-4e0b-8b80-f81bfdc2ccf0))
  (fp_line (start -0.32 4.76) (end -0.32 5.4) (layer "F.Fab") (width 0.1) (tstamp 239ecdd4-f37a-4cc7-a771-1f98adefc29c))
  (fp_line (start -0.32 46.04) (end 4.04 46.04) (layer "F.Fab") (width 0.1) (tstamp 24c167d8-1a32-40a2-8204-3951370917a9))
  (fp_line (start -0.32 33.34) (end 4.04 33.34) (layer "F.Fab") (width 0.1) (tstamp 2595e9d2-e761-453d-8267-0b14aed26e29))
  (fp_line (start 4.04 52.07) (end 4.04 -0.635) (layer "F.Fab") (width 0.1) (tstamp 269c881a-54e0-4563-8044-7c6dae151a43))
  (fp_line (start 6.58 40.32) (end 12.58 40.32) (layer "F.Fab") (width 0.1) (tstamp 3100d1c9-f509-402d-9520-af931f282dde))
  (fp_line (start 6.58 46.04) (end 12.58 46.04) (layer "F.Fab") (width 0.1) (tstamp 31c1837c-2845-4e9e-8be0-630cdb8a503e))
  (fp_line (start 12.58 32.7) (end 12.58 33.34) (layer "F.Fab") (width 0.1) (tstamp 31ee9deb-03fb-4d2d-a2ae-ef090c4b944c))
  (fp_line (start -0.32 20) (end -0.32 20.64) (layer "F.Fab") (width 0.1) (tstamp 38a38b53-1ee9-4278-9199-b4beaf599b29))
  (fp_line (start -0.32 50.48) (end 4.04 50.48) (layer "F.Fab") (width 0.1) (tstamp 39d8363c-84f5-4f02-a0a0-4a0a518832c0))
  (fp_line (start -0.32 13.02) (end 4.04 13.02) (layer "F.Fab") (width 0.1) (tstamp 3fb99d85-bda9-461e-80a2-181f28d0e47e))
  (fp_line (start 6.58 40.96) (end 12.58 40.96) (layer "F.Fab") (width 0.1) (tstamp 437711a7-2325-4cc1-b709-d94ca80914a8))
  (fp_line (start -0.32 2.22) (end 4.04 2.22) (layer "F.Fab") (width 0.1) (tstamp 4396e87a-fb8f-4d6e-8f04-a1cc835ff87c))
  (fp_line (start 6.58 7.3) (end 12.58 7.3) (layer "F.Fab") (width 0.1) (tstamp 46fa5d52-c2a3-436b-908c-05680f3c6e9f))
  (fp_line (start 6.58 -1.27) (end 6.58 52.07) (layer "F.Fab") (width 0.1) (tstamp 4965f7e0-6c0e-47df-b4f5-c08996223804))
  (fp_line (start -0.32 51.12) (end 4.04 51.12) (layer "F.Fab") (width 0.1) (tstamp 4b933463-4afb-4cd2-bce5-33826e190841))
  (fp_line (start -0.32 45.4) (end 4.04 45.4) (layer "F.Fab") (width 0.1) (tstamp 4c38d6a8-0499-46c7-9d5e-cd07281f8b6e))
  (fp_line (start 6.58 47.94) (end 12.58 47.94) (layer "F.Fab") (width 0.1) (tstamp 562a5d9e-3c60-478f-8f7d-05c6184bebf5))
  (fp_line (start -0.32 22.54) (end 4.04 22.54) (layer "F.Fab") (width 0.1) (tstamp 56441687-5a0f-4a02-be66-00c5c6a26fd5))
  (fp_line (start -0.32 27.62) (end -0.32 28.26) (layer "F.Fab") (width 0.1) (tstamp 56b1d598-63b9-4343-b6a2-4bbf9ce6e6d4))
  (fp_line (start -0.32 40.96) (end 4.04 40.96) (layer "F.Fab") (width 0.1) (tstamp 56cb3141-3e17-490c-8d4c-d59b26a36982))
  (fp_line (start -0.32 32.7) (end 4.04 32.7) (layer "F.Fab") (width 0.1) (tstamp 59f7433a-1f94-4116-b854-1b0fe9c9cbb8))
  (fp_line (start 6.58 2.86) (end 12.58 2.86) (layer "F.Fab") (width 0.1) (tstamp 5bc6bb4f-8fb1-4555-86dc-c382fb0afb0c))
  (fp_line (start -0.32 32.7) (end -0.32 33.34) (layer "F.Fab") (width 0.1) (tstamp 5c533f64-11bc-4fe0-b4b9-3a178252d91e))
  (fp_line (start 4.675 -1.27) (end 6.58 -1.27) (layer "F.Fab") (width 0.1) (tstamp 5d772fe6-68a8-43f4-ba1a-8369e5051ca4))
  (fp_line (start 6.58 20.64) (end 12.58 20.64) (layer "F.Fab") (width 0.1) (tstamp 5e986a12-d7d9-4e5f-9a9b-d1b71e7c3ade))
  (fp_line (start -0.32 20) (end 4.04 20) (layer "F.Fab") (width 0.1) (tstamp 5ffb443c-b8c9-4269-8b9a-43d63195ba80))
  (fp_line (start 12.58 2.22) (end 12.58 2.86) (layer "F.Fab") (width 0.1) (tstamp 64bec3a7-2e34-441b-9daa-534b64f7063f))
  (fp_line (start 6.58 12.38) (end 12.58 12.38) (layer "F.Fab") (width 0.1) (tstamp 64df1050-6b6e-4b7a-a928-18ceab1c940e))
  (fp_line (start 6.58 33.34) (end 12.58 33.34) (layer "F.Fab") (width 0.1) (tstamp 65979719-e0db-453a-b894-c6a42f760994))
  (fp_line (start 6.58 -0.32) (end 12.58 -0.32) (layer "F.Fab") (width 0.1) (tstamp 67c4a84f-7e8a-4511-b04d-6e2c0643ac70))
  (fp_line (start -0.32 12.38) (end 4.04 12.38) (layer "F.Fab") (width 0.1) (tstamp 6ec281db-8135-433d-8377-868c4d1242ec))
  (fp_line (start -0.32 42.86) (end -0.32 43.5) (layer "F.Fab") (width 0.1) (tstamp 6ef3646b-993f-4735-887a-38235976127b))
  (fp_line (start 4.04 -0.635) (end 4.675 -1.27) (layer "F.Fab") (width 0.1) (tstamp 727707c8-fb2c-40e3-aeba-a6e197bc7600))
  (fp_line (start -0.32 40.32) (end 4.04 40.32) (layer "F.Fab") (width 0.1) (tstamp 74b982ff-1303-4e3d-b63e-49e93076e768))
  (fp_line (start -0.32 4.76) (end 4.04 4.76) (layer "F.Fab") (width 0.1) (tstamp 75e1ebe4-77e7-4c7c-a579-640be9d46b60))
  (fp_line (start 6.58 52.07) (end 4.04 52.07) (layer "F.Fab") (width 0.1) (tstamp 76df7375-b010-47c2-967d-876e43e11d64))
  (fp_line (start 6.58 10.48) (end 12.58 10.48) (layer "F.Fab") (width 0.1) (tstamp 7959b355-e8a9-4b96-be92-90f102d66769))
  (fp_line (start 12.58 42.86) (end 12.58 43.5) (layer "F.Fab") (width 0.1) (tstamp 79e7aaf9-163a-4c4e-b55b-cc3db789c344))
  (fp_line (start -0.32 42.86) (end 4.04 42.86) (layer "F.Fab") (width 0.1) (tstamp 7ab81fd5-f535-4815-9ff4-ca497825776d))
  (fp_line (start -0.32 47.94) (end 4.04 47.94) (layer "F.Fab") (width 0.1) (tstamp 7b826005-3783-4440-9ff6-dc247da127c2))
  (fp_line (start -0.32 23.18) (end 4.04 23.18) (layer "F.Fab") (width 0.1) (tstamp 81fe2748-efa7-45c2-b191-4cf168cf9301))
  (fp_line (start -0.32 2.86) (end 4.04 2.86) (layer "F.Fab") (width 0.1) (tstamp 84f106bd-9baa-4156-a842-1763e3941946))
  (fp_line (start -0.32 45.4) (end -0.32 46.04) (layer "F.Fab") (width 0.1) (tstamp 85ee3e53-9e3b-46e5-9771-8f16cb832ee7))
  (fp_line (start -0.32 17.46) (end -0.32 18.1) (layer "F.Fab") (width 0.1) (tstamp 87df8dd1-5ff0-44f2-b492-df2ea686b009))
  (fp_line (start -0.32 43.5) (end 4.04 43.5) (layer "F.Fab") (width 0.1) (tstamp 8827ac99-22f1-48c9-8522-07389d333af1))
  (fp_line (start 12.58 45.4) (end 12.58 46.04) (layer "F.Fab") (width 0.1) (tstamp 896ca9bf-ea78-47e1-b174-473a104a5ce9))
  (fp_line (start -0.32 30.16) (end 4.04 30.16) (layer "F.Fab") (width 0.1) (tstamp 8bcb82e3-f06a-4f98-ac73-053de181f316))
  (fp_line (start -0.32 35.88) (end 4.04 35.88) (layer "F.Fab") (width 0.1) (tstamp 8bf815cb-4ecc-4e77-83bb-ac682df5bf38))
  (fp_line (start 6.58 2.22) (end 12.58 2.22) (layer "F.Fab") (width 0.1) (tstamp 8e3766b8-88cc-491d-9b73-a8498989fec3))
  (fp_line (start 12.58 37.78) (end 12.58 38.42) (layer "F.Fab") (width 0.1) (tstamp 91816964-b870-4970-aae8-64b958400608))
  (fp_line (start 12.58 -0.32) (end 12.58 0.32) (layer "F.Fab") (width 0.1) (tstamp 930fdf33-01b0-482c-9c04-93612e29db74))
  (fp_line (start 12.58 20) (end 12.58 20.64) (layer "F.Fab") (width 0.1) (tstamp 9313f412-bfa0-4ee2-8422-d432b4f1503f))
  (fp_line (start -0.32 -0.32) (end 4.04 -0.32) (layer "F.Fab") (width 0.1) (tstamp 94641027-e251-4916-a1db-2e9cce6235b3))
  (fp_line (start -0.32 28.26) (end 4.04 28.26) (layer "F.Fab") (width 0.1) (tstamp 9781a556-1312-4482-99b1-418fce66810d))
  (fp_line (start -0.32 40.32) (end -0.32 40.96) (layer "F.Fab") (width 0.1) (tstamp 9d316c61-8e80-4ea8-8464-8f07137e6b7a))
  (fp_line (start 6.58 50.48) (end 12.58 50.48) (layer "F.Fab") (width 0.1) (tstamp 9ee27252-9de2-43bb-bbee-6fb931447cf6))
  (fp_line (start -0.32 35.24) (end 4.04 35.24) (layer "F.Fab") (width 0.1) (tstamp 9f7443bf-b46f-4b0b-9a85-2d0638eb5faa))
  (fp_line (start 6.58 23.18) (end 12.58 23.18) (layer "F.Fab") (width 0.1) (tstamp a14dfb4d-fe76-433c-b25b-7c92fd3f3b8f))
  (fp_line (start -0.32 18.1) (end 4.04 18.1) (layer "F.Fab") (width 0.1) (tstamp a46b8863-108c-4fc2-827c-c525120d229e))
  (fp_line (start -0.32 27.62) (end 4.04 27.62) (layer "F.Fab") (width 0.1) (tstamp a59446ab-bd10-4390-bc2f-5eda610a9170))
  (fp_line (start -0.32 37.78) (end -0.32 38.42) (layer "F.Fab") (width 0.1) (tstamp a7d5307c-dd3b-490c-9c33-f27779051975))
  (fp_line (start -0.32 0.32) (end 4.04 0.32) (layer "F.Fab") (width 0.1) (tstamp a8834797-e459-421c-8278-9f11620e92ab))
  (fp_line (start -0.32 25.72) (end 4.04 25.72) (layer "F.Fab") (width 0.1) (tstamp ada77d40-83a7-42d1-8ffe-9c8183d250d5))
  (fp_line (start 12.58 22.54) (end 12.58 23.18) (layer "F.Fab") (width 0.1) (tstamp adf1697c-a8cc-416d-9421-bad444a397de))
  (fp_line (start 6.58 42.86) (end 12.58 42.86) (layer "F.Fab") (width 0.1) (tstamp b00bf117-16db-4e20-8197-10f3827dd264))
  (fp_line (start -0.32 9.84) (end -0.32 10.48) (layer "F.Fab") (width 0.1) (tstamp b12be37b-0d95-43fb-9487-924a1ee91292))
  (fp_line (start 6.58 45.4) (end 12.58 45.4) (layer "F.Fab") (width 0.1) (tstamp b208102d-17cd-440b-b45a-21b703948fd4))
  (fp_line (start -0.32 20.64) (end 4.04 20.64) (layer "F.Fab") (width 0.1) (tstamp b30c1512-302f-4039-9a36-32ed35905b2f))
  (fp_line (start -0.32 10.48) (end 4.04 10.48) (layer "F.Fab") (width 0.1) (tstamp b4040d15-e5a8-42d8-8e8c-edb74ee807af))
  (fp_line (start -0.32 7.3) (end 4.04 7.3) (layer "F.Fab") (width 0.1) (tstamp b40e8aad-9420-415b-87e8-0d838e7100d1))
  (fp_line (start 12.58 4.76) (end 12.58 5.4) (layer "F.Fab") (width 0.1) (tstamp b5d18fe3-af7e-4b99-89bc-2ca7c42b5adb))
  (fp_line (start 6.58 9.84) (end 12.58 9.84) (layer "F.Fab") (width 0.1) (tstamp b6dadb15-20fa-4488-931b-68c90b2f894a))
  (fp_line (start 6.58 4.76) (end 12.58 4.76) (layer "F.Fab") (width 0.1) (tstamp b7bd4e49-5da5-4ded-a1cc-97621edcd57e))
  (fp_line (start 6.58 35.88) (end 12.58 35.88) (layer "F.Fab") (width 0.1) (tstamp ba193edf-73e3-40c3-b522-ff09f42ee0b3))
  (fp_line (start 6.58 43.5) (end 12.58 43.5) (layer "F.Fab") (width 0.1) (tstamp be6d116c-8d26-4835-b08c-01cacfdd542a))
  (fp_line (start 12.58 47.94) (end 12.58 48.58) (layer "F.Fab") (width 0.1) (tstamp c32650d6-3b2b-4135-a29d-100f7409f302))
  (fp_line (start -0.32 30.16) (end -0.32 30.8) (layer "F.Fab") (width 0.1) (tstamp c43f432a-11c4-4444-a510-243d263280d6))
  (fp_line (start 12.58 12.38) (end 12.58 13.02) (layer "F.Fab") (width 0.1) (tstamp c44161b4-84dd-448f-a307-86cd9236014c))
  (fp_line (start 6.58 25.72) (end 12.58 25.72) (layer "F.Fab") (width 0.1) (tstamp c7628521-cada-40c3-a409-303c75c4cde0))
  (fp_line (start 6.58 18.1) (end 12.58 18.1) (layer "F.Fab") (width 0.1) (tstamp c88d27be-b488-407d-bee7-e969b70c6159))
  (fp_line (start 6.58 14.92) (end 12.58 14.92) (layer "F.Fab") (width 0.1) (tstamp c98efc21-45d5-4d7e-a4a8-ee4407a81466))
  (fp_line (start 6.58 20) (end 12.58 20) (layer "F.Fab") (width 0.1) (tstamp cd6c931a-cf12-40bb-b345-2565a33c8c15))
  (fp_line (start -0.32 38.42) (end 4.04 38.42) (layer "F.Fab") (width 0.1) (tstamp cf47c717-b743-461d-a740-71977a4ce349))
  (fp_line (start 12.58 50.48) (end 12.58 51.12) (layer "F.Fab") (width 0.1) (tstamp d03ebcc8-1333-49ce-b404-4aef1d9c8b96))
  (fp_line (start 6.58 51.12) (end 12.58 51.12) (layer "F.Fab") (width 0.1) (tstamp d22ebd11-71fb-4dff-86c3-5101f531a450))
  (fp_line (start 6.58 32.7) (end 12.58 32.7) (layer "F.Fab") (width 0.1) (tstamp d2b783a4-f470-4471-a291-72ea8d2e8ea2))
  (fp_line (start -0.32 2.22) (end -0.32 2.86) (layer "F.Fab") (width 0.1) (tstamp d77d6e0b-6ebe-4184-a70b-3121806d4132))
  (fp_line (start -0.32 47.94) (end -0.32 48.58) (layer "F.Fab") (width 0.1) (tstamp dad1c3e9-1190-479a-9969-d697b48f8ca8))
  (fp_line (start 6.58 30.16) (end 12.58 30.16) (layer "F.Fab") (width 0.1) (tstamp dcbafc60-7d38-4f5c-a001-dcde9c695e0d))
  (fp_line (start 6.58 35.24) (end 12.58 35.24) (layer "F.Fab") (width 0.1) (tstamp df38de53-b301-48e6-a62b-79467deb77fd))
  (fp_line (start 6.58 27.62) (end 12.58 27.62) (layer "F.Fab") (width 0.1) (tstamp e0d53f42-3aae-43a9-adf6-2de465bf3f34))
  (fp_line (start 12.58 30.16) (end 12.58 30.8) (layer "F.Fab") (width 0.1) (tstamp e2c0177f-0424-481d-8654-a2f6af3168ed))
  (fp_line (start 6.58 15.56) (end 12.58 15.56) (layer "F.Fab") (width 0.1) (tstamp e2c35355-d5d4-49ca-8da2-60f06cdd787b))
  (fp_line (start -0.32 9.84) (end 4.04 9.84) (layer "F.Fab") (width 0.1) (tstamp e417a672-1125-48b6-ac14-0b9622cea13b))
  (fp_line (start -0.32 7.3) (end -0.32 7.94) (layer "F.Fab") (width 0.1) (tstamp e586af0c-c453-4e9a-9da2-d8273c34e7b3))
  (fp_line (start 12.58 14.92) (end 12.58 15.56) (layer "F.Fab") (width 0.1) (tstamp e5895fc4-37a1-41fb-aa88-917d92890584))
  (fp_line (start 6.58 37.78) (end 12.58 37.78) (layer "F.Fab") (width 0.1) (tstamp e61fc99c-1d2a-4b10-8664-bcf079429577))
  (fp_line (start 6.58 30.8) (end 12.58 30.8) (layer "F.Fab") (width 0.1) (tstamp e644b790-4269-426f-9ff8-4d618cba41d2))
  (fp_line (start 6.58 0.32) (end 12.58 0.32) (layer "F.Fab") (width 0.1) (tstamp e93673d4-3784-4f0f-bef2-61517bdc5703))
  (fp_line (start -0.32 22.54) (end -0.32 23.18) (layer "F.Fab") (width 0.1) (tstamp e98a4b86-bbc2-4987-ba57-bac0030e6d0f))
  (fp_line (start 12.58 7.3) (end 12.58 7.94) (layer "F.Fab") (width 0.1) (tstamp ebd69957-f961-4116-991d-32ffb37675e5))
  (fp_line (start 12.58 35.24) (end 12.58 35.88) (layer "F.Fab") (width 0.1) (tstamp ee7bcdfa-e60e-41ec-82ab-dcbb14011e7c))
  (fp_line (start 6.58 25.08) (end 12.58 25.08) (layer "F.Fab") (width 0.1) (tstamp ef3aeb61-a3d1-49a3-a777-93767f1d2eae))
  (fp_line (start -0.32 48.58) (end 4.04 48.58) (layer "F.Fab") (width 0.1) (tstamp f0637954-319d-48f9-b59d-a23e85f7a9f8))
  (fp_line (start -0.32 25.08) (end 4.04 25.08) (layer "F.Fab") (width 0.1) (tstamp f0d68beb-3258-4573-9fb9-574a2978fda5))
  (fp_line (start 6.58 17.46) (end 12.58 17.46) (layer "F.Fab") (width 0.1) (tstamp f2b327da-1bf3-4d20-a627-dd8e4bacf578))
  (fp_line (start -0.32 30.8) (end 4.04 30.8) (layer "F.Fab") (width 0.1) (tstamp f3ca18ea-0f5c-499c-a02b-38c3212ef4c8))
  (fp_line (start -0.32 50.48) (end -0.32 51.12) (layer "F.Fab") (width 0.1) (tstamp f523103e-ddb1-4c22-994a-f08983637096))
  (fp_line (start 6.58 48.58) (end 12.58 48.58) (layer "F.Fab") (width 0.1) (tstamp f73c4cf6-b75e-4368-a621-8a5deccb49fd))
  (fp_line (start 12.58 25.08) (end 12.58 25.72) (layer "F.Fab") (width 0.1) (tstamp fb728f3b-a576-432b-a7e8-3e6f530b02d0))
  (fp_line (start 12.58 27.62) (end 12.58 28.26) (layer "F.Fab") (width 0.1) (tstamp fbac0d8d-9b5d-4a75-961a-6cfa7a2893f3))
  (fp_line (start -0.32 7.94) (end 4.04 7.94) (layer "F.Fab") (width 0.1) (tstamp fc861857-6d25-4fbc-8eea-eca4feb3da7a))
  (fp_line (start 12.58 17.46) (end 12.58 18.1) (layer "F.Fab") (width 0.1) (tstamp ff4da0b6-2cf2-478f-90a1-c0328b36b13d))
  (fp_line (start 12.58 40.32) (end 12.58 40.96) (layer "F.Fab") (width 0.1) (tstamp ffee6ae2-fa50-43e0-b235-ce93a2a38c12))
  (pad "1" thru_hole rect (at 0 0) (size 2.1 2.1) (drill 1) (layers *.Cu *.Mask) (tstamp b710a957-51a9-4c15-9c3e-c63b058b190b))
  (pad "2" thru_hole oval (at 2.54 0) (size 2.1 2.1) (drill 1) (layers *.Cu *.Mask) (tstamp 380cc04e-5f89-4288-a09a-284d14b621c3))
  (pad "3" thru_hole oval (at 0 2.54) (size 2.1 2.1) (drill 1) (layers *.Cu *.Mask) (tstamp 4c530f0e-e8db-4179-a4e4-da6291e8ae3e))
  (pad "4" thru_hole oval (at 2.54 2.54) (size 2.1 2.1) (drill 1) (layers *.Cu *.Mask) (tstamp 3063e884-d843-4591-8d94-23931cef4521))
  (pad "5" thru_hole oval (at 0 5.08) (size 2.1 2.1) (drill 1) (layers *.Cu *.Mask) (tstamp 9fb69537-2315-41f4-be2f-a8e09716002c))
  (pad "6" thru_hole oval (at 2.54 5.08) (size 2.1 2.1) (drill 1) (layers *.Cu *.Mask) (tstamp 748dc9c1-cb4d-49a0-bdfa-948cb58c31cb))
  (pad "7" thru_hole oval (at 0 7.62) (size 2.1 2.1) (drill 1) (layers *.Cu *.Mask) (tstamp 6cfd0d95-5304-427a-981b-583cfaa62ecf))
  (pad "8" thru_hole oval (at 2.54 7.62) (size 2.1 2.1) (drill 1) (layers *.Cu *.Mask) (tstamp b753de78-f47f-4b1b-96c7-45fc599b088f))
  (pad "9" thru_hole oval (at 0 10.16) (size 2.1 2.1) (drill 1) (layers *.Cu *.Mask) (tstamp a04fec96-df10-4dbf-ac36-29f94dbd953f))
  (pad "10" thru_hole oval (at 2.54 10.16) (size 2.1 2.1) (drill 1) (layers *.Cu *.Mask) (tstamp ec55a9f6-26fb-409c-ac98-db536a02df98))
  (pad "11" thru_hole oval (at 0 12.7) (size 2.1 2.1) (drill 1) (layers *.Cu *.Mask) (tstamp 98d2e629-70c8-45b6-b73a-138ae1d881c3))
  (pad "12" thru_hole oval (at 2.54 12.7) (size 2.1 2.1) (drill 1) (layers *.Cu *.Mask) (tstamp 92436b46-962e-48d9-b01c-40d28338f304))
  (pad "13" thru_hole oval (at 0 15.24) (size 2.1 2.1) (drill 1) (layers *.Cu *.Mask) (tstamp fbd2ccd3-16e5-4bd5-a2af-9a6a0eae9373))
  (pad "14" thru_hole oval (at 2.54 15.24) (size 2.1 2.1) (drill 1) (layers *.Cu *.Mask) (tstamp 69a9389f-a8c3-4de8-a069-e2de77e20eed))
  (pad "15" thru_hole oval (at 0 17.78) (size 2.1 2.1) (drill 1) (layers *.Cu *.Mask) (tstamp 52f87cfb-e2cb-402a-a5a0-c074c68b8e68))
  (pad "16" thru_hole oval (at 2.54 17.78) (size 2.1 2.1) (drill 1) (layers *.Cu *.Mask) (tstamp 0f375eb9-ec00-4228-8473-1580b90512bf))
  (pad "17" thru_hole oval (at 0 20.32) (size 2.1 2.1) (drill 1) (layers *.Cu *.Mask) (tstamp 2481aad8-757b-49de-8e17-3f064bc4a867))
  (pad "18" thru_hole oval (at 2.54 20.32) (size 2.1 2.1) (drill 1) (layers *.Cu *.Mask) (tstamp 469845cd-b130-4c37-b1be-6d380e72cb71))
  (pad "19" thru_hole oval (at 0 22.86) (size 2.1 2.1) (drill 1) (layers *.Cu *.Mask) (tstamp 4f24360a-19fd-4f30-8e47-ab6d8a01b0c0))
  (pad "20" thru_hole oval (at 2.54 22.86) (size 2.1 2.1) (drill 1) (layers *.Cu *.Mask) (tstamp eadfd70e-bd31-4a21-a822-9fa424ffafb3))
  (pad "21" thru_hole oval (at 0 25.4) (size 2.1 2.1) (drill 1) (layers *.Cu *.Mask) (tstamp e42c4203-d6b8-40a8-8da8-248b6f121991))
  (pad "22" thru_hole oval (at 2.54 25.4) (size 2.1 2.1) (drill 1) (layers *.Cu *.Mask) (tstamp ce2f7379-75f1-4746-a6dd-e91b52bf38b3))
  (pad "23" thru_hole oval (at 0 27.94) (size 2.1 2.1) (drill 1) (layers *.Cu *.Mask) (tstamp 8dedf33f-131f-481e-8e93-9a4c8ab8b2ba))
  (pad "24" thru_hole oval (at 2.54 27.94) (size 2.1 2.1) (drill 1) (layers *.Cu *.Mask) (tstamp e9bb49db-96d9-49fe-9aec-2ae48ede082e))
  (pad "25" thru_hole oval (at 0 30.48) (size 2.1 2.1) (drill 1) (layers *.Cu *.Mask) (tstamp 6d9b19f4-1d5c-454f-b58c-79a35a33669f))
  (pad "26" thru_hole oval (at 2.54 30.48) (size 2.1 2.1) (drill 1) (layers *.Cu *.Mask) (tstamp d99393bf-2345-4725-9bd4-b6298d83e2b0))
  (pad "27" thru_hole oval (at 0 33.02) (size 2.1 2.1) (drill 1) (layers *.Cu *.Mask) (tstamp ddf7938e-1c29-452b-9979-76cb6dffad94))
  (pad "28" thru_hole oval (at 2.54 33.02) (size 2.1 2.1) (drill 1) (layers *.Cu *.Mask) (tstamp 8021835d-dd71-40b8-86d6-8dde083d5c51))
  (pad "29" thru_hole oval (at 0 35.56) (size 2.1 2.1) (drill 1) (layers *.Cu *.Mask) (tstamp 934ef80c-6081-4b0b-9ea0-68b24ecc939d))
  (pad "30" thru_hole oval (at 2.54 35.56) (size 2.1 2.1) (drill 1) (layers *.Cu *.Mask) (tstamp 734607f0-3e4b-4b1d-8034-c1b20fdb17a3))
  (pad "31" thru_hole oval (at 0 38.1) (size 2.1 2.1) (drill 1) (layers *.Cu *.Mask) (tstamp 5bb50fde-5a9b-4055-afb7-e80526ee0ee5))
  (pad "32" thru_hole oval (at 2.54 38.1) (size 2.1 2.1) (drill 1) (layers *.Cu *.Mask) (tstamp b5394898-03b3-4c48-9427-764e7ebd7cad))
  (pad "33" thru_hole oval (at 0 40.64) (size 2.1 2.1) (drill 1) (layers *.Cu *.Mask) (tstamp 8a0d6cec-94c4-469b-9c96-1a6c9c15d70a))
  (pad "34" thru_hole oval (at 2.54 40.64) (size 2.1 2.1) (drill 1) (layers *.Cu *.Mask) (tstamp dcd1c9b1-83ca-4e35-9fd0-81cc3133946f))
  (pad "35" thru_hole oval (at 0 43.18) (size 2.1 2.1) (drill 1) (layers *.Cu *.Mask) (tstamp 88934d83-47ab-4d60-bc60-c2106cf3acaa))
  (pad "36" thru_hole oval (at 2.54 43.18) (size 2.1 2.1) (drill 1) (layers *.Cu *.Mask) (tstamp 702245c1-4031-4442-ad78-7ffa880ff730))
  (pad "37" thru_hole oval (at 0 45.72) (size 2.1 2.1) (drill 1) (layers *.Cu *.Mask) (tstamp 3bf77280-6fe6-4660-93e8-0b0325972291))
  (pad "38" thru_hole oval (at 2.54 45.72) (size 2.1 2.1) (drill 1) (layers *.Cu *.Mask) (tstamp 3a7a83f8-83af-403e-a243-98db6db09e8f))
  (pad "39" thru_hole oval (at 0 48.26) (size 2.1 2.1) (drill 1) (layers *.Cu *.Mask) (tstamp d1fc5ca8-f707-43b3-8d21-788ea16a687c))
  (pad "40" thru_hole oval (at 2.54 48.26) (size 2.1 2.1) (drill 1) (layers *.Cu *.Mask) (tstamp 4606f13f-1aee-4dad-9eba-f12904e92fe6))
  (pad "41" thru_hole oval (at 0 50.8) (size 2.1 2.1) (drill 1) (layers *.Cu *.Mask) (tstamp 5f53a789-7123-4067-823c-823ea117bb8a))
  (pad "42" thru_hole oval (at 2.54 50.8) (size 2.1 2.1) (drill 1) (layers *.Cu *.Mask) (tstamp ff2a44d4-aad0-477a-a26a-c7ecd549c028))
  (model "${KICAD6_3DMODEL_DIR}/Connector_PinHeader_2.54mm.3dshapes/PinHeader_2x21_P2.54mm_Horizontal.wrl"
    (offset (xyz 0 0 0))
    (scale (xyz 1 1 1))
    (rotate (xyz 0 0 0))
  )
)
