(footprint "PinHeader_1x07_P2.54mm_Horizontal" (version 20211014) (generator pcbnew)
  (layer "F.Cu")
  (tedit 59FED5CB)
  (descr "Through hole angled pin header, 1x07, 2.54mm pitch, 6mm pin length, single row")
  (tags "Through hole angled pin header THT 1x07 2.54mm single row")
  (attr through_hole)
  (fp_text reference "REF**" (at 4.385 -2.27) (layer "F.SilkS")
    (effects (font (size 1 1) (thickness 0.15)))
    (tstamp 2472ff72-54af-42a6-8548-ec66bd807283)
  )
  (fp_text value "PinHeader_1x07_P2.54mm_Horizontal" (at 4.385 17.51) (layer "F.Fab")
    (effects (font (size 1 1) (thickness 0.15)))
    (tstamp 70a4bc15-1a9c-46e2-b7ed-43bc3fc2af8d)
  )
  (fp_text user "${REFERENCE}" (at 2.77 7.62 90) (layer "F.Fab")
    (effects (font (size 1 1) (thickness 0.15)))
    (tstamp cc818973-a4d2-4b4d-be20-14b80bc33918)
  )
  (fp_line (start 4.1 -0.38) (end 10.1 -0.38) (layer "F.SilkS") (width 0.12) (tstamp 025db72b-f079-4f58-b036-cbf4288b0876))
  (fp_line (start 10.1 15.62) (end 4.1 15.62) (layer "F.SilkS") (width 0.12) (tstamp 0b4f1a5b-91c9-4c36-ba5c-49dbb0d98a66))
  (fp_line (start 4.1 0.04) (end 10.1 0.04) (layer "F.SilkS") (width 0.12) (tstamp 1edcb794-53c7-4164-aa00-bb8b1a093d15))
  (fp_line (start 4.1 -0.08) (end 10.1 -0.08) (layer "F.SilkS") (width 0.12) (tstamp 1ff3d82a-3d21-40a3-b314-69afc86fb08e))
  (fp_line (start 4.1 4.7) (end 10.1 4.7) (layer "F.SilkS") (width 0.12) (tstamp 209f9345-aeb5-4091-bdb6-372ad868a89e))
  (fp_line (start 1.042929 13.08) (end 1.44 13.08) (layer "F.SilkS") (width 0.12) (tstamp 22a05184-9405-4e1b-b748-166c5fbeff5c))
  (fp_line (start 4.1 14.86) (end 10.1 14.86) (layer "F.SilkS") (width 0.12) (tstamp 2576f574-09dc-49b3-a036-0490a02f2abe))
  (fp_line (start 4.1 7.24) (end 10.1 7.24) (layer "F.SilkS") (width 0.12) (tstamp 28e3b89d-7c61-4268-a329-241a6b083daf))
  (fp_line (start 1.042929 7.24) (end 1.44 7.24) (layer "F.SilkS") (width 0.12) (tstamp 3332f6e6-4529-4e9d-90b7-babcdfd1b825))
  (fp_line (start -1.27 0) (end -1.27 -1.27) (layer "F.SilkS") (width 0.12) (tstamp 40426a9b-37b5-41e8-a186-63aef08d3d8e))
  (fp_line (start 4.1 2.16) (end 10.1 2.16) (layer "F.SilkS") (width 0.12) (tstamp 497bcc1e-8977-4792-831f-d734f2b4e66d))
  (fp_line (start 1.042929 2.92) (end 1.44 2.92) (layer "F.SilkS") (width 0.12) (tstamp 4f93f66b-a1ad-4740-a206-c0748b3145db))
  (fp_line (start 1.042929 9.78) (end 1.44 9.78) (layer "F.SilkS") (width 0.12) (tstamp 4fffca7c-a29f-4859-9ea5-1a0660329885))
  (fp_line (start 10.1 9.78) (end 10.1 10.54) (layer "F.SilkS") (width 0.12) (tstamp 55aabb88-6404-4842-98d2-6dcb8b64ea74))
  (fp_line (start 1.44 8.89) (end 4.1 8.89) (layer "F.SilkS") (width 0.12) (tstamp 5962b747-bdac-4984-ab44-e382bc36323b))
  (fp_line (start 10.1 13.08) (end 4.1 13.08) (layer "F.SilkS") (width 0.12) (tstamp 59a633bb-6408-4268-becf-80aec5ed810b))
  (fp_line (start 10.1 4.7) (end 10.1 5.46) (layer "F.SilkS") (width 0.12) (tstamp 5d81a80f-de7d-49e0-bf64-16cce5907822))
  (fp_line (start 10.1 2.16) (end 10.1 2.92) (layer "F.SilkS") (width 0.12) (tstamp 5e55af6f-1157-447f-abad-30e643805ca3))
  (fp_line (start 1.44 13.97) (end 4.1 13.97) (layer "F.SilkS") (width 0.12) (tstamp 6a2020bf-2e5e-4213-a683-93597f8beb8c))
  (fp_line (start 4.1 9.78) (end 10.1 9.78) (layer "F.SilkS") (width 0.12) (tstamp 7572186b-81d5-43ed-906e-b52f0217f617))
  (fp_line (start -1.27 -1.27) (end 0 -1.27) (layer "F.SilkS") (width 0.12) (tstamp 79dce766-157d-4c7a-952f-f0c7cb10c2ca))
  (fp_line (start 10.1 10.54) (end 4.1 10.54) (layer "F.SilkS") (width 0.12) (tstamp 7ba573f7-b1be-421a-b55e-c9f9dc74133c))
  (fp_line (start 4.1 12.32) (end 10.1 12.32) (layer "F.SilkS") (width 0.12) (tstamp 7bc194cd-4af3-41ce-9663-489c0645cf3f))
  (fp_line (start 4.1 16.57) (end 4.1 -1.33) (layer "F.SilkS") (width 0.12) (tstamp 802581e0-934c-4a91-9269-ffcc491d020e))
  (fp_line (start 1.042929 15.62) (end 1.44 15.62) (layer "F.SilkS") (width 0.12) (tstamp 82c695f0-dc68-4e17-a010-6913b5dfc250))
  (fp_line (start 10.1 8) (end 4.1 8) (layer "F.SilkS") (width 0.12) (tstamp 8576c832-1bfc-4d10-b599-dfd8367211c4))
  (fp_line (start 4.1 -0.2) (end 10.1 -0.2) (layer "F.SilkS") (width 0.12) (tstamp 90670ef4-6d57-4229-b291-1f6b2ed7b1df))
  (fp_line (start 10.1 14.86) (end 10.1 15.62) (layer "F.SilkS") (width 0.12) (tstamp 91cde266-7629-47f4-bb6e-236711e517ba))
  (fp_line (start 1.042929 4.7) (end 1.44 4.7) (layer "F.SilkS") (width 0.12) (tstamp 98d10f7f-23a5-4551-a8fb-5390838ff679))
  (fp_line (start 1.042929 12.32) (end 1.44 12.32) (layer "F.SilkS") (width 0.12) (tstamp a3f2934e-6a5f-49c2-bfb4-fd5231c55cac))
  (fp_line (start 1.042929 8) (end 1.44 8) (layer "F.SilkS") (width 0.12) (tstamp a3fc8e2e-7d8f-4c6b-b7fe-3f007d0484d6))
  (fp_line (start 4.1 -1.33) (end 1.44 -1.33) (layer "F.SilkS") (width 0.12) (tstamp a414e06e-44ad-4e65-828e-5ab4d35ee0a7))
  (fp_line (start 10.1 12.32) (end 10.1 13.08) (layer "F.SilkS") (width 0.12) (tstamp a897e098-5311-4812-9a3b-7910cd007ece))
  (fp_line (start 10.1 0.38) (end 4.1 0.38) (layer "F.SilkS") (width 0.12) (tstamp af1fb8a3-05d8-467c-a7a0-e2defe663b2a))
  (fp_line (start 1.11 -0.38) (end 1.44 -0.38) (layer "F.SilkS") (width 0.12) (tstamp b3d2f196-b2c7-4082-b648-b6a9c5ff7e25))
  (fp_line (start 1.042929 10.54) (end 1.44 10.54) (layer "F.SilkS") (width 0.12) (tstamp b41e7e00-cbf4-4107-9c79-3921271191aa))
  (fp_line (start 4.1 0.28) (end 10.1 0.28) (layer "F.SilkS") (width 0.12) (tstamp bb2345bf-f2bf-48fd-9204-cef0c4b7ff46))
  (fp_line (start 1.44 -1.33) (end 1.44 16.57) (layer "F.SilkS") (width 0.12) (tstamp c3822885-3503-440f-b82d-ca5739a4ac9f))
  (fp_line (start 1.44 16.57) (end 4.1 16.57) (layer "F.SilkS") (width 0.12) (tstamp ca9cba95-b28d-4bc8-b10b-62c2f4657d8a))
  (fp_line (start 1.44 11.43) (end 4.1 11.43) (layer "F.SilkS") (width 0.12) (tstamp cb3b4810-4bf1-4da6-8690-33c427387735))
  (fp_line (start 4.1 0.16) (end 10.1 0.16) (layer "F.SilkS") (width 0.12) (tstamp cc0591bf-e8ce-45f2-a6b7-557193e8b9e5))
  (fp_line (start 1.44 3.81) (end 4.1 3.81) (layer "F.SilkS") (width 0.12) (tstamp d3c049fd-1100-41a7-92a3-a1078d33f861))
  (fp_line (start 10.1 2.92) (end 4.1 2.92) (layer "F.SilkS") (width 0.12) (tstamp d54e6be1-684b-4563-b17d-323b98fa7266))
  (fp_line (start 1.042929 5.46) (end 1.44 5.46) (layer "F.SilkS") (width 0.12) (tstamp d670dd41-b396-4270-b08b-dcdfe9b4ff1d))
  (fp_line (start 1.042929 2.16) (end 1.44 2.16) (layer "F.SilkS") (width 0.12) (tstamp db763ffa-00c4-4441-b296-6b1a45260d1f))
  (fp_line (start 10.1 5.46) (end 4.1 5.46) (layer "F.SilkS") (width 0.12) (tstamp ddea6f17-7487-4456-b254-4be9784ead03))
  (fp_line (start 1.042929 14.86) (end 1.44 14.86) (layer "F.SilkS") (width 0.12) (tstamp e5556211-b5d0-40c8-aa8f-edc855fded45))
  (fp_line (start 4.1 -0.32) (end 10.1 -0.32) (layer "F.SilkS") (width 0.12) (tstamp e99e12c8-3a4f-46fe-8f5f-3d5778b6f18a))
  (fp_line (start 10.1 -0.38) (end 10.1 0.38) (layer "F.SilkS") (width 0.12) (tstamp ea0692d5-e627-4bdb-a45e-ed2fd8a2f74d))
  (fp_line (start 1.11 0.38) (end 1.44 0.38) (layer "F.SilkS") (width 0.12) (tstamp eeca11c0-fb93-4b43-be8b-4ab0bbf8b470))
  (fp_line (start 10.1 7.24) (end 10.1 8) (layer "F.SilkS") (width 0.12) (tstamp f9c372f5-5502-48a6-b9e3-5e155ed36f98))
  (fp_line (start 1.44 6.35) (end 4.1 6.35) (layer "F.SilkS") (width 0.12) (tstamp fc74cca2-2a88-478b-9301-90a5f3bc13f5))
  (fp_line (start 1.44 1.27) (end 4.1 1.27) (layer "F.SilkS") (width 0.12) (tstamp ffb1c88e-d7d7-4d2b-a4ec-da8c086725e1))
  (fp_line (start -1.8 -1.8) (end -1.8 17.05) (layer "F.CrtYd") (width 0.05) (tstamp a5e811c8-917f-4765-ab1e-e13d85267fa2))
  (fp_line (start 10.55 -1.8) (end -1.8 -1.8) (layer "F.CrtYd") (width 0.05) (tstamp bb6e2674-fd87-42f8-a67b-4b4dd782672d))
  (fp_line (start 10.55 17.05) (end 10.55 -1.8) (layer "F.CrtYd") (width 0.05) (tstamp c727a722-f615-4c11-b0b4-336c8509b211))
  (fp_line (start -1.8 17.05) (end 10.55 17.05) (layer "F.CrtYd") (width 0.05) (tstamp d6c6badd-39a1-4749-9e61-dde479881b6d))
  (fp_line (start 4.04 9.84) (end 10.04 9.84) (layer "F.Fab") (width 0.1) (tstamp 082b138e-6c3d-47a2-ae42-44d1f5650e80))
  (fp_line (start -0.32 9.84) (end 1.5 9.84) (layer "F.Fab") (width 0.1) (tstamp 1439107a-e6d1-47a9-83ae-2538e55aacb0))
  (fp_line (start 10.04 12.38) (end 10.04 13.02) (layer "F.Fab") (width 0.1) (tstamp 20a668a0-6ea2-4747-ad42-89b40881f3dd))
  (fp_line (start 10.04 2.22) (end 10.04 2.86) (layer "F.Fab") (width 0.1) (tstamp 287451a7-f219-48ec-bad8-5fcd58929615))
  (fp_line (start 1.5 16.51) (end 1.5 -0.635) (layer "F.Fab") (width 0.1) (tstamp 4055caac-41d0-4109-8103-9cbd7414f3b0))
  (fp_line (start 4.04 5.4) (end 10.04 5.4) (layer "F.Fab") (width 0.1) (tstamp 42ce5a26-546b-461f-bb94-c58b1eaa8787))
  (fp_line (start 10.04 9.84) (end 10.04 10.48) (layer "F.Fab") (width 0.1) (tstamp 4a370d1d-1db0-4a13-82c6-96e5b0c18b4c))
  (fp_line (start 10.04 14.92) (end 10.04 15.56) (layer "F.Fab") (width 0.1) (tstamp 503d6789-2339-455d-8146-5d9143be044e))
  (fp_line (start 1.5 -0.635) (end 2.135 -1.27) (layer "F.Fab") (width 0.1) (tstamp 57266836-590b-49a1-8fd0-c7b07640e0da))
  (fp_line (start 4.04 2.22) (end 10.04 2.22) (layer "F.Fab") (width 0.1) (tstamp 669de9f6-0974-4169-ace3-b19d470fe4aa))
  (fp_line (start -0.32 7.3) (end 1.5 7.3) (layer "F.Fab") (width 0.1) (tstamp 7498adf5-8edf-4ebd-b1d7-424e4b150ee4))
  (fp_line (start 4.04 10.48) (end 10.04 10.48) (layer "F.Fab") (width 0.1) (tstamp 76b63785-248f-4be3-a023-ce7c703322e9))
  (fp_line (start -0.32 13.02) (end 1.5 13.02) (layer "F.Fab") (width 0.1) (tstamp 7bad9da3-aaec-4dc6-a674-a0ca77411c59))
  (fp_line (start -0.32 15.56) (end 1.5 15.56) (layer "F.Fab") (width 0.1) (tstamp 7d90a955-69c7-45d7-8b0d-e939d15bc40d))
  (fp_line (start 4.04 2.86) (end 10.04 2.86) (layer "F.Fab") (width 0.1) (tstamp 7e92dae8-b881-4a15-8635-f1e1dbd893b3))
  (fp_line (start -0.32 14.92) (end 1.5 14.92) (layer "F.Fab") (width 0.1) (tstamp 7fc1d046-884a-41de-a249-9e4865f0b76d))
  (fp_line (start 2.135 -1.27) (end 4.04 -1.27) (layer "F.Fab") (width 0.1) (tstamp 8323bd57-5371-44fc-ba86-fc2594c390c5))
  (fp_line (start 4.04 7.3) (end 10.04 7.3) (layer "F.Fab") (width 0.1) (tstamp 862f02ab-4b3b-4313-9bc2-c6553df0d0d8))
  (fp_line (start 4.04 -0.32) (end 10.04 -0.32) (layer "F.Fab") (width 0.1) (tstamp 8653df20-8e3e-4672-924a-2eb71dda99d9))
  (fp_line (start -0.32 -0.32) (end -0.32 0.32) (layer "F.Fab") (width 0.1) (tstamp 8bbd73be-165e-4e74-a35b-aae2aedb2a88))
  (fp_line (start 10.04 7.3) (end 10.04 7.94) (layer "F.Fab") (width 0.1) (tstamp 921abe06-22f2-4468-80ff-5b7e961d7f4a))
  (fp_line (start -0.32 12.38) (end 1.5 12.38) (layer "F.Fab") (width 0.1) (tstamp 928b6970-74fb-49c4-a2d4-d6e6087d00e1))
  (fp_line (start 4.04 14.92) (end 10.04 14.92) (layer "F.Fab") (width 0.1) (tstamp 93fa301f-3490-46a7-b91d-7e802bc013ec))
  (fp_line (start -0.32 -0.32) (end 1.5 -0.32) (layer "F.Fab") (width 0.1) (tstamp 9570b634-2f46-4caa-b64e-8b2d5c93f6c7))
  (fp_line (start 4.04 12.38) (end 10.04 12.38) (layer "F.Fab") (width 0.1) (tstamp 99a24143-0faa-4ddc-99e6-29f27ebeb3a6))
  (fp_line (start -0.32 0.32) (end 1.5 0.32) (layer "F.Fab") (width 0.1) (tstamp a51ffc5f-3e09-4d48-acec-8c057b1d8505))
  (fp_line (start 10.04 -0.32) (end 10.04 0.32) (layer "F.Fab") (width 0.1) (tstamp b0db9e66-80e0-44f3-9d05-10b39ab91159))
  (fp_line (start -0.32 7.3) (end -0.32 7.94) (layer "F.Fab") (width 0.1) (tstamp b116c25f-8298-47e8-aa6d-f318c1ec3877))
  (fp_line (start -0.32 7.94) (end 1.5 7.94) (layer "F.Fab") (width 0.1) (tstamp b48c5d57-e121-49d4-aa44-9d86b17800b1))
  (fp_line (start 4.04 7.94) (end 10.04 7.94) (layer "F.Fab") (width 0.1) (tstamp b5cec968-92b3-474b-8973-3cc119e3fdfa))
  (fp_line (start 4.04 15.56) (end 10.04 15.56) (layer "F.Fab") (width 0.1) (tstamp bd30e9e3-dac6-4331-9563-7e574d8dfb73))
  (fp_line (start 4.04 -1.27) (end 4.04 16.51) (layer "F.Fab") (width 0.1) (tstamp bec2fb36-4840-4169-97d3-2fde83bd436b))
  (fp_line (start -0.32 14.92) (end -0.32 15.56) (layer "F.Fab") (width 0.1) (tstamp c008028c-d113-4b6f-a529-7ccd06f08218))
  (fp_line (start -0.32 12.38) (end -0.32 13.02) (layer "F.Fab") (width 0.1) (tstamp c581c081-7e69-4b89-b254-71c5c044fb9d))
  (fp_line (start -0.32 2.22) (end 1.5 2.22) (layer "F.Fab") (width 0.1) (tstamp c5a51df1-ba69-4987-b4a7-7fab5b67aa6f))
  (fp_line (start -0.32 2.86) (end 1.5 2.86) (layer "F.Fab") (width 0.1) (tstamp c88811d8-f206-444c-9469-0022fc7930ba))
  (fp_line (start -0.32 4.76) (end 1.5 4.76) (layer "F.Fab") (width 0.1) (tstamp c8b712d7-8d80-4a26-bf27-31f7df9a593c))
  (fp_line (start 4.04 16.51) (end 1.5 16.51) (layer "F.Fab") (width 0.1) (tstamp c8c12327-e8af-43b4-b568-bc71493a1658))
  (fp_line (start 4.04 0.32) (end 10.04 0.32) (layer "F.Fab") (width 0.1) (tstamp d2bb2bd3-176d-4701-98b6-4b2f31b431e0))
  (fp_line (start -0.32 5.4) (end 1.5 5.4) (layer "F.Fab") (width 0.1) (tstamp e106a0dc-33cc-43bf-be67-d5581776fc31))
  (fp_line (start -0.32 9.84) (end -0.32 10.48) (layer "F.Fab") (width 0.1) (tstamp e30fa635-d437-4de4-82a7-c6a4c453826b))
  (fp_line (start -0.32 10.48) (end 1.5 10.48) (layer "F.Fab") (width 0.1) (tstamp e76279dd-c5a5-4b3e-8a17-ce121c55e074))
  (fp_line (start 4.04 4.76) (end 10.04 4.76) (layer "F.Fab") (width 0.1) (tstamp ec0b837f-319f-45f1-8e7a-6b86b9f1a619))
  (fp_line (start 4.04 13.02) (end 10.04 13.02) (layer "F.Fab") (width 0.1) (tstamp ee3030b4-f363-4e17-bae7-48c689f13b0d))
  (fp_line (start -0.32 4.76) (end -0.32 5.4) (layer "F.Fab") (width 0.1) (tstamp eea9dfba-2d7d-4d95-b843-60efe0eff59a))
  (fp_line (start 10.04 4.76) (end 10.04 5.4) (layer "F.Fab") (width 0.1) (tstamp f4e5280f-1021-4743-a2b4-3ff9aebd4cb0))
  (fp_line (start -0.32 2.22) (end -0.32 2.86) (layer "F.Fab") (width 0.1) (tstamp fe4ded33-1fc6-4aea-8590-7eb1f31071fa))
  (pad "1" thru_hole rect (at 0 0) (size 2.1 2.1) (drill 1) (layers *.Cu *.Mask) (tstamp f6657eb7-4bf4-4d93-8206-30ce03eff946))
  (pad "2" thru_hole oval (at 0 2.54) (size 2.1 2.1) (drill 1) (layers *.Cu *.Mask) (tstamp 7dacd1d5-3fad-4e09-8e66-5b3b1fe4fc54))
  (pad "3" thru_hole oval (at 0 5.08) (size 2.1 2.1) (drill 1) (layers *.Cu *.Mask) (tstamp b0b30f27-5d29-4c25-83a9-555d687b9f5e))
  (pad "4" thru_hole oval (at 0 7.62) (size 2.1 2.1) (drill 1) (layers *.Cu *.Mask) (tstamp 8bb0667a-2476-4d96-ad9f-83aeb7918a6b))
  (pad "5" thru_hole oval (at 0 10.16) (size 2.1 2.1) (drill 1) (layers *.Cu *.Mask) (tstamp bc17f9d3-a80e-41ca-b067-76bed8b8011e))
  (pad "6" thru_hole oval (at 0 12.7) (size 2.1 2.1) (drill 1) (layers *.Cu *.Mask) (tstamp ade3c9b3-8f70-4edc-ad89-de60ab5d541d))
  (pad "7" thru_hole oval (at 0 15.24) (size 2.1 2.1) (drill 1) (layers *.Cu *.Mask) (tstamp 13442775-4eb4-4a42-80cb-4d24d709f614))
  (model "${KICAD6_3DMODEL_DIR}/Connector_PinHeader_2.54mm.3dshapes/PinHeader_1x07_P2.54mm_Horizontal.wrl"
    (offset (xyz 0 0 0))
    (scale (xyz 1 1 1))
    (rotate (xyz 0 0 0))
  )
)
