(footprint "PinHeader_1x36_P2.54mm_Vertical" (version 20211014) (generator pcbnew)
  (layer "F.Cu")
  (tedit 59FED5CC)
  (descr "Through hole straight pin header, 1x36, 2.54mm pitch, single row")
  (tags "Through hole pin header THT 1x36 2.54mm single row")
  (attr through_hole)
  (fp_text reference "REF**" (at 0 -2.33) (layer "F.SilkS")
    (effects (font (size 1 1) (thickness 0.15)))
    (tstamp db59c188-e000-4833-88f0-c6d6a3e5d630)
  )
  (fp_text value "PinHeader_1x36_P2.54mm_Vertical" (at 0 91.23) (layer "F.Fab")
    (effects (font (size 1 1) (thickness 0.15)))
    (tstamp 5e2842df-fa20-4b02-97b6-788bca792f66)
  )
  (fp_text user "${REFERENCE}" (at 0 44.45 90) (layer "F.Fab")
    (effects (font (size 1 1) (thickness 0.15)))
    (tstamp f1a81466-c599-4bf2-a37f-adbf37128c73)
  )
  (fp_line (start -1.33 90.23) (end 1.33 90.23) (layer "F.SilkS") (width 0.12) (tstamp 2091ae6a-d171-43e4-886a-4b4fdc020774))
  (fp_line (start 1.33 1.27) (end 1.33 90.23) (layer "F.SilkS") (width 0.12) (tstamp 379b074e-533e-43e0-9da9-2ac8a703290d))
  (fp_line (start -1.33 1.27) (end 1.33 1.27) (layer "F.SilkS") (width 0.12) (tstamp 74bdd298-2221-4f4f-a91a-d8caf30d0628))
  (fp_line (start -1.33 1.27) (end -1.33 90.23) (layer "F.SilkS") (width 0.12) (tstamp a2d67ae9-3199-4282-91eb-f6a1b44ef742))
  (fp_line (start -1.33 0) (end -1.33 -1.33) (layer "F.SilkS") (width 0.12) (tstamp b5cbadbe-95b9-45cb-b4b6-358c57569e27))
  (fp_line (start -1.33 -1.33) (end 0 -1.33) (layer "F.SilkS") (width 0.12) (tstamp fb84e242-ae27-40e1-bff7-81b9e178df27))
  (fp_line (start 1.8 90.7) (end 1.8 -1.8) (layer "F.CrtYd") (width 0.05) (tstamp d98de5ef-4bbd-498c-b94f-ac0ce887031f))
  (fp_line (start 1.8 -1.8) (end -1.8 -1.8) (layer "F.CrtYd") (width 0.05) (tstamp e30df4d2-84ef-4af0-a257-11c02b00c982))
  (fp_line (start -1.8 -1.8) (end -1.8 90.7) (layer "F.CrtYd") (width 0.05) (tstamp f6174f5b-8311-4949-9864-a8322d7ac5a0))
  (fp_line (start -1.8 90.7) (end 1.8 90.7) (layer "F.CrtYd") (width 0.05) (tstamp fc24305f-6552-4196-98ca-977e8adcbbe5))
  (fp_line (start 1.27 -1.27) (end 1.27 90.17) (layer "F.Fab") (width 0.1) (tstamp 85352ff4-26df-434e-b1cf-76107be6cc88))
  (fp_line (start -0.635 -1.27) (end 1.27 -1.27) (layer "F.Fab") (width 0.1) (tstamp 8d99999f-a3f2-4366-bab1-afad3ef8e405))
  (fp_line (start -1.27 -0.635) (end -0.635 -1.27) (layer "F.Fab") (width 0.1) (tstamp 95d3e687-5cad-4c90-b8c8-ff4d008623f6))
  (fp_line (start 1.27 90.17) (end -1.27 90.17) (layer "F.Fab") (width 0.1) (tstamp d2555cc8-f530-4f33-8c92-e16cc0d33302))
  (fp_line (start -1.27 90.17) (end -1.27 -0.635) (layer "F.Fab") (width 0.1) (tstamp faddb1fc-ebb2-4bae-a609-c330edd930d5))
  (pad "1" thru_hole rect (at 0 0) (size 2.1 2.1) (drill 1) (layers *.Cu *.Mask) (tstamp 4573ca42-98b6-4a3e-9fb2-f5d2956d8e76))
  (pad "2" thru_hole oval (at 0 2.54) (size 2.1 2.1) (drill 1) (layers *.Cu *.Mask) (tstamp 33d198a0-aee5-4508-83e9-2863dd628002))
  (pad "3" thru_hole oval (at 0 5.08) (size 2.1 2.1) (drill 1) (layers *.Cu *.Mask) (tstamp 1fbbddfd-372f-4e73-8501-a2a5b98593fe))
  (pad "4" thru_hole oval (at 0 7.62) (size 2.1 2.1) (drill 1) (layers *.Cu *.Mask) (tstamp 650d5b79-32f7-41ed-b9a9-501514b6fc5f))
  (pad "5" thru_hole oval (at 0 10.16) (size 2.1 2.1) (drill 1) (layers *.Cu *.Mask) (tstamp 18a25643-9a4b-494e-a003-5a371cb70464))
  (pad "6" thru_hole oval (at 0 12.7) (size 2.1 2.1) (drill 1) (layers *.Cu *.Mask) (tstamp bcba0cd5-284d-46a4-88a3-c071f34e648b))
  (pad "7" thru_hole oval (at 0 15.24) (size 2.1 2.1) (drill 1) (layers *.Cu *.Mask) (tstamp 72d2be5e-ba3b-4b8f-aea4-2064d6fed415))
  (pad "8" thru_hole oval (at 0 17.78) (size 2.1 2.1) (drill 1) (layers *.Cu *.Mask) (tstamp eb295cbb-ba1b-481c-9244-b18a855b2b05))
  (pad "9" thru_hole oval (at 0 20.32) (size 2.1 2.1) (drill 1) (layers *.Cu *.Mask) (tstamp 5eda562e-24a3-4e19-b17b-e8ad5390679d))
  (pad "10" thru_hole oval (at 0 22.86) (size 2.1 2.1) (drill 1) (layers *.Cu *.Mask) (tstamp 92ed353e-ccef-419d-a233-61d02c0c4f5d))
  (pad "11" thru_hole oval (at 0 25.4) (size 2.1 2.1) (drill 1) (layers *.Cu *.Mask) (tstamp c93b55d6-e858-4eeb-a928-2257ef333fab))
  (pad "12" thru_hole oval (at 0 27.94) (size 2.1 2.1) (drill 1) (layers *.Cu *.Mask) (tstamp 1f1f7569-7593-4968-872b-23c8206c38c0))
  (pad "13" thru_hole oval (at 0 30.48) (size 2.1 2.1) (drill 1) (layers *.Cu *.Mask) (tstamp 99f55929-b803-4fb5-acb0-e9e500f20ef0))
  (pad "14" thru_hole oval (at 0 33.02) (size 2.1 2.1) (drill 1) (layers *.Cu *.Mask) (tstamp 870eaa28-d281-41cf-acd6-17dfec131193))
  (pad "15" thru_hole oval (at 0 35.56) (size 2.1 2.1) (drill 1) (layers *.Cu *.Mask) (tstamp 3098c7c8-fe94-4c11-9cfa-1befbb5eaef3))
  (pad "16" thru_hole oval (at 0 38.1) (size 2.1 2.1) (drill 1) (layers *.Cu *.Mask) (tstamp 629a7d91-1d94-480e-abba-4d13a6585e81))
  (pad "17" thru_hole oval (at 0 40.64) (size 2.1 2.1) (drill 1) (layers *.Cu *.Mask) (tstamp 869dc7e4-fbb1-48e0-86c9-d63fc18c51de))
  (pad "18" thru_hole oval (at 0 43.18) (size 2.1 2.1) (drill 1) (layers *.Cu *.Mask) (tstamp 885864e8-ae47-4161-928d-0ef2d90e8866))
  (pad "19" thru_hole oval (at 0 45.72) (size 2.1 2.1) (drill 1) (layers *.Cu *.Mask) (tstamp ac73024c-8de5-4e25-a040-fb31bd2bc2e8))
  (pad "20" thru_hole oval (at 0 48.26) (size 2.1 2.1) (drill 1) (layers *.Cu *.Mask) (tstamp b029a5da-d70d-4581-9198-fcf8239c5b4a))
  (pad "21" thru_hole oval (at 0 50.8) (size 2.1 2.1) (drill 1) (layers *.Cu *.Mask) (tstamp 9ac9d0e3-b057-425e-bade-d60afaf1e6c0))
  (pad "22" thru_hole oval (at 0 53.34) (size 2.1 2.1) (drill 1) (layers *.Cu *.Mask) (tstamp 7e0a866f-6529-46eb-ad4b-2a203c830e37))
  (pad "23" thru_hole oval (at 0 55.88) (size 2.1 2.1) (drill 1) (layers *.Cu *.Mask) (tstamp b5489450-2bf7-40e2-9af3-6c3dae74069e))
  (pad "24" thru_hole oval (at 0 58.42) (size 2.1 2.1) (drill 1) (layers *.Cu *.Mask) (tstamp bfc2a674-9656-4012-8d81-1c257a009838))
  (pad "25" thru_hole oval (at 0 60.96) (size 2.1 2.1) (drill 1) (layers *.Cu *.Mask) (tstamp 60ef5909-2bc0-4b9b-9536-ebf8e9f5dc15))
  (pad "26" thru_hole oval (at 0 63.5) (size 2.1 2.1) (drill 1) (layers *.Cu *.Mask) (tstamp ceda98a7-b3f5-4146-89fc-4d70399a01c8))
  (pad "27" thru_hole oval (at 0 66.04) (size 2.1 2.1) (drill 1) (layers *.Cu *.Mask) (tstamp c2a1711c-499a-4c1f-b851-28288a5703ef))
  (pad "28" thru_hole oval (at 0 68.58) (size 2.1 2.1) (drill 1) (layers *.Cu *.Mask) (tstamp 59f588a3-1910-46e4-b3a3-e8364a7399d5))
  (pad "29" thru_hole oval (at 0 71.12) (size 2.1 2.1) (drill 1) (layers *.Cu *.Mask) (tstamp 4280f179-a9c3-4985-bfa8-7be4aeaeff26))
  (pad "30" thru_hole oval (at 0 73.66) (size 2.1 2.1) (drill 1) (layers *.Cu *.Mask) (tstamp 2019d697-9b1d-4dff-a1b7-e0568ff4257d))
  (pad "31" thru_hole oval (at 0 76.2) (size 2.1 2.1) (drill 1) (layers *.Cu *.Mask) (tstamp f5ab9aff-606b-4fc9-904a-aa4889139690))
  (pad "32" thru_hole oval (at 0 78.74) (size 2.1 2.1) (drill 1) (layers *.Cu *.Mask) (tstamp 3857b80f-693f-485f-9f1b-135e8d541813))
  (pad "33" thru_hole oval (at 0 81.28) (size 2.1 2.1) (drill 1) (layers *.Cu *.Mask) (tstamp f4cac372-d90e-48de-88fc-beae5bf4c27b))
  (pad "34" thru_hole oval (at 0 83.82) (size 2.1 2.1) (drill 1) (layers *.Cu *.Mask) (tstamp fd67830c-a97f-4d03-9564-ec5cc78bfd41))
  (pad "35" thru_hole oval (at 0 86.36) (size 2.1 2.1) (drill 1) (layers *.Cu *.Mask) (tstamp 9db56052-54bc-4952-9d9e-d22c6f2ea057))
  (pad "36" thru_hole oval (at 0 88.9) (size 2.1 2.1) (drill 1) (layers *.Cu *.Mask) (tstamp 9daa57b6-e7b0-4eb9-9043-d4a71983012d))
  (model "${KICAD6_3DMODEL_DIR}/Connector_PinHeader_2.54mm.3dshapes/PinHeader_1x36_P2.54mm_Vertical.wrl"
    (offset (xyz 0 0 0))
    (scale (xyz 1 1 1))
    (rotate (xyz 0 0 0))
  )
)
