(footprint "PinHeader_2x23_P2.54mm_Vertical" (version 20211014) (generator pcbnew)
  (layer "F.Cu")
  (tedit 59FED5CC)
  (descr "Through hole straight pin header, 2x23, 2.54mm pitch, double rows")
  (tags "Through hole pin header THT 2x23 2.54mm double row")
  (attr through_hole)
  (fp_text reference "REF**" (at 1.27 -2.33) (layer "F.SilkS")
    (effects (font (size 1 1) (thickness 0.15)))
    (tstamp 7ba2bf64-7631-4509-90f5-f89de47e76e5)
  )
  (fp_text value "PinHeader_2x23_P2.54mm_Vertical" (at 1.27 58.21) (layer "F.Fab")
    (effects (font (size 1 1) (thickness 0.15)))
    (tstamp 84f3e9cc-0173-41a6-b59c-c2f7a9bbac23)
  )
  (fp_text user "${REFERENCE}" (at 1.27 27.94 90) (layer "F.Fab")
    (effects (font (size 1 1) (thickness 0.15)))
    (tstamp 055bb44d-92b1-429e-91ae-50dfeb7278b7)
  )
  (fp_line (start 1.27 -1.33) (end 3.87 -1.33) (layer "F.SilkS") (width 0.12) (tstamp 0addc08e-a46b-4b10-8bdd-9e9528e3816b))
  (fp_line (start -1.33 57.21) (end 3.87 57.21) (layer "F.SilkS") (width 0.12) (tstamp 17b1e5cb-b61e-419c-833a-c90765e73213))
  (fp_line (start -1.33 1.27) (end -1.33 57.21) (layer "F.SilkS") (width 0.12) (tstamp 2ac19c52-e6c0-4d90-855b-278abefc0a58))
  (fp_line (start 3.87 -1.33) (end 3.87 57.21) (layer "F.SilkS") (width 0.12) (tstamp 4077334d-1594-4332-8433-2feef22048a3))
  (fp_line (start -1.33 0) (end -1.33 -1.33) (layer "F.SilkS") (width 0.12) (tstamp 5ab64e43-9d06-47f9-895a-1f0c6be07b75))
  (fp_line (start 1.27 1.27) (end 1.27 -1.33) (layer "F.SilkS") (width 0.12) (tstamp 8074a8f9-781b-4229-bb71-bdbccce8dba2))
  (fp_line (start -1.33 1.27) (end 1.27 1.27) (layer "F.SilkS") (width 0.12) (tstamp af0a2c55-fc56-4766-b0f2-a2313244cae7))
  (fp_line (start -1.33 -1.33) (end 0 -1.33) (layer "F.SilkS") (width 0.12) (tstamp e54ab94d-973b-4f55-81d9-c86b8d9ed00b))
  (fp_line (start 4.35 57.65) (end 4.35 -1.8) (layer "F.CrtYd") (width 0.05) (tstamp 22137eda-81c5-4113-a6af-0f2161c1a7d7))
  (fp_line (start -1.8 -1.8) (end -1.8 57.65) (layer "F.CrtYd") (width 0.05) (tstamp 37cdec12-0b76-446f-9d7b-ae14e539fce8))
  (fp_line (start 4.35 -1.8) (end -1.8 -1.8) (layer "F.CrtYd") (width 0.05) (tstamp b739b429-9837-4fbf-8a72-21b9666d9bce))
  (fp_line (start -1.8 57.65) (end 4.35 57.65) (layer "F.CrtYd") (width 0.05) (tstamp b899a053-c3b6-457b-a8cd-acbabf7967b6))
  (fp_line (start -1.27 57.15) (end -1.27 0) (layer "F.Fab") (width 0.1) (tstamp 0bf6f761-5c3a-4574-93b7-7688efaa9dde))
  (fp_line (start 3.81 57.15) (end -1.27 57.15) (layer "F.Fab") (width 0.1) (tstamp 152353d3-472d-4c85-975e-3155d5f02270))
  (fp_line (start -1.27 0) (end 0 -1.27) (layer "F.Fab") (width 0.1) (tstamp 2e8dac82-109b-4b9b-a2f3-ad7cb22e93ab))
  (fp_line (start 3.81 -1.27) (end 3.81 57.15) (layer "F.Fab") (width 0.1) (tstamp af3628e5-a1cb-46e0-951e-1941fce6f11b))
  (fp_line (start 0 -1.27) (end 3.81 -1.27) (layer "F.Fab") (width 0.1) (tstamp cb3b3330-93fa-4e5e-a8c2-19d3535cc015))
  (pad "1" thru_hole rect (at 0 0) (size 2.1 2.1) (drill 1) (layers *.Cu *.Mask) (tstamp 0edb3b32-82f5-44fd-9edb-d906bc59592e))
  (pad "2" thru_hole oval (at 2.54 0) (size 2.1 2.1) (drill 1) (layers *.Cu *.Mask) (tstamp 1ffd5f0c-afbf-4b34-ab9c-55ddca633efc))
  (pad "3" thru_hole oval (at 0 2.54) (size 2.1 2.1) (drill 1) (layers *.Cu *.Mask) (tstamp 2f6b6b68-fded-48e3-be3a-536ec42b21b4))
  (pad "4" thru_hole oval (at 2.54 2.54) (size 2.1 2.1) (drill 1) (layers *.Cu *.Mask) (tstamp 1f7f00d6-e5f1-4d82-a40e-5c752c3b6371))
  (pad "5" thru_hole oval (at 0 5.08) (size 2.1 2.1) (drill 1) (layers *.Cu *.Mask) (tstamp da3be568-7487-4a03-8382-c44f72492013))
  (pad "6" thru_hole oval (at 2.54 5.08) (size 2.1 2.1) (drill 1) (layers *.Cu *.Mask) (tstamp fef3aa09-2f40-4a25-835b-44d60fe2fee1))
  (pad "7" thru_hole oval (at 0 7.62) (size 2.1 2.1) (drill 1) (layers *.Cu *.Mask) (tstamp d7aadc98-e02e-4705-8fd5-f984e00f61ea))
  (pad "8" thru_hole oval (at 2.54 7.62) (size 2.1 2.1) (drill 1) (layers *.Cu *.Mask) (tstamp f0bcd6ad-1336-4582-91b6-6bfa0dfe6541))
  (pad "9" thru_hole oval (at 0 10.16) (size 2.1 2.1) (drill 1) (layers *.Cu *.Mask) (tstamp 783a1829-f814-45ff-b183-b94a77a4fbd9))
  (pad "10" thru_hole oval (at 2.54 10.16) (size 2.1 2.1) (drill 1) (layers *.Cu *.Mask) (tstamp d48eb9e4-2c72-458f-80ec-652251de8cce))
  (pad "11" thru_hole oval (at 0 12.7) (size 2.1 2.1) (drill 1) (layers *.Cu *.Mask) (tstamp 02ca036e-8068-4ff8-b99b-0019c719ca31))
  (pad "12" thru_hole oval (at 2.54 12.7) (size 2.1 2.1) (drill 1) (layers *.Cu *.Mask) (tstamp ca8b389c-3ffe-403a-98e1-471f56789598))
  (pad "13" thru_hole oval (at 0 15.24) (size 2.1 2.1) (drill 1) (layers *.Cu *.Mask) (tstamp 90b059ae-53e3-4b51-884c-f8ddf01fdb96))
  (pad "14" thru_hole oval (at 2.54 15.24) (size 2.1 2.1) (drill 1) (layers *.Cu *.Mask) (tstamp ef2bbe13-f217-49bf-a6b1-79ba21b7522c))
  (pad "15" thru_hole oval (at 0 17.78) (size 2.1 2.1) (drill 1) (layers *.Cu *.Mask) (tstamp d2e2a3b6-cc14-4ca8-adf1-cd9a5c80249d))
  (pad "16" thru_hole oval (at 2.54 17.78) (size 2.1 2.1) (drill 1) (layers *.Cu *.Mask) (tstamp d93aa545-061c-4007-8aff-f9fd17e026cc))
  (pad "17" thru_hole oval (at 0 20.32) (size 2.1 2.1) (drill 1) (layers *.Cu *.Mask) (tstamp 34f4aa95-d8bf-46ea-adbe-9ae6f9d0cd85))
  (pad "18" thru_hole oval (at 2.54 20.32) (size 2.1 2.1) (drill 1) (layers *.Cu *.Mask) (tstamp 652f1916-24c7-4000-b7a0-19e07e4778e8))
  (pad "19" thru_hole oval (at 0 22.86) (size 2.1 2.1) (drill 1) (layers *.Cu *.Mask) (tstamp 964b7e13-a27f-4c11-8264-bac27e6b656a))
  (pad "20" thru_hole oval (at 2.54 22.86) (size 2.1 2.1) (drill 1) (layers *.Cu *.Mask) (tstamp f47150cc-4c4e-40e1-a871-ee977976ac77))
  (pad "21" thru_hole oval (at 0 25.4) (size 2.1 2.1) (drill 1) (layers *.Cu *.Mask) (tstamp 7334e6d3-88af-4cad-bfe0-b0a3a46d2188))
  (pad "22" thru_hole oval (at 2.54 25.4) (size 2.1 2.1) (drill 1) (layers *.Cu *.Mask) (tstamp 76b64711-09c4-4568-a360-39a61b43744a))
  (pad "23" thru_hole oval (at 0 27.94) (size 2.1 2.1) (drill 1) (layers *.Cu *.Mask) (tstamp 84714fc1-0703-45c9-9f1d-ca96e0466deb))
  (pad "24" thru_hole oval (at 2.54 27.94) (size 2.1 2.1) (drill 1) (layers *.Cu *.Mask) (tstamp 5c72766b-7ba9-4908-ab1d-4627181ac7fd))
  (pad "25" thru_hole oval (at 0 30.48) (size 2.1 2.1) (drill 1) (layers *.Cu *.Mask) (tstamp 7a017bd8-f224-4677-8670-0739231d11cd))
  (pad "26" thru_hole oval (at 2.54 30.48) (size 2.1 2.1) (drill 1) (layers *.Cu *.Mask) (tstamp 23ef554a-5725-45ea-8794-643dae235a75))
  (pad "27" thru_hole oval (at 0 33.02) (size 2.1 2.1) (drill 1) (layers *.Cu *.Mask) (tstamp 14edca1d-0432-47e9-8088-69a8785101ff))
  (pad "28" thru_hole oval (at 2.54 33.02) (size 2.1 2.1) (drill 1) (layers *.Cu *.Mask) (tstamp aa2ad3b0-75c0-4edb-8152-73f438e46c86))
  (pad "29" thru_hole oval (at 0 35.56) (size 2.1 2.1) (drill 1) (layers *.Cu *.Mask) (tstamp e4fe8c0a-dfbb-498a-9b08-146a3c54bad9))
  (pad "30" thru_hole oval (at 2.54 35.56) (size 2.1 2.1) (drill 1) (layers *.Cu *.Mask) (tstamp 0e4a0594-5a74-4a0a-aaf9-8732620a9c4e))
  (pad "31" thru_hole oval (at 0 38.1) (size 2.1 2.1) (drill 1) (layers *.Cu *.Mask) (tstamp e4933b98-7f2f-41d6-b311-690bfeb31e79))
  (pad "32" thru_hole oval (at 2.54 38.1) (size 2.1 2.1) (drill 1) (layers *.Cu *.Mask) (tstamp 3f007f33-816a-4f35-877e-41b1d59066ca))
  (pad "33" thru_hole oval (at 0 40.64) (size 2.1 2.1) (drill 1) (layers *.Cu *.Mask) (tstamp c5193998-c968-41c3-92f0-a05264e7b01d))
  (pad "34" thru_hole oval (at 2.54 40.64) (size 2.1 2.1) (drill 1) (layers *.Cu *.Mask) (tstamp 9bf05710-8b36-419d-8866-7c2e45d0c0f6))
  (pad "35" thru_hole oval (at 0 43.18) (size 2.1 2.1) (drill 1) (layers *.Cu *.Mask) (tstamp 0178852c-abf7-47ba-9049-a481bab7045d))
  (pad "36" thru_hole oval (at 2.54 43.18) (size 2.1 2.1) (drill 1) (layers *.Cu *.Mask) (tstamp 3a422276-6a6a-4411-9278-a828459d2e1f))
  (pad "37" thru_hole oval (at 0 45.72) (size 2.1 2.1) (drill 1) (layers *.Cu *.Mask) (tstamp 8a56ec82-7405-4995-a943-650d0a06407f))
  (pad "38" thru_hole oval (at 2.54 45.72) (size 2.1 2.1) (drill 1) (layers *.Cu *.Mask) (tstamp 9fe489ac-04e3-4b4e-8015-2dfeb0e01c7f))
  (pad "39" thru_hole oval (at 0 48.26) (size 2.1 2.1) (drill 1) (layers *.Cu *.Mask) (tstamp 7046fcfd-8a24-40ad-9171-b4e3e05ad5f6))
  (pad "40" thru_hole oval (at 2.54 48.26) (size 2.1 2.1) (drill 1) (layers *.Cu *.Mask) (tstamp 33ef2f71-aac6-4a17-95b6-b81ebc20c118))
  (pad "41" thru_hole oval (at 0 50.8) (size 2.1 2.1) (drill 1) (layers *.Cu *.Mask) (tstamp e29668c7-568b-464e-999f-80fb3b005db6))
  (pad "42" thru_hole oval (at 2.54 50.8) (size 2.1 2.1) (drill 1) (layers *.Cu *.Mask) (tstamp 9cf32091-54a8-4e1c-84a8-1c643516c9eb))
  (pad "43" thru_hole oval (at 0 53.34) (size 2.1 2.1) (drill 1) (layers *.Cu *.Mask) (tstamp 0a23fcdc-987c-4be5-ae71-ef8b6dc31b20))
  (pad "44" thru_hole oval (at 2.54 53.34) (size 2.1 2.1) (drill 1) (layers *.Cu *.Mask) (tstamp 06ffab17-ed57-4d93-abca-463df449692a))
  (pad "45" thru_hole oval (at 0 55.88) (size 2.1 2.1) (drill 1) (layers *.Cu *.Mask) (tstamp 990c24a0-09a3-4b08-bd3f-3a3af82b05cc))
  (pad "46" thru_hole oval (at 2.54 55.88) (size 2.1 2.1) (drill 1) (layers *.Cu *.Mask) (tstamp ae490bd4-c01f-476e-86ba-cf8b151b5133))
  (model "${KICAD6_3DMODEL_DIR}/Connector_PinHeader_2.54mm.3dshapes/PinHeader_2x23_P2.54mm_Vertical.wrl"
    (offset (xyz 0 0 0))
    (scale (xyz 1 1 1))
    (rotate (xyz 0 0 0))
  )
)
