(footprint "PinHeader_2x21_P2.54mm_Vertical" (version 20211014) (generator pcbnew)
  (layer "F.Cu")
  (tedit 59FED5CC)
  (descr "Through hole straight pin header, 2x21, 2.54mm pitch, double rows")
  (tags "Through hole pin header THT 2x21 2.54mm double row")
  (attr through_hole)
  (fp_text reference "REF**" (at 1.27 -2.33) (layer "F.SilkS")
    (effects (font (size 1 1) (thickness 0.15)))
    (tstamp 852a5aa2-e69e-4c41-b350-5429cfaa7553)
  )
  (fp_text value "PinHeader_2x21_P2.54mm_Vertical" (at 1.27 53.13) (layer "F.Fab")
    (effects (font (size 1 1) (thickness 0.15)))
    (tstamp 3f80ab23-37de-45ad-b82c-9312b2fdc35e)
  )
  (fp_text user "${REFERENCE}" (at 1.27 25.4 90) (layer "F.Fab")
    (effects (font (size 1 1) (thickness 0.15)))
    (tstamp 10567f99-4eff-4b8b-88d4-77602acb4ee3)
  )
  (fp_line (start -1.33 1.27) (end 1.27 1.27) (layer "F.SilkS") (width 0.12) (tstamp 3472c08f-2a4f-4f94-a666-0b45770c6472))
  (fp_line (start 1.27 1.27) (end 1.27 -1.33) (layer "F.SilkS") (width 0.12) (tstamp 3bdcfd17-4d5a-4f1a-90ec-a1200692c421))
  (fp_line (start -1.33 -1.33) (end 0 -1.33) (layer "F.SilkS") (width 0.12) (tstamp 45befb49-0fad-4403-9b74-93a257e63cf4))
  (fp_line (start -1.33 52.13) (end 3.87 52.13) (layer "F.SilkS") (width 0.12) (tstamp 791a3782-176e-43f2-b7cf-a9a957874f35))
  (fp_line (start 3.87 -1.33) (end 3.87 52.13) (layer "F.SilkS") (width 0.12) (tstamp 7f81b313-92b5-4627-b193-40eb97f08be5))
  (fp_line (start 1.27 -1.33) (end 3.87 -1.33) (layer "F.SilkS") (width 0.12) (tstamp 9c97b020-0ed1-4693-9d65-cd9cef5dbca6))
  (fp_line (start -1.33 0) (end -1.33 -1.33) (layer "F.SilkS") (width 0.12) (tstamp b21de126-21f0-4c13-8eb6-2cdd7f6b3779))
  (fp_line (start -1.33 1.27) (end -1.33 52.13) (layer "F.SilkS") (width 0.12) (tstamp e71bb1ab-90ec-4870-b21e-aa7ff3639143))
  (fp_line (start -1.8 52.6) (end 4.35 52.6) (layer "F.CrtYd") (width 0.05) (tstamp 23a4cf3b-bfaa-4ac7-b8cb-f69b5fd343f5))
  (fp_line (start 4.35 -1.8) (end -1.8 -1.8) (layer "F.CrtYd") (width 0.05) (tstamp 853d582e-c078-4ac7-8b02-9380b130c9f9))
  (fp_line (start -1.8 -1.8) (end -1.8 52.6) (layer "F.CrtYd") (width 0.05) (tstamp cd7e95d1-543a-4283-b415-97568d468b4f))
  (fp_line (start 4.35 52.6) (end 4.35 -1.8) (layer "F.CrtYd") (width 0.05) (tstamp d901ebe3-6e35-4914-a8e8-e7aa47841f5c))
  (fp_line (start 3.81 -1.27) (end 3.81 52.07) (layer "F.Fab") (width 0.1) (tstamp 55d8ee0d-3ebc-4b3d-8e0d-9d03b86b3ce3))
  (fp_line (start -1.27 0) (end 0 -1.27) (layer "F.Fab") (width 0.1) (tstamp 932894e2-2050-493b-b9a8-fefd15895c0d))
  (fp_line (start 0 -1.27) (end 3.81 -1.27) (layer "F.Fab") (width 0.1) (tstamp a724bb4a-48df-448f-8ba1-262c4b40f178))
  (fp_line (start 3.81 52.07) (end -1.27 52.07) (layer "F.Fab") (width 0.1) (tstamp aa249451-e880-403e-811c-0c55e47cb099))
  (fp_line (start -1.27 52.07) (end -1.27 0) (layer "F.Fab") (width 0.1) (tstamp df323db3-cb60-47ee-81a1-27c3e5d03af9))
  (pad "1" thru_hole rect (at 0 0) (size 2.1 2.1) (drill 1) (layers *.Cu *.Mask) (tstamp 2bcbcb42-eb99-47ae-9ccb-c499310e07c9))
  (pad "2" thru_hole oval (at 2.54 0) (size 2.1 2.1) (drill 1) (layers *.Cu *.Mask) (tstamp 30895802-a27f-4081-b169-d90b3f285577))
  (pad "3" thru_hole oval (at 0 2.54) (size 2.1 2.1) (drill 1) (layers *.Cu *.Mask) (tstamp a371e421-fadf-482f-b906-0be779a02d8c))
  (pad "4" thru_hole oval (at 2.54 2.54) (size 2.1 2.1) (drill 1) (layers *.Cu *.Mask) (tstamp 6ee37d45-8e4d-4e80-b4c2-0ff21de21132))
  (pad "5" thru_hole oval (at 0 5.08) (size 2.1 2.1) (drill 1) (layers *.Cu *.Mask) (tstamp 2ceb95dd-0127-4cb0-a4b0-94842679974d))
  (pad "6" thru_hole oval (at 2.54 5.08) (size 2.1 2.1) (drill 1) (layers *.Cu *.Mask) (tstamp e0fb11aa-83bc-4e67-a06f-c6da22a73eaa))
  (pad "7" thru_hole oval (at 0 7.62) (size 2.1 2.1) (drill 1) (layers *.Cu *.Mask) (tstamp 7052f0b2-6bb2-4eda-b60a-d50d65f163be))
  (pad "8" thru_hole oval (at 2.54 7.62) (size 2.1 2.1) (drill 1) (layers *.Cu *.Mask) (tstamp 2afa2c28-8892-4510-8f7c-5f06ef4a5d44))
  (pad "9" thru_hole oval (at 0 10.16) (size 2.1 2.1) (drill 1) (layers *.Cu *.Mask) (tstamp 6d84ac73-152b-4c39-ae71-e926f4bb079d))
  (pad "10" thru_hole oval (at 2.54 10.16) (size 2.1 2.1) (drill 1) (layers *.Cu *.Mask) (tstamp 78bdc533-0fed-4f4f-849d-461bfd6b2c45))
  (pad "11" thru_hole oval (at 0 12.7) (size 2.1 2.1) (drill 1) (layers *.Cu *.Mask) (tstamp 9fb0d97a-d9b5-43f7-968d-f70921276ca1))
  (pad "12" thru_hole oval (at 2.54 12.7) (size 2.1 2.1) (drill 1) (layers *.Cu *.Mask) (tstamp 2e2a9f2d-d58b-4bad-97ce-30928d4043e1))
  (pad "13" thru_hole oval (at 0 15.24) (size 2.1 2.1) (drill 1) (layers *.Cu *.Mask) (tstamp aa9e3d1f-54ce-4fa7-a425-dab3b430633e))
  (pad "14" thru_hole oval (at 2.54 15.24) (size 2.1 2.1) (drill 1) (layers *.Cu *.Mask) (tstamp cdebe0a5-6900-469c-be19-348896a6bfb8))
  (pad "15" thru_hole oval (at 0 17.78) (size 2.1 2.1) (drill 1) (layers *.Cu *.Mask) (tstamp d68f863a-5d27-4570-9d5c-53de765c20bc))
  (pad "16" thru_hole oval (at 2.54 17.78) (size 2.1 2.1) (drill 1) (layers *.Cu *.Mask) (tstamp 6b2990b2-2a19-4939-87ca-6776ee5b4f65))
  (pad "17" thru_hole oval (at 0 20.32) (size 2.1 2.1) (drill 1) (layers *.Cu *.Mask) (tstamp 06a61e5b-a44d-4966-bcea-5561c5218d21))
  (pad "18" thru_hole oval (at 2.54 20.32) (size 2.1 2.1) (drill 1) (layers *.Cu *.Mask) (tstamp adce046a-b93d-4b78-a48b-db1b959c6c52))
  (pad "19" thru_hole oval (at 0 22.86) (size 2.1 2.1) (drill 1) (layers *.Cu *.Mask) (tstamp 63033e2e-10a9-4efd-bab5-63d949671a2a))
  (pad "20" thru_hole oval (at 2.54 22.86) (size 2.1 2.1) (drill 1) (layers *.Cu *.Mask) (tstamp c28bcb4f-da19-4c23-aad8-c5136421a343))
  (pad "21" thru_hole oval (at 0 25.4) (size 2.1 2.1) (drill 1) (layers *.Cu *.Mask) (tstamp fec484f5-d3da-489a-83fc-3acedf45e121))
  (pad "22" thru_hole oval (at 2.54 25.4) (size 2.1 2.1) (drill 1) (layers *.Cu *.Mask) (tstamp b416dbaf-7e43-43b9-8ada-af5f010a4d4d))
  (pad "23" thru_hole oval (at 0 27.94) (size 2.1 2.1) (drill 1) (layers *.Cu *.Mask) (tstamp f156a9ff-e7b1-445c-a7b5-c486674dc762))
  (pad "24" thru_hole oval (at 2.54 27.94) (size 2.1 2.1) (drill 1) (layers *.Cu *.Mask) (tstamp 222c7ff0-36b1-4197-a342-8b3156ea1580))
  (pad "25" thru_hole oval (at 0 30.48) (size 2.1 2.1) (drill 1) (layers *.Cu *.Mask) (tstamp ebe3518f-3cf5-4354-9f37-c790d99ce129))
  (pad "26" thru_hole oval (at 2.54 30.48) (size 2.1 2.1) (drill 1) (layers *.Cu *.Mask) (tstamp 121c9be6-b858-4c55-871a-8998ac7a381f))
  (pad "27" thru_hole oval (at 0 33.02) (size 2.1 2.1) (drill 1) (layers *.Cu *.Mask) (tstamp b89cd665-6109-41b4-b387-48319f75f803))
  (pad "28" thru_hole oval (at 2.54 33.02) (size 2.1 2.1) (drill 1) (layers *.Cu *.Mask) (tstamp 33d4cbbf-794e-4703-ac2d-ef86b9b9cb2a))
  (pad "29" thru_hole oval (at 0 35.56) (size 2.1 2.1) (drill 1) (layers *.Cu *.Mask) (tstamp ee5aa426-1676-44c4-bd14-df6fff446fe5))
  (pad "30" thru_hole oval (at 2.54 35.56) (size 2.1 2.1) (drill 1) (layers *.Cu *.Mask) (tstamp c09fb919-cf75-4aaa-b57f-3dc535d48b67))
  (pad "31" thru_hole oval (at 0 38.1) (size 2.1 2.1) (drill 1) (layers *.Cu *.Mask) (tstamp 8232c0a0-e150-4ecf-b08a-d0fd9bad7c5e))
  (pad "32" thru_hole oval (at 2.54 38.1) (size 2.1 2.1) (drill 1) (layers *.Cu *.Mask) (tstamp 3b7da194-74c2-4b79-adf2-26a1597333fb))
  (pad "33" thru_hole oval (at 0 40.64) (size 2.1 2.1) (drill 1) (layers *.Cu *.Mask) (tstamp b35373d8-d7de-4475-8114-939f33b0c575))
  (pad "34" thru_hole oval (at 2.54 40.64) (size 2.1 2.1) (drill 1) (layers *.Cu *.Mask) (tstamp 692d9eae-4ff6-4742-a946-39c16189cb5a))
  (pad "35" thru_hole oval (at 0 43.18) (size 2.1 2.1) (drill 1) (layers *.Cu *.Mask) (tstamp 500e9ebd-7726-4458-9e0d-f78dfcef9779))
  (pad "36" thru_hole oval (at 2.54 43.18) (size 2.1 2.1) (drill 1) (layers *.Cu *.Mask) (tstamp bffb2424-e19c-462a-a085-4b08ddd152a1))
  (pad "37" thru_hole oval (at 0 45.72) (size 2.1 2.1) (drill 1) (layers *.Cu *.Mask) (tstamp cccf364a-51ed-4cfd-b2c8-2e55d11219c1))
  (pad "38" thru_hole oval (at 2.54 45.72) (size 2.1 2.1) (drill 1) (layers *.Cu *.Mask) (tstamp 73333e52-9015-4857-85ba-bb6f9c681336))
  (pad "39" thru_hole oval (at 0 48.26) (size 2.1 2.1) (drill 1) (layers *.Cu *.Mask) (tstamp 1b4fdb8b-b911-4270-b0d7-ac4c7f7fd97c))
  (pad "40" thru_hole oval (at 2.54 48.26) (size 2.1 2.1) (drill 1) (layers *.Cu *.Mask) (tstamp 72bc051c-579e-466f-9483-93c6eb3eaa2f))
  (pad "41" thru_hole oval (at 0 50.8) (size 2.1 2.1) (drill 1) (layers *.Cu *.Mask) (tstamp 96ede2f5-923d-4af9-9638-9c72ba27affc))
  (pad "42" thru_hole oval (at 2.54 50.8) (size 2.1 2.1) (drill 1) (layers *.Cu *.Mask) (tstamp 52510174-f8e4-4077-9097-91fa06037ad5))
  (model "${KICAD6_3DMODEL_DIR}/Connector_PinHeader_2.54mm.3dshapes/PinHeader_2x21_P2.54mm_Vertical.wrl"
    (offset (xyz 0 0 0))
    (scale (xyz 1 1 1))
    (rotate (xyz 0 0 0))
  )
)
