(footprint "PinHeader_2x25_P2.54mm_Horizontal" (version 20211014) (generator pcbnew)
  (layer "F.Cu")
  (tedit 59FED5CB)
  (descr "Through hole angled pin header, 2x25, 2.54mm pitch, 6mm pin length, double rows")
  (tags "Through hole angled pin header THT 2x25 2.54mm double row")
  (attr through_hole)
  (fp_text reference "REF**" (at 5.655 -2.27) (layer "F.SilkS")
    (effects (font (size 1 1) (thickness 0.15)))
    (tstamp ad21d300-ba42-4fdc-a8f4-235cbf49e6f3)
  )
  (fp_text value "PinHeader_2x25_P2.54mm_Horizontal" (at 5.655 63.23) (layer "F.Fab")
    (effects (font (size 1 1) (thickness 0.15)))
    (tstamp 8a1d5518-f9da-483b-8dbe-8479e3269aab)
  )
  (fp_text user "${REFERENCE}" (at 5.31 30.48 90) (layer "F.Fab")
    (effects (font (size 1 1) (thickness 0.15)))
    (tstamp aafc6b40-760b-4281-b9b3-cd40769ab7d7)
  )
  (fp_line (start 6.64 35.18) (end 12.64 35.18) (layer "F.SilkS") (width 0.12) (tstamp 00681369-933b-45a3-ae9c-cd09b259aca0))
  (fp_line (start 1.042929 15.62) (end 1.497071 15.62) (layer "F.SilkS") (width 0.12) (tstamp 02481ace-632f-4502-8227-849b43f1ad2e))
  (fp_line (start 3.98 46.99) (end 6.64 46.99) (layer "F.SilkS") (width 0.12) (tstamp 02e66dde-7520-4169-8db8-fe800e750fbd))
  (fp_line (start 6.64 62.29) (end 6.64 -1.33) (layer "F.SilkS") (width 0.12) (tstamp 035fceb8-4293-4f59-bb37-8b0f82d072d9))
  (fp_line (start 3.582929 52.96) (end 3.98 52.96) (layer "F.SilkS") (width 0.12) (tstamp 055be7b9-3f4e-40a9-8287-e0ce74dba147))
  (fp_line (start 12.64 61.34) (end 6.64 61.34) (layer "F.SilkS") (width 0.12) (tstamp 0601f71b-8163-41a9-bf48-3bcf0aea6d71))
  (fp_line (start 12.64 42.8) (end 12.64 43.56) (layer "F.SilkS") (width 0.12) (tstamp 07fc958d-2886-47a1-8aa5-3af6f67b4417))
  (fp_line (start 3.582929 15.62) (end 3.98 15.62) (layer "F.SilkS") (width 0.12) (tstamp 0846b62f-0dd7-4f80-b238-f78aac46f6c2))
  (fp_line (start 6.64 37.72) (end 12.64 37.72) (layer "F.SilkS") (width 0.12) (tstamp 0893c1cc-2629-4138-9f03-b48f7e381f33))
  (fp_line (start 3.582929 22.48) (end 3.98 22.48) (layer "F.SilkS") (width 0.12) (tstamp 09a0f5a0-10e6-40e1-ab70-8402e0333f9c))
  (fp_line (start 12.64 2.92) (end 6.64 2.92) (layer "F.SilkS") (width 0.12) (tstamp 0a9817c8-58da-43f5-b854-dc83affd9356))
  (fp_line (start 12.64 46.1) (end 6.64 46.1) (layer "F.SilkS") (width 0.12) (tstamp 0b2113c1-373f-478a-90e2-d9481a5f718f))
  (fp_line (start 12.64 30.1) (end 12.64 30.86) (layer "F.SilkS") (width 0.12) (tstamp 0b5d8733-a1eb-4f31-be9d-3d9fda833585))
  (fp_line (start 3.98 13.97) (end 6.64 13.97) (layer "F.SilkS") (width 0.12) (tstamp 0b98bc7d-7c78-459c-8ae5-c113b7dc5288))
  (fp_line (start 3.582929 14.86) (end 3.98 14.86) (layer "F.SilkS") (width 0.12) (tstamp 0ba8e5c3-5504-444f-b3ce-dba07ea19cad))
  (fp_line (start 12.64 55.5) (end 12.64 56.26) (layer "F.SilkS") (width 0.12) (tstamp 0ce1acce-505d-4372-8b32-24af3aec5c1b))
  (fp_line (start -1.27 0) (end -1.27 -1.27) (layer "F.SilkS") (width 0.12) (tstamp 0fb1d53f-f14a-486a-9117-bb8b4684456d))
  (fp_line (start 3.582929 48.64) (end 3.98 48.64) (layer "F.SilkS") (width 0.12) (tstamp 11621bb1-b7a3-4697-b3e4-45a708d9cefc))
  (fp_line (start 6.64 27.56) (end 12.64 27.56) (layer "F.SilkS") (width 0.12) (tstamp 13587778-5024-4dad-89d5-10b6601c7cb4))
  (fp_line (start 3.582929 40.26) (end 3.98 40.26) (layer "F.SilkS") (width 0.12) (tstamp 15cc01b8-c2c5-43be-b063-431cf502a133))
  (fp_line (start 12.64 23.24) (end 6.64 23.24) (layer "F.SilkS") (width 0.12) (tstamp 15e3e555-103e-4b13-8dc7-79cfea498c42))
  (fp_line (start 6.64 0.04) (end 12.64 0.04) (layer "F.SilkS") (width 0.12) (tstamp 17bccc73-45fa-421e-a664-a916473194a2))
  (fp_line (start 12.64 48.64) (end 6.64 48.64) (layer "F.SilkS") (width 0.12) (tstamp 18103ba9-835c-48cc-b93f-08a29a302740))
  (fp_line (start 3.582929 2.92) (end 3.98 2.92) (layer "F.SilkS") (width 0.12) (tstamp 18ce41ab-ff29-4ae2-a9a1-0e8784fc412e))
  (fp_line (start 3.582929 23.24) (end 3.98 23.24) (layer "F.SilkS") (width 0.12) (tstamp 233e2ef6-4a8e-47b8-b69e-6e7c6d0421bf))
  (fp_line (start 1.042929 61.34) (end 1.497071 61.34) (layer "F.SilkS") (width 0.12) (tstamp 23ee04ec-6e92-4b77-b22f-ad4e8fdf1645))
  (fp_line (start 3.582929 27.56) (end 3.98 27.56) (layer "F.SilkS") (width 0.12) (tstamp 249e5773-795e-4f0e-9528-b89066861ae5))
  (fp_line (start 3.582929 53.72) (end 3.98 53.72) (layer "F.SilkS") (width 0.12) (tstamp 24e87ffa-683b-4c0f-a325-3916be176d4e))
  (fp_line (start 1.042929 17.4) (end 1.497071 17.4) (layer "F.SilkS") (width 0.12) (tstamp 2618c445-37f4-4b73-8b3a-ddd8e4e52c4e))
  (fp_line (start 6.64 32.64) (end 12.64 32.64) (layer "F.SilkS") (width 0.12) (tstamp 266c4df6-ec4f-4ece-bc0a-2e80fda2bab8))
  (fp_line (start 3.582929 32.64) (end 3.98 32.64) (layer "F.SilkS") (width 0.12) (tstamp 26fb57b0-095a-4350-8343-fb60a7168595))
  (fp_line (start 12.64 0.38) (end 6.64 0.38) (layer "F.SilkS") (width 0.12) (tstamp 27585f51-bfc3-4f54-b8df-ad0f28ecc6e1))
  (fp_line (start 3.582929 56.26) (end 3.98 56.26) (layer "F.SilkS") (width 0.12) (tstamp 27957fba-58eb-42d2-84e8-bb9aa7aeb8a9))
  (fp_line (start 3.582929 25.02) (end 3.98 25.02) (layer "F.SilkS") (width 0.12) (tstamp 27d0908a-3a96-4974-80ea-7d305f14084a))
  (fp_line (start 1.042929 37.72) (end 1.497071 37.72) (layer "F.SilkS") (width 0.12) (tstamp 2a270ccd-f477-4fe9-abbe-9d73d78cb491))
  (fp_line (start 6.64 0.28) (end 12.64 0.28) (layer "F.SilkS") (width 0.12) (tstamp 2abdfb0e-e5a4-44d8-9118-47e1ddf26fca))
  (fp_line (start 3.582929 33.4) (end 3.98 33.4) (layer "F.SilkS") (width 0.12) (tstamp 2cea0051-50a4-4983-a983-2f9809ecfaa9))
  (fp_line (start 1.042929 58.8) (end 1.497071 58.8) (layer "F.SilkS") (width 0.12) (tstamp 2d31c63b-5451-43a7-a3a8-306db99953cc))
  (fp_line (start 3.582929 7.24) (end 3.98 7.24) (layer "F.SilkS") (width 0.12) (tstamp 2e8aaa40-d34f-4eaf-bc1d-0cfe7800e70d))
  (fp_line (start 3.98 54.61) (end 6.64 54.61) (layer "F.SilkS") (width 0.12) (tstamp 30ab2e3c-4cdf-41e9-bf2f-96eb4bdf1a32))
  (fp_line (start 3.98 34.29) (end 6.64 34.29) (layer "F.SilkS") (width 0.12) (tstamp 3242a956-3605-4a9a-98f1-099d6e31f29e))
  (fp_line (start 6.64 2.16) (end 12.64 2.16) (layer "F.SilkS") (width 0.12) (tstamp 329eebfd-c3b4-47e6-946e-4d8a1d192dcf))
  (fp_line (start 6.64 42.8) (end 12.64 42.8) (layer "F.SilkS") (width 0.12) (tstamp 3460f03b-fa27-4bdd-b504-840ce973323c))
  (fp_line (start 1.042929 33.4) (end 1.497071 33.4) (layer "F.SilkS") (width 0.12) (tstamp 3587f117-b48d-4ee0-addd-ebe1123117b8))
  (fp_line (start 3.582929 13.08) (end 3.98 13.08) (layer "F.SilkS") (width 0.12) (tstamp 359d2cc3-e643-424b-af92-b53ab7cdebfe))
  (fp_line (start 1.042929 30.86) (end 1.497071 30.86) (layer "F.SilkS") (width 0.12) (tstamp 35b77244-62c2-4d85-9c19-0138312534f8))
  (fp_line (start 12.64 18.16) (end 6.64 18.16) (layer "F.SilkS") (width 0.12) (tstamp 3618e59b-f123-4f72-b56a-7a154dcb87ff))
  (fp_line (start 3.98 41.91) (end 6.64 41.91) (layer "F.SilkS") (width 0.12) (tstamp 399c5a17-ba8b-4c26-85d5-9bfc170f40df))
  (fp_line (start 6.64 12.32) (end 12.64 12.32) (layer "F.SilkS") (width 0.12) (tstamp 3c320218-5237-40b3-9df2-acbdeaa2fa49))
  (fp_line (start 3.582929 25.78) (end 3.98 25.78) (layer "F.SilkS") (width 0.12) (tstamp 3c5489e9-36b7-4af0-8ebf-6ada78aee20a))
  (fp_line (start 1.042929 4.7) (end 1.497071 4.7) (layer "F.SilkS") (width 0.12) (tstamp 3c7dcd60-bbfe-43f1-84f5-4075fbdd7b7c))
  (fp_line (start 1.042929 5.46) (end 1.497071 5.46) (layer "F.SilkS") (width 0.12) (tstamp 3ee049e6-1d00-4832-841d-669cd9b17832))
  (fp_line (start 1.042929 45.34) (end 1.497071 45.34) (layer "F.SilkS") (width 0.12) (tstamp 3f98aa66-a15f-4e08-bce5-5687420a3ab5))
  (fp_line (start 12.64 17.4) (end 12.64 18.16) (layer "F.SilkS") (width 0.12) (tstamp 3fcd50e1-b483-4378-a132-df5a5cb5897d))
  (fp_line (start 12.64 51.18) (end 6.64 51.18) (layer "F.SilkS") (width 0.12) (tstamp 409a431d-7297-46e2-821a-d5be521dc6f4))
  (fp_line (start 3.582929 37.72) (end 3.98 37.72) (layer "F.SilkS") (width 0.12) (tstamp 41b92483-32a4-4d3b-95b7-53e75e5c467a))
  (fp_line (start 3.582929 9.78) (end 3.98 9.78) (layer "F.SilkS") (width 0.12) (tstamp 42090fad-f750-4292-a1ae-3f1574f02c0f))
  (fp_line (start 3.98 59.69) (end 6.64 59.69) (layer "F.SilkS") (width 0.12) (tstamp 442217b8-f166-4e31-a7f9-f7e3441a2c11))
  (fp_line (start 6.64 47.88) (end 12.64 47.88) (layer "F.SilkS") (width 0.12) (tstamp 45f74309-f8e3-448f-9db0-4da4c77caa16))
  (fp_line (start 3.582929 35.18) (end 3.98 35.18) (layer "F.SilkS") (width 0.12) (tstamp 4999a50e-4fff-49ee-8c72-0c75e8a1fc51))
  (fp_line (start 12.64 37.72) (end 12.64 38.48) (layer "F.SilkS") (width 0.12) (tstamp 4b93e4a4-f6db-422c-90ce-e9691af5c0fa))
  (fp_line (start 1.042929 9.78) (end 1.497071 9.78) (layer "F.SilkS") (width 0.12) (tstamp 4ba9222d-75a4-4edb-87d6-2fcba8f691bd))
  (fp_line (start 12.64 25.78) (end 6.64 25.78) (layer "F.SilkS") (width 0.12) (tstamp 4df24c25-0c97-4465-9eeb-46f5b1a8e63d))
  (fp_line (start 12.64 43.56) (end 6.64 43.56) (layer "F.SilkS") (width 0.12) (tstamp 5014fb10-9d47-4aab-a385-b2cd89fdde99))
  (fp_line (start 3.582929 43.56) (end 3.98 43.56) (layer "F.SilkS") (width 0.12) (tstamp 505cc15e-31a3-4253-9f17-28558c3d7404))
  (fp_line (start 1.042929 41.02) (end 1.497071 41.02) (layer "F.SilkS") (width 0.12) (tstamp 50f4d3eb-e0d8-4c18-b70b-0de0cad73c88))
  (fp_line (start 3.582929 50.42) (end 3.98 50.42) (layer "F.SilkS") (width 0.12) (tstamp 53b6d479-84a2-4c41-9c82-7b653bb395c7))
  (fp_line (start 3.582929 19.94) (end 3.98 19.94) (layer "F.SilkS") (width 0.12) (tstamp 53ec9e78-d9ac-4d1b-9ab0-7999ea17dd7c))
  (fp_line (start 1.042929 20.7) (end 1.497071 20.7) (layer "F.SilkS") (width 0.12) (tstamp 55234075-4c4f-47c3-88ff-bacea67338b8))
  (fp_line (start 3.582929 55.5) (end 3.98 55.5) (layer "F.SilkS") (width 0.12) (tstamp 554236d1-e780-4b19-aae7-8fbde946b1e7))
  (fp_line (start 6.64 17.4) (end 12.64 17.4) (layer "F.SilkS") (width 0.12) (tstamp 559d2395-b71c-4e72-9cbd-6d65c535121e))
  (fp_line (start 1.042929 50.42) (end 1.497071 50.42) (layer "F.SilkS") (width 0.12) (tstamp 573450b4-e960-455b-89dd-d82c371cf53c))
  (fp_line (start 3.582929 30.86) (end 3.98 30.86) (layer "F.SilkS") (width 0.12) (tstamp 57e954aa-498b-4f7b-9b12-90bfaa15cc79))
  (fp_line (start 3.98 31.75) (end 6.64 31.75) (layer "F.SilkS") (width 0.12) (tstamp 583ce638-d893-4fe8-a436-0d56f128606f))
  (fp_line (start 1.042929 35.18) (end 1.497071 35.18) (layer "F.SilkS") (width 0.12) (tstamp 58a76af0-b7ec-4593-b2ab-ef3e1442e154))
  (fp_line (start 3.582929 38.48) (end 3.98 38.48) (layer "F.SilkS") (width 0.12) (tstamp 597f2fcd-b7ef-47bc-8087-7fa2f048d8f8))
  (fp_line (start 1.042929 13.08) (end 1.497071 13.08) (layer "F.SilkS") (width 0.12) (tstamp 59a230e6-8c85-4e99-896a-3317a10261df))
  (fp_line (start 1.042929 8) (end 1.497071 8) (layer "F.SilkS") (width 0.12) (tstamp 5b9b357c-1cee-4e96-9254-b32de1345864))
  (fp_line (start 1.042929 53.72) (end 1.497071 53.72) (layer "F.SilkS") (width 0.12) (tstamp 5c951f93-0193-4a7b-9e62-7aca2417a616))
  (fp_line (start 6.64 -0.38) (end 12.64 -0.38) (layer "F.SilkS") (width 0.12) (tstamp 5d65ba24-92bb-4781-979d-2f8d64cbd8d0))
  (fp_line (start 12.64 7.24) (end 12.64 8) (layer "F.SilkS") (width 0.12) (tstamp 5edaa143-65ad-4a3d-8d7d-99801fe21d7e))
  (fp_line (start 1.042929 40.26) (end 1.497071 40.26) (layer "F.SilkS") (width 0.12) (tstamp 5f8de3fe-d363-4953-a633-783d3d6ab75a))
  (fp_line (start 3.582929 42.8) (end 3.98 42.8) (layer "F.SilkS") (width 0.12) (tstamp 616c9d56-600b-4f44-875b-bbc72c428219))
  (fp_line (start 1.042929 19.94) (end 1.497071 19.94) (layer "F.SilkS") (width 0.12) (tstamp 62533286-2d41-4b8b-b325-cb2123b3879d))
  (fp_line (start 1.042929 51.18) (end 1.497071 51.18) (layer "F.SilkS") (width 0.12) (tstamp 65902180-2e5c-4eb1-9d4c-0fb2a1bb6daa))
  (fp_line (start 12.64 20.7) (end 6.64 20.7) (layer "F.SilkS") (width 0.12) (tstamp 65bed14f-2ae7-4175-a530-f96ec47a4e2d))
  (fp_line (start 3.98 6.35) (end 6.64 6.35) (layer "F.SilkS") (width 0.12) (tstamp 65dafea1-cac4-4e07-a334-2d00c81cc6e2))
  (fp_line (start 3.582929 45.34) (end 3.98 45.34) (layer "F.SilkS") (width 0.12) (tstamp 66ae6ef0-e0dc-493e-a816-bfef2e2c3b3c))
  (fp_line (start 6.64 -0.2) (end 12.64 -0.2) (layer "F.SilkS") (width 0.12) (tstamp 69299f66-cd5a-4a4b-b9b6-2312a68eb4bb))
  (fp_line (start 3.98 39.37) (end 6.64 39.37) (layer "F.SilkS") (width 0.12) (tstamp 696d2b80-f1a0-412f-9e02-8dbfbee92b21))
  (fp_line (start 1.042929 25.78) (end 1.497071 25.78) (layer "F.SilkS") (width 0.12) (tstamp 6a446768-c7f9-46a9-a3be-c0e99f88fda7))
  (fp_line (start 12.64 13.08) (end 6.64 13.08) (layer "F.SilkS") (width 0.12) (tstamp 6be6fe78-affe-4c21-b73a-a62ee2c258ad))
  (fp_line (start 3.582929 47.88) (end 3.98 47.88) (layer "F.SilkS") (width 0.12) (tstamp 6f4c3e1c-1231-4be9-9d62-b6a736790ca6))
  (fp_line (start 12.64 5.46) (end 6.64 5.46) (layer "F.SilkS") (width 0.12) (tstamp 6f8570ee-fb87-4414-9280-736afcb9d9f6))
  (fp_line (start 1.042929 18.16) (end 1.497071 18.16) (layer "F.SilkS") (width 0.12) (tstamp 70b952b1-db0a-4783-828f-2bbf5c67a98c))
  (fp_line (start 3.582929 41.02) (end 3.98 41.02) (layer "F.SilkS") (width 0.12) (tstamp 720fd42c-c1e7-4fc5-8520-97fff9cf8a62))
  (fp_line (start 12.64 14.86) (end 12.64 15.62) (layer "F.SilkS") (width 0.12) (tstamp 7478259d-4c7f-4260-bb2c-5c4559a99000))
  (fp_line (start 1.042929 48.64) (end 1.497071 48.64) (layer "F.SilkS") (width 0.12) (tstamp 78858f30-3a40-4fdb-8944-7d17294c9c1a))
  (fp_line (start 12.64 25.02) (end 12.64 25.78) (layer "F.SilkS") (width 0.12) (tstamp 78e42475-f840-4f5e-a8ec-c06749594e4e))
  (fp_line (start 3.582929 30.1) (end 3.98 30.1) (layer "F.SilkS") (width 0.12) (tstamp 790efbde-3b8c-47e6-804d-13ab8eba750e))
  (fp_line (start 12.64 22.48) (end 12.64 23.24) (layer "F.SilkS") (width 0.12) (tstamp 7b5ce345-ce2a-4841-8be3-f64a1e4c1e15))
  (fp_line (start 1.042929 52.96) (end 1.497071 52.96) (layer "F.SilkS") (width 0.12) (tstamp 7b7b09cd-fac8-4871-962f-013efce81cc0))
  (fp_line (start 12.64 12.32) (end 12.64 13.08) (layer "F.SilkS") (width 0.12) (tstamp 7cb1446a-a465-44d7-a930-c8232e0d499f))
  (fp_line (start 1.042929 12.32) (end 1.497071 12.32) (layer "F.SilkS") (width 0.12) (tstamp 7deb20d9-2c98-453f-88ea-bdea321ece1e))
  (fp_line (start 3.582929 51.18) (end 3.98 51.18) (layer "F.SilkS") (width 0.12) (tstamp 7e113d70-551d-4911-b6bb-6ca2de16daff))
  (fp_line (start 12.64 9.78) (end 12.64 10.54) (layer "F.SilkS") (width 0.12) (tstamp 7ebc9df7-2e21-4680-94ef-2cc6c13fca5f))
  (fp_line (start 1.042929 23.24) (end 1.497071 23.24) (layer "F.SilkS") (width 0.12) (tstamp 7eee5923-0a61-47ab-b9ca-9c233525e695))
  (fp_line (start 12.64 32.64) (end 12.64 33.4) (layer "F.SilkS") (width 0.12) (tstamp 803220e8-692e-4426-a5ee-2120030911f5))
  (fp_line (start 3.98 26.67) (end 6.64 26.67) (layer "F.SilkS") (width 0.12) (tstamp 803c8079-ef3b-41c3-88e6-c5df97c87be5))
  (fp_line (start 3.582929 20.7) (end 3.98 20.7) (layer "F.SilkS") (width 0.12) (tstamp 80a6bf4d-03f4-4f5e-8dab-c76adc7b876a))
  (fp_line (start -1.27 -1.27) (end 0 -1.27) (layer "F.SilkS") (width 0.12) (tstamp 8125beeb-2d07-46da-a33c-0c82909ef9b1))
  (fp_line (start 6.64 40.26) (end 12.64 40.26) (layer "F.SilkS") (width 0.12) (tstamp 827003fc-1446-4812-a8c2-a11fa0715c57))
  (fp_line (start 1.042929 28.32) (end 1.497071 28.32) (layer "F.SilkS") (width 0.12) (tstamp 835cada5-184a-440d-8da6-cea4d7999ed7))
  (fp_line (start 12.64 53.72) (end 6.64 53.72) (layer "F.SilkS") (width 0.12) (tstamp 84551578-8350-44ec-aa9e-60989cbae28e))
  (fp_line (start 6.64 7.24) (end 12.64 7.24) (layer "F.SilkS") (width 0.12) (tstamp 859634c4-9ec5-44da-9156-a51b7eb098a8))
  (fp_line (start 12.64 40.26) (end 12.64 41.02) (layer "F.SilkS") (width 0.12) (tstamp 89790b2c-2e9a-4d01-b24f-a3341971712a))
  (fp_line (start 12.64 27.56) (end 12.64 28.32) (layer "F.SilkS") (width 0.12) (tstamp 8a362cc2-3ef9-494c-9dbf-fa8e56d2e6a4))
  (fp_line (start 12.64 28.32) (end 6.64 28.32) (layer "F.SilkS") (width 0.12) (tstamp 8a5110b2-0443-492c-a25d-6e3ce2f04c1f))
  (fp_line (start 3.98 44.45) (end 6.64 44.45) (layer "F.SilkS") (width 0.12) (tstamp 8b9a8cbb-e9ba-4c53-8ce9-2699d2c9d034))
  (fp_line (start 6.64 55.5) (end 12.64 55.5) (layer "F.SilkS") (width 0.12) (tstamp 8e85912d-2f80-4e24-bec5-614fc647e6d2))
  (fp_line (start 1.042929 32.64) (end 1.497071 32.64) (layer "F.SilkS") (width 0.12) (tstamp 8ef20d55-8bcd-4f6c-80a9-ae9ef295a485))
  (fp_line (start 1.042929 60.58) (end 1.497071 60.58) (layer "F.SilkS") (width 0.12) (tstamp 8f7d9f1d-f228-4aca-b87d-78f32f03fdfb))
  (fp_line (start 1.042929 35.94) (end 1.497071 35.94) (layer "F.SilkS") (width 0.12) (tstamp 8fc4067c-ebff-4f43-a6ba-e1d360869b65))
  (fp_line (start 1.042929 22.48) (end 1.497071 22.48) (layer "F.SilkS") (width 0.12) (tstamp 8fdc156f-7f78-4c33-b419-425eb05c6fac))
  (fp_line (start 6.64 9.78) (end 12.64 9.78) (layer "F.SilkS") (width 0.12) (tstamp 917728d5-69c5-4733-b9fe-b51bc3b827cc))
  (fp_line (start 1.11 0.38) (end 1.497071 0.38) (layer "F.SilkS") (width 0.12) (tstamp 92a75c18-a2cf-4404-821b-97c4a81d6f31))
  (fp_line (start 3.582929 61.34) (end 3.98 61.34) (layer "F.SilkS") (width 0.12) (tstamp 9460306a-3a57-42f9-be24-e2776e45e008))
  (fp_line (start 12.64 58.8) (end 6.64 58.8) (layer "F.SilkS") (width 0.12) (tstamp 949929bf-a0b0-45c0-b22f-327ff3c220fe))
  (fp_line (start 1.042929 55.5) (end 1.497071 55.5) (layer "F.SilkS") (width 0.12) (tstamp 9550bdd2-34a3-4efe-bec6-d0a83207b69c))
  (fp_line (start 3.582929 0.38) (end 3.98 0.38) (layer "F.SilkS") (width 0.12) (tstamp 96608466-cdfa-4bd7-ba78-91cf6cbc0466))
  (fp_line (start 6.64 25.02) (end 12.64 25.02) (layer "F.SilkS") (width 0.12) (tstamp 967a5758-3d5d-428e-96ea-1be7a9a331a4))
  (fp_line (start 6.64 -1.33) (end 3.98 -1.33) (layer "F.SilkS") (width 0.12) (tstamp 96a69ff7-45c7-4531-9a4b-dcffa98b1b82))
  (fp_line (start 12.64 19.94) (end 12.64 20.7) (layer "F.SilkS") (width 0.12) (tstamp 96b6f174-9791-45bc-a15c-ea6a291ac73b))
  (fp_line (start 3.582929 28.32) (end 3.98 28.32) (layer "F.SilkS") (width 0.12) (tstamp 96bd95a4-bdd4-45b7-ae62-d9f19672a02a))
  (fp_line (start 3.98 1.27) (end 6.64 1.27) (layer "F.SilkS") (width 0.12) (tstamp 97bbac43-cae0-49e3-b743-a872a98b184a))
  (fp_line (start 12.64 -0.38) (end 12.64 0.38) (layer "F.SilkS") (width 0.12) (tstamp 99a56785-f0d7-43d9-9b7b-b52d56d50175))
  (fp_line (start 3.582929 58.04) (end 3.98 58.04) (layer "F.SilkS") (width 0.12) (tstamp 9acab319-de7a-4188-9b27-372440e1e1db))
  (fp_line (start 1.042929 56.26) (end 1.497071 56.26) (layer "F.SilkS") (width 0.12) (tstamp 9b194ce3-7f8a-4b2d-8722-5a195a13c001))
  (fp_line (start 1.11 -0.38) (end 1.497071 -0.38) (layer "F.SilkS") (width 0.12) (tstamp 9b39aac6-f569-4967-9bb2-f3a1f550da48))
  (fp_line (start 12.64 60.58) (end 12.64 61.34) (layer "F.SilkS") (width 0.12) (tstamp 9bb7af5e-bae9-4277-bfc2-f18c03a90d00))
  (fp_line (start 3.582929 18.16) (end 3.98 18.16) (layer "F.SilkS") (width 0.12) (tstamp a0333ad9-4fe9-482f-adee-59383019190b))
  (fp_line (start 12.64 35.18) (end 12.64 35.94) (layer "F.SilkS") (width 0.12) (tstamp a25bba88-a574-42cb-bb99-a824d1d7317a))
  (fp_line (start 3.582929 4.7) (end 3.98 4.7) (layer "F.SilkS") (width 0.12) (tstamp a31f9338-be70-4b38-9d33-421bfc411737))
  (fp_line (start 12.64 15.62) (end 6.64 15.62) (layer "F.SilkS") (width 0.12) (tstamp a4df0a6f-3de8-4a5a-b940-e8d9f5571f2b))
  (fp_line (start 1.042929 46.1) (end 1.497071 46.1) (layer "F.SilkS") (width 0.12) (tstamp a5ab44d8-efcb-4c25-90e5-b6002bbc8eee))
  (fp_line (start 12.64 35.94) (end 6.64 35.94) (layer "F.SilkS") (width 0.12) (tstamp a6815f5f-3507-4f03-84a7-55767058a1f0))
  (fp_line (start 12.64 45.34) (end 12.64 46.1) (layer "F.SilkS") (width 0.12) (tstamp a727a376-ef54-4ec7-8874-769a3a16a7fb))
  (fp_line (start 6.64 45.34) (end 12.64 45.34) (layer "F.SilkS") (width 0.12) (tstamp a78b4eea-0e45-4189-bba8-33f22257905b))
  (fp_line (start 3.98 24.13) (end 6.64 24.13) (layer "F.SilkS") (width 0.12) (tstamp a7c2b894-0793-4d7c-accb-7ed116f187d7))
  (fp_line (start 1.042929 2.16) (end 1.497071 2.16) (layer "F.SilkS") (width 0.12) (tstamp a88a34f4-88df-46bd-8af4-e132dd269b31))
  (fp_line (start 3.98 52.07) (end 6.64 52.07) (layer "F.SilkS") (width 0.12) (tstamp ab4e4765-16f6-416a-a3aa-d8db7e900916))
  (fp_line (start 12.64 30.86) (end 6.64 30.86) (layer "F.SilkS") (width 0.12) (tstamp ac955582-f172-405d-af1e-6d6275205fb9))
  (fp_line (start 3.582929 17.4) (end 3.98 17.4) (layer "F.SilkS") (width 0.12) (tstamp ae6cced3-242c-478d-a10e-ace17c06839a))
  (fp_line (start 6.64 58.04) (end 12.64 58.04) (layer "F.SilkS") (width 0.12) (tstamp b1078cd0-a814-446f-a629-68688ad5ab94))
  (fp_line (start 12.64 52.96) (end 12.64 53.72) (layer "F.SilkS") (width 0.12) (tstamp b1647e7f-545b-4397-890a-10dcfddb4c62))
  (fp_line (start 6.64 19.94) (end 12.64 19.94) (layer "F.SilkS") (width 0.12) (tstamp b1ff97bc-66f4-4f08-a391-10c157bf9c29))
  (fp_line (start 1.042929 30.1) (end 1.497071 30.1) (layer "F.SilkS") (width 0.12) (tstamp b327902a-a032-437b-be03-ab80b7642c07))
  (fp_line (start 3.98 8.89) (end 6.64 8.89) (layer "F.SilkS") (width 0.12) (tstamp b412a00a-0728-4dbd-bf92-e141f84d81e8))
  (fp_line (start 12.64 10.54) (end 6.64 10.54) (layer "F.SilkS") (width 0.12) (tstamp b51e9b36-23af-49f3-981f-6975214f3225))
  (fp_line (start 3.98 36.83) (end 6.64 36.83) (layer "F.SilkS") (width 0.12) (tstamp b5b4dbf5-2ed0-420c-9ced-0728cab4b7ed))
  (fp_line (start 6.64 30.1) (end 12.64 30.1) (layer "F.SilkS") (width 0.12) (tstamp b5f1dd17-fcd2-42bf-836c-6ef7c63bb153))
  (fp_line (start 1.042929 42.8) (end 1.497071 42.8) (layer "F.SilkS") (width 0.12) (tstamp b7743581-984b-4406-842d-1a6a6ef7911d))
  (fp_line (start 3.98 29.21) (end 6.64 29.21) (layer "F.SilkS") (width 0.12) (tstamp b8c6369b-55f1-4e5d-bdf2-b33422e10298))
  (fp_line (start 6.64 22.48) (end 12.64 22.48) (layer "F.SilkS") (width 0.12) (tstamp b959c3c0-2dca-4fc1-92b7-7a421dbe7d3c))
  (fp_line (start 3.582929 58.8) (end 3.98 58.8) (layer "F.SilkS") (width 0.12) (tstamp bbacd16d-4f67-41ff-a291-68a80eb816e3))
  (fp_line (start 6.64 -0.08) (end 12.64 -0.08) (layer "F.SilkS") (width 0.12) (tstamp bbb6bfdf-0304-4402-81cf-4f5e7b273377))
  (fp_line (start 3.98 3.81) (end 6.64 3.81) (layer "F.SilkS") (width 0.12) (tstamp be9e19ca-2b46-4e25-9f8c-c6a6da4936a6))
  (fp_line (start 12.64 33.4) (end 6.64 33.4) (layer "F.SilkS") (width 0.12) (tstamp beeea84c-5691-4520-9c07-106856a60c62))
  (fp_line (start 6.64 0.16) (end 12.64 0.16) (layer "F.SilkS") (width 0.12) (tstamp bf5a7b2d-2ddc-4588-b9e2-59d9c31982e5))
  (fp_line (start 6.64 60.58) (end 12.64 60.58) (layer "F.SilkS") (width 0.12) (tstamp bf9c72c8-6fad-4f61-b818-742e81dd065f))
  (fp_line (start 6.64 52.96) (end 12.64 52.96) (layer "F.SilkS") (width 0.12) (tstamp c2847c3b-96b9-469e-8f4a-78df566b002e))
  (fp_line (start 3.98 16.51) (end 6.64 16.51) (layer "F.SilkS") (width 0.12) (tstamp c601697d-9436-4343-bc30-5c220fdfd906))
  (fp_line (start 6.64 50.42) (end 12.64 50.42) (layer "F.SilkS") (width 0.12) (tstamp c6324071-6039-45bd-8512-6baa4c5c8696))
  (fp_line (start 3.582929 8) (end 3.98 8) (layer "F.SilkS") (width 0.12) (tstamp c8d1cf8c-1d6a-42cc-9935-e9abe71ddbc1))
  (fp_line (start 1.042929 43.56) (end 1.497071 43.56) (layer "F.SilkS") (width 0.12) (tstamp c8d536a7-734f-4dcf-8d4c-a09da8d1596f))
  (fp_line (start 1.042929 2.92) (end 1.497071 2.92) (layer "F.SilkS") (width 0.12) (tstamp c9d7788c-bf81-4184-b326-bc41f205fbbc))
  (fp_line (start 3.582929 35.94) (end 3.98 35.94) (layer "F.SilkS") (width 0.12) (tstamp ca4360b7-2884-467f-82b1-a171f44b255f))
  (fp_line (start 3.582929 12.32) (end 3.98 12.32) (layer "F.SilkS") (width 0.12) (tstamp cb7019f5-bbe6-4f61-b620-aef175ea96dd))
  (fp_line (start 1.042929 38.48) (end 1.497071 38.48) (layer "F.SilkS") (width 0.12) (tstamp cbbca9da-bd78-45f5-9400-e818923ded31))
  (fp_line (start 12.64 47.88) (end 12.64 48.64) (layer "F.SilkS") (width 0.12) (tstamp cc087b94-e262-44f2-a82f-52e9ed36a66e))
  (fp_line (start 1.042929 58.04) (end 1.497071 58.04) (layer "F.SilkS") (width 0.12) (tstamp ce7d8a5d-1656-460f-8000-2ee89e95e57d))
  (fp_line (start 3.582929 5.46) (end 3.98 5.46) (layer "F.SilkS") (width 0.12) (tstamp d1d37b3b-bc25-4917-9fe9-f694488d2cff))
  (fp_line (start 3.98 49.53) (end 6.64 49.53) (layer "F.SilkS") (width 0.12) (tstamp d24c55e1-6e8e-4afe-b560-3298426fe331))
  (fp_line (start 1.042929 47.88) (end 1.497071 47.88) (layer "F.SilkS") (width 0.12) (tstamp d27aca75-5fd9-4ddc-b327-edd12f35eddc))
  (fp_line (start 12.64 8) (end 6.64 8) (layer "F.SilkS") (width 0.12) (tstamp d27fb518-d9dd-4712-b801-c733d3a5175a))
  (fp_line (start 6.64 -0.32) (end 12.64 -0.32) (layer "F.SilkS") (width 0.12) (tstamp d38135c2-4d3b-4a8f-8bc7-39477a3f13eb))
  (fp_line (start 3.582929 -0.38) (end 3.98 -0.38) (layer "F.SilkS") (width 0.12) (tstamp d5fd6b1c-b191-4733-976c-340eb91dc898))
  (fp_line (start 1.042929 27.56) (end 1.497071 27.56) (layer "F.SilkS") (width 0.12) (tstamp df11a9f0-1c1c-4572-a117-fcbc3deca48b))
  (fp_line (start 3.98 11.43) (end 6.64 11.43) (layer "F.SilkS") (width 0.12) (tstamp df5e87a6-66a6-43cb-8f31-547ca385b634))
  (fp_line (start 12.64 56.26) (end 6.64 56.26) (layer "F.SilkS") (width 0.12) (tstamp e0eaf5f6-bbc6-4d2a-861b-18a8011a8f72))
  (fp_line (start 12.64 2.16) (end 12.64 2.92) (layer "F.SilkS") (width 0.12) (tstamp e0fda14d-d02f-40db-90e1-5794a9b6aff2))
  (fp_line (start 3.582929 2.16) (end 3.98 2.16) (layer "F.SilkS") (width 0.12) (tstamp e2265d44-ed6e-4463-af05-3f3263349dc1))
  (fp_line (start 12.64 38.48) (end 6.64 38.48) (layer "F.SilkS") (width 0.12) (tstamp e2ba1352-7486-469f-96ee-2a3dabf1785c))
  (fp_line (start 6.64 14.86) (end 12.64 14.86) (layer "F.SilkS") (width 0.12) (tstamp e553b762-7f00-41f4-96d2-b5693a3ba4bd))
  (fp_line (start 1.042929 7.24) (end 1.497071 7.24) (layer "F.SilkS") (width 0.12) (tstamp e72cc04e-8c0d-495a-a073-7ca548e06599))
  (fp_line (start 12.64 41.02) (end 6.64 41.02) (layer "F.SilkS") (width 0.12) (tstamp e8de75ba-9b3c-45af-bd7a-679e0236c40b))
  (fp_line (start 12.64 50.42) (end 12.64 51.18) (layer "F.SilkS") (width 0.12) (tstamp e903b9d8-8115-433b-9756-b0f825e198b5))
  (fp_line (start 12.64 58.04) (end 12.64 58.8) (layer "F.SilkS") (width 0.12) (tstamp ec72a0a4-c7d2-40dc-8d85-ca987db37459))
  (fp_line (start 3.98 -1.33) (end 3.98 62.29) (layer "F.SilkS") (width 0.12) (tstamp ec8a2015-9734-4744-9b48-2ca6fbf3a2b3))
  (fp_line (start 3.98 21.59) (end 6.64 21.59) (layer "F.SilkS") (width 0.12) (tstamp ed3977b4-e3bd-45fe-874f-49c0ecfc9ca4))
  (fp_line (start 3.582929 10.54) (end 3.98 10.54) (layer "F.SilkS") (width 0.12) (tstamp efd5b9ea-ec9f-4d1e-9f04-29e93896bd01))
  (fp_line (start 1.042929 14.86) (end 1.497071 14.86) (layer "F.SilkS") (width 0.12) (tstamp f0d08f8f-dcaf-454b-9f22-9973b4dd482f))
  (fp_line (start 3.98 62.29) (end 6.64 62.29) (layer "F.SilkS") (width 0.12) (tstamp f2ed8e9b-4f06-4aca-8a92-5a433a411297))
  (fp_line (start 3.98 57.15) (end 6.64 57.15) (layer "F.SilkS") (width 0.12) (tstamp f374ce3c-d1d8-449f-88f0-8682965607ac))
  (fp_line (start 3.582929 60.58) (end 3.98 60.58) (layer "F.SilkS") (width 0.12) (tstamp f4621ce0-d5ac-4e64-ae8b-5ed69c5b11d5))
  (fp_line (start 3.582929 46.1) (end 3.98 46.1) (layer "F.SilkS") (width 0.12) (tstamp f5ce95d3-815c-4eae-94ff-6e1ab009ecb3))
  (fp_line (start 1.042929 25.02) (end 1.497071 25.02) (layer "F.SilkS") (width 0.12) (tstamp f8d29ce7-c362-4bda-94fb-5514ad4bd741))
  (fp_line (start 12.64 4.7) (end 12.64 5.46) (layer "F.SilkS") (width 0.12) (tstamp fa001f12-4e20-4432-82c4-d79e85140591))
  (fp_line (start 1.042929 10.54) (end 1.497071 10.54) (layer "F.SilkS") (width 0.12) (tstamp fbc7b1a8-b9b6-48b3-b65a-f7e797a4e8f4))
  (fp_line (start 6.64 4.7) (end 12.64 4.7) (layer "F.SilkS") (width 0.12) (tstamp fdd91404-9279-4ebf-b62d-9387005ed13b))
  (fp_line (start 3.98 19.05) (end 6.64 19.05) (layer "F.SilkS") (width 0.12) (tstamp fec74879-fc07-46cd-a614-4d63b77c3ace))
  (fp_line (start 13.1 -1.8) (end -1.8 -1.8) (layer "F.CrtYd") (width 0.05) (tstamp 0831e624-580b-4c2c-8add-2a554c1308ae))
  (fp_line (start 13.1 62.75) (end 13.1 -1.8) (layer "F.CrtYd") (width 0.05) (tstamp 4ae90ab8-c68d-4252-b52f-8a921cb33006))
  (fp_line (start -1.8 62.75) (end 13.1 62.75) (layer "F.CrtYd") (width 0.05) (tstamp f6a88352-8eae-44a8-adf6-0be3462fec92))
  (fp_line (start -1.8 -1.8) (end -1.8 62.75) (layer "F.CrtYd") (width 0.05) (tstamp f71da9c5-c99a-436a-9300-553466c72bc2))
  (fp_line (start -0.32 4.76) (end 4.04 4.76) (layer "F.Fab") (width 0.1) (tstamp 0001d88e-eba2-4e3b-8bec-0515236e9956))
  (fp_line (start -0.32 30.8) (end 4.04 30.8) (layer "F.Fab") (width 0.1) (tstamp 007b73f1-a969-45f0-a94f-3bccea820cd7))
  (fp_line (start 12.58 42.86) (end 12.58 43.5) (layer "F.Fab") (width 0.1) (tstamp 01e902ce-78b9-428a-b326-35c6ba8e062c))
  (fp_line (start 6.58 10.48) (end 12.58 10.48) (layer "F.Fab") (width 0.1) (tstamp 028d719d-5ab2-4a14-9fcb-4ce1b21d618d))
  (fp_line (start -0.32 38.42) (end 4.04 38.42) (layer "F.Fab") (width 0.1) (tstamp 04ccf0f4-f8e0-4602-b7a6-569aa84140b0))
  (fp_line (start 6.58 32.7) (end 12.58 32.7) (layer "F.Fab") (width 0.1) (tstamp 093a3879-c290-4656-8cc7-879211d77b33))
  (fp_line (start 12.58 32.7) (end 12.58 33.34) (layer "F.Fab") (width 0.1) (tstamp 09970449-618a-4ee6-a368-d192985df713))
  (fp_line (start 6.58 60.64) (end 12.58 60.64) (layer "F.Fab") (width 0.1) (tstamp 09d40258-797d-49ee-ba01-a4f5db5b4298))
  (fp_line (start 12.58 14.92) (end 12.58 15.56) (layer "F.Fab") (width 0.1) (tstamp 09dc9c43-7a53-4fc8-94a1-876bf8f6f175))
  (fp_line (start 6.58 4.76) (end 12.58 4.76) (layer "F.Fab") (width 0.1) (tstamp 0a492aea-c8af-4f6c-908f-a560e7dac21f))
  (fp_line (start 4.04 -0.635) (end 4.675 -1.27) (layer "F.Fab") (width 0.1) (tstamp 0a565043-3a1c-4067-84bb-d2c227b30df2))
  (fp_line (start 6.58 7.3) (end 12.58 7.3) (layer "F.Fab") (width 0.1) (tstamp 0aa86ba5-854c-44f0-8ef5-0e203dd760e0))
  (fp_line (start 6.58 25.72) (end 12.58 25.72) (layer "F.Fab") (width 0.1) (tstamp 0bda6df4-babf-4022-8f73-2c7137875310))
  (fp_line (start -0.32 23.18) (end 4.04 23.18) (layer "F.Fab") (width 0.1) (tstamp 1232c954-31f1-440c-be1a-bdf1efa47161))
  (fp_line (start -0.32 7.94) (end 4.04 7.94) (layer "F.Fab") (width 0.1) (tstamp 13455a1b-2baa-4e91-81be-9a3e250e7b32))
  (fp_line (start 12.58 9.84) (end 12.58 10.48) (layer "F.Fab") (width 0.1) (tstamp 17ce9ee3-8566-4988-bd40-cd114698f24f))
  (fp_line (start -0.32 58.74) (end 4.04 58.74) (layer "F.Fab") (width 0.1) (tstamp 189d5c2a-b935-47e0-af8b-4a9058c23216))
  (fp_line (start -0.32 55.56) (end -0.32 56.2) (layer "F.Fab") (width 0.1) (tstamp 1ab9d3ed-452d-42da-858e-3ad6d12c814f))
  (fp_line (start 12.58 27.62) (end 12.58 28.26) (layer "F.Fab") (width 0.1) (tstamp 1bbbed7e-954e-4bb8-9af3-3610275d511e))
  (fp_line (start 12.58 -0.32) (end 12.58 0.32) (layer "F.Fab") (width 0.1) (tstamp 1ebd7c62-ead9-4954-bcfd-630eb5df20e5))
  (fp_line (start -0.32 27.62) (end -0.32 28.26) (layer "F.Fab") (width 0.1) (tstamp 20b11d25-66c5-492f-b927-54a449ed1251))
  (fp_line (start -0.32 10.48) (end 4.04 10.48) (layer "F.Fab") (width 0.1) (tstamp 2113e7e9-c35c-4199-8aa8-188e47b9c500))
  (fp_line (start -0.32 12.38) (end -0.32 13.02) (layer "F.Fab") (width 0.1) (tstamp 21597e33-5fe0-43ac-9524-d6a79ade598b))
  (fp_line (start -0.32 2.22) (end -0.32 2.86) (layer "F.Fab") (width 0.1) (tstamp 2331ff90-d909-476c-90cc-d72de3ce85ea))
  (fp_line (start -0.32 27.62) (end 4.04 27.62) (layer "F.Fab") (width 0.1) (tstamp 24ae6720-b06a-4d6d-a9c7-a998512e1d87))
  (fp_line (start -0.32 50.48) (end -0.32 51.12) (layer "F.Fab") (width 0.1) (tstamp 26a64b94-ebd1-4d2b-b6ad-3f3e7a7a17fa))
  (fp_line (start 6.58 5.4) (end 12.58 5.4) (layer "F.Fab") (width 0.1) (tstamp 26ca00be-a070-4335-ac4a-a5b203b6ddf9))
  (fp_line (start -0.32 45.4) (end -0.32 46.04) (layer "F.Fab") (width 0.1) (tstamp 2dd32692-4338-4403-975b-e5d80bfe920f))
  (fp_line (start -0.32 9.84) (end -0.32 10.48) (layer "F.Fab") (width 0.1) (tstamp 300865ca-3803-479a-b243-eef45a2fa189))
  (fp_line (start 6.58 27.62) (end 12.58 27.62) (layer "F.Fab") (width 0.1) (tstamp 321e41b5-9cfe-4fc1-82c2-8a762d3a9120))
  (fp_line (start -0.32 35.24) (end -0.32 35.88) (layer "F.Fab") (width 0.1) (tstamp 33d1a28b-3551-49f0-a57c-6e230b996390))
  (fp_line (start -0.32 12.38) (end 4.04 12.38) (layer "F.Fab") (width 0.1) (tstamp 352a1f42-503c-4e03-9336-9fa0cbb7e7fa))
  (fp_line (start 6.58 45.4) (end 12.58 45.4) (layer "F.Fab") (width 0.1) (tstamp 36a50903-6efc-4a3c-942a-ef8d2569a532))
  (fp_line (start -0.32 35.24) (end 4.04 35.24) (layer "F.Fab") (width 0.1) (tstamp 3750fddd-a0c7-415a-b27b-29f6f851e4d4))
  (fp_line (start 6.58 14.92) (end 12.58 14.92) (layer "F.Fab") (width 0.1) (tstamp 37c8834c-ae7d-43cd-ae08-ee2dc159c46f))
  (fp_line (start -0.32 22.54) (end -0.32 23.18) (layer "F.Fab") (width 0.1) (tstamp 3893eac2-83a6-4447-b02b-4c88b15c337e))
  (fp_line (start -0.32 7.3) (end -0.32 7.94) (layer "F.Fab") (width 0.1) (tstamp 3911a94d-2d75-4213-ba5c-4c7e394a6499))
  (fp_line (start -0.32 30.16) (end -0.32 30.8) (layer "F.Fab") (width 0.1) (tstamp 393b4907-c5cc-4ec2-8bfa-ccbcdac4c583))
  (fp_line (start -0.32 40.96) (end 4.04 40.96) (layer "F.Fab") (width 0.1) (tstamp 3af21d6e-dae8-465d-b9c8-a4c1cef7a8a4))
  (fp_line (start -0.32 37.78) (end 4.04 37.78) (layer "F.Fab") (width 0.1) (tstamp 3ec4841a-6d7b-4800-97df-de5c574e4825))
  (fp_line (start 6.58 7.94) (end 12.58 7.94) (layer "F.Fab") (width 0.1) (tstamp 406a7300-ddbb-471e-ab85-d4acf30c2762))
  (fp_line (start 12.58 45.4) (end 12.58 46.04) (layer "F.Fab") (width 0.1) (tstamp 414ca1aa-7c26-45f5-8167-510e858eccad))
  (fp_line (start -0.32 22.54) (end 4.04 22.54) (layer "F.Fab") (width 0.1) (tstamp 415a62db-407b-44bd-a384-3421f3baafa2))
  (fp_line (start 12.58 12.38) (end 12.58 13.02) (layer "F.Fab") (width 0.1) (tstamp 427af624-a550-425e-9515-3fdde9d1da6d))
  (fp_line (start -0.32 53.02) (end 4.04 53.02) (layer "F.Fab") (width 0.1) (tstamp 44ed12b5-fdd3-402a-9afc-746da68ebf92))
  (fp_line (start 6.58 -0.32) (end 12.58 -0.32) (layer "F.Fab") (width 0.1) (tstamp 45f0733e-cdfa-48f4-b8c8-88d41dff6db2))
  (fp_line (start 6.58 9.84) (end 12.58 9.84) (layer "F.Fab") (width 0.1) (tstamp 460722fb-da82-42fc-96a3-211f815346b1))
  (fp_line (start 6.58 28.26) (end 12.58 28.26) (layer "F.Fab") (width 0.1) (tstamp 4a2aef17-c379-4e8c-9a86-ec063e4ec968))
  (fp_line (start -0.32 53.02) (end -0.32 53.66) (layer "F.Fab") (width 0.1) (tstamp 4c9c12a8-db05-4803-ba51-5b842b851da6))
  (fp_line (start -0.32 61.28) (end 4.04 61.28) (layer "F.Fab") (width 0.1) (tstamp 4d869a87-dc34-47f3-85bb-5675ba390285))
  (fp_line (start 6.58 0.32) (end 12.58 0.32) (layer "F.Fab") (width 0.1) (tstamp 52572c35-694d-4689-8295-4f9ea9bb6755))
  (fp_line (start 6.58 48.58) (end 12.58 48.58) (layer "F.Fab") (width 0.1) (tstamp 53febdef-83ae-4491-8243-5252335cd523))
  (fp_line (start 12.58 47.94) (end 12.58 48.58) (layer "F.Fab") (width 0.1) (tstamp 5540e428-290e-434f-b428-d0ba47916668))
  (fp_line (start 12.58 50.48) (end 12.58 51.12) (layer "F.Fab") (width 0.1) (tstamp 5a323457-244c-40bf-aeda-66de94fd412a))
  (fp_line (start -0.32 14.92) (end -0.32 15.56) (layer "F.Fab") (width 0.1) (tstamp 5ab53895-6a25-4ce0-8d58-54f22a4e397c))
  (fp_line (start 6.58 -1.27) (end 6.58 62.23) (layer "F.Fab") (width 0.1) (tstamp 5afa2120-21d0-4b97-acb8-0b23a58de0bd))
  (fp_line (start -0.32 14.92) (end 4.04 14.92) (layer "F.Fab") (width 0.1) (tstamp 5c4bd7bc-878f-4ffb-bc57-ac15c1573507))
  (fp_line (start -0.32 4.76) (end -0.32 5.4) (layer "F.Fab") (width 0.1) (tstamp 5e238200-2988-4666-98d7-0a9538af33f3))
  (fp_line (start 6.58 12.38) (end 12.58 12.38) (layer "F.Fab") (width 0.1) (tstamp 60819e85-6ef4-4714-95b4-9542e19c5004))
  (fp_line (start 12.58 37.78) (end 12.58 38.42) (layer "F.Fab") (width 0.1) (tstamp 625273d8-cf1d-4f9c-91a7-6f2b08e37676))
  (fp_line (start 6.58 30.8) (end 12.58 30.8) (layer "F.Fab") (width 0.1) (tstamp 656d0b9e-d34d-4866-bac0-3cdfb1819a8e))
  (fp_line (start -0.32 48.58) (end 4.04 48.58) (layer "F.Fab") (width 0.1) (tstamp 69219f61-3db1-4464-b286-c2c7421528d0))
  (fp_line (start 6.58 35.88) (end 12.58 35.88) (layer "F.Fab") (width 0.1) (tstamp 69793776-ba0d-4442-a6bd-6a4672db4db5))
  (fp_line (start 12.58 20) (end 12.58 20.64) (layer "F.Fab") (width 0.1) (tstamp 6d8669f0-3cd6-4ee2-ac90-e63bb1deeb1c))
  (fp_line (start -0.32 37.78) (end -0.32 38.42) (layer "F.Fab") (width 0.1) (tstamp 6e3c419e-d73c-4397-a1fa-e7c7d9e9116d))
  (fp_line (start -0.32 43.5) (end 4.04 43.5) (layer "F.Fab") (width 0.1) (tstamp 6f3a04ab-6e0b-4780-a137-f69026f8e349))
  (fp_line (start -0.32 17.46) (end 4.04 17.46) (layer "F.Fab") (width 0.1) (tstamp 70418451-d70c-493c-a34f-eeb99903f0c0))
  (fp_line (start 4.04 62.23) (end 4.04 -0.635) (layer "F.Fab") (width 0.1) (tstamp 73e607a5-85cc-4e0d-a1cb-0d4f4c6a47d7))
  (fp_line (start -0.32 20) (end -0.32 20.64) (layer "F.Fab") (width 0.1) (tstamp 749140f5-fafc-4796-b695-0bf70ae6b77a))
  (fp_line (start -0.32 45.4) (end 4.04 45.4) (layer "F.Fab") (width 0.1) (tstamp 75d4f659-9a92-4333-abf1-67c938900a2c))
  (fp_line (start -0.32 7.3) (end 4.04 7.3) (layer "F.Fab") (width 0.1) (tstamp 76200d0c-d34a-4483-88b3-9cd3e54e384c))
  (fp_line (start 6.58 43.5) (end 12.58 43.5) (layer "F.Fab") (width 0.1) (tstamp 766e9518-57fc-44bb-a27b-3f91d91f92a5))
  (fp_line (start -0.32 51.12) (end 4.04 51.12) (layer "F.Fab") (width 0.1) (tstamp 791877f0-e5c6-4361-b031-ee75d78b9da0))
  (fp_line (start 6.58 40.32) (end 12.58 40.32) (layer "F.Fab") (width 0.1) (tstamp 79d4dcd2-4ed6-4e42-b48e-9b34b4df7923))
  (fp_line (start 12.58 35.24) (end 12.58 35.88) (layer "F.Fab") (width 0.1) (tstamp 7a036a01-5a55-4c8c-ba96-137d33d52cce))
  (fp_line (start 6.58 22.54) (end 12.58 22.54) (layer "F.Fab") (width 0.1) (tstamp 7a8be27a-ce04-4d1e-8769-ce41332ccf67))
  (fp_line (start -0.32 0.32) (end 4.04 0.32) (layer "F.Fab") (width 0.1) (tstamp 7beea727-d4bb-461c-9c93-a9ea2d19fce3))
  (fp_line (start -0.32 35.88) (end 4.04 35.88) (layer "F.Fab") (width 0.1) (tstamp 7c6d9316-e731-4069-ab39-129e3f004412))
  (fp_line (start 6.58 2.86) (end 12.58 2.86) (layer "F.Fab") (width 0.1) (tstamp 7c9159f5-4c53-4da1-9d1e-90bbdc61512f))
  (fp_line (start -0.32 25.08) (end -0.32 25.72) (layer "F.Fab") (width 0.1) (tstamp 81352dc7-9bfe-41bb-936a-86800133a2e5))
  (fp_line (start -0.32 58.1) (end 4.04 58.1) (layer "F.Fab") (width 0.1) (tstamp 81c39c36-026e-4f2a-a72c-48f168455e59))
  (fp_line (start 6.58 18.1) (end 12.58 18.1) (layer "F.Fab") (width 0.1) (tstamp 8360b912-b82b-4461-b96c-c2f7475a694c))
  (fp_line (start -0.32 40.32) (end 4.04 40.32) (layer "F.Fab") (width 0.1) (tstamp 83e04863-2248-448a-a9b3-96d436d7aa35))
  (fp_line (start -0.32 25.72) (end 4.04 25.72) (layer "F.Fab") (width 0.1) (tstamp 83e0bcbe-ef90-4824-9133-66bd7eafb8e5))
  (fp_line (start -0.32 55.56) (end 4.04 55.56) (layer "F.Fab") (width 0.1) (tstamp 85847a36-4450-45cc-8d04-e890117b53c8))
  (fp_line (start 6.58 38.42) (end 12.58 38.42) (layer "F.Fab") (width 0.1) (tstamp 88bc7ed7-8825-40bf-ae67-338f06bee16c))
  (fp_line (start 6.58 51.12) (end 12.58 51.12) (layer "F.Fab") (width 0.1) (tstamp 8a3d0eff-4045-47b5-be3a-7f0b3eb0632e))
  (fp_line (start 12.58 4.76) (end 12.58 5.4) (layer "F.Fab") (width 0.1) (tstamp 8aabee0f-5ae6-41f1-a859-dab756ae2fc5))
  (fp_line (start 6.58 20.64) (end 12.58 20.64) (layer "F.Fab") (width 0.1) (tstamp 8e1322e9-d5d8-4e9c-b357-49ad1deda829))
  (fp_line (start -0.32 46.04) (end 4.04 46.04) (layer "F.Fab") (width 0.1) (tstamp 8efba1d3-cea7-4206-8d0b-c2cb9dc012a9))
  (fp_line (start 6.58 47.94) (end 12.58 47.94) (layer "F.Fab") (width 0.1) (tstamp 8f191f2a-9b33-43ae-a973-71b371984537))
  (fp_line (start -0.32 5.4) (end 4.04 5.4) (layer "F.Fab") (width 0.1) (tstamp 8f5e4907-73bf-4446-b2ea-ac9a41099bb8))
  (fp_line (start 6.58 2.22) (end 12.58 2.22) (layer "F.Fab") (width 0.1) (tstamp 8fb1107f-27e3-45b3-ad7f-b649a48f7e50))
  (fp_line (start 6.58 30.16) (end 12.58 30.16) (layer "F.Fab") (width 0.1) (tstamp 8fc9880d-f5fd-40b5-87a1-422563cb0b69))
  (fp_line (start 6.58 58.74) (end 12.58 58.74) (layer "F.Fab") (width 0.1) (tstamp 90a54413-ccaa-4254-bb83-8b4c8dc53ffd))
  (fp_line (start 12.58 22.54) (end 12.58 23.18) (layer "F.Fab") (width 0.1) (tstamp 90eb8277-6477-4e6a-96af-8cb03920414e))
  (fp_line (start 6.58 15.56) (end 12.58 15.56) (layer "F.Fab") (width 0.1) (tstamp 92d48e3e-5b42-411b-9979-5e0571a806df))
  (fp_line (start -0.32 42.86) (end -0.32 43.5) (layer "F.Fab") (width 0.1) (tstamp 9ad99293-2053-4296-b70f-b0103b072421))
  (fp_line (start -0.32 56.2) (end 4.04 56.2) (layer "F.Fab") (width 0.1) (tstamp 9cce4286-849a-4057-bcec-5342a4ca7a6d))
  (fp_line (start -0.32 20.64) (end 4.04 20.64) (layer "F.Fab") (width 0.1) (tstamp 9e03f5b8-3aa1-4a97-9118-21e9c180c4d3))
  (fp_line (start 6.58 50.48) (end 12.58 50.48) (layer "F.Fab") (width 0.1) (tstamp 9e5e272f-f134-494a-8258-dc97c454046c))
  (fp_line (start -0.32 30.16) (end 4.04 30.16) (layer "F.Fab") (width 0.1) (tstamp a0248f47-ffeb-45fd-962a-bd9f6c933a8e))
  (fp_line (start -0.32 58.1) (end -0.32 58.74) (layer "F.Fab") (width 0.1) (tstamp a084a1a3-1de6-4c47-8b0a-b9c94f5b4590))
  (fp_line (start -0.32 18.1) (end 4.04 18.1) (layer "F.Fab") (width 0.1) (tstamp a243bde0-cca1-4a77-a099-f992693e0200))
  (fp_line (start 6.58 13.02) (end 12.58 13.02) (layer "F.Fab") (width 0.1) (tstamp a28c1c45-de0e-428e-abc5-adcdc51ffa00))
  (fp_line (start 12.58 25.08) (end 12.58 25.72) (layer "F.Fab") (width 0.1) (tstamp a3391378-a3b8-492c-af73-68614609d4b6))
  (fp_line (start -0.32 32.7) (end 4.04 32.7) (layer "F.Fab") (width 0.1) (tstamp a3d1e123-02a2-41d1-ba70-0ec25a9d9891))
  (fp_line (start 12.58 30.16) (end 12.58 30.8) (layer "F.Fab") (width 0.1) (tstamp a3f85f6f-f16c-456f-88e3-2dd8e25c5325))
  (fp_line (start -0.32 2.22) (end 4.04 2.22) (layer "F.Fab") (width 0.1) (tstamp a4a66f17-076c-49b0-bf42-b189bd7967fd))
  (fp_line (start 6.58 61.28) (end 12.58 61.28) (layer "F.Fab") (width 0.1) (tstamp a5edd6a8-4d3b-4f0a-afd7-f5108edb6adf))
  (fp_line (start -0.32 47.94) (end -0.32 48.58) (layer "F.Fab") (width 0.1) (tstamp a7a34b6a-46f7-41b9-9235-b2ae6f3b2e46))
  (fp_line (start -0.32 9.84) (end 4.04 9.84) (layer "F.Fab") (width 0.1) (tstamp a930992d-dc83-45d7-b6a7-2bb1567a6778))
  (fp_line (start -0.32 15.56) (end 4.04 15.56) (layer "F.Fab") (width 0.1) (tstamp ad9cc078-3ac7-4dc2-8ef8-2c0f23264edf))
  (fp_line (start -0.32 -0.32) (end 4.04 -0.32) (layer "F.Fab") (width 0.1) (tstamp afc331a4-a326-4388-ae47-859484119373))
  (fp_line (start 12.58 40.32) (end 12.58 40.96) (layer "F.Fab") (width 0.1) (tstamp b40037e2-3f1c-4cf7-8c93-c8102e3c44fa))
  (fp_line (start 6.58 55.56) (end 12.58 55.56) (layer "F.Fab") (width 0.1) (tstamp b6d06ab4-faf0-47ca-a8d8-ccb6df71368e))
  (fp_line (start 12.58 17.46) (end 12.58 18.1) (layer "F.Fab") (width 0.1) (tstamp b6dc1601-afc6-4377-a308-ae5dd1ea4b31))
  (fp_line (start 6.58 53.02) (end 12.58 53.02) (layer "F.Fab") (width 0.1) (tstamp b84de407-afb1-433e-9f5d-e7dae4995232))
  (fp_line (start -0.32 33.34) (end 4.04 33.34) (layer "F.Fab") (width 0.1) (tstamp bb12e74f-cfb0-4504-b93e-91f96eef501b))
  (fp_line (start 6.58 23.18) (end 12.58 23.18) (layer "F.Fab") (width 0.1) (tstamp bfd2801f-b4b1-4cdd-af54-1530b579d1a7))
  (fp_line (start -0.32 40.32) (end -0.32 40.96) (layer "F.Fab") (width 0.1) (tstamp c1c3f95a-828a-44a3-b056-8b24dc613bd7))
  (fp_line (start -0.32 50.48) (end 4.04 50.48) (layer "F.Fab") (width 0.1) (tstamp c20b5f6b-f335-40b3-8307-b893b836537b))
  (fp_line (start -0.32 17.46) (end -0.32 18.1) (layer "F.Fab") (width 0.1) (tstamp c26b4c0b-f69e-4980-9aa1-0bb5f9d8bc4a))
  (fp_line (start 6.58 46.04) (end 12.58 46.04) (layer "F.Fab") (width 0.1) (tstamp c3bc9be5-4935-4193-aa50-bc03827adfc5))
  (fp_line (start 12.58 60.64) (end 12.58 61.28) (layer "F.Fab") (width 0.1) (tstamp c78b609b-149c-4600-b048-ff9b97d9aaa5))
  (fp_line (start 12.58 2.22) (end 12.58 2.86) (layer "F.Fab") (width 0.1) (tstamp cc930f6a-fae2-4860-9228-63bac5e65303))
  (fp_line (start 6.58 35.24) (end 12.58 35.24) (layer "F.Fab") (width 0.1) (tstamp cd69c614-e943-47b3-a4cf-39cbbfbafbec))
  (fp_line (start 6.58 37.78) (end 12.58 37.78) (layer "F.Fab") (width 0.1) (tstamp d0292f36-88de-444f-9942-24bace6a72b0))
  (fp_line (start -0.32 32.7) (end -0.32 33.34) (layer "F.Fab") (width 0.1) (tstamp d152939c-f6ee-4c87-a84d-1bf462068fbd))
  (fp_line (start 6.58 17.46) (end 12.58 17.46) (layer "F.Fab") (width 0.1) (tstamp d5579d93-e701-4809-b132-256b660e5285))
  (fp_line (start -0.32 60.64) (end 4.04 60.64) (layer "F.Fab") (width 0.1) (tstamp d76a68bd-6837-4a35-b1e4-3073a964af1c))
  (fp_line (start 12.58 58.1) (end 12.58 58.74) (layer "F.Fab") (width 0.1) (tstamp d925d7e7-cc52-475a-8e98-a76f42a4eabf))
  (fp_line (start 6.58 40.96) (end 12.58 40.96) (layer "F.Fab") (width 0.1) (tstamp da6d93a9-4e8f-4583-b42f-56af72e7a9c6))
  (fp_line (start 4.675 -1.27) (end 6.58 -1.27) (layer "F.Fab") (width 0.1) (tstamp dd951f28-1287-4396-9976-d95894ef57f0))
  (fp_line (start 12.58 7.3) (end 12.58 7.94) (layer "F.Fab") (width 0.1) (tstamp e0eb4a7e-a1b3-4c2d-b62f-44f6711b4d58))
  (fp_line (start -0.32 42.86) (end 4.04 42.86) (layer "F.Fab") (width 0.1) (tstamp e11f1b50-cbb0-4b0a-8ee3-41601d4c3072))
  (fp_line (start -0.32 53.66) (end 4.04 53.66) (layer "F.Fab") (width 0.1) (tstamp e4574f34-18e7-41ac-8a5a-9a172600c4bc))
  (fp_line (start -0.32 -0.32) (end -0.32 0.32) (layer "F.Fab") (width 0.1) (tstamp e4989782-f1de-4a1b-b322-41b0771b46ac))
  (fp_line (start 12.58 55.56) (end 12.58 56.2) (layer "F.Fab") (width 0.1) (tstamp e5d69640-2037-4b40-a13e-08a7072d294a))
  (fp_line (start -0.32 20) (end 4.04 20) (layer "F.Fab") (width 0.1) (tstamp e5d81771-df00-4c10-831e-44b73c0af488))
  (fp_line (start -0.32 2.86) (end 4.04 2.86) (layer "F.Fab") (width 0.1) (tstamp e6011177-1710-4ab4-b54f-acb9faeaf0ca))
  (fp_line (start -0.32 28.26) (end 4.04 28.26) (layer "F.Fab") (width 0.1) (tstamp e93e89df-5aff-47d4-938d-e4161f833cea))
  (fp_line (start 6.58 33.34) (end 12.58 33.34) (layer "F.Fab") (width 0.1) (tstamp ec1df8b6-15ad-4848-bc60-3f534087eb40))
  (fp_line (start -0.32 47.94) (end 4.04 47.94) (layer "F.Fab") (width 0.1) (tstamp ec59b9f5-f4c4-4be2-8607-ad0fcbeea6e6))
  (fp_line (start 6.58 42.86) (end 12.58 42.86) (layer "F.Fab") (width 0.1) (tstamp ec8bc01c-aa37-4b15-87de-0f7425ab5d44))
  (fp_line (start -0.32 60.64) (end -0.32 61.28) (layer "F.Fab") (width 0.1) (tstamp ec96836f-046b-4538-b04b-46dc872244d6))
  (fp_line (start 6.58 20) (end 12.58 20) (layer "F.Fab") (width 0.1) (tstamp f02c2f03-b5a9-45b8-9c45-116899d82e37))
  (fp_line (start -0.32 13.02) (end 4.04 13.02) (layer "F.Fab") (width 0.1) (tstamp f084d80b-8230-470b-99e7-f19c9606c498))
  (fp_line (start 6.58 62.23) (end 4.04 62.23) (layer "F.Fab") (width 0.1) (tstamp f426ae41-487a-4e02-b782-b56dcfb1fefc))
  (fp_line (start -0.32 25.08) (end 4.04 25.08) (layer "F.Fab") (width 0.1) (tstamp f597f388-ab3c-4e15-b84a-51a7cb69a996))
  (fp_line (start 6.58 53.66) (end 12.58 53.66) (layer "F.Fab") (width 0.1) (tstamp f68cf560-93bb-4af3-995d-9ca226f77d92))
  (fp_line (start 6.58 25.08) (end 12.58 25.08) (layer "F.Fab") (width 0.1) (tstamp f6d75360-9ec3-4e33-aeb9-bf378894084c))
  (fp_line (start 6.58 56.2) (end 12.58 56.2) (layer "F.Fab") (width 0.1) (tstamp fabe381e-2f9b-48fa-acaf-5cc0647b7a37))
  (fp_line (start 12.58 53.02) (end 12.58 53.66) (layer "F.Fab") (width 0.1) (tstamp faeb4d3f-3811-4c6d-9938-c74abdd2937f))
  (fp_line (start 6.58 58.1) (end 12.58 58.1) (layer "F.Fab") (width 0.1) (tstamp ff75c8de-db1a-418a-8104-0cfd9cd331d5))
  (pad "1" thru_hole rect (at 0 0) (size 2.1 2.1) (drill 1) (layers *.Cu *.Mask) (tstamp 8327b7ec-2b73-4ce1-9108-931351f9de0d))
  (pad "2" thru_hole oval (at 2.54 0) (size 2.1 2.1) (drill 1) (layers *.Cu *.Mask) (tstamp 66f62214-50d6-4227-a12a-f4ea599a7789))
  (pad "3" thru_hole oval (at 0 2.54) (size 2.1 2.1) (drill 1) (layers *.Cu *.Mask) (tstamp 89992fe7-a3cd-457c-99c8-76b9066d9259))
  (pad "4" thru_hole oval (at 2.54 2.54) (size 2.1 2.1) (drill 1) (layers *.Cu *.Mask) (tstamp 205e0c3d-ec15-4606-bb50-f855ea8fffcb))
  (pad "5" thru_hole oval (at 0 5.08) (size 2.1 2.1) (drill 1) (layers *.Cu *.Mask) (tstamp f6b8eb6d-d7d1-403b-add2-e831a566d55e))
  (pad "6" thru_hole oval (at 2.54 5.08) (size 2.1 2.1) (drill 1) (layers *.Cu *.Mask) (tstamp a253ceeb-5384-4ff1-8ec7-fabe9a4f2f2b))
  (pad "7" thru_hole oval (at 0 7.62) (size 2.1 2.1) (drill 1) (layers *.Cu *.Mask) (tstamp 05291f47-1fd3-4396-98c6-5d17a8a4185a))
  (pad "8" thru_hole oval (at 2.54 7.62) (size 2.1 2.1) (drill 1) (layers *.Cu *.Mask) (tstamp 47e162f9-2f56-462c-9ca8-02111445db24))
  (pad "9" thru_hole oval (at 0 10.16) (size 2.1 2.1) (drill 1) (layers *.Cu *.Mask) (tstamp 4a3a985f-5c5a-4783-93c6-fab6d1c65bbf))
  (pad "10" thru_hole oval (at 2.54 10.16) (size 2.1 2.1) (drill 1) (layers *.Cu *.Mask) (tstamp 1534f055-b745-4aa7-8700-3011604f7028))
  (pad "11" thru_hole oval (at 0 12.7) (size 2.1 2.1) (drill 1) (layers *.Cu *.Mask) (tstamp 0ead5eb0-cb73-43e7-9625-ff7e12f9ae8e))
  (pad "12" thru_hole oval (at 2.54 12.7) (size 2.1 2.1) (drill 1) (layers *.Cu *.Mask) (tstamp 4fd84e62-1abb-4ac7-8590-100d6c8f6217))
  (pad "13" thru_hole oval (at 0 15.24) (size 2.1 2.1) (drill 1) (layers *.Cu *.Mask) (tstamp b00cc8bb-6348-4d3b-8ac9-669d95c1268a))
  (pad "14" thru_hole oval (at 2.54 15.24) (size 2.1 2.1) (drill 1) (layers *.Cu *.Mask) (tstamp debe83e4-bc5d-4a42-9c49-91e9d1467b2d))
  (pad "15" thru_hole oval (at 0 17.78) (size 2.1 2.1) (drill 1) (layers *.Cu *.Mask) (tstamp a58769d9-d872-43e7-a862-5d250497859c))
  (pad "16" thru_hole oval (at 2.54 17.78) (size 2.1 2.1) (drill 1) (layers *.Cu *.Mask) (tstamp f39ed4e8-5fbe-4ab3-9b9b-773ecd42809e))
  (pad "17" thru_hole oval (at 0 20.32) (size 2.1 2.1) (drill 1) (layers *.Cu *.Mask) (tstamp 49f64456-d74d-4af0-a59c-852ee4a4bebc))
  (pad "18" thru_hole oval (at 2.54 20.32) (size 2.1 2.1) (drill 1) (layers *.Cu *.Mask) (tstamp 8e5c814d-403b-4af3-8481-30eb23eed3e9))
  (pad "19" thru_hole oval (at 0 22.86) (size 2.1 2.1) (drill 1) (layers *.Cu *.Mask) (tstamp 3766c04e-3668-4d1c-9f06-2c1999f951b5))
  (pad "20" thru_hole oval (at 2.54 22.86) (size 2.1 2.1) (drill 1) (layers *.Cu *.Mask) (tstamp b45e13bb-c028-4e04-9f97-5069675e1307))
  (pad "21" thru_hole oval (at 0 25.4) (size 2.1 2.1) (drill 1) (layers *.Cu *.Mask) (tstamp 538ae994-be91-4fa8-bdb1-2b2f73b95aa4))
  (pad "22" thru_hole oval (at 2.54 25.4) (size 2.1 2.1) (drill 1) (layers *.Cu *.Mask) (tstamp f06c75e2-9d93-4950-a6a3-72989fe69a6d))
  (pad "23" thru_hole oval (at 0 27.94) (size 2.1 2.1) (drill 1) (layers *.Cu *.Mask) (tstamp 056f1435-a6ae-4c25-bcaf-f430b7893c21))
  (pad "24" thru_hole oval (at 2.54 27.94) (size 2.1 2.1) (drill 1) (layers *.Cu *.Mask) (tstamp f94cb365-8f78-4b2e-8ca0-609e45c4db07))
  (pad "25" thru_hole oval (at 0 30.48) (size 2.1 2.1) (drill 1) (layers *.Cu *.Mask) (tstamp 03192273-15ca-486a-906b-64fd1368555d))
  (pad "26" thru_hole oval (at 2.54 30.48) (size 2.1 2.1) (drill 1) (layers *.Cu *.Mask) (tstamp 609400c1-29eb-4957-8b83-501c536c4a53))
  (pad "27" thru_hole oval (at 0 33.02) (size 2.1 2.1) (drill 1) (layers *.Cu *.Mask) (tstamp a838bb6c-bfa3-4ffb-acb0-58c6e32a16c9))
  (pad "28" thru_hole oval (at 2.54 33.02) (size 2.1 2.1) (drill 1) (layers *.Cu *.Mask) (tstamp bbfbed8c-ca15-48a5-99f0-3ea855356b22))
  (pad "29" thru_hole oval (at 0 35.56) (size 2.1 2.1) (drill 1) (layers *.Cu *.Mask) (tstamp b549aa0a-660a-4c9d-8e55-b60073280086))
  (pad "30" thru_hole oval (at 2.54 35.56) (size 2.1 2.1) (drill 1) (layers *.Cu *.Mask) (tstamp ea8777d8-c845-47a2-ae02-b1b335f1b157))
  (pad "31" thru_hole oval (at 0 38.1) (size 2.1 2.1) (drill 1) (layers *.Cu *.Mask) (tstamp 5cf4cfa8-27e3-4e52-bdfd-9110e2f8efe1))
  (pad "32" thru_hole oval (at 2.54 38.1) (size 2.1 2.1) (drill 1) (layers *.Cu *.Mask) (tstamp fa53f2e8-6e5b-4ef8-9340-3598d285cbba))
  (pad "33" thru_hole oval (at 0 40.64) (size 2.1 2.1) (drill 1) (layers *.Cu *.Mask) (tstamp 963184d0-f129-4872-944b-e62dee476c6f))
  (pad "34" thru_hole oval (at 2.54 40.64) (size 2.1 2.1) (drill 1) (layers *.Cu *.Mask) (tstamp 13288c6e-c9a0-4258-8c3b-dde2dc525428))
  (pad "35" thru_hole oval (at 0 43.18) (size 2.1 2.1) (drill 1) (layers *.Cu *.Mask) (tstamp 05decf0b-bc3e-4ee7-be3b-e9f99424caa2))
  (pad "36" thru_hole oval (at 2.54 43.18) (size 2.1 2.1) (drill 1) (layers *.Cu *.Mask) (tstamp 22e6ab52-26c6-445e-a0eb-7b965404259e))
  (pad "37" thru_hole oval (at 0 45.72) (size 2.1 2.1) (drill 1) (layers *.Cu *.Mask) (tstamp 68920c09-4af0-48b0-99d0-71b34614ca24))
  (pad "38" thru_hole oval (at 2.54 45.72) (size 2.1 2.1) (drill 1) (layers *.Cu *.Mask) (tstamp b82db555-e307-419c-96e9-3d45b4414e2f))
  (pad "39" thru_hole oval (at 0 48.26) (size 2.1 2.1) (drill 1) (layers *.Cu *.Mask) (tstamp 6e86fceb-5d44-4b54-b0a1-9a87cbbdce1b))
  (pad "40" thru_hole oval (at 2.54 48.26) (size 2.1 2.1) (drill 1) (layers *.Cu *.Mask) (tstamp e18dc0fd-7779-4c69-a7af-8275966d40b1))
  (pad "41" thru_hole oval (at 0 50.8) (size 2.1 2.1) (drill 1) (layers *.Cu *.Mask) (tstamp 3143d5fb-7e28-4882-b35b-192af1c04e00))
  (pad "42" thru_hole oval (at 2.54 50.8) (size 2.1 2.1) (drill 1) (layers *.Cu *.Mask) (tstamp 03e2845d-3232-4536-a48a-6f5ff21b7eb1))
  (pad "43" thru_hole oval (at 0 53.34) (size 2.1 2.1) (drill 1) (layers *.Cu *.Mask) (tstamp 11b0b24b-bea0-42e7-8e72-eb6b9ed5197d))
  (pad "44" thru_hole oval (at 2.54 53.34) (size 2.1 2.1) (drill 1) (layers *.Cu *.Mask) (tstamp 63f536cd-17a1-42bb-b6c2-bce037be9e39))
  (pad "45" thru_hole oval (at 0 55.88) (size 2.1 2.1) (drill 1) (layers *.Cu *.Mask) (tstamp ea23804f-bbfc-424d-9eac-d3d0bea3ce50))
  (pad "46" thru_hole oval (at 2.54 55.88) (size 2.1 2.1) (drill 1) (layers *.Cu *.Mask) (tstamp 586c9462-e02f-46c7-ad31-f35f9f915e39))
  (pad "47" thru_hole oval (at 0 58.42) (size 2.1 2.1) (drill 1) (layers *.Cu *.Mask) (tstamp bbf2c976-ca07-4b0a-a7df-9c0b1e611510))
  (pad "48" thru_hole oval (at 2.54 58.42) (size 2.1 2.1) (drill 1) (layers *.Cu *.Mask) (tstamp 059e8451-a418-423d-816f-142c455784a1))
  (pad "49" thru_hole oval (at 0 60.96) (size 2.1 2.1) (drill 1) (layers *.Cu *.Mask) (tstamp 7411b3bc-ec3a-4d1e-92a6-3fd594c58126))
  (pad "50" thru_hole oval (at 2.54 60.96) (size 2.1 2.1) (drill 1) (layers *.Cu *.Mask) (tstamp 85570fc9-80fd-4309-a58e-90f3a7019a66))
  (model "${KICAD6_3DMODEL_DIR}/Connector_PinHeader_2.54mm.3dshapes/PinHeader_2x25_P2.54mm_Horizontal.wrl"
    (offset (xyz 0 0 0))
    (scale (xyz 1 1 1))
    (rotate (xyz 0 0 0))
  )
)
