(footprint "PinHeader_1x19_P2.54mm_Horizontal" (version 20211014) (generator pcbnew)
  (layer "F.Cu")
  (tedit 59FED5CB)
  (descr "Through hole angled pin header, 1x19, 2.54mm pitch, 6mm pin length, single row")
  (tags "Through hole angled pin header THT 1x19 2.54mm single row")
  (attr through_hole)
  (fp_text reference "REF**" (at 4.385 -2.27) (layer "F.SilkS")
    (effects (font (size 1 1) (thickness 0.15)))
    (tstamp 5640225e-2383-49fb-be73-5214bbfbffc4)
  )
  (fp_text value "PinHeader_1x19_P2.54mm_Horizontal" (at 4.385 47.99) (layer "F.Fab")
    (effects (font (size 1 1) (thickness 0.15)))
    (tstamp a183b15e-d33b-4a45-9223-6094384abae4)
  )
  (fp_text user "${REFERENCE}" (at 2.77 22.86 90) (layer "F.Fab")
    (effects (font (size 1 1) (thickness 0.15)))
    (tstamp ec7fa7b0-e511-4b2a-88aa-ab4ed143bbc8)
  )
  (fp_line (start 10.1 42.8) (end 10.1 43.56) (layer "F.SilkS") (width 0.12) (tstamp 0104efc0-4fd7-4ceb-a027-44d561eac250))
  (fp_line (start 1.042929 17.4) (end 1.44 17.4) (layer "F.SilkS") (width 0.12) (tstamp 01a774fb-da14-4c74-88b3-b289c12a4c08))
  (fp_line (start 4.1 -0.38) (end 10.1 -0.38) (layer "F.SilkS") (width 0.12) (tstamp 02bce784-310e-4ea3-a121-fe11ce7c9ff9))
  (fp_line (start 1.042929 18.16) (end 1.44 18.16) (layer "F.SilkS") (width 0.12) (tstamp 02d83dd0-8e24-445e-805c-7216471d5721))
  (fp_line (start 1.042929 20.7) (end 1.44 20.7) (layer "F.SilkS") (width 0.12) (tstamp 03002fb7-f00f-40ec-ab72-5956b3cc1070))
  (fp_line (start 10.1 30.1) (end 10.1 30.86) (layer "F.SilkS") (width 0.12) (tstamp 03070869-2f0f-4de1-b07c-610ccc8e914e))
  (fp_line (start 10.1 43.56) (end 4.1 43.56) (layer "F.SilkS") (width 0.12) (tstamp 04261b23-090c-4475-8037-e7fdc5052554))
  (fp_line (start 1.44 13.97) (end 4.1 13.97) (layer "F.SilkS") (width 0.12) (tstamp 0b6173a0-b772-4a1c-b15a-39c242ee7f17))
  (fp_line (start 4.1 47.05) (end 4.1 -1.33) (layer "F.SilkS") (width 0.12) (tstamp 0be151e7-8f60-4868-a357-5f75066fda6a))
  (fp_line (start 4.1 14.86) (end 10.1 14.86) (layer "F.SilkS") (width 0.12) (tstamp 1145290f-19bb-4a71-bab8-92e822840163))
  (fp_line (start 4.1 42.8) (end 10.1 42.8) (layer "F.SilkS") (width 0.12) (tstamp 1499999c-43c1-44d0-8b35-dda55b51ac43))
  (fp_line (start 4.1 22.48) (end 10.1 22.48) (layer "F.SilkS") (width 0.12) (tstamp 14f930da-06e9-4013-b5dc-0d6d7973673f))
  (fp_line (start 1.042929 7.24) (end 1.44 7.24) (layer "F.SilkS") (width 0.12) (tstamp 16d4bd76-5cba-42ce-95c6-a07c22e73fbf))
  (fp_line (start 10.1 14.86) (end 10.1 15.62) (layer "F.SilkS") (width 0.12) (tstamp 1a467e45-3392-4b61-9651-8f8aa7d8497b))
  (fp_line (start 4.1 9.78) (end 10.1 9.78) (layer "F.SilkS") (width 0.12) (tstamp 1b4d718d-9208-4b7e-b309-47a3d9b65bf1))
  (fp_line (start 1.042929 23.24) (end 1.44 23.24) (layer "F.SilkS") (width 0.12) (tstamp 21fe5da0-4604-4339-9ce4-3767d3914f4a))
  (fp_line (start 4.1 -0.32) (end 10.1 -0.32) (layer "F.SilkS") (width 0.12) (tstamp 29032024-bf27-4705-bab0-66b11aadccab))
  (fp_line (start 4.1 19.94) (end 10.1 19.94) (layer "F.SilkS") (width 0.12) (tstamp 293cdae2-f42a-481a-9ed6-f01f81ed4de9))
  (fp_line (start 1.042929 32.64) (end 1.44 32.64) (layer "F.SilkS") (width 0.12) (tstamp 2ca77ce1-b73b-4cfb-823a-d7088af401d0))
  (fp_line (start 1.042929 42.8) (end 1.44 42.8) (layer "F.SilkS") (width 0.12) (tstamp 2e5f27dc-9be8-4d1e-9274-a06fb50c3362))
  (fp_line (start 1.042929 22.48) (end 1.44 22.48) (layer "F.SilkS") (width 0.12) (tstamp 30a4a364-050f-4053-a240-625274ae017f))
  (fp_line (start 10.1 27.56) (end 10.1 28.32) (layer "F.SilkS") (width 0.12) (tstamp 3105379f-bd91-4ad9-af0e-86b8e5fe3b8b))
  (fp_line (start 4.1 -0.08) (end 10.1 -0.08) (layer "F.SilkS") (width 0.12) (tstamp 3596dd73-c7cc-411f-b8d5-ba07b81d7dbe))
  (fp_line (start 1.44 19.05) (end 4.1 19.05) (layer "F.SilkS") (width 0.12) (tstamp 36778d81-df4f-48c3-98e3-a4c8368d5989))
  (fp_line (start 4.1 37.72) (end 10.1 37.72) (layer "F.SilkS") (width 0.12) (tstamp 38a4b4dd-efc6-40b4-a2f6-b3234907c55b))
  (fp_line (start 1.042929 35.18) (end 1.44 35.18) (layer "F.SilkS") (width 0.12) (tstamp 3ad73daf-d472-490b-b2e7-49c32809cb1a))
  (fp_line (start 10.1 25.02) (end 10.1 25.78) (layer "F.SilkS") (width 0.12) (tstamp 3d301a4b-579c-454e-bccf-63a2bbde70f9))
  (fp_line (start 1.042929 43.56) (end 1.44 43.56) (layer "F.SilkS") (width 0.12) (tstamp 3dd54466-3870-434b-8a61-9d2308df61ee))
  (fp_line (start 10.1 15.62) (end 4.1 15.62) (layer "F.SilkS") (width 0.12) (tstamp 42dcf5ea-cbbf-48b8-b340-5b851f5a9819))
  (fp_line (start 10.1 25.78) (end 4.1 25.78) (layer "F.SilkS") (width 0.12) (tstamp 45f4bba5-bee7-4e03-aab7-48e24069fa13))
  (fp_line (start 1.042929 5.46) (end 1.44 5.46) (layer "F.SilkS") (width 0.12) (tstamp 4974d569-900e-4438-a69f-99f6307a6423))
  (fp_line (start 10.1 4.7) (end 10.1 5.46) (layer "F.SilkS") (width 0.12) (tstamp 4a9eb663-ee43-412c-a90a-6ca6bc54d88d))
  (fp_line (start 1.042929 28.32) (end 1.44 28.32) (layer "F.SilkS") (width 0.12) (tstamp 514ed9e5-7bea-46fe-b27b-1ae334e62b1f))
  (fp_line (start 1.042929 19.94) (end 1.44 19.94) (layer "F.SilkS") (width 0.12) (tstamp 546b5eb3-19ee-46ff-9633-44fe36b92c41))
  (fp_line (start 1.042929 40.26) (end 1.44 40.26) (layer "F.SilkS") (width 0.12) (tstamp 55c83607-0bca-43ab-8602-5970969668b5))
  (fp_line (start 1.44 34.29) (end 4.1 34.29) (layer "F.SilkS") (width 0.12) (tstamp 567fda6f-2c90-41c0-a6ed-5f5912c9a81c))
  (fp_line (start 1.44 29.21) (end 4.1 29.21) (layer "F.SilkS") (width 0.12) (tstamp 57170c4f-d264-4b65-af9a-e5f6ac1ede0c))
  (fp_line (start 1.042929 2.16) (end 1.44 2.16) (layer "F.SilkS") (width 0.12) (tstamp 57415fb7-b36c-42b2-b50e-328adfd57213))
  (fp_line (start 10.1 17.4) (end 10.1 18.16) (layer "F.SilkS") (width 0.12) (tstamp 595acd8f-b03a-43af-88b2-0ef6b181831b))
  (fp_line (start 10.1 12.32) (end 10.1 13.08) (layer "F.SilkS") (width 0.12) (tstamp 5ae8a143-439d-40c5-a6c3-6c9248f8e9ba))
  (fp_line (start 10.1 45.34) (end 10.1 46.1) (layer "F.SilkS") (width 0.12) (tstamp 5bb01bd8-1bde-4e8f-b4ef-ec7f03a86c05))
  (fp_line (start 10.1 28.32) (end 4.1 28.32) (layer "F.SilkS") (width 0.12) (tstamp 5e835e14-2969-4556-b6e8-e1e4c3bc6214))
  (fp_line (start 10.1 13.08) (end 4.1 13.08) (layer "F.SilkS") (width 0.12) (tstamp 61f08ff9-76a8-4d89-9ec5-c2c368a6b231))
  (fp_line (start 1.042929 30.1) (end 1.44 30.1) (layer "F.SilkS") (width 0.12) (tstamp 64be6a1c-da88-4894-a9db-3c93701ed489))
  (fp_line (start 1.44 41.91) (end 4.1 41.91) (layer "F.SilkS") (width 0.12) (tstamp 672bdbc4-aeb9-4392-8c03-b496b3cf28f8))
  (fp_line (start -1.27 -1.27) (end 0 -1.27) (layer "F.SilkS") (width 0.12) (tstamp 67738e47-db1d-4b5c-84a3-7dd5d2a95a07))
  (fp_line (start 10.1 5.46) (end 4.1 5.46) (layer "F.SilkS") (width 0.12) (tstamp 68d59424-a4a5-4872-a957-a5ef1c9bb81d))
  (fp_line (start 4.1 0.16) (end 10.1 0.16) (layer "F.SilkS") (width 0.12) (tstamp 6ad4ffbf-f924-4423-8bf7-e3276cc72190))
  (fp_line (start 4.1 0.04) (end 10.1 0.04) (layer "F.SilkS") (width 0.12) (tstamp 6b51a048-8ed1-43e3-b89f-acd03dcc54fb))
  (fp_line (start 1.44 26.67) (end 4.1 26.67) (layer "F.SilkS") (width 0.12) (tstamp 7089e525-ea47-4baf-bfcf-0f8aa9f1227b))
  (fp_line (start 4.1 7.24) (end 10.1 7.24) (layer "F.SilkS") (width 0.12) (tstamp 70e8dff6-2a19-470b-b55a-e716ef280f44))
  (fp_line (start 10.1 8) (end 4.1 8) (layer "F.SilkS") (width 0.12) (tstamp 75f9aa28-76ef-438f-87f1-b60d1a25c3c8))
  (fp_line (start 4.1 27.56) (end 10.1 27.56) (layer "F.SilkS") (width 0.12) (tstamp 7680b490-556d-4c0b-9eb9-3c83b3e6af16))
  (fp_line (start 1.042929 45.34) (end 1.44 45.34) (layer "F.SilkS") (width 0.12) (tstamp 7783e794-0be8-4f54-b475-a657bd29cfa2))
  (fp_line (start 10.1 23.24) (end 4.1 23.24) (layer "F.SilkS") (width 0.12) (tstamp 77e7c6d3-f118-4018-8a88-22319db15ad9))
  (fp_line (start 1.042929 37.72) (end 1.44 37.72) (layer "F.SilkS") (width 0.12) (tstamp 7ba46144-757a-48c0-852f-45a36131e7b6))
  (fp_line (start 1.44 24.13) (end 4.1 24.13) (layer "F.SilkS") (width 0.12) (tstamp 7c33fcaa-a81e-4b56-b191-db5c79307a66))
  (fp_line (start 4.1 40.26) (end 10.1 40.26) (layer "F.SilkS") (width 0.12) (tstamp 7cf613d1-a171-4930-aaae-3c90aad35035))
  (fp_line (start 10.1 18.16) (end 4.1 18.16) (layer "F.SilkS") (width 0.12) (tstamp 7d4e402b-1ae2-4ad2-9497-96607ae56f65))
  (fp_line (start 1.042929 27.56) (end 1.44 27.56) (layer "F.SilkS") (width 0.12) (tstamp 7dc16c2e-cb66-4400-a292-8226f6007533))
  (fp_line (start 10.1 40.26) (end 10.1 41.02) (layer "F.SilkS") (width 0.12) (tstamp 7e680e79-e81c-47d9-97c8-5fd1a5666cdf))
  (fp_line (start 4.1 17.4) (end 10.1 17.4) (layer "F.SilkS") (width 0.12) (tstamp 80207bcc-95d8-4f1d-9edf-9d8db1330c6b))
  (fp_line (start 4.1 4.7) (end 10.1 4.7) (layer "F.SilkS") (width 0.12) (tstamp 8406b3ce-9885-4d1a-b382-05f46d584a00))
  (fp_line (start 1.042929 30.86) (end 1.44 30.86) (layer "F.SilkS") (width 0.12) (tstamp 8511f3b9-22f3-43e6-bd25-88f68715a8dd))
  (fp_line (start 10.1 33.4) (end 4.1 33.4) (layer "F.SilkS") (width 0.12) (tstamp 86666b75-3408-47af-a18c-d86b720ac179))
  (fp_line (start 1.44 6.35) (end 4.1 6.35) (layer "F.SilkS") (width 0.12) (tstamp 8bc91e9c-c611-4855-85e3-d5d998e82e46))
  (fp_line (start 1.042929 41.02) (end 1.44 41.02) (layer "F.SilkS") (width 0.12) (tstamp 8d3e8e5f-68e4-4ad6-9a13-4dd984443885))
  (fp_line (start 1.44 31.75) (end 4.1 31.75) (layer "F.SilkS") (width 0.12) (tstamp 8dd3d072-ad86-4ab6-b757-7fb141ee114e))
  (fp_line (start 1.11 0.38) (end 1.44 0.38) (layer "F.SilkS") (width 0.12) (tstamp 9950d32c-93dd-4b3e-a853-10ae17206fd9))
  (fp_line (start 10.1 37.72) (end 10.1 38.48) (layer "F.SilkS") (width 0.12) (tstamp 9c2a1195-4a95-45e8-bc89-e9b268c05b5c))
  (fp_line (start 10.1 7.24) (end 10.1 8) (layer "F.SilkS") (width 0.12) (tstamp 9dff3c04-9c1d-4dbf-8048-62d08c0e0eb0))
  (fp_line (start 10.1 30.86) (end 4.1 30.86) (layer "F.SilkS") (width 0.12) (tstamp 9ed6a3d1-cc94-4e0c-be1b-9fd50863f0d1))
  (fp_line (start 4.1 -0.2) (end 10.1 -0.2) (layer "F.SilkS") (width 0.12) (tstamp 9f4b869e-3c68-43f6-a67e-bf075284717d))
  (fp_line (start 10.1 9.78) (end 10.1 10.54) (layer "F.SilkS") (width 0.12) (tstamp a2b82eb3-4835-4b50-b030-79dec63528cd))
  (fp_line (start 10.1 46.1) (end 4.1 46.1) (layer "F.SilkS") (width 0.12) (tstamp a4f4def6-72a6-459a-ba34-a4e804bea72c))
  (fp_line (start 1.042929 12.32) (end 1.44 12.32) (layer "F.SilkS") (width 0.12) (tstamp a6ef2bb2-6966-407c-b828-fbda8b0b4eee))
  (fp_line (start 10.1 20.7) (end 4.1 20.7) (layer "F.SilkS") (width 0.12) (tstamp a774377c-2c80-4168-969b-00d654f84fca))
  (fp_line (start 1.042929 13.08) (end 1.44 13.08) (layer "F.SilkS") (width 0.12) (tstamp abb564ea-d726-4363-9b1e-1b22d4be58e8))
  (fp_line (start 1.042929 38.48) (end 1.44 38.48) (layer "F.SilkS") (width 0.12) (tstamp accc3eb2-d431-48b8-b72b-7a750d2015eb))
  (fp_line (start 1.042929 15.62) (end 1.44 15.62) (layer "F.SilkS") (width 0.12) (tstamp acfc9616-cf9e-46fb-be41-24aaeff7f11a))
  (fp_line (start 1.042929 8) (end 1.44 8) (layer "F.SilkS") (width 0.12) (tstamp ad00f14a-2ee6-410e-ae06-f1ff3b26fc44))
  (fp_line (start 4.1 35.18) (end 10.1 35.18) (layer "F.SilkS") (width 0.12) (tstamp adc7b9bf-c81f-4022-88bd-00272282d103))
  (fp_line (start 1.44 16.51) (end 4.1 16.51) (layer "F.SilkS") (width 0.12) (tstamp ae0da20d-92d3-4839-9895-927075c22d84))
  (fp_line (start 1.44 36.83) (end 4.1 36.83) (layer "F.SilkS") (width 0.12) (tstamp af34e953-7344-4a93-9676-a012e70fee8f))
  (fp_line (start 1.042929 2.92) (end 1.44 2.92) (layer "F.SilkS") (width 0.12) (tstamp afb330c1-862b-46c0-8179-22126d628512))
  (fp_line (start 10.1 10.54) (end 4.1 10.54) (layer "F.SilkS") (width 0.12) (tstamp b051c4be-cb98-4506-b067-3ce192791915))
  (fp_line (start 1.042929 25.02) (end 1.44 25.02) (layer "F.SilkS") (width 0.12) (tstamp b317f259-027a-48b1-bc8b-43711a6f3158))
  (fp_line (start 4.1 30.1) (end 10.1 30.1) (layer "F.SilkS") (width 0.12) (tstamp b3a8840d-88e5-4e39-ab5b-b4f99c6f7ae5))
  (fp_line (start 4.1 0.28) (end 10.1 0.28) (layer "F.SilkS") (width 0.12) (tstamp b4b9e2d1-c5ea-4175-8e1f-c76f2b6b50fa))
  (fp_line (start 10.1 41.02) (end 4.1 41.02) (layer "F.SilkS") (width 0.12) (tstamp b6b4b246-289e-41d9-b182-dd1c7c91cb80))
  (fp_line (start 10.1 2.92) (end 4.1 2.92) (layer "F.SilkS") (width 0.12) (tstamp b9aacdb6-cfa5-4f4f-ae0e-3d169ab4b503))
  (fp_line (start 1.042929 10.54) (end 1.44 10.54) (layer "F.SilkS") (width 0.12) (tstamp b9de1527-ac26-40a9-b60e-6fdab217de82))
  (fp_line (start 1.042929 25.78) (end 1.44 25.78) (layer "F.SilkS") (width 0.12) (tstamp ba456715-3efd-42bc-aeef-baf114c452c3))
  (fp_line (start 10.1 19.94) (end 10.1 20.7) (layer "F.SilkS") (width 0.12) (tstamp bb5b551f-068a-4b86-ad7e-272c8342b43f))
  (fp_line (start 1.44 -1.33) (end 1.44 47.05) (layer "F.SilkS") (width 0.12) (tstamp bc81420d-d975-44b3-891f-e44f5c42b06b))
  (fp_line (start 1.11 -0.38) (end 1.44 -0.38) (layer "F.SilkS") (width 0.12) (tstamp bf77d75c-ca53-437b-8e62-dc8ba7cdd276))
  (fp_line (start 10.1 35.18) (end 10.1 35.94) (layer "F.SilkS") (width 0.12) (tstamp c1851126-edfe-4ca4-9fd0-d865af508919))
  (fp_line (start 1.042929 9.78) (end 1.44 9.78) (layer "F.SilkS") (width 0.12) (tstamp c3a4d1bd-73c6-49ad-ab63-0a75762ae781))
  (fp_line (start 1.44 1.27) (end 4.1 1.27) (layer "F.SilkS") (width 0.12) (tstamp c42c18fe-7c53-4f10-be86-abb8234b9453))
  (fp_line (start 1.44 47.05) (end 4.1 47.05) (layer "F.SilkS") (width 0.12) (tstamp c4d1004c-1ad1-45e8-942a-5c121cf07920))
  (fp_line (start 4.1 2.16) (end 10.1 2.16) (layer "F.SilkS") (width 0.12) (tstamp cd73f2a0-f244-48b9-bcda-9e534bdc31fc))
  (fp_line (start 10.1 38.48) (end 4.1 38.48) (layer "F.SilkS") (width 0.12) (tstamp ceddf840-236a-47a7-9226-5b64c2871965))
  (fp_line (start 1.44 44.45) (end 4.1 44.45) (layer "F.SilkS") (width 0.12) (tstamp d00e2f37-a17f-4290-b154-d6a413edf8f5))
  (fp_line (start 10.1 32.64) (end 10.1 33.4) (layer "F.SilkS") (width 0.12) (tstamp d41a11db-2521-4942-8858-c7e0404638b7))
  (fp_line (start 10.1 35.94) (end 4.1 35.94) (layer "F.SilkS") (width 0.12) (tstamp d7f794d7-f35d-4b16-b05f-8edd06d656df))
  (fp_line (start 10.1 -0.38) (end 10.1 0.38) (layer "F.SilkS") (width 0.12) (tstamp dc213536-1d93-4d1a-875f-d314a5823514))
  (fp_line (start 10.1 22.48) (end 10.1 23.24) (layer "F.SilkS") (width 0.12) (tstamp dde96656-db14-4f99-b5c0-6e87841992b6))
  (fp_line (start 1.042929 46.1) (end 1.44 46.1) (layer "F.SilkS") (width 0.12) (tstamp de828e8b-2cdc-4848-bbc8-0a798666e8ef))
  (fp_line (start -1.27 0) (end -1.27 -1.27) (layer "F.SilkS") (width 0.12) (tstamp dfd539d7-d836-49ab-8e77-3a3052475117))
  (fp_line (start 4.1 -1.33) (end 1.44 -1.33) (layer "F.SilkS") (width 0.12) (tstamp e134afb6-5035-478a-81f7-74f16033ab15))
  (fp_line (start 10.1 0.38) (end 4.1 0.38) (layer "F.SilkS") (width 0.12) (tstamp e1d5f251-b308-404d-b460-872653a640f5))
  (fp_line (start 1.44 3.81) (end 4.1 3.81) (layer "F.SilkS") (width 0.12) (tstamp e30c6af8-a1cf-483d-b985-97b55ffc3dea))
  (fp_line (start 4.1 25.02) (end 10.1 25.02) (layer "F.SilkS") (width 0.12) (tstamp e58f65b7-ba88-46b7-a37d-9e5f818bfa46))
  (fp_line (start 1.042929 35.94) (end 1.44 35.94) (layer "F.SilkS") (width 0.12) (tstamp e67e5234-97f6-4f9f-b084-4a26041ec170))
  (fp_line (start 4.1 45.34) (end 10.1 45.34) (layer "F.SilkS") (width 0.12) (tstamp eb6339ab-35d7-4904-8c36-48c3bcddd4f3))
  (fp_line (start 4.1 32.64) (end 10.1 32.64) (layer "F.SilkS") (width 0.12) (tstamp ececa394-11bf-4aa9-9436-d96289e2fab6))
  (fp_line (start 1.042929 33.4) (end 1.44 33.4) (layer "F.SilkS") (width 0.12) (tstamp eefa5fd3-d3e5-4d21-9bf4-b21ba714762f))
  (fp_line (start 1.44 11.43) (end 4.1 11.43) (layer "F.SilkS") (width 0.12) (tstamp ef97b308-c8cc-4509-84c1-b11918db81d4))
  (fp_line (start 1.44 39.37) (end 4.1 39.37) (layer "F.SilkS") (width 0.12) (tstamp f419ab6f-d0af-4a81-9800-1684fa87dafd))
  (fp_line (start 1.042929 4.7) (end 1.44 4.7) (layer "F.SilkS") (width 0.12) (tstamp f69a1f3b-82f3-4205-bfc7-62216fe95dd7))
  (fp_line (start 10.1 2.16) (end 10.1 2.92) (layer "F.SilkS") (width 0.12) (tstamp f7a2bb58-7665-4ac6-a6a0-7d8ddd3f5660))
  (fp_line (start 1.44 21.59) (end 4.1 21.59) (layer "F.SilkS") (width 0.12) (tstamp f8f91afd-a512-4029-8f66-3708a8a3c1ee))
  (fp_line (start 1.042929 14.86) (end 1.44 14.86) (layer "F.SilkS") (width 0.12) (tstamp f909383c-c607-4887-9904-c6e7d4e3baf6))
  (fp_line (start 4.1 12.32) (end 10.1 12.32) (layer "F.SilkS") (width 0.12) (tstamp fa462d8d-1603-424e-a9ee-62cd041e2722))
  (fp_line (start 1.44 8.89) (end 4.1 8.89) (layer "F.SilkS") (width 0.12) (tstamp fb7da3b3-aa8b-4548-b30c-c993c18ea3ba))
  (fp_line (start -1.8 47.5) (end 10.55 47.5) (layer "F.CrtYd") (width 0.05) (tstamp 693dd761-af8a-4d49-9c39-8e05cad7d0b8))
  (fp_line (start 10.55 -1.8) (end -1.8 -1.8) (layer "F.CrtYd") (width 0.05) (tstamp 6c5a9ccf-4001-48d7-acb6-6a7f29f5c6f7))
  (fp_line (start 10.55 47.5) (end 10.55 -1.8) (layer "F.CrtYd") (width 0.05) (tstamp 7be52178-45d9-4d89-b27c-57eecfd566b6))
  (fp_line (start -1.8 -1.8) (end -1.8 47.5) (layer "F.CrtYd") (width 0.05) (tstamp 7d9c86b9-e80d-49ae-ad72-b48433e0b499))
  (fp_line (start -0.32 35.24) (end 1.5 35.24) (layer "F.Fab") (width 0.1) (tstamp 03f3aeda-595f-4267-8dd9-8adb66b613b9))
  (fp_line (start -0.32 45.4) (end -0.32 46.04) (layer "F.Fab") (width 0.1) (tstamp 095eec35-6f89-42f2-aa0f-2fcecffacc81))
  (fp_line (start 10.04 40.32) (end 10.04 40.96) (layer "F.Fab") (width 0.1) (tstamp 0b2035f8-4da6-410e-8a4b-cddc57ba19c2))
  (fp_line (start -0.32 0.32) (end 1.5 0.32) (layer "F.Fab") (width 0.1) (tstamp 0b223dc7-3027-486e-b6e4-08d5b29e8558))
  (fp_line (start 10.04 45.4) (end 10.04 46.04) (layer "F.Fab") (width 0.1) (tstamp 0e5705d4-5a24-4bd5-8a34-cba0b50328ba))
  (fp_line (start -0.32 2.22) (end 1.5 2.22) (layer "F.Fab") (width 0.1) (tstamp 10a90964-7d1a-4dca-af15-7265c0ae12dc))
  (fp_line (start 10.04 20) (end 10.04 20.64) (layer "F.Fab") (width 0.1) (tstamp 10b038c0-d002-4d04-87e3-bfa8ea2adedf))
  (fp_line (start -0.32 37.78) (end -0.32 38.42) (layer "F.Fab") (width 0.1) (tstamp 1998e6ef-b7b5-4c00-b174-9183ac4f7132))
  (fp_line (start 10.04 32.7) (end 10.04 33.34) (layer "F.Fab") (width 0.1) (tstamp 1a4b9fba-c46c-47d1-ad56-43e8a111b559))
  (fp_line (start 4.04 27.62) (end 10.04 27.62) (layer "F.Fab") (width 0.1) (tstamp 1aa45217-b0bb-4083-bf43-2fda16e110da))
  (fp_line (start 4.04 30.8) (end 10.04 30.8) (layer "F.Fab") (width 0.1) (tstamp 1bb96386-9439-4079-853c-3f223b3f6391))
  (fp_line (start 10.04 17.46) (end 10.04 18.1) (layer "F.Fab") (width 0.1) (tstamp 1f40d7cd-2197-421e-b40b-c96e29809094))
  (fp_line (start 4.04 10.48) (end 10.04 10.48) (layer "F.Fab") (width 0.1) (tstamp 1f5fa6b6-ef76-469b-8c90-6a7fe7f99240))
  (fp_line (start 4.04 32.7) (end 10.04 32.7) (layer "F.Fab") (width 0.1) (tstamp 21c1579b-0617-4bca-9f5b-30a048837bc7))
  (fp_line (start 4.04 30.16) (end 10.04 30.16) (layer "F.Fab") (width 0.1) (tstamp 236c10ad-33d9-486c-ac9c-641ce78685ad))
  (fp_line (start -0.32 13.02) (end 1.5 13.02) (layer "F.Fab") (width 0.1) (tstamp 28d1df04-81e6-4759-92e5-b076688de1b7))
  (fp_line (start -0.32 14.92) (end -0.32 15.56) (layer "F.Fab") (width 0.1) (tstamp 2a6c3519-bcdb-4ec7-b7f5-1ffd2c1c5d8f))
  (fp_line (start -0.32 27.62) (end 1.5 27.62) (layer "F.Fab") (width 0.1) (tstamp 2b792375-af5a-4128-abc7-ea30869ad8b9))
  (fp_line (start 4.04 46.04) (end 10.04 46.04) (layer "F.Fab") (width 0.1) (tstamp 2ded1b1c-aeab-4086-8716-bf0f6b50098e))
  (fp_line (start 4.04 40.96) (end 10.04 40.96) (layer "F.Fab") (width 0.1) (tstamp 2e1f760a-6cb5-4706-8126-92b53f3b88e2))
  (fp_line (start -0.32 18.1) (end 1.5 18.1) (layer "F.Fab") (width 0.1) (tstamp 2e900318-f388-4ac4-899a-b595fa9a6cff))
  (fp_line (start -0.32 15.56) (end 1.5 15.56) (layer "F.Fab") (width 0.1) (tstamp 2eaedbcc-c427-4805-acae-b10ad2f0be8c))
  (fp_line (start -0.32 7.3) (end 1.5 7.3) (layer "F.Fab") (width 0.1) (tstamp 2ee3d521-bb44-4d12-a129-4de41045ec38))
  (fp_line (start 4.04 5.4) (end 10.04 5.4) (layer "F.Fab") (width 0.1) (tstamp 338aa076-4436-4ce1-9390-49ca9372ea8a))
  (fp_line (start 4.04 42.86) (end 10.04 42.86) (layer "F.Fab") (width 0.1) (tstamp 340a2143-e370-4cdf-a767-78253579c994))
  (fp_line (start 4.04 15.56) (end 10.04 15.56) (layer "F.Fab") (width 0.1) (tstamp 35992049-9db4-4bf0-b8be-aa59f596de37))
  (fp_line (start 4.04 2.22) (end 10.04 2.22) (layer "F.Fab") (width 0.1) (tstamp 36c96980-af57-416a-96fe-ff2bbca82862))
  (fp_line (start -0.32 46.04) (end 1.5 46.04) (layer "F.Fab") (width 0.1) (tstamp 384f8f51-018e-4180-b535-5fe2e7f257d1))
  (fp_line (start 4.04 35.88) (end 10.04 35.88) (layer "F.Fab") (width 0.1) (tstamp 3a068907-57ee-4382-a7b5-962d6407ff56))
  (fp_line (start -0.32 14.92) (end 1.5 14.92) (layer "F.Fab") (width 0.1) (tstamp 3a643220-be30-4abe-9a8e-a65685e5e242))
  (fp_line (start -0.32 20) (end -0.32 20.64) (layer "F.Fab") (width 0.1) (tstamp 41736795-e4b7-46fc-bddc-cb730664926d))
  (fp_line (start -0.32 30.8) (end 1.5 30.8) (layer "F.Fab") (width 0.1) (tstamp 422ef939-38e5-464f-ba08-6cda00be535a))
  (fp_line (start -0.32 22.54) (end 1.5 22.54) (layer "F.Fab") (width 0.1) (tstamp 43a47ba3-227d-4f30-8ded-5deae349d5bc))
  (fp_line (start -0.32 9.84) (end -0.32 10.48) (layer "F.Fab") (width 0.1) (tstamp 44521ac3-96b4-4137-8bc4-907276494b5d))
  (fp_line (start -0.32 27.62) (end -0.32 28.26) (layer "F.Fab") (width 0.1) (tstamp 4ec0f6db-3a2e-438c-b9b4-969ccc0f6b80))
  (fp_line (start -0.32 9.84) (end 1.5 9.84) (layer "F.Fab") (width 0.1) (tstamp 50c21efa-3f61-4909-b0c2-3b339cdf5b4b))
  (fp_line (start 4.04 12.38) (end 10.04 12.38) (layer "F.Fab") (width 0.1) (tstamp 550200bd-6d87-47a6-8839-83b583b01dae))
  (fp_line (start 4.04 35.24) (end 10.04 35.24) (layer "F.Fab") (width 0.1) (tstamp 57178bb2-1207-42e3-886f-9cf90a467ead))
  (fp_line (start -0.32 30.16) (end -0.32 30.8) (layer "F.Fab") (width 0.1) (tstamp 57bc8f91-fd18-41e9-bec0-e750ece6f7fc))
  (fp_line (start 4.04 28.26) (end 10.04 28.26) (layer "F.Fab") (width 0.1) (tstamp 58428b80-7bb0-427e-83a0-29a76ec5a0a2))
  (fp_line (start 4.04 18.1) (end 10.04 18.1) (layer "F.Fab") (width 0.1) (tstamp 588b514c-1863-4866-b34f-c0ffba32491b))
  (fp_line (start -0.32 30.16) (end 1.5 30.16) (layer "F.Fab") (width 0.1) (tstamp 5d311801-aebd-4fd8-80a6-cd7bd7f69587))
  (fp_line (start -0.32 40.32) (end 1.5 40.32) (layer "F.Fab") (width 0.1) (tstamp 5e793f0a-e3d2-4801-8c79-cf1927df6f4c))
  (fp_line (start 10.04 7.3) (end 10.04 7.94) (layer "F.Fab") (width 0.1) (tstamp 5ecff8c6-e2ec-461d-bd16-573bd669eb45))
  (fp_line (start 4.04 4.76) (end 10.04 4.76) (layer "F.Fab") (width 0.1) (tstamp 5f97c684-2aef-4609-82f5-c4adb9f2e986))
  (fp_line (start -0.32 43.5) (end 1.5 43.5) (layer "F.Fab") (width 0.1) (tstamp 6087c029-d894-43a9-a666-a8be63d9c432))
  (fp_line (start -0.32 35.24) (end -0.32 35.88) (layer "F.Fab") (width 0.1) (tstamp 6105df4d-d1a7-460f-9ffc-0955a4da53e0))
  (fp_line (start -0.32 12.38) (end -0.32 13.02) (layer "F.Fab") (width 0.1) (tstamp 6180fa9d-c177-4105-9f67-23f7be7ae96b))
  (fp_line (start 10.04 22.54) (end 10.04 23.18) (layer "F.Fab") (width 0.1) (tstamp 61b348f8-abe6-4949-be69-d8a779381a53))
  (fp_line (start 4.04 7.3) (end 10.04 7.3) (layer "F.Fab") (width 0.1) (tstamp 6236daf8-2574-4d1e-be9a-5ea3fbe5ace3))
  (fp_line (start 4.04 -0.32) (end 10.04 -0.32) (layer "F.Fab") (width 0.1) (tstamp 66a8b0bb-bed5-4dc8-9ae6-5f874b1ae637))
  (fp_line (start -0.32 17.46) (end 1.5 17.46) (layer "F.Fab") (width 0.1) (tstamp 697ac97a-a99e-4102-8aa5-3fa3daa93937))
  (fp_line (start 1.5 46.99) (end 1.5 -0.635) (layer "F.Fab") (width 0.1) (tstamp 6a971ac8-9068-4d60-9927-f377ad90ab15))
  (fp_line (start -0.32 22.54) (end -0.32 23.18) (layer "F.Fab") (width 0.1) (tstamp 6c43a1a6-e713-4580-8220-b1a1ca224126))
  (fp_line (start 4.04 20) (end 10.04 20) (layer "F.Fab") (width 0.1) (tstamp 6e6a2dc2-2201-49a2-957b-6d99e2f1eef6))
  (fp_line (start 4.04 20.64) (end 10.04 20.64) (layer "F.Fab") (width 0.1) (tstamp 70249294-ac1f-4f1c-9e41-c1306b1982bc))
  (fp_line (start -0.32 32.7) (end -0.32 33.34) (layer "F.Fab") (width 0.1) (tstamp 72ba2976-9957-494f-b6bc-aa0e7da81aa6))
  (fp_line (start 4.04 25.08) (end 10.04 25.08) (layer "F.Fab") (width 0.1) (tstamp 735e7754-da7b-45be-975d-eee50698380b))
  (fp_line (start 10.04 30.16) (end 10.04 30.8) (layer "F.Fab") (width 0.1) (tstamp 73baf072-2f37-4892-94cf-37ce8d372f2d))
  (fp_line (start 4.04 37.78) (end 10.04 37.78) (layer "F.Fab") (width 0.1) (tstamp 741ede9b-dea5-417a-be57-12635b19bce9))
  (fp_line (start -0.32 45.4) (end 1.5 45.4) (layer "F.Fab") (width 0.1) (tstamp 7870f6f2-29c3-480e-93fb-c8441ddfeb0d))
  (fp_line (start 4.04 -1.27) (end 4.04 46.99) (layer "F.Fab") (width 0.1) (tstamp 7ae52470-d097-4aec-88de-e5638909e0ce))
  (fp_line (start 4.04 40.32) (end 10.04 40.32) (layer "F.Fab") (width 0.1) (tstamp 7b55c0c2-c298-4255-abbb-ee83949779fb))
  (fp_line (start 10.04 9.84) (end 10.04 10.48) (layer "F.Fab") (width 0.1) (tstamp 7b768636-a983-4c31-b15d-73104e57cc4b))
  (fp_line (start 10.04 -0.32) (end 10.04 0.32) (layer "F.Fab") (width 0.1) (tstamp 7ef0756d-e8c0-4017-95c9-be040d08bbf9))
  (fp_line (start -0.32 5.4) (end 1.5 5.4) (layer "F.Fab") (width 0.1) (tstamp 80b484ad-4814-4740-aa1e-30811008a13f))
  (fp_line (start -0.32 4.76) (end -0.32 5.4) (layer "F.Fab") (width 0.1) (tstamp 844228dd-77de-4f3f-bb2c-ad950485cf98))
  (fp_line (start 1.5 -0.635) (end 2.135 -1.27) (layer "F.Fab") (width 0.1) (tstamp 8cbb77f8-c4ae-471f-8e67-810ac81602e8))
  (fp_line (start -0.32 -0.32) (end 1.5 -0.32) (layer "F.Fab") (width 0.1) (tstamp 8cddff09-8200-4a9f-9e51-f68fea79c50e))
  (fp_line (start -0.32 20) (end 1.5 20) (layer "F.Fab") (width 0.1) (tstamp 8d63da3c-b002-4f97-9dc9-b09b4ba9dcfa))
  (fp_line (start -0.32 40.96) (end 1.5 40.96) (layer "F.Fab") (width 0.1) (tstamp 8d640787-799f-420d-b296-5ed1acecd7b6))
  (fp_line (start 4.04 38.42) (end 10.04 38.42) (layer "F.Fab") (width 0.1) (tstamp 923893cb-8b5f-4ded-a33b-a937dbea9ed8))
  (fp_line (start -0.32 4.76) (end 1.5 4.76) (layer "F.Fab") (width 0.1) (tstamp 9539f854-f97c-4dd9-a059-33a9c7f7856b))
  (fp_line (start 4.04 13.02) (end 10.04 13.02) (layer "F.Fab") (width 0.1) (tstamp 96ba8001-d3a1-40c2-bd75-434885420036))
  (fp_line (start 4.04 43.5) (end 10.04 43.5) (layer "F.Fab") (width 0.1) (tstamp 98c71866-30a8-46c6-adc1-6878a61b02a3))
  (fp_line (start 10.04 42.86) (end 10.04 43.5) (layer "F.Fab") (width 0.1) (tstamp 99cb75bc-d4af-4e2d-84c7-74230bfa6883))
  (fp_line (start 4.04 22.54) (end 10.04 22.54) (layer "F.Fab") (width 0.1) (tstamp 9a86dbb3-0562-4e14-aaff-b758bedc2b59))
  (fp_line (start 4.04 17.46) (end 10.04 17.46) (layer "F.Fab") (width 0.1) (tstamp 9f7ea033-7b51-4f7a-b54a-58a7a8adf950))
  (fp_line (start 4.04 9.84) (end 10.04 9.84) (layer "F.Fab") (width 0.1) (tstamp a2e9a57e-ee83-4db6-beab-3032e2a14bfe))
  (fp_line (start 10.04 12.38) (end 10.04 13.02) (layer "F.Fab") (width 0.1) (tstamp a302cc1f-86b2-49e8-b3d7-122c46a28e83))
  (fp_line (start 4.04 45.4) (end 10.04 45.4) (layer "F.Fab") (width 0.1) (tstamp a3a79df9-f53e-43ab-8c08-aabb87f1b051))
  (fp_line (start -0.32 28.26) (end 1.5 28.26) (layer "F.Fab") (width 0.1) (tstamp a493ee59-e35e-48f1-a343-601a635f0681))
  (fp_line (start -0.32 2.86) (end 1.5 2.86) (layer "F.Fab") (width 0.1) (tstamp a62bf3a3-181a-4bc2-91e0-e3141473dc48))
  (fp_line (start 10.04 2.22) (end 10.04 2.86) (layer "F.Fab") (width 0.1) (tstamp a65cffd0-1cc1-40bc-9026-bf6d744bb191))
  (fp_line (start 10.04 14.92) (end 10.04 15.56) (layer "F.Fab") (width 0.1) (tstamp a799cd83-e1a8-4088-b7d6-dcfc06e3edab))
  (fp_line (start -0.32 7.94) (end 1.5 7.94) (layer "F.Fab") (width 0.1) (tstamp a85a8c6f-f43b-47e6-ae39-8b378af3ce00))
  (fp_line (start -0.32 37.78) (end 1.5 37.78) (layer "F.Fab") (width 0.1) (tstamp a9c611b8-b410-45be-8bb6-f71569cd9ec7))
  (fp_line (start 4.04 14.92) (end 10.04 14.92) (layer "F.Fab") (width 0.1) (tstamp aa307f6f-3cd1-4380-8d8a-dbea900e2def))
  (fp_line (start -0.32 7.3) (end -0.32 7.94) (layer "F.Fab") (width 0.1) (tstamp ab44484f-cc5a-47e9-abab-5be7990c5b61))
  (fp_line (start -0.32 32.7) (end 1.5 32.7) (layer "F.Fab") (width 0.1) (tstamp ae1b8a99-6d02-4843-9270-41e703605118))
  (fp_line (start 4.04 0.32) (end 10.04 0.32) (layer "F.Fab") (width 0.1) (tstamp af8167cf-43df-4cf9-8b3a-077678ea969a))
  (fp_line (start -0.32 10.48) (end 1.5 10.48) (layer "F.Fab") (width 0.1) (tstamp b66c9be9-92bb-46ba-88b8-c28c6acb4f94))
  (fp_line (start 4.04 46.99) (end 1.5 46.99) (layer "F.Fab") (width 0.1) (tstamp b73f3154-0dc2-4038-ba9c-b079c72ebca3))
  (fp_line (start 10.04 4.76) (end 10.04 5.4) (layer "F.Fab") (width 0.1) (tstamp b860c66d-8133-4cfd-a721-f436d9b5621a))
  (fp_line (start -0.32 25.72) (end 1.5 25.72) (layer "F.Fab") (width 0.1) (tstamp bbfd4942-319d-440e-9763-af2ed029eccf))
  (fp_line (start -0.32 23.18) (end 1.5 23.18) (layer "F.Fab") (width 0.1) (tstamp c1870a8a-edc3-4dd5-a48c-75c9201406ce))
  (fp_line (start -0.32 35.88) (end 1.5 35.88) (layer "F.Fab") (width 0.1) (tstamp c2846560-3156-4063-9250-b2191b59e46a))
  (fp_line (start -0.32 17.46) (end -0.32 18.1) (layer "F.Fab") (width 0.1) (tstamp c42e8d60-e14e-4ba8-bdb9-183ba5ce8aae))
  (fp_line (start 4.04 33.34) (end 10.04 33.34) (layer "F.Fab") (width 0.1) (tstamp c4b8cf56-e866-45b0-b356-38409259006c))
  (fp_line (start -0.32 40.32) (end -0.32 40.96) (layer "F.Fab") (width 0.1) (tstamp c7e02515-6fdd-4635-b2b9-78b40d587e7b))
  (fp_line (start -0.32 33.34) (end 1.5 33.34) (layer "F.Fab") (width 0.1) (tstamp caad7975-537a-4895-aa33-a8357fba7a15))
  (fp_line (start -0.32 42.86) (end -0.32 43.5) (layer "F.Fab") (width 0.1) (tstamp cb9f38f1-46b3-4b1d-a00f-bc1666ff002c))
  (fp_line (start 4.04 7.94) (end 10.04 7.94) (layer "F.Fab") (width 0.1) (tstamp cebfcc11-18b9-4709-a66e-9ffa92874e4f))
  (fp_line (start 4.04 23.18) (end 10.04 23.18) (layer "F.Fab") (width 0.1) (tstamp d29a19b7-c054-415f-af5b-af2e1c9c527e))
  (fp_line (start 4.04 2.86) (end 10.04 2.86) (layer "F.Fab") (width 0.1) (tstamp d30f4d84-6acf-4803-8960-d2092c297e0b))
  (fp_line (start 10.04 27.62) (end 10.04 28.26) (layer "F.Fab") (width 0.1) (tstamp d8204844-1856-4646-9fdf-ea941a5a1861))
  (fp_line (start -0.32 -0.32) (end -0.32 0.32) (layer "F.Fab") (width 0.1) (tstamp db637925-52e1-4b59-9139-02ec2bc913c8))
  (fp_line (start -0.32 42.86) (end 1.5 42.86) (layer "F.Fab") (width 0.1) (tstamp df24475a-3e16-42c7-90eb-3c312b13367a))
  (fp_line (start -0.32 20.64) (end 1.5 20.64) (layer "F.Fab") (width 0.1) (tstamp dfb72f7a-197d-44ed-a04b-5cbc410edf76))
  (fp_line (start -0.32 25.08) (end 1.5 25.08) (layer "F.Fab") (width 0.1) (tstamp e4f6d98c-e6c9-4e4d-b5b2-f728a9562610))
  (fp_line (start 4.04 25.72) (end 10.04 25.72) (layer "F.Fab") (width 0.1) (tstamp e50c2ac2-ac49-40d5-905b-df86bfb72d76))
  (fp_line (start -0.32 38.42) (end 1.5 38.42) (layer "F.Fab") (width 0.1) (tstamp e7133849-dddf-4741-af32-e20363031a54))
  (fp_line (start 10.04 25.08) (end 10.04 25.72) (layer "F.Fab") (width 0.1) (tstamp ed906f5c-3ee9-4f27-bbc9-9b200ec4c6d8))
  (fp_line (start 2.135 -1.27) (end 4.04 -1.27) (layer "F.Fab") (width 0.1) (tstamp eec8c7ec-3105-4b75-90cf-cd9f5147b2b7))
  (fp_line (start -0.32 25.08) (end -0.32 25.72) (layer "F.Fab") (width 0.1) (tstamp ef080801-062a-4a58-95f4-925cb5f82c79))
  (fp_line (start -0.32 2.22) (end -0.32 2.86) (layer "F.Fab") (width 0.1) (tstamp f73437f0-d625-4d06-9483-52ea0b87e5c7))
  (fp_line (start -0.32 12.38) (end 1.5 12.38) (layer "F.Fab") (width 0.1) (tstamp f8a88636-4e0d-4248-990b-c5bffbce50de))
  (fp_line (start 10.04 35.24) (end 10.04 35.88) (layer "F.Fab") (width 0.1) (tstamp fb29ddc4-7fbb-4a4e-b59c-5f4ae4d11aef))
  (fp_line (start 10.04 37.78) (end 10.04 38.42) (layer "F.Fab") (width 0.1) (tstamp fc2f38a9-ec19-438e-8f0f-cd7ac084fb5c))
  (pad "1" thru_hole rect (at 0 0) (size 2.1 2.1) (drill 1) (layers *.Cu *.Mask) (tstamp c89da843-d2e0-4738-88fc-551fec7b3048))
  (pad "2" thru_hole oval (at 0 2.54) (size 2.1 2.1) (drill 1) (layers *.Cu *.Mask) (tstamp 32cd9c38-be7a-4ec8-b8e3-d9c804470895))
  (pad "3" thru_hole oval (at 0 5.08) (size 2.1 2.1) (drill 1) (layers *.Cu *.Mask) (tstamp cec722cc-2992-43f9-b3bb-5e1c0eba6149))
  (pad "4" thru_hole oval (at 0 7.62) (size 2.1 2.1) (drill 1) (layers *.Cu *.Mask) (tstamp 18727df6-2f63-41eb-adb5-2e159caddf80))
  (pad "5" thru_hole oval (at 0 10.16) (size 2.1 2.1) (drill 1) (layers *.Cu *.Mask) (tstamp 0874faa5-0be8-46ac-8cde-1415c848838a))
  (pad "6" thru_hole oval (at 0 12.7) (size 2.1 2.1) (drill 1) (layers *.Cu *.Mask) (tstamp 9df92c33-0fda-4dcf-9e0e-38d59e8e5b51))
  (pad "7" thru_hole oval (at 0 15.24) (size 2.1 2.1) (drill 1) (layers *.Cu *.Mask) (tstamp 9ce6ce58-3096-4e31-afd7-b9cb726d1372))
  (pad "8" thru_hole oval (at 0 17.78) (size 2.1 2.1) (drill 1) (layers *.Cu *.Mask) (tstamp 7130513f-6a70-493b-a3a4-dd70050640f3))
  (pad "9" thru_hole oval (at 0 20.32) (size 2.1 2.1) (drill 1) (layers *.Cu *.Mask) (tstamp f754b41d-09e0-46e1-b88d-e3fefb1d3a96))
  (pad "10" thru_hole oval (at 0 22.86) (size 2.1 2.1) (drill 1) (layers *.Cu *.Mask) (tstamp e51c4721-149b-42ed-92dd-5eadaed9c8d1))
  (pad "11" thru_hole oval (at 0 25.4) (size 2.1 2.1) (drill 1) (layers *.Cu *.Mask) (tstamp 83974c77-742e-41a0-a150-294561fa1a52))
  (pad "12" thru_hole oval (at 0 27.94) (size 2.1 2.1) (drill 1) (layers *.Cu *.Mask) (tstamp 3e5c1320-e719-4779-b304-5e77514a2c7f))
  (pad "13" thru_hole oval (at 0 30.48) (size 2.1 2.1) (drill 1) (layers *.Cu *.Mask) (tstamp d98c44d1-a0d3-4144-9ad5-2e1a9fd4acd8))
  (pad "14" thru_hole oval (at 0 33.02) (size 2.1 2.1) (drill 1) (layers *.Cu *.Mask) (tstamp 53d56289-6389-4386-b41a-418b6b6b2e5a))
  (pad "15" thru_hole oval (at 0 35.56) (size 2.1 2.1) (drill 1) (layers *.Cu *.Mask) (tstamp 99ff9b99-db89-4d21-9141-c99d3e9fa537))
  (pad "16" thru_hole oval (at 0 38.1) (size 2.1 2.1) (drill 1) (layers *.Cu *.Mask) (tstamp 4ee54ab0-c8a1-4b27-aa92-f101cbdc3616))
  (pad "17" thru_hole oval (at 0 40.64) (size 2.1 2.1) (drill 1) (layers *.Cu *.Mask) (tstamp b5bf9582-b0de-4384-a680-8bb0ad21d73c))
  (pad "18" thru_hole oval (at 0 43.18) (size 2.1 2.1) (drill 1) (layers *.Cu *.Mask) (tstamp 2ed9564f-51df-4f7f-a050-1e9711c9cc0a))
  (pad "19" thru_hole oval (at 0 45.72) (size 2.1 2.1) (drill 1) (layers *.Cu *.Mask) (tstamp eca75bdf-dd48-4d01-967c-79c8a2754fe6))
  (model "${KICAD6_3DMODEL_DIR}/Connector_PinHeader_2.54mm.3dshapes/PinHeader_1x19_P2.54mm_Horizontal.wrl"
    (offset (xyz 0 0 0))
    (scale (xyz 1 1 1))
    (rotate (xyz 0 0 0))
  )
)
