(footprint "PinHeader_2x17_P2.54mm_Horizontal" (version 20211014) (generator pcbnew)
  (layer "F.Cu")
  (tedit 59FED5CB)
  (descr "Through hole angled pin header, 2x17, 2.54mm pitch, 6mm pin length, double rows")
  (tags "Through hole angled pin header THT 2x17 2.54mm double row")
  (attr through_hole)
  (fp_text reference "REF**" (at 5.655 -2.27) (layer "F.SilkS")
    (effects (font (size 1 1) (thickness 0.15)))
    (tstamp 8d8915b6-6206-4734-a53d-e4f774cb9f87)
  )
  (fp_text value "PinHeader_2x17_P2.54mm_Horizontal" (at 5.655 42.91) (layer "F.Fab")
    (effects (font (size 1 1) (thickness 0.15)))
    (tstamp 46664836-2c3a-4a06-89dd-492daab95026)
  )
  (fp_text user "${REFERENCE}" (at 5.31 20.32 90) (layer "F.Fab")
    (effects (font (size 1 1) (thickness 0.15)))
    (tstamp 18a74d0a-8e7f-42ac-ae14-060f5832770c)
  )
  (fp_line (start -1.27 -1.27) (end 0 -1.27) (layer "F.SilkS") (width 0.12) (tstamp 02836fc7-0f3c-4e02-9d08-68d332a83b3a))
  (fp_line (start 3.98 1.27) (end 6.64 1.27) (layer "F.SilkS") (width 0.12) (tstamp 03c0bc0c-fc59-401b-b09b-6bd7c87e78d2))
  (fp_line (start 12.64 2.92) (end 6.64 2.92) (layer "F.SilkS") (width 0.12) (tstamp 03d026ce-d44c-418f-9a06-84baf9c72a94))
  (fp_line (start 12.64 25.78) (end 6.64 25.78) (layer "F.SilkS") (width 0.12) (tstamp 04841c77-ed95-4a0b-868d-4b9b9a76f478))
  (fp_line (start 3.582929 25.78) (end 3.98 25.78) (layer "F.SilkS") (width 0.12) (tstamp 07ba1411-1229-4076-a0da-6a5991f83117))
  (fp_line (start 3.582929 30.86) (end 3.98 30.86) (layer "F.SilkS") (width 0.12) (tstamp 08cdd31f-108f-42a3-b415-8daf7b1306b8))
  (fp_line (start 3.582929 28.32) (end 3.98 28.32) (layer "F.SilkS") (width 0.12) (tstamp 0b6c7c75-05e8-4c57-9b4d-31a641ad2c34))
  (fp_line (start 12.64 41.02) (end 6.64 41.02) (layer "F.SilkS") (width 0.12) (tstamp 0b8e993e-ecc2-4a43-825d-e27252ed40e3))
  (fp_line (start 1.042929 28.32) (end 1.497071 28.32) (layer "F.SilkS") (width 0.12) (tstamp 0cb07c78-d5bb-4ebf-9cc7-9773baf56ff4))
  (fp_line (start 1.042929 8) (end 1.497071 8) (layer "F.SilkS") (width 0.12) (tstamp 0cb6d710-c8ed-4ebc-af5b-85d1218dd369))
  (fp_line (start 12.64 37.72) (end 12.64 38.48) (layer "F.SilkS") (width 0.12) (tstamp 0f2c4ac1-627a-461d-b6b1-e8ee25ba9481))
  (fp_line (start 3.98 34.29) (end 6.64 34.29) (layer "F.SilkS") (width 0.12) (tstamp 0fe8e755-4ded-4487-b0a0-64e28392998b))
  (fp_line (start 3.98 11.43) (end 6.64 11.43) (layer "F.SilkS") (width 0.12) (tstamp 141466a8-b13f-4ffa-8b26-ad64eff15ae0))
  (fp_line (start 6.64 40.26) (end 12.64 40.26) (layer "F.SilkS") (width 0.12) (tstamp 1449024c-1d04-459f-a9d7-98b9c43687f2))
  (fp_line (start 3.98 3.81) (end 6.64 3.81) (layer "F.SilkS") (width 0.12) (tstamp 1525778f-20a2-47c9-a4bf-c8157ea8ad37))
  (fp_line (start 3.98 16.51) (end 6.64 16.51) (layer "F.SilkS") (width 0.12) (tstamp 1785a9b0-93f3-4640-a894-a3724a792a3a))
  (fp_line (start 12.64 33.4) (end 6.64 33.4) (layer "F.SilkS") (width 0.12) (tstamp 179da5e2-52fb-4f4f-b461-425ac12ace39))
  (fp_line (start 3.98 24.13) (end 6.64 24.13) (layer "F.SilkS") (width 0.12) (tstamp 1c2161ac-2ad4-4df3-a3d3-bb6c9ad35e67))
  (fp_line (start 3.582929 35.18) (end 3.98 35.18) (layer "F.SilkS") (width 0.12) (tstamp 1e470497-1630-4d82-b2db-fd7856e485cf))
  (fp_line (start 3.98 26.67) (end 6.64 26.67) (layer "F.SilkS") (width 0.12) (tstamp 1e9d87c2-d7a1-4ee2-821d-566ad6637bb7))
  (fp_line (start 12.64 18.16) (end 6.64 18.16) (layer "F.SilkS") (width 0.12) (tstamp 1edddf76-edb0-4414-a8a2-e2204148091e))
  (fp_line (start 1.042929 37.72) (end 1.497071 37.72) (layer "F.SilkS") (width 0.12) (tstamp 1f8a964f-d4c2-4a46-9a60-a475023af473))
  (fp_line (start 1.042929 7.24) (end 1.497071 7.24) (layer "F.SilkS") (width 0.12) (tstamp 2b1913ff-9615-4f48-876d-9406ab0f4294))
  (fp_line (start 1.11 -0.38) (end 1.497071 -0.38) (layer "F.SilkS") (width 0.12) (tstamp 2c6a09fd-2edc-49d7-b2d2-b212f321c1b9))
  (fp_line (start 3.582929 27.56) (end 3.98 27.56) (layer "F.SilkS") (width 0.12) (tstamp 2ef54c21-0307-450c-a764-dbbba61fa35c))
  (fp_line (start 1.042929 35.94) (end 1.497071 35.94) (layer "F.SilkS") (width 0.12) (tstamp 2f6bfe48-a46d-4255-a646-f72640c06b7f))
  (fp_line (start 3.582929 -0.38) (end 3.98 -0.38) (layer "F.SilkS") (width 0.12) (tstamp 30a8ea65-30ba-49b8-9b23-f3feee75cbad))
  (fp_line (start 3.98 19.05) (end 6.64 19.05) (layer "F.SilkS") (width 0.12) (tstamp 3216d5a7-a745-48e7-9386-4a1ec31545b7))
  (fp_line (start 12.64 0.38) (end 6.64 0.38) (layer "F.SilkS") (width 0.12) (tstamp 33ffbae7-436e-450c-8dca-9b5a7bc9de7d))
  (fp_line (start 12.64 32.64) (end 12.64 33.4) (layer "F.SilkS") (width 0.12) (tstamp 34a447c3-11bb-4215-b21e-6a4335849678))
  (fp_line (start 1.042929 25.78) (end 1.497071 25.78) (layer "F.SilkS") (width 0.12) (tstamp 364608ed-ccaa-42e4-a1c9-4e5e8321ec72))
  (fp_line (start 3.582929 13.08) (end 3.98 13.08) (layer "F.SilkS") (width 0.12) (tstamp 3761807b-84f6-4d08-94e7-0b8b4de7ef82))
  (fp_line (start 12.64 40.26) (end 12.64 41.02) (layer "F.SilkS") (width 0.12) (tstamp 39233bf1-7cd9-4ad4-9d08-36b9288a8e64))
  (fp_line (start 3.98 13.97) (end 6.64 13.97) (layer "F.SilkS") (width 0.12) (tstamp 39544e03-dd3c-4e9a-9ad4-5d59e4574dd6))
  (fp_line (start 12.64 14.86) (end 12.64 15.62) (layer "F.SilkS") (width 0.12) (tstamp 39855c8a-986f-4767-8d98-4b8599c2617b))
  (fp_line (start 1.042929 13.08) (end 1.497071 13.08) (layer "F.SilkS") (width 0.12) (tstamp 3de81272-f683-40dd-84e7-0fc52ab60a76))
  (fp_line (start 3.582929 17.4) (end 3.98 17.4) (layer "F.SilkS") (width 0.12) (tstamp 3f3b03a5-0275-40c0-828e-1a5fdef4b666))
  (fp_line (start 1.042929 15.62) (end 1.497071 15.62) (layer "F.SilkS") (width 0.12) (tstamp 3f895157-c01c-47a3-80a6-d114576b07c7))
  (fp_line (start 6.64 27.56) (end 12.64 27.56) (layer "F.SilkS") (width 0.12) (tstamp 4199753e-284d-4720-bdb9-b70461d00ed0))
  (fp_line (start 1.042929 20.7) (end 1.497071 20.7) (layer "F.SilkS") (width 0.12) (tstamp 41b4019d-5c65-425f-afd2-45ce58d09a94))
  (fp_line (start 12.64 5.46) (end 6.64 5.46) (layer "F.SilkS") (width 0.12) (tstamp 48956a89-be43-41f1-93c5-afaef26fcaff))
  (fp_line (start 3.582929 37.72) (end 3.98 37.72) (layer "F.SilkS") (width 0.12) (tstamp 48d2c87d-6971-4cba-b21d-625d02890941))
  (fp_line (start 6.64 12.32) (end 12.64 12.32) (layer "F.SilkS") (width 0.12) (tstamp 49850ce8-1c46-45c6-ba4c-954cf55eac57))
  (fp_line (start 12.64 38.48) (end 6.64 38.48) (layer "F.SilkS") (width 0.12) (tstamp 4d4304cf-8772-405b-b522-0270ccadf395))
  (fp_line (start 3.582929 23.24) (end 3.98 23.24) (layer "F.SilkS") (width 0.12) (tstamp 4d6d86a9-bc71-40dd-aa09-e3d4e01e61b5))
  (fp_line (start 3.98 21.59) (end 6.64 21.59) (layer "F.SilkS") (width 0.12) (tstamp 4ee2fe37-8ef2-477e-bc40-57c37c5768b6))
  (fp_line (start 1.042929 17.4) (end 1.497071 17.4) (layer "F.SilkS") (width 0.12) (tstamp 50e076c5-e490-4bf2-a758-e7abc3329818))
  (fp_line (start 6.64 4.7) (end 12.64 4.7) (layer "F.SilkS") (width 0.12) (tstamp 5475bd51-df06-4ad9-90d2-13e002b12a39))
  (fp_line (start 12.64 9.78) (end 12.64 10.54) (layer "F.SilkS") (width 0.12) (tstamp 54bcb894-e102-4449-a97f-a7d34c9c3235))
  (fp_line (start 3.582929 2.92) (end 3.98 2.92) (layer "F.SilkS") (width 0.12) (tstamp 5578a1cb-74f3-46b5-876f-dc70fb29d661))
  (fp_line (start 6.64 -0.38) (end 12.64 -0.38) (layer "F.SilkS") (width 0.12) (tstamp 5a644038-c544-4564-bbcd-29125b69e02f))
  (fp_line (start 3.582929 14.86) (end 3.98 14.86) (layer "F.SilkS") (width 0.12) (tstamp 5c27370c-0db3-4df0-a124-12536db71190))
  (fp_line (start 12.64 2.16) (end 12.64 2.92) (layer "F.SilkS") (width 0.12) (tstamp 5fcec5cd-4415-4d3b-b38d-f5d659b2dd4e))
  (fp_line (start 12.64 4.7) (end 12.64 5.46) (layer "F.SilkS") (width 0.12) (tstamp 600e2aea-a055-439a-86b3-9274ac2a9b2c))
  (fp_line (start 3.98 6.35) (end 6.64 6.35) (layer "F.SilkS") (width 0.12) (tstamp 601aae95-e57d-4c7b-aab8-3f7cb808b051))
  (fp_line (start 12.64 10.54) (end 6.64 10.54) (layer "F.SilkS") (width 0.12) (tstamp 6239c944-298f-4741-b62f-05bf86e76651))
  (fp_line (start 1.042929 41.02) (end 1.497071 41.02) (layer "F.SilkS") (width 0.12) (tstamp 62e3b85d-41e2-4707-9e67-a0f8f65b5b8d))
  (fp_line (start -1.27 0) (end -1.27 -1.27) (layer "F.SilkS") (width 0.12) (tstamp 656f3efb-11f8-4144-9677-672e0398c40c))
  (fp_line (start 3.582929 8) (end 3.98 8) (layer "F.SilkS") (width 0.12) (tstamp 6654f2d6-8acf-45b8-81cf-d3e0db5c53b7))
  (fp_line (start 12.64 12.32) (end 12.64 13.08) (layer "F.SilkS") (width 0.12) (tstamp 66867c29-ecc4-4f15-9796-34259ab530af))
  (fp_line (start 1.042929 33.4) (end 1.497071 33.4) (layer "F.SilkS") (width 0.12) (tstamp 67b46f6e-9899-4957-bab5-c2b92059094f))
  (fp_line (start 3.98 29.21) (end 6.64 29.21) (layer "F.SilkS") (width 0.12) (tstamp 69e107ca-a3b9-4eba-bb03-789b2e055be9))
  (fp_line (start 3.582929 4.7) (end 3.98 4.7) (layer "F.SilkS") (width 0.12) (tstamp 6b8b483a-4f50-45c7-a7b4-766e2d211b03))
  (fp_line (start 1.042929 30.1) (end 1.497071 30.1) (layer "F.SilkS") (width 0.12) (tstamp 6ce1221c-756d-4981-ba8d-ea738c249846))
  (fp_line (start 3.582929 0.38) (end 3.98 0.38) (layer "F.SilkS") (width 0.12) (tstamp 6fd8a875-baf1-43af-ac90-1fe016bc2841))
  (fp_line (start 6.64 35.18) (end 12.64 35.18) (layer "F.SilkS") (width 0.12) (tstamp 70145f97-f3db-4a3d-98b5-6fa1a2daa6ae))
  (fp_line (start 3.582929 18.16) (end 3.98 18.16) (layer "F.SilkS") (width 0.12) (tstamp 7033b563-7ea8-4a57-b6b6-68db62909645))
  (fp_line (start 3.582929 22.48) (end 3.98 22.48) (layer "F.SilkS") (width 0.12) (tstamp 7247d368-6749-4e63-bd2f-d416e44cff5c))
  (fp_line (start 6.64 25.02) (end 12.64 25.02) (layer "F.SilkS") (width 0.12) (tstamp 738baedd-3a62-49f0-ac99-0f746b373340))
  (fp_line (start 3.98 39.37) (end 6.64 39.37) (layer "F.SilkS") (width 0.12) (tstamp 74c7cdc8-57b8-468d-aa88-b9372160e9e4))
  (fp_line (start 6.64 14.86) (end 12.64 14.86) (layer "F.SilkS") (width 0.12) (tstamp 75884a69-d0c4-4e8d-8609-7457be5b6bff))
  (fp_line (start 12.64 27.56) (end 12.64 28.32) (layer "F.SilkS") (width 0.12) (tstamp 77490e87-501c-4052-8eca-a3dee3959bee))
  (fp_line (start 12.64 30.86) (end 6.64 30.86) (layer "F.SilkS") (width 0.12) (tstamp 77eac142-b3c5-4c71-ae5b-f00a35be258c))
  (fp_line (start 6.64 7.24) (end 12.64 7.24) (layer "F.SilkS") (width 0.12) (tstamp 7a530522-107b-41e9-8f6d-90febebf6221))
  (fp_line (start 12.64 35.18) (end 12.64 35.94) (layer "F.SilkS") (width 0.12) (tstamp 7b81589f-f7c4-45f8-80f5-22e3b6e5018e))
  (fp_line (start 6.64 32.64) (end 12.64 32.64) (layer "F.SilkS") (width 0.12) (tstamp 7e59b57d-6060-425d-afc9-b178be29a37b))
  (fp_line (start 3.582929 30.1) (end 3.98 30.1) (layer "F.SilkS") (width 0.12) (tstamp 7ffda9b8-81e4-486c-8a74-26bc3a911c5f))
  (fp_line (start 3.582929 7.24) (end 3.98 7.24) (layer "F.SilkS") (width 0.12) (tstamp 8007e0d2-7c16-42d2-9886-b2d5d836cf00))
  (fp_line (start 12.64 15.62) (end 6.64 15.62) (layer "F.SilkS") (width 0.12) (tstamp 809635c1-b685-416e-8fd4-8e317b905bee))
  (fp_line (start 1.042929 30.86) (end 1.497071 30.86) (layer "F.SilkS") (width 0.12) (tstamp 80e34898-cbda-4d8f-a8db-9c1ae2db2050))
  (fp_line (start 6.64 -0.32) (end 12.64 -0.32) (layer "F.SilkS") (width 0.12) (tstamp 81c770ff-0e05-485b-b4d9-b80741e98916))
  (fp_line (start 6.64 0.28) (end 12.64 0.28) (layer "F.SilkS") (width 0.12) (tstamp 8265b463-7596-48af-8d20-71feef6e8a79))
  (fp_line (start 1.042929 12.32) (end 1.497071 12.32) (layer "F.SilkS") (width 0.12) (tstamp 8379445e-62dc-4769-b28e-66b1c06a5d88))
  (fp_line (start 12.64 20.7) (end 6.64 20.7) (layer "F.SilkS") (width 0.12) (tstamp 83f9a720-ebe5-45c2-b526-1ae370863058))
  (fp_line (start 1.042929 23.24) (end 1.497071 23.24) (layer "F.SilkS") (width 0.12) (tstamp 854852f3-704f-42ad-9f19-a77a195d4f0f))
  (fp_line (start 3.582929 12.32) (end 3.98 12.32) (layer "F.SilkS") (width 0.12) (tstamp 8abd63ee-bc32-4428-a18e-d6c91f7db7d6))
  (fp_line (start 6.64 41.97) (end 6.64 -1.33) (layer "F.SilkS") (width 0.12) (tstamp 8af3fe4e-70ca-44cc-99b4-ff032ca451a7))
  (fp_line (start 3.582929 32.64) (end 3.98 32.64) (layer "F.SilkS") (width 0.12) (tstamp 8b1667b8-72fb-4b22-a4c9-502a88bf3486))
  (fp_line (start 1.11 0.38) (end 1.497071 0.38) (layer "F.SilkS") (width 0.12) (tstamp 8c576d9b-3349-47fb-9a63-5018a1a59ea7))
  (fp_line (start 3.98 41.97) (end 6.64 41.97) (layer "F.SilkS") (width 0.12) (tstamp 8d0cd07d-0ba5-457a-87a9-43afbdf5c953))
  (fp_line (start 1.042929 4.7) (end 1.497071 4.7) (layer "F.SilkS") (width 0.12) (tstamp 93154dcc-07b1-4a41-b68b-0e1399e4f405))
  (fp_line (start 12.64 28.32) (end 6.64 28.32) (layer "F.SilkS") (width 0.12) (tstamp 95c6c2f0-c855-4b96-b647-62f15ff911f5))
  (fp_line (start 3.582929 40.26) (end 3.98 40.26) (layer "F.SilkS") (width 0.12) (tstamp 98b181a8-47c1-4493-a8ef-16a5f2f53cdb))
  (fp_line (start 3.582929 38.48) (end 3.98 38.48) (layer "F.SilkS") (width 0.12) (tstamp 9d3bda6b-3ad1-454f-89d3-d496067b5c67))
  (fp_line (start 3.582929 5.46) (end 3.98 5.46) (layer "F.SilkS") (width 0.12) (tstamp 9e28a368-725a-45a0-9e83-585adefeb904))
  (fp_line (start 12.64 19.94) (end 12.64 20.7) (layer "F.SilkS") (width 0.12) (tstamp 9ec6da95-3349-46cf-b9fa-4f200e4936be))
  (fp_line (start 12.64 35.94) (end 6.64 35.94) (layer "F.SilkS") (width 0.12) (tstamp 9f51b6bd-ff5f-433b-bec7-05813e0812f7))
  (fp_line (start 1.042929 10.54) (end 1.497071 10.54) (layer "F.SilkS") (width 0.12) (tstamp a0dcb9fd-dd75-4a3d-b177-bd34df7a58f7))
  (fp_line (start 6.64 -0.08) (end 12.64 -0.08) (layer "F.SilkS") (width 0.12) (tstamp a29cb49a-92b3-4798-815b-3a14f8951ea9))
  (fp_line (start 12.64 17.4) (end 12.64 18.16) (layer "F.SilkS") (width 0.12) (tstamp a2c7e208-3c5c-48a5-aef2-76cf7a94ffa0))
  (fp_line (start 3.582929 15.62) (end 3.98 15.62) (layer "F.SilkS") (width 0.12) (tstamp a93acb45-aba5-4954-8645-a36d0e8994a9))
  (fp_line (start 12.64 13.08) (end 6.64 13.08) (layer "F.SilkS") (width 0.12) (tstamp aadcefab-210d-4086-9b11-7f70b323bd24))
  (fp_line (start 1.042929 25.02) (end 1.497071 25.02) (layer "F.SilkS") (width 0.12) (tstamp aebcbdbe-c4e1-4581-8eb2-9e50cb23412a))
  (fp_line (start 6.64 -1.33) (end 3.98 -1.33) (layer "F.SilkS") (width 0.12) (tstamp afef17d3-133b-4bc3-b06b-32a1338f1f18))
  (fp_line (start 1.042929 38.48) (end 1.497071 38.48) (layer "F.SilkS") (width 0.12) (tstamp b052973d-eb8d-447b-aea8-9d47297815ac))
  (fp_line (start 3.582929 10.54) (end 3.98 10.54) (layer "F.SilkS") (width 0.12) (tstamp b13376a0-b124-4bcd-b8f3-18bf59aa8c2e))
  (fp_line (start 6.64 17.4) (end 12.64 17.4) (layer "F.SilkS") (width 0.12) (tstamp b23731a9-6c6e-43bf-8ffd-6313e3c60922))
  (fp_line (start 6.64 -0.2) (end 12.64 -0.2) (layer "F.SilkS") (width 0.12) (tstamp b33cb526-758c-4faa-9575-855af19588ef))
  (fp_line (start 12.64 -0.38) (end 12.64 0.38) (layer "F.SilkS") (width 0.12) (tstamp b5477640-573a-403f-82d6-4f18f04d7d6d))
  (fp_line (start 3.582929 20.7) (end 3.98 20.7) (layer "F.SilkS") (width 0.12) (tstamp b8348718-e6d9-4d19-9b3c-74704b495ce7))
  (fp_line (start 6.64 9.78) (end 12.64 9.78) (layer "F.SilkS") (width 0.12) (tstamp ba9e4cc1-5a86-43a3-947b-e5ccea687007))
  (fp_line (start 6.64 19.94) (end 12.64 19.94) (layer "F.SilkS") (width 0.12) (tstamp bfec5ccb-310c-443c-846c-839d32c8f940))
  (fp_line (start 1.042929 18.16) (end 1.497071 18.16) (layer "F.SilkS") (width 0.12) (tstamp c17f1a7a-7b8b-4233-8f06-09ffd8b616b5))
  (fp_line (start 1.042929 5.46) (end 1.497071 5.46) (layer "F.SilkS") (width 0.12) (tstamp c2897231-2d27-4c5c-ac12-1a95d2627fd3))
  (fp_line (start 6.64 37.72) (end 12.64 37.72) (layer "F.SilkS") (width 0.12) (tstamp c39841f2-4aa8-4363-95b5-76c0136424d4))
  (fp_line (start 6.64 0.16) (end 12.64 0.16) (layer "F.SilkS") (width 0.12) (tstamp c57734fd-14d8-41ca-917b-12a1e53ac5d3))
  (fp_line (start 1.042929 19.94) (end 1.497071 19.94) (layer "F.SilkS") (width 0.12) (tstamp c58c6f62-2e1a-4e4e-b4b3-bd7f2e95c380))
  (fp_line (start 3.98 36.83) (end 6.64 36.83) (layer "F.SilkS") (width 0.12) (tstamp c66744dc-4088-45dd-acc1-55e225c09d6a))
  (fp_line (start 6.64 2.16) (end 12.64 2.16) (layer "F.SilkS") (width 0.12) (tstamp c69da34d-e774-4da9-8ea1-8c364fdabdb4))
  (fp_line (start 1.042929 32.64) (end 1.497071 32.64) (layer "F.SilkS") (width 0.12) (tstamp c7d2fca4-594a-4c8e-929d-9f4d8a3f69d0))
  (fp_line (start 3.582929 33.4) (end 3.98 33.4) (layer "F.SilkS") (width 0.12) (tstamp c8d06b55-1a36-4999-8175-a9fd34fc678b))
  (fp_line (start 12.64 22.48) (end 12.64 23.24) (layer "F.SilkS") (width 0.12) (tstamp c936a2bb-c46e-4862-8ed5-cf8132843764))
  (fp_line (start 3.98 -1.33) (end 3.98 41.97) (layer "F.SilkS") (width 0.12) (tstamp ca4b9d48-2067-471f-815c-6ff9c430ae4a))
  (fp_line (start 12.64 30.1) (end 12.64 30.86) (layer "F.SilkS") (width 0.12) (tstamp cc2c7e3a-560d-4cfb-ae12-703f3a864460))
  (fp_line (start 1.042929 22.48) (end 1.497071 22.48) (layer "F.SilkS") (width 0.12) (tstamp cd98ed03-f5bb-4b6d-930b-c556d7aa09dc))
  (fp_line (start 3.582929 35.94) (end 3.98 35.94) (layer "F.SilkS") (width 0.12) (tstamp d11a04dd-3129-464b-9104-b589c08695db))
  (fp_line (start 1.042929 9.78) (end 1.497071 9.78) (layer "F.SilkS") (width 0.12) (tstamp d6e1b5ca-86e2-4392-9f78-6660ff4819ae))
  (fp_line (start 12.64 8) (end 6.64 8) (layer "F.SilkS") (width 0.12) (tstamp d79e70bd-bfe7-4ad8-8b6d-7a335bdc82e5))
  (fp_line (start 12.64 23.24) (end 6.64 23.24) (layer "F.SilkS") (width 0.12) (tstamp d9423869-0948-4281-8e55-352d2e891563))
  (fp_line (start 3.582929 9.78) (end 3.98 9.78) (layer "F.SilkS") (width 0.12) (tstamp dfc6ccea-cee5-4203-a687-b0570ccf29c2))
  (fp_line (start 3.582929 19.94) (end 3.98 19.94) (layer "F.SilkS") (width 0.12) (tstamp e1454b00-8ab3-46de-93de-4e565b39fe74))
  (fp_line (start 3.582929 25.02) (end 3.98 25.02) (layer "F.SilkS") (width 0.12) (tstamp e29bbaa2-6ba0-4b91-96ca-72609e8f0452))
  (fp_line (start 1.042929 14.86) (end 1.497071 14.86) (layer "F.SilkS") (width 0.12) (tstamp e559b4d1-5ca5-4b13-87de-ef805522e6d7))
  (fp_line (start 12.64 7.24) (end 12.64 8) (layer "F.SilkS") (width 0.12) (tstamp e57da532-0434-4601-ad70-9cfa5ad5fd98))
  (fp_line (start 6.64 0.04) (end 12.64 0.04) (layer "F.SilkS") (width 0.12) (tstamp e6fbbb7a-0ec3-4c48-97df-1a9baf29b88c))
  (fp_line (start 3.98 8.89) (end 6.64 8.89) (layer "F.SilkS") (width 0.12) (tstamp e70b2380-7dcf-42f5-b829-89ce00fa7864))
  (fp_line (start 6.64 30.1) (end 12.64 30.1) (layer "F.SilkS") (width 0.12) (tstamp e8bb9920-2082-4924-8680-a4f119296586))
  (fp_line (start 6.64 22.48) (end 12.64 22.48) (layer "F.SilkS") (width 0.12) (tstamp e94f2a36-834e-4bdb-85ec-ba37d0baf579))
  (fp_line (start 1.042929 27.56) (end 1.497071 27.56) (layer "F.SilkS") (width 0.12) (tstamp e962d1de-4c8d-48f6-86e8-b15f17dddd24))
  (fp_line (start 3.582929 2.16) (end 3.98 2.16) (layer "F.SilkS") (width 0.12) (tstamp e995f83b-58bd-4cf0-aa51-9a0abf69c40c))
  (fp_line (start 1.042929 2.92) (end 1.497071 2.92) (layer "F.SilkS") (width 0.12) (tstamp ebf5654d-41ef-4789-8ec6-d1d88fc6c50f))
  (fp_line (start 1.042929 2.16) (end 1.497071 2.16) (layer "F.SilkS") (width 0.12) (tstamp ec52b345-11c5-45e6-adf6-f3b0d5378d5f))
  (fp_line (start 3.98 31.75) (end 6.64 31.75) (layer "F.SilkS") (width 0.12) (tstamp ed5099ce-6334-47ad-90dc-1abc374cdaff))
  (fp_line (start 1.042929 35.18) (end 1.497071 35.18) (layer "F.SilkS") (width 0.12) (tstamp f2e36cc6-7a1e-4ae5-b9a5-db1de553318b))
  (fp_line (start 3.582929 41.02) (end 3.98 41.02) (layer "F.SilkS") (width 0.12) (tstamp f40dd59c-f727-4f50-8a16-75e6116b4790))
  (fp_line (start 1.042929 40.26) (end 1.497071 40.26) (layer "F.SilkS") (width 0.12) (tstamp f43b9806-d8c3-4260-8276-ada51cd8a133))
  (fp_line (start 12.64 25.02) (end 12.64 25.78) (layer "F.SilkS") (width 0.12) (tstamp fb4a49ba-01ba-450e-9421-d01623c1a073))
  (fp_line (start -1.8 42.45) (end 13.1 42.45) (layer "F.CrtYd") (width 0.05) (tstamp 0c1f5071-fac5-46d0-8012-5bec4ad5c912))
  (fp_line (start 13.1 42.45) (end 13.1 -1.8) (layer "F.CrtYd") (width 0.05) (tstamp 28d616f3-3a7a-4f9a-913e-8ff1429cb2c6))
  (fp_line (start -1.8 -1.8) (end -1.8 42.45) (layer "F.CrtYd") (width 0.05) (tstamp 51136a5a-1b4c-486a-aedb-b6461fb16a59))
  (fp_line (start 13.1 -1.8) (end -1.8 -1.8) (layer "F.CrtYd") (width 0.05) (tstamp c1843c60-7e1a-46bf-9924-96e37ebbe991))
  (fp_line (start 6.58 18.1) (end 12.58 18.1) (layer "F.Fab") (width 0.1) (tstamp 003a5ba6-5d0e-41a1-a5e9-f30fe762a2e5))
  (fp_line (start 6.58 7.3) (end 12.58 7.3) (layer "F.Fab") (width 0.1) (tstamp 037e554b-2e18-4b4b-8cec-ef68bf9bae6a))
  (fp_line (start 12.58 2.22) (end 12.58 2.86) (layer "F.Fab") (width 0.1) (tstamp 04b0997b-6dc3-42f5-a999-32e1e6552663))
  (fp_line (start 6.58 32.7) (end 12.58 32.7) (layer "F.Fab") (width 0.1) (tstamp 04b21de6-ff15-4bc5-a9fb-cafa40c37aca))
  (fp_line (start -0.32 15.56) (end 4.04 15.56) (layer "F.Fab") (width 0.1) (tstamp 0a335a2a-6580-4889-b0fc-6dfb1876ecdd))
  (fp_line (start 6.58 30.8) (end 12.58 30.8) (layer "F.Fab") (width 0.1) (tstamp 0d40a7b3-4ded-4809-a692-e05673fe85e7))
  (fp_line (start 12.58 37.78) (end 12.58 38.42) (layer "F.Fab") (width 0.1) (tstamp 0fbf5b47-efcd-408c-b835-fbf38609b86c))
  (fp_line (start 6.58 22.54) (end 12.58 22.54) (layer "F.Fab") (width 0.1) (tstamp 14c77721-4d2a-479d-b5f7-39784453ebbe))
  (fp_line (start 12.58 35.24) (end 12.58 35.88) (layer "F.Fab") (width 0.1) (tstamp 1da1e217-667c-4d83-8587-16d37d49db2f))
  (fp_line (start -0.32 2.22) (end 4.04 2.22) (layer "F.Fab") (width 0.1) (tstamp 21e39195-8110-4e25-a2e1-7629be713e2a))
  (fp_line (start 6.58 40.32) (end 12.58 40.32) (layer "F.Fab") (width 0.1) (tstamp 230d70a8-840e-4ca0-ad55-f95a9ec93583))
  (fp_line (start -0.32 4.76) (end -0.32 5.4) (layer "F.Fab") (width 0.1) (tstamp 25cad8d7-0174-4194-b50e-aff1691f7866))
  (fp_line (start 6.58 38.42) (end 12.58 38.42) (layer "F.Fab") (width 0.1) (tstamp 2a2b7403-f862-49a3-94d3-dd36ebe906b7))
  (fp_line (start 12.58 20) (end 12.58 20.64) (layer "F.Fab") (width 0.1) (tstamp 2a8b4d6f-86dc-46c9-a4b7-e8fcb06f3dd4))
  (fp_line (start 6.58 12.38) (end 12.58 12.38) (layer "F.Fab") (width 0.1) (tstamp 2f26caba-6a5e-4a00-96e7-4b97c7698be1))
  (fp_line (start -0.32 7.94) (end 4.04 7.94) (layer "F.Fab") (width 0.1) (tstamp 30bd7a4b-1651-490e-b4f7-aeb5367e03b7))
  (fp_line (start -0.32 33.34) (end 4.04 33.34) (layer "F.Fab") (width 0.1) (tstamp 32875335-9c52-4aee-b24f-743f1871eebc))
  (fp_line (start -0.32 9.84) (end 4.04 9.84) (layer "F.Fab") (width 0.1) (tstamp 32d51cef-e2ee-4222-aeda-57eef179cb1f))
  (fp_line (start 6.58 2.22) (end 12.58 2.22) (layer "F.Fab") (width 0.1) (tstamp 366d6a51-609c-4bd1-8a38-84cd0b54e55d))
  (fp_line (start 6.58 35.24) (end 12.58 35.24) (layer "F.Fab") (width 0.1) (tstamp 36bd75da-63df-4c49-8157-c44b36aaa796))
  (fp_line (start -0.32 35.88) (end 4.04 35.88) (layer "F.Fab") (width 0.1) (tstamp 3b7af095-2184-4901-94f4-47ca844e3fde))
  (fp_line (start -0.32 20) (end -0.32 20.64) (layer "F.Fab") (width 0.1) (tstamp 3c80c755-5d67-4dee-a71e-78fc454ad911))
  (fp_line (start 12.58 4.76) (end 12.58 5.4) (layer "F.Fab") (width 0.1) (tstamp 405787d4-fc5f-4f0c-b7af-e1b9de00b4b8))
  (fp_line (start -0.32 9.84) (end -0.32 10.48) (layer "F.Fab") (width 0.1) (tstamp 40dd0a20-6f26-4bea-86ed-3fcbc069e483))
  (fp_line (start -0.32 40.32) (end -0.32 40.96) (layer "F.Fab") (width 0.1) (tstamp 416a7f25-5903-4690-ba06-c5bdd967b51f))
  (fp_line (start -0.32 -0.32) (end -0.32 0.32) (layer "F.Fab") (width 0.1) (tstamp 49eaf36d-38ba-4586-b0d7-589b79dd9046))
  (fp_line (start 6.58 41.91) (end 4.04 41.91) (layer "F.Fab") (width 0.1) (tstamp 4baa6335-11d0-44a1-a55e-85dbb92e024e))
  (fp_line (start 6.58 27.62) (end 12.58 27.62) (layer "F.Fab") (width 0.1) (tstamp 4c819ba6-e926-4429-9460-dc580a0d2d03))
  (fp_line (start 12.58 25.08) (end 12.58 25.72) (layer "F.Fab") (width 0.1) (tstamp 4f45d00b-0f27-4c88-a5f7-d154a28ad464))
  (fp_line (start 12.58 27.62) (end 12.58 28.26) (layer "F.Fab") (width 0.1) (tstamp 51fd6dc6-7bc2-47fb-8804-cc5de1b01d7e))
  (fp_line (start 6.58 28.26) (end 12.58 28.26) (layer "F.Fab") (width 0.1) (tstamp 526f9ad5-a86b-4055-8463-1f5e354da74e))
  (fp_line (start 6.58 35.88) (end 12.58 35.88) (layer "F.Fab") (width 0.1) (tstamp 546679f6-da51-4a4a-812c-1eaaedaa3c89))
  (fp_line (start 12.58 17.46) (end 12.58 18.1) (layer "F.Fab") (width 0.1) (tstamp 55d6ac0c-4571-4d10-9d30-26b311be788d))
  (fp_line (start 4.04 41.91) (end 4.04 -0.635) (layer "F.Fab") (width 0.1) (tstamp 56da502d-811a-4f07-9b8e-57330d2db019))
  (fp_line (start 6.58 23.18) (end 12.58 23.18) (layer "F.Fab") (width 0.1) (tstamp 57a1c613-7ca8-4014-831d-2a14b6712eeb))
  (fp_line (start 12.58 9.84) (end 12.58 10.48) (layer "F.Fab") (width 0.1) (tstamp 58ca1462-859c-45ca-9151-32d7cb43934e))
  (fp_line (start 6.58 20) (end 12.58 20) (layer "F.Fab") (width 0.1) (tstamp 5aa11272-6bc3-4e85-8326-5670d69a3cda))
  (fp_line (start -0.32 7.3) (end 4.04 7.3) (layer "F.Fab") (width 0.1) (tstamp 5bbb7b41-e91d-495d-a5a6-7cf1a7b8ea7e))
  (fp_line (start -0.32 37.78) (end 4.04 37.78) (layer "F.Fab") (width 0.1) (tstamp 625b9e01-a7ff-4bfa-9355-b47d19083203))
  (fp_line (start 12.58 32.7) (end 12.58 33.34) (layer "F.Fab") (width 0.1) (tstamp 67609790-ebff-4afe-abb1-0dd560fa3ac7))
  (fp_line (start 6.58 30.16) (end 12.58 30.16) (layer "F.Fab") (width 0.1) (tstamp 690b4bbd-51a5-4e60-b20f-46e28f7d51ed))
  (fp_line (start -0.32 25.72) (end 4.04 25.72) (layer "F.Fab") (width 0.1) (tstamp 6cae0932-c299-4c98-bb71-da438df55085))
  (fp_line (start -0.32 22.54) (end 4.04 22.54) (layer "F.Fab") (width 0.1) (tstamp 6d1c22ab-be31-4c9f-b21c-91436c6795a1))
  (fp_line (start -0.32 35.24) (end 4.04 35.24) (layer "F.Fab") (width 0.1) (tstamp 6e98a2f2-9bc9-41b0-a196-48229cf03d7f))
  (fp_line (start -0.32 17.46) (end 4.04 17.46) (layer "F.Fab") (width 0.1) (tstamp 6edd5744-81cb-4552-9978-173595c9562a))
  (fp_line (start -0.32 35.24) (end -0.32 35.88) (layer "F.Fab") (width 0.1) (tstamp 70f3bf09-3cf3-467f-85d1-580bc337aca2))
  (fp_line (start 6.58 25.72) (end 12.58 25.72) (layer "F.Fab") (width 0.1) (tstamp 76d26f2a-bd6d-4a2b-a7ab-ba92377b2cec))
  (fp_line (start 6.58 37.78) (end 12.58 37.78) (layer "F.Fab") (width 0.1) (tstamp 79f98d3e-4a8f-4f43-808d-5aa0d3db6f86))
  (fp_line (start 12.58 7.3) (end 12.58 7.94) (layer "F.Fab") (width 0.1) (tstamp 7a49ccd0-a471-4973-ba42-a8c5a28d67aa))
  (fp_line (start -0.32 2.86) (end 4.04 2.86) (layer "F.Fab") (width 0.1) (tstamp 7b8aac85-a876-4268-8cff-d09d77539b81))
  (fp_line (start 12.58 40.32) (end 12.58 40.96) (layer "F.Fab") (width 0.1) (tstamp 8075b39e-3027-4f57-a81f-75f4672daea6))
  (fp_line (start -0.32 5.4) (end 4.04 5.4) (layer "F.Fab") (width 0.1) (tstamp 80a26f0a-17b0-4b18-92cf-85ec6813cce1))
  (fp_line (start -0.32 28.26) (end 4.04 28.26) (layer "F.Fab") (width 0.1) (tstamp 81118b60-9c59-44ff-8359-86c30ddb2936))
  (fp_line (start 6.58 40.96) (end 12.58 40.96) (layer "F.Fab") (width 0.1) (tstamp 885fd8c8-548b-44d6-b7e2-36418d869061))
  (fp_line (start 6.58 25.08) (end 12.58 25.08) (layer "F.Fab") (width 0.1) (tstamp 8bb89e93-ce8c-42e9-992e-ad2cd4a1baa5))
  (fp_line (start -0.32 18.1) (end 4.04 18.1) (layer "F.Fab") (width 0.1) (tstamp 8bb91645-029e-4638-93a7-36cc79739039))
  (fp_line (start -0.32 7.3) (end -0.32 7.94) (layer "F.Fab") (width 0.1) (tstamp 8c502eb0-197d-43fd-b4ea-25a22e67c972))
  (fp_line (start -0.32 -0.32) (end 4.04 -0.32) (layer "F.Fab") (width 0.1) (tstamp 92e926fc-f3eb-48a6-8981-c15ab9e7c8f8))
  (fp_line (start -0.32 22.54) (end -0.32 23.18) (layer "F.Fab") (width 0.1) (tstamp 951f3883-e50f-4700-a545-06e5dcba8809))
  (fp_line (start -0.32 38.42) (end 4.04 38.42) (layer "F.Fab") (width 0.1) (tstamp 956cae7d-fcca-4fd6-99cb-e4e37e61e095))
  (fp_line (start -0.32 4.76) (end 4.04 4.76) (layer "F.Fab") (width 0.1) (tstamp 9c8140ca-4988-4689-aaf5-b4a203420513))
  (fp_line (start -0.32 30.8) (end 4.04 30.8) (layer "F.Fab") (width 0.1) (tstamp 9d2d18bb-06d8-4d41-bed3-e3be5597a06c))
  (fp_line (start -0.32 27.62) (end -0.32 28.26) (layer "F.Fab") (width 0.1) (tstamp a25e8e62-fb49-43a2-a89c-c987c21cbe00))
  (fp_line (start -0.32 13.02) (end 4.04 13.02) (layer "F.Fab") (width 0.1) (tstamp a5eace5d-22bb-471c-8063-d8073d263893))
  (fp_line (start -0.32 12.38) (end -0.32 13.02) (layer "F.Fab") (width 0.1) (tstamp a6285673-02c3-4878-b5fc-57cf94a61068))
  (fp_line (start 6.58 20.64) (end 12.58 20.64) (layer "F.Fab") (width 0.1) (tstamp aa84f984-1c08-4b28-9541-e429244cf027))
  (fp_line (start -0.32 14.92) (end 4.04 14.92) (layer "F.Fab") (width 0.1) (tstamp acb7877e-7f82-4f58-9901-6d4b35ee461b))
  (fp_line (start -0.32 27.62) (end 4.04 27.62) (layer "F.Fab") (width 0.1) (tstamp af94358c-2340-4efb-99a3-199930b7b8bd))
  (fp_line (start -0.32 40.32) (end 4.04 40.32) (layer "F.Fab") (width 0.1) (tstamp aff1e137-4d0d-47d0-9448-d670eec7a3a8))
  (fp_line (start 6.58 14.92) (end 12.58 14.92) (layer "F.Fab") (width 0.1) (tstamp b3d7e2bb-16b9-4077-a633-70ad9971a331))
  (fp_line (start 12.58 12.38) (end 12.58 13.02) (layer "F.Fab") (width 0.1) (tstamp b59179da-918d-45de-a352-c5340150951c))
  (fp_line (start 6.58 9.84) (end 12.58 9.84) (layer "F.Fab") (width 0.1) (tstamp b5fcb24e-605b-4ede-8ed5-5fb7a488644a))
  (fp_line (start -0.32 40.96) (end 4.04 40.96) (layer "F.Fab") (width 0.1) (tstamp b6fbf8f6-00c0-4007-9249-a7bc256c7469))
  (fp_line (start 6.58 0.32) (end 12.58 0.32) (layer "F.Fab") (width 0.1) (tstamp b7b31824-dfb3-4d9b-a7bc-a36abb57d275))
  (fp_line (start 12.58 22.54) (end 12.58 23.18) (layer "F.Fab") (width 0.1) (tstamp b7ef530b-a60f-42c7-badf-7fc093868bd4))
  (fp_line (start 6.58 -0.32) (end 12.58 -0.32) (layer "F.Fab") (width 0.1) (tstamp b92dcf20-19db-48e2-9c14-59ba0be872a7))
  (fp_line (start -0.32 37.78) (end -0.32 38.42) (layer "F.Fab") (width 0.1) (tstamp bc1d315b-49a4-49f9-9d7b-403f8d7f5762))
  (fp_line (start -0.32 14.92) (end -0.32 15.56) (layer "F.Fab") (width 0.1) (tstamp bc46149c-c78b-4fed-9c3e-6202041127d6))
  (fp_line (start 12.58 30.16) (end 12.58 30.8) (layer "F.Fab") (width 0.1) (tstamp bc7e925a-4e95-4dbf-a7c8-ab0a19cefa32))
  (fp_line (start 6.58 7.94) (end 12.58 7.94) (layer "F.Fab") (width 0.1) (tstamp bf294ef1-aa63-4db9-bcca-510c8348dd2f))
  (fp_line (start -0.32 32.7) (end -0.32 33.34) (layer "F.Fab") (width 0.1) (tstamp c1d4d6f3-9573-466c-a60d-7bf4d4d0e7df))
  (fp_line (start 12.58 14.92) (end 12.58 15.56) (layer "F.Fab") (width 0.1) (tstamp c4e92b6a-0ddf-4cdf-be1e-84c532a70c80))
  (fp_line (start -0.32 17.46) (end -0.32 18.1) (layer "F.Fab") (width 0.1) (tstamp c5fc5401-dbdb-41d9-b850-713c566c493b))
  (fp_line (start 4.675 -1.27) (end 6.58 -1.27) (layer "F.Fab") (width 0.1) (tstamp c769d025-3166-43b5-a915-ef19ee3fb53b))
  (fp_line (start 12.58 -0.32) (end 12.58 0.32) (layer "F.Fab") (width 0.1) (tstamp cc614421-3908-4586-8d8b-f9cb3ae64f32))
  (fp_line (start 6.58 13.02) (end 12.58 13.02) (layer "F.Fab") (width 0.1) (tstamp cc96dc4d-e940-44fb-ae42-459c5c2c3acd))
  (fp_line (start 6.58 4.76) (end 12.58 4.76) (layer "F.Fab") (width 0.1) (tstamp ccce560c-4a89-4f79-8395-bb60e473dda1))
  (fp_line (start -0.32 20) (end 4.04 20) (layer "F.Fab") (width 0.1) (tstamp d06e1e18-4c5c-47f9-b6d7-d70aa1814616))
  (fp_line (start -0.32 32.7) (end 4.04 32.7) (layer "F.Fab") (width 0.1) (tstamp d32c4750-bb65-4a2f-a25f-ec40b3507a4f))
  (fp_line (start -0.32 25.08) (end -0.32 25.72) (layer "F.Fab") (width 0.1) (tstamp d4e190e6-55ad-40a4-992f-182b57a93ed7))
  (fp_line (start -0.32 0.32) (end 4.04 0.32) (layer "F.Fab") (width 0.1) (tstamp d5f955e6-d7ee-4c68-bc90-3fbc813b7001))
  (fp_line (start 6.58 2.86) (end 12.58 2.86) (layer "F.Fab") (width 0.1) (tstamp d6541c0d-a67b-463f-b37e-32bf30791712))
  (fp_line (start -0.32 10.48) (end 4.04 10.48) (layer "F.Fab") (width 0.1) (tstamp df618b59-9ae1-405f-88e7-cf3977c29d23))
  (fp_line (start -0.32 20.64) (end 4.04 20.64) (layer "F.Fab") (width 0.1) (tstamp e0d85a35-eb44-4235-b05b-eee7f5339a83))
  (fp_line (start 6.58 5.4) (end 12.58 5.4) (layer "F.Fab") (width 0.1) (tstamp e1f0dd65-ca9b-4f34-b21a-0028f285d9ef))
  (fp_line (start -0.32 12.38) (end 4.04 12.38) (layer "F.Fab") (width 0.1) (tstamp e2666c1d-4a4e-44ea-aeee-07c151d14313))
  (fp_line (start -0.32 2.22) (end -0.32 2.86) (layer "F.Fab") (width 0.1) (tstamp e281b584-08f9-48cd-8855-bea91a46110a))
  (fp_line (start 6.58 15.56) (end 12.58 15.56) (layer "F.Fab") (width 0.1) (tstamp e57ee69d-b93b-495f-bfe3-f39690003abb))
  (fp_line (start 6.58 33.34) (end 12.58 33.34) (layer "F.Fab") (width 0.1) (tstamp e620f524-5907-4202-84d3-3d30efc5687c))
  (fp_line (start 6.58 10.48) (end 12.58 10.48) (layer "F.Fab") (width 0.1) (tstamp e67e6011-a1e3-4009-86d6-c67869210a12))
  (fp_line (start -0.32 30.16) (end -0.32 30.8) (layer "F.Fab") (width 0.1) (tstamp e6865d24-2694-4408-802b-81d6e869e69d))
  (fp_line (start 4.04 -0.635) (end 4.675 -1.27) (layer "F.Fab") (width 0.1) (tstamp e81948cd-0479-4013-9db3-60378f8d59c5))
  (fp_line (start -0.32 23.18) (end 4.04 23.18) (layer "F.Fab") (width 0.1) (tstamp ec108764-ab4a-4830-99df-2f2f6e2d9082))
  (fp_line (start -0.32 25.08) (end 4.04 25.08) (layer "F.Fab") (width 0.1) (tstamp f3ca92bc-1936-4531-a7a7-7cfe9f4add43))
  (fp_line (start 6.58 17.46) (end 12.58 17.46) (layer "F.Fab") (width 0.1) (tstamp fefced07-e0de-4acd-bb45-26719910e3a0))
  (fp_line (start -0.32 30.16) (end 4.04 30.16) (layer "F.Fab") (width 0.1) (tstamp ff2ef239-6975-46f9-be0d-d9a6b97199b2))
  (fp_line (start 6.58 -1.27) (end 6.58 41.91) (layer "F.Fab") (width 0.1) (tstamp ffb7c469-16d1-4483-a052-186642a5a78a))
  (pad "1" thru_hole rect (at 0 0) (size 2.1 2.1) (drill 1) (layers *.Cu *.Mask) (tstamp f097fcf6-47df-4588-ba41-f605572a6e3c))
  (pad "2" thru_hole oval (at 2.54 0) (size 2.1 2.1) (drill 1) (layers *.Cu *.Mask) (tstamp a819bb52-f819-4102-b2c2-7066323365c0))
  (pad "3" thru_hole oval (at 0 2.54) (size 2.1 2.1) (drill 1) (layers *.Cu *.Mask) (tstamp 14a3ada9-c43c-4edf-959c-1085ba1b4f58))
  (pad "4" thru_hole oval (at 2.54 2.54) (size 2.1 2.1) (drill 1) (layers *.Cu *.Mask) (tstamp 76238dde-318a-4185-a7b9-0244703fe99e))
  (pad "5" thru_hole oval (at 0 5.08) (size 2.1 2.1) (drill 1) (layers *.Cu *.Mask) (tstamp 6fc2f560-792f-471c-8957-5bc6f264e4b2))
  (pad "6" thru_hole oval (at 2.54 5.08) (size 2.1 2.1) (drill 1) (layers *.Cu *.Mask) (tstamp 6e87a29a-7775-4036-9b6f-82f1b46c915b))
  (pad "7" thru_hole oval (at 0 7.62) (size 2.1 2.1) (drill 1) (layers *.Cu *.Mask) (tstamp f41a213e-4a4d-499e-996b-94bb429396cd))
  (pad "8" thru_hole oval (at 2.54 7.62) (size 2.1 2.1) (drill 1) (layers *.Cu *.Mask) (tstamp 9dc85370-1d96-4dfd-9b51-82d9cc36929f))
  (pad "9" thru_hole oval (at 0 10.16) (size 2.1 2.1) (drill 1) (layers *.Cu *.Mask) (tstamp e616cade-8429-4587-9dc4-13e05250ab82))
  (pad "10" thru_hole oval (at 2.54 10.16) (size 2.1 2.1) (drill 1) (layers *.Cu *.Mask) (tstamp 645c41ed-f04c-4bad-8a3d-ca17fef6e76c))
  (pad "11" thru_hole oval (at 0 12.7) (size 2.1 2.1) (drill 1) (layers *.Cu *.Mask) (tstamp 0827b0f5-94f6-4352-b2a5-376ad79847f4))
  (pad "12" thru_hole oval (at 2.54 12.7) (size 2.1 2.1) (drill 1) (layers *.Cu *.Mask) (tstamp f89831f2-0736-48c2-93aa-92a98d1691e5))
  (pad "13" thru_hole oval (at 0 15.24) (size 2.1 2.1) (drill 1) (layers *.Cu *.Mask) (tstamp 870c7b88-edf8-4e30-832e-ec7604dc6185))
  (pad "14" thru_hole oval (at 2.54 15.24) (size 2.1 2.1) (drill 1) (layers *.Cu *.Mask) (tstamp 75117945-0324-48c1-9dea-fe1e3887e004))
  (pad "15" thru_hole oval (at 0 17.78) (size 2.1 2.1) (drill 1) (layers *.Cu *.Mask) (tstamp 26a718a6-debf-4936-967c-f29b607d4432))
  (pad "16" thru_hole oval (at 2.54 17.78) (size 2.1 2.1) (drill 1) (layers *.Cu *.Mask) (tstamp e2035187-88bc-4a68-8b6a-fdf0a2c66b20))
  (pad "17" thru_hole oval (at 0 20.32) (size 2.1 2.1) (drill 1) (layers *.Cu *.Mask) (tstamp 7687ffa2-31b9-4639-88bf-e3033d96bbdc))
  (pad "18" thru_hole oval (at 2.54 20.32) (size 2.1 2.1) (drill 1) (layers *.Cu *.Mask) (tstamp 309f2c55-9742-4c21-9500-e4338c30caa1))
  (pad "19" thru_hole oval (at 0 22.86) (size 2.1 2.1) (drill 1) (layers *.Cu *.Mask) (tstamp 0a2a1d56-fd50-4668-908a-f56afebbfb38))
  (pad "20" thru_hole oval (at 2.54 22.86) (size 2.1 2.1) (drill 1) (layers *.Cu *.Mask) (tstamp 00d67cf2-78d3-48e7-99fc-fe653cba603c))
  (pad "21" thru_hole oval (at 0 25.4) (size 2.1 2.1) (drill 1) (layers *.Cu *.Mask) (tstamp 981d9ef8-c9a0-4564-9dc0-29c2e172bcad))
  (pad "22" thru_hole oval (at 2.54 25.4) (size 2.1 2.1) (drill 1) (layers *.Cu *.Mask) (tstamp 1f81c3b1-679d-4494-b32e-25db1a99ca50))
  (pad "23" thru_hole oval (at 0 27.94) (size 2.1 2.1) (drill 1) (layers *.Cu *.Mask) (tstamp c75c270e-764f-4a0b-b002-a5595cd46508))
  (pad "24" thru_hole oval (at 2.54 27.94) (size 2.1 2.1) (drill 1) (layers *.Cu *.Mask) (tstamp 26ba7c5f-6f92-45b8-a137-522b3b64fa5a))
  (pad "25" thru_hole oval (at 0 30.48) (size 2.1 2.1) (drill 1) (layers *.Cu *.Mask) (tstamp e1e138e6-4069-476f-8c54-588c9a2bb851))
  (pad "26" thru_hole oval (at 2.54 30.48) (size 2.1 2.1) (drill 1) (layers *.Cu *.Mask) (tstamp 3597e721-685f-4473-8161-a01c626d73fe))
  (pad "27" thru_hole oval (at 0 33.02) (size 2.1 2.1) (drill 1) (layers *.Cu *.Mask) (tstamp 877a2d7b-092d-41ef-8b91-9f6a86b39fce))
  (pad "28" thru_hole oval (at 2.54 33.02) (size 2.1 2.1) (drill 1) (layers *.Cu *.Mask) (tstamp 1cbcd1cf-7a29-4905-80fd-8bd1c01eb9ef))
  (pad "29" thru_hole oval (at 0 35.56) (size 2.1 2.1) (drill 1) (layers *.Cu *.Mask) (tstamp d5fc65ad-6b6e-4068-995e-25ca5d70a624))
  (pad "30" thru_hole oval (at 2.54 35.56) (size 2.1 2.1) (drill 1) (layers *.Cu *.Mask) (tstamp ba4e495f-f6e2-493a-828b-099f39c1bd32))
  (pad "31" thru_hole oval (at 0 38.1) (size 2.1 2.1) (drill 1) (layers *.Cu *.Mask) (tstamp 6d6edf69-b5a8-461c-82b7-c9550975097b))
  (pad "32" thru_hole oval (at 2.54 38.1) (size 2.1 2.1) (drill 1) (layers *.Cu *.Mask) (tstamp 90002430-3917-4b4b-911e-2d4d71eb76c5))
  (pad "33" thru_hole oval (at 0 40.64) (size 2.1 2.1) (drill 1) (layers *.Cu *.Mask) (tstamp aa2e6cd6-e472-46ac-84a7-b7c88119a206))
  (pad "34" thru_hole oval (at 2.54 40.64) (size 2.1 2.1) (drill 1) (layers *.Cu *.Mask) (tstamp 3cc3bdb9-b197-4d6f-969f-db4ef58241c0))
  (model "${KICAD6_3DMODEL_DIR}/Connector_PinHeader_2.54mm.3dshapes/PinHeader_2x17_P2.54mm_Horizontal.wrl"
    (offset (xyz 0 0 0))
    (scale (xyz 1 1 1))
    (rotate (xyz 0 0 0))
  )
)
