(footprint "PinHeader_2x26_P2.54mm_Horizontal" (version 20211014) (generator pcbnew)
  (layer "F.Cu")
  (tedit 59FED5CB)
  (descr "Through hole angled pin header, 2x26, 2.54mm pitch, 6mm pin length, double rows")
  (tags "Through hole angled pin header THT 2x26 2.54mm double row")
  (attr through_hole)
  (fp_text reference "REF**" (at 5.655 -2.27) (layer "F.SilkS")
    (effects (font (size 1 1) (thickness 0.15)))
    (tstamp 3d0df72a-51f0-40ef-abaa-3a29ecc7c361)
  )
  (fp_text value "PinHeader_2x26_P2.54mm_Horizontal" (at 5.655 65.77) (layer "F.Fab")
    (effects (font (size 1 1) (thickness 0.15)))
    (tstamp 4b5e0aba-3378-460e-98a6-6c122e6b0e47)
  )
  (fp_text user "${REFERENCE}" (at 5.31 31.75 90) (layer "F.Fab")
    (effects (font (size 1 1) (thickness 0.15)))
    (tstamp eb1485ad-869c-430d-a87b-7776208d5cda)
  )
  (fp_line (start 6.64 42.8) (end 12.64 42.8) (layer "F.SilkS") (width 0.12) (tstamp 00095f7a-4325-457a-9cb9-8645c4b4c5c7))
  (fp_line (start 3.582929 25.02) (end 3.98 25.02) (layer "F.SilkS") (width 0.12) (tstamp 01b6a400-9b45-4685-8905-e052abb720c9))
  (fp_line (start 12.64 30.86) (end 6.64 30.86) (layer "F.SilkS") (width 0.12) (tstamp 01f3907c-d38a-41b1-b802-43ae3a7fd0ae))
  (fp_line (start 3.582929 35.18) (end 3.98 35.18) (layer "F.SilkS") (width 0.12) (tstamp 025f87ee-987d-4a8c-a402-2d31dc10d9df))
  (fp_line (start 3.582929 38.48) (end 3.98 38.48) (layer "F.SilkS") (width 0.12) (tstamp 02bb20ee-12be-4088-b394-a5096290071e))
  (fp_line (start 3.582929 37.72) (end 3.98 37.72) (layer "F.SilkS") (width 0.12) (tstamp 02daebab-1d30-4ec3-a114-6564711701a5))
  (fp_line (start 12.64 2.92) (end 6.64 2.92) (layer "F.SilkS") (width 0.12) (tstamp 05c92f8e-0a05-414e-916e-9c57df2e87ab))
  (fp_line (start 3.98 36.83) (end 6.64 36.83) (layer "F.SilkS") (width 0.12) (tstamp 06f78c4a-e2b1-4a9a-bf0f-d83b85730543))
  (fp_line (start 3.582929 46.1) (end 3.98 46.1) (layer "F.SilkS") (width 0.12) (tstamp 07c908f4-f43f-4a0f-a9b1-7f018f5f2d0b))
  (fp_line (start 1.042929 45.34) (end 1.497071 45.34) (layer "F.SilkS") (width 0.12) (tstamp 086c1016-3913-452f-8f5d-1f622e487044))
  (fp_line (start 3.582929 22.48) (end 3.98 22.48) (layer "F.SilkS") (width 0.12) (tstamp 08fd25d1-0b4b-412d-a627-59b28b73b4d0))
  (fp_line (start 3.582929 7.24) (end 3.98 7.24) (layer "F.SilkS") (width 0.12) (tstamp 09b8150d-ebda-4c35-bdcb-4a0c7a4fd0d7))
  (fp_line (start 3.582929 53.72) (end 3.98 53.72) (layer "F.SilkS") (width 0.12) (tstamp 09d7b497-95dc-4c4a-82f3-4f793d2bd334))
  (fp_line (start 12.64 37.72) (end 12.64 38.48) (layer "F.SilkS") (width 0.12) (tstamp 0a2f0ca9-6abf-453f-80e0-7bf0b6035626))
  (fp_line (start 12.64 43.56) (end 6.64 43.56) (layer "F.SilkS") (width 0.12) (tstamp 0a51010d-8e16-4b4c-bb40-fe71b1ce7f43))
  (fp_line (start 3.98 59.69) (end 6.64 59.69) (layer "F.SilkS") (width 0.12) (tstamp 0a7ca260-1c17-477d-9902-16932a8a6221))
  (fp_line (start 1.11 -0.38) (end 1.497071 -0.38) (layer "F.SilkS") (width 0.12) (tstamp 0bd27eec-0e88-4f68-bae3-671785193bcd))
  (fp_line (start 12.64 25.02) (end 12.64 25.78) (layer "F.SilkS") (width 0.12) (tstamp 0d07aab5-9d36-4cdd-a5ba-e24d457fca94))
  (fp_line (start 1.042929 18.16) (end 1.497071 18.16) (layer "F.SilkS") (width 0.12) (tstamp 11906dae-de58-4178-a8b6-86a4cd8be487))
  (fp_line (start 3.582929 2.16) (end 3.98 2.16) (layer "F.SilkS") (width 0.12) (tstamp 12ea5ba4-f9c3-4fae-b280-47bcf5dcdfb3))
  (fp_line (start 6.64 19.94) (end 12.64 19.94) (layer "F.SilkS") (width 0.12) (tstamp 15c55906-f69f-42b4-9465-e081bf519697))
  (fp_line (start 1.042929 35.94) (end 1.497071 35.94) (layer "F.SilkS") (width 0.12) (tstamp 16487f0e-9cc6-461a-ae6d-72c7233de39b))
  (fp_line (start 6.64 52.96) (end 12.64 52.96) (layer "F.SilkS") (width 0.12) (tstamp 1794ffd0-9de6-4133-9073-58597c9f20b5))
  (fp_line (start 12.64 28.32) (end 6.64 28.32) (layer "F.SilkS") (width 0.12) (tstamp 1923ecbc-b33b-4869-b927-a62658f893b1))
  (fp_line (start 3.582929 50.42) (end 3.98 50.42) (layer "F.SilkS") (width 0.12) (tstamp 1b1b2e4f-683e-48ab-9db4-1dcf37b578d0))
  (fp_line (start 3.98 54.61) (end 6.64 54.61) (layer "F.SilkS") (width 0.12) (tstamp 1b731c76-73ee-4b58-b043-27df55b35d91))
  (fp_line (start 3.582929 18.16) (end 3.98 18.16) (layer "F.SilkS") (width 0.12) (tstamp 1f5b310c-a886-4704-9035-d4c2927b2d0a))
  (fp_line (start 12.64 41.02) (end 6.64 41.02) (layer "F.SilkS") (width 0.12) (tstamp 1fa9ceed-4813-4758-8ceb-7ea8dc3749ed))
  (fp_line (start 1.042929 51.18) (end 1.497071 51.18) (layer "F.SilkS") (width 0.12) (tstamp 202191cc-95c8-4be2-b9c5-83d8bc40c9a6))
  (fp_line (start 6.64 25.02) (end 12.64 25.02) (layer "F.SilkS") (width 0.12) (tstamp 2193d1cc-708f-4a02-8fd8-2df0e3af2be5))
  (fp_line (start 12.64 12.32) (end 12.64 13.08) (layer "F.SilkS") (width 0.12) (tstamp 23b323a5-ef7e-463f-b367-dfe37160e424))
  (fp_line (start 3.582929 9.78) (end 3.98 9.78) (layer "F.SilkS") (width 0.12) (tstamp 25298e29-4469-4336-b04d-1f18837fb915))
  (fp_line (start -1.27 -1.27) (end 0 -1.27) (layer "F.SilkS") (width 0.12) (tstamp 266936ea-e4cf-4fcd-aaab-56cde1edde10))
  (fp_line (start 6.64 58.04) (end 12.64 58.04) (layer "F.SilkS") (width 0.12) (tstamp 26c1e7a7-4cf6-4dc7-9ccd-bedacff9ac54))
  (fp_line (start 3.98 21.59) (end 6.64 21.59) (layer "F.SilkS") (width 0.12) (tstamp 27d22ea3-5a63-40a2-b909-73953ba2ca83))
  (fp_line (start 1.042929 12.32) (end 1.497071 12.32) (layer "F.SilkS") (width 0.12) (tstamp 28204394-ca38-4113-944d-786864ac9867))
  (fp_line (start 3.582929 58.8) (end 3.98 58.8) (layer "F.SilkS") (width 0.12) (tstamp 29c7a206-1752-46dd-a9a2-4f1953caf4b3))
  (fp_line (start 3.98 24.13) (end 6.64 24.13) (layer "F.SilkS") (width 0.12) (tstamp 2a10f4ea-3953-4546-a9ed-52095fce702e))
  (fp_line (start 3.98 34.29) (end 6.64 34.29) (layer "F.SilkS") (width 0.12) (tstamp 2a886382-c6be-4cce-bf89-6dc52e5c6612))
  (fp_line (start 3.98 11.43) (end 6.64 11.43) (layer "F.SilkS") (width 0.12) (tstamp 2ae5478a-d410-4d14-bdbf-f0a5ad4773b8))
  (fp_line (start 3.98 31.75) (end 6.64 31.75) (layer "F.SilkS") (width 0.12) (tstamp 2afb888d-bf3d-4197-9273-59395e42ec2d))
  (fp_line (start 1.042929 53.72) (end 1.497071 53.72) (layer "F.SilkS") (width 0.12) (tstamp 2c770734-b848-417c-8ed7-6028388c9129))
  (fp_line (start 3.98 57.15) (end 6.64 57.15) (layer "F.SilkS") (width 0.12) (tstamp 2cb02b82-c364-4809-88a3-3390ca85ca8b))
  (fp_line (start 1.042929 4.7) (end 1.497071 4.7) (layer "F.SilkS") (width 0.12) (tstamp 2e16248d-4507-4fda-96ab-bd38ee7340ff))
  (fp_line (start 1.11 0.38) (end 1.497071 0.38) (layer "F.SilkS") (width 0.12) (tstamp 2e21f0b3-d8e5-4630-9c0d-00f29f43042c))
  (fp_line (start 3.582929 14.86) (end 3.98 14.86) (layer "F.SilkS") (width 0.12) (tstamp 301fc515-cea6-4775-8817-463e8b29820f))
  (fp_line (start 6.64 35.18) (end 12.64 35.18) (layer "F.SilkS") (width 0.12) (tstamp 30943eab-b8a6-47d9-a4c3-cba2b806b354))
  (fp_line (start 1.042929 23.24) (end 1.497071 23.24) (layer "F.SilkS") (width 0.12) (tstamp 3115471f-f609-420c-9232-177360e12ca3))
  (fp_line (start 3.582929 5.46) (end 3.98 5.46) (layer "F.SilkS") (width 0.12) (tstamp 318eb7af-3295-4f11-a611-bab7688adcc7))
  (fp_line (start 6.64 64.83) (end 6.64 -1.33) (layer "F.SilkS") (width 0.12) (tstamp 32c6fe55-25d7-4939-9949-1b3593a596d9))
  (fp_line (start 6.64 22.48) (end 12.64 22.48) (layer "F.SilkS") (width 0.12) (tstamp 330583af-808c-4396-938b-3ee85ee4d46c))
  (fp_line (start 3.98 3.81) (end 6.64 3.81) (layer "F.SilkS") (width 0.12) (tstamp 33cbeb1b-b82b-4888-8b1e-7fffe9533a15))
  (fp_line (start 3.98 29.21) (end 6.64 29.21) (layer "F.SilkS") (width 0.12) (tstamp 353ff84a-f9e6-4571-85ee-d1b9f620a304))
  (fp_line (start 1.042929 35.18) (end 1.497071 35.18) (layer "F.SilkS") (width 0.12) (tstamp 3b819b5d-37d6-4c24-a5ca-d139c3b81530))
  (fp_line (start 1.042929 28.32) (end 1.497071 28.32) (layer "F.SilkS") (width 0.12) (tstamp 3d804f3e-0c19-4c87-b823-af2e1bd4abc0))
  (fp_line (start 3.582929 60.58) (end 3.98 60.58) (layer "F.SilkS") (width 0.12) (tstamp 3ddc583a-eb18-4efd-881e-f8e2677d0ba9))
  (fp_line (start 1.042929 43.56) (end 1.497071 43.56) (layer "F.SilkS") (width 0.12) (tstamp 3f265a9d-e5c8-4474-a8a5-dfba23c8b952))
  (fp_line (start 12.64 22.48) (end 12.64 23.24) (layer "F.SilkS") (width 0.12) (tstamp 40b76983-88b9-4e19-a096-b2153ad45214))
  (fp_line (start 3.582929 30.86) (end 3.98 30.86) (layer "F.SilkS") (width 0.12) (tstamp 41570fbd-519c-4b4f-8663-e33544a81078))
  (fp_line (start 6.64 0.16) (end 12.64 0.16) (layer "F.SilkS") (width 0.12) (tstamp 429bc156-2a93-4e3d-87e9-da8f5bbbeef0))
  (fp_line (start 1.042929 37.72) (end 1.497071 37.72) (layer "F.SilkS") (width 0.12) (tstamp 44f70ebc-223f-4a01-a53e-fac2b15c3ba5))
  (fp_line (start -1.27 0) (end -1.27 -1.27) (layer "F.SilkS") (width 0.12) (tstamp 47530e00-9087-4d9c-9d58-be179bf77176))
  (fp_line (start 12.64 5.46) (end 6.64 5.46) (layer "F.SilkS") (width 0.12) (tstamp 47aa2bf0-5fcb-43c2-9aeb-e1f3791e2dfb))
  (fp_line (start 6.64 -0.32) (end 12.64 -0.32) (layer "F.SilkS") (width 0.12) (tstamp 4820c285-038b-4707-8521-a9d314890ca5))
  (fp_line (start 3.582929 63.12) (end 3.98 63.12) (layer "F.SilkS") (width 0.12) (tstamp 49598f6a-5cd6-4854-b07d-c6d12b611d49))
  (fp_line (start 3.98 -1.33) (end 3.98 64.83) (layer "F.SilkS") (width 0.12) (tstamp 4c82bf9d-1cd7-4ff2-a293-4c10533fd44e))
  (fp_line (start 6.64 63.12) (end 12.64 63.12) (layer "F.SilkS") (width 0.12) (tstamp 4da602cb-4c71-4de6-8132-ff2b1e397556))
  (fp_line (start 12.64 19.94) (end 12.64 20.7) (layer "F.SilkS") (width 0.12) (tstamp 4e0f6344-2570-45c9-b6e7-4b7e469f429c))
  (fp_line (start 12.64 58.8) (end 6.64 58.8) (layer "F.SilkS") (width 0.12) (tstamp 4f8636a2-996d-469d-9964-8da536d4c693))
  (fp_line (start 3.98 64.83) (end 6.64 64.83) (layer "F.SilkS") (width 0.12) (tstamp 512fbfb9-9aed-4c79-82a3-2726984e6667))
  (fp_line (start 1.042929 58.8) (end 1.497071 58.8) (layer "F.SilkS") (width 0.12) (tstamp 51435348-3ff3-41c9-a43b-29ac212eb808))
  (fp_line (start 1.042929 50.42) (end 1.497071 50.42) (layer "F.SilkS") (width 0.12) (tstamp 548584d6-2ffb-461e-afb3-eb547c837437))
  (fp_line (start 3.582929 12.32) (end 3.98 12.32) (layer "F.SilkS") (width 0.12) (tstamp 55890bd9-3c5c-47e9-87da-a533406797d1))
  (fp_line (start 1.042929 15.62) (end 1.497071 15.62) (layer "F.SilkS") (width 0.12) (tstamp 55a5bae2-f88a-4419-ad98-db08f85d96bf))
  (fp_line (start 6.64 37.72) (end 12.64 37.72) (layer "F.SilkS") (width 0.12) (tstamp 55c4efe4-0fa8-4163-a541-df5c7a8ec5f0))
  (fp_line (start 12.64 63.88) (end 6.64 63.88) (layer "F.SilkS") (width 0.12) (tstamp 55cd4b3a-66f0-41c5-807f-521a7ad8122c))
  (fp_line (start 3.582929 4.7) (end 3.98 4.7) (layer "F.SilkS") (width 0.12) (tstamp 57b0be65-0912-4677-bcd5-a2f444064962))
  (fp_line (start 1.042929 46.1) (end 1.497071 46.1) (layer "F.SilkS") (width 0.12) (tstamp 5932638e-fe25-41ff-bd44-7f246e65a556))
  (fp_line (start 3.582929 23.24) (end 3.98 23.24) (layer "F.SilkS") (width 0.12) (tstamp 59631b27-b4b2-4135-b934-441bb7f2f9b7))
  (fp_line (start 1.042929 2.92) (end 1.497071 2.92) (layer "F.SilkS") (width 0.12) (tstamp 5e110e18-7b8d-4bbe-9aae-f1761cd3a662))
  (fp_line (start 3.582929 25.78) (end 3.98 25.78) (layer "F.SilkS") (width 0.12) (tstamp 5fbb42ff-9f54-45ed-9350-ee55e47b6fa3))
  (fp_line (start 1.042929 56.26) (end 1.497071 56.26) (layer "F.SilkS") (width 0.12) (tstamp 60669a74-4dd0-4fba-9faa-766afa3b6d1b))
  (fp_line (start 1.042929 10.54) (end 1.497071 10.54) (layer "F.SilkS") (width 0.12) (tstamp 614a44f4-2085-43bd-bb2d-84a748b3e531))
  (fp_line (start 3.98 41.91) (end 6.64 41.91) (layer "F.SilkS") (width 0.12) (tstamp 617ba8cb-16e5-4143-bebe-470692d5e572))
  (fp_line (start 12.64 7.24) (end 12.64 8) (layer "F.SilkS") (width 0.12) (tstamp 61f317b9-6454-4fb6-8ec0-88111a5e41d4))
  (fp_line (start 12.64 20.7) (end 6.64 20.7) (layer "F.SilkS") (width 0.12) (tstamp 63c4e7a7-fb82-48f7-be6b-8ae3647834d8))
  (fp_line (start 1.042929 17.4) (end 1.497071 17.4) (layer "F.SilkS") (width 0.12) (tstamp 65d4bb0e-85c5-4050-88b7-2d339eb98dfd))
  (fp_line (start 12.64 60.58) (end 12.64 61.34) (layer "F.SilkS") (width 0.12) (tstamp 66dce6a6-57a5-4a3b-8220-5b3fca1dd4ba))
  (fp_line (start 12.64 47.88) (end 12.64 48.64) (layer "F.SilkS") (width 0.12) (tstamp 67b41ecf-0c9e-4b0d-9f14-de770d4a6d37))
  (fp_line (start 3.582929 42.8) (end 3.98 42.8) (layer "F.SilkS") (width 0.12) (tstamp 680527cc-1b93-4a58-9578-97de1d0f708f))
  (fp_line (start 6.64 -0.38) (end 12.64 -0.38) (layer "F.SilkS") (width 0.12) (tstamp 6c3118d7-c0c6-4432-b472-5dac0a5870cb))
  (fp_line (start 3.98 46.99) (end 6.64 46.99) (layer "F.SilkS") (width 0.12) (tstamp 6d38a562-79e1-4ffa-b087-4fa142dd80f5))
  (fp_line (start 12.64 35.94) (end 6.64 35.94) (layer "F.SilkS") (width 0.12) (tstamp 704d113a-5281-4a22-bad2-93c8801ab9b4))
  (fp_line (start 1.042929 40.26) (end 1.497071 40.26) (layer "F.SilkS") (width 0.12) (tstamp 71c2bc09-71dc-40e3-a062-581a61dfa843))
  (fp_line (start 1.042929 14.86) (end 1.497071 14.86) (layer "F.SilkS") (width 0.12) (tstamp 71ee1541-0e2c-4161-b5b2-065e5c5c8e81))
  (fp_line (start 1.042929 58.04) (end 1.497071 58.04) (layer "F.SilkS") (width 0.12) (tstamp 728b4ce9-f4d9-4b17-8781-6d2716f9c8a9))
  (fp_line (start 3.98 26.67) (end 6.64 26.67) (layer "F.SilkS") (width 0.12) (tstamp 74acb13a-ae93-429a-83cb-c3a59ba1c74d))
  (fp_line (start 12.64 48.64) (end 6.64 48.64) (layer "F.SilkS") (width 0.12) (tstamp 75ba1ad7-76ec-4b9a-9abd-3b05df8d780f))
  (fp_line (start 6.64 -0.2) (end 12.64 -0.2) (layer "F.SilkS") (width 0.12) (tstamp 76f2c3fd-215a-4cae-8425-86ebea58bcd7))
  (fp_line (start 12.64 32.64) (end 12.64 33.4) (layer "F.SilkS") (width 0.12) (tstamp 79605003-4338-4c0c-b2de-0551d38c5682))
  (fp_line (start 3.98 39.37) (end 6.64 39.37) (layer "F.SilkS") (width 0.12) (tstamp 7bd99834-9a07-4245-bac6-a285f09cefd4))
  (fp_line (start 3.582929 52.96) (end 3.98 52.96) (layer "F.SilkS") (width 0.12) (tstamp 7c365a3e-f2cf-4efc-8a0a-dd7c4d83821d))
  (fp_line (start 12.64 8) (end 6.64 8) (layer "F.SilkS") (width 0.12) (tstamp 7d265986-6cc9-4de1-ba20-87a73a270351))
  (fp_line (start 3.582929 13.08) (end 3.98 13.08) (layer "F.SilkS") (width 0.12) (tstamp 7dd429bf-903d-4471-b2b3-bd48bb290570))
  (fp_line (start 12.64 35.18) (end 12.64 35.94) (layer "F.SilkS") (width 0.12) (tstamp 7ede2fdf-3c38-4f17-b2f8-1274c87704e0))
  (fp_line (start 1.042929 63.88) (end 1.497071 63.88) (layer "F.SilkS") (width 0.12) (tstamp 7f672cee-ad77-4c9f-b5ee-34abe9610460))
  (fp_line (start 1.042929 20.7) (end 1.497071 20.7) (layer "F.SilkS") (width 0.12) (tstamp 7fe929e5-c194-4af8-8964-6c5ee7bbd899))
  (fp_line (start 6.64 4.7) (end 12.64 4.7) (layer "F.SilkS") (width 0.12) (tstamp 80497508-5574-4cb4-bf6f-d897f54f440c))
  (fp_line (start 3.582929 51.18) (end 3.98 51.18) (layer "F.SilkS") (width 0.12) (tstamp 82100a10-caad-4b4f-944f-5ffbc116cfd2))
  (fp_line (start 3.582929 40.26) (end 3.98 40.26) (layer "F.SilkS") (width 0.12) (tstamp 834243ca-5418-45e7-a20c-5e30161b4646))
  (fp_line (start 1.042929 30.86) (end 1.497071 30.86) (layer "F.SilkS") (width 0.12) (tstamp 83770bbc-8a94-4992-8b6b-0fa936e2550c))
  (fp_line (start 3.98 19.05) (end 6.64 19.05) (layer "F.SilkS") (width 0.12) (tstamp 83a87019-e83c-4c2e-b139-033e2e13ab16))
  (fp_line (start 6.64 9.78) (end 12.64 9.78) (layer "F.SilkS") (width 0.12) (tstamp 844ceedc-34d5-474e-bb4c-ddba8008ebb1))
  (fp_line (start 3.582929 43.56) (end 3.98 43.56) (layer "F.SilkS") (width 0.12) (tstamp 84eeef56-8666-4817-a614-aa1e08e66afa))
  (fp_line (start 1.042929 47.88) (end 1.497071 47.88) (layer "F.SilkS") (width 0.12) (tstamp 850d9db4-000e-4825-af59-5887216b0f7d))
  (fp_line (start 6.64 60.58) (end 12.64 60.58) (layer "F.SilkS") (width 0.12) (tstamp 85e1e57c-833a-47c1-bd5d-6cf160cac54b))
  (fp_line (start 3.582929 19.94) (end 3.98 19.94) (layer "F.SilkS") (width 0.12) (tstamp 85ea1c1e-fdbf-4c71-b902-150caf572da7))
  (fp_line (start 3.98 13.97) (end 6.64 13.97) (layer "F.SilkS") (width 0.12) (tstamp 86dea91c-33dd-4095-a388-796d72fb2d48))
  (fp_line (start 6.64 45.34) (end 12.64 45.34) (layer "F.SilkS") (width 0.12) (tstamp 87124797-ced7-4ca0-999f-af415cef60b1))
  (fp_line (start 1.042929 60.58) (end 1.497071 60.58) (layer "F.SilkS") (width 0.12) (tstamp 872622f3-59ed-4e03-b68e-02c94e3d2a4b))
  (fp_line (start 3.98 49.53) (end 6.64 49.53) (layer "F.SilkS") (width 0.12) (tstamp 8748639f-3f22-4974-baff-f6b844f19a45))
  (fp_line (start 12.64 -0.38) (end 12.64 0.38) (layer "F.SilkS") (width 0.12) (tstamp 881c6d2f-d9df-47bc-bbd0-65b89767ca8a))
  (fp_line (start 3.98 52.07) (end 6.64 52.07) (layer "F.SilkS") (width 0.12) (tstamp 8a062901-4595-4d1d-8c44-a8c22cbf02b0))
  (fp_line (start 3.98 1.27) (end 6.64 1.27) (layer "F.SilkS") (width 0.12) (tstamp 8c66e37c-7577-435b-a944-bb46910cf1a4))
  (fp_line (start 1.042929 32.64) (end 1.497071 32.64) (layer "F.SilkS") (width 0.12) (tstamp 8c74a8bb-176c-4e02-8456-950fa74e85c9))
  (fp_line (start 1.042929 5.46) (end 1.497071 5.46) (layer "F.SilkS") (width 0.12) (tstamp 8d450984-e70f-4cf7-8cb5-3f8bb855ed2e))
  (fp_line (start 1.042929 22.48) (end 1.497071 22.48) (layer "F.SilkS") (width 0.12) (tstamp 8dd2bed0-6e98-4919-a820-2e2a4bfc5e21))
  (fp_line (start 3.582929 10.54) (end 3.98 10.54) (layer "F.SilkS") (width 0.12) (tstamp 8e99be51-7263-4a5e-8327-0537a470ffa0))
  (fp_line (start 1.042929 30.1) (end 1.497071 30.1) (layer "F.SilkS") (width 0.12) (tstamp 90422d0e-8b9e-47ef-8612-c053ab3c6b13))
  (fp_line (start 12.64 15.62) (end 6.64 15.62) (layer "F.SilkS") (width 0.12) (tstamp 905e0398-5db2-46a9-93bb-9ca8f40183c7))
  (fp_line (start 12.64 55.5) (end 12.64 56.26) (layer "F.SilkS") (width 0.12) (tstamp 906713e8-af3a-425c-989b-320bd29e71a0))
  (fp_line (start 6.64 40.26) (end 12.64 40.26) (layer "F.SilkS") (width 0.12) (tstamp 90a9024c-f7f7-4ce4-827e-9e41b410e0d5))
  (fp_line (start 12.64 13.08) (end 6.64 13.08) (layer "F.SilkS") (width 0.12) (tstamp 911eca9e-e3a7-440b-8159-568271ef25e9))
  (fp_line (start 12.64 25.78) (end 6.64 25.78) (layer "F.SilkS") (width 0.12) (tstamp 9235b2e1-bb3c-41ad-9e5b-2fa8f976f2c0))
  (fp_line (start 3.582929 61.34) (end 3.98 61.34) (layer "F.SilkS") (width 0.12) (tstamp 92ac06eb-70b6-4d72-b009-3d0deb2d848c))
  (fp_line (start 6.64 12.32) (end 12.64 12.32) (layer "F.SilkS") (width 0.12) (tstamp 92b368c4-6e29-41d9-a32d-93134434e00a))
  (fp_line (start 1.042929 9.78) (end 1.497071 9.78) (layer "F.SilkS") (width 0.12) (tstamp 94af63ce-3c20-4fd6-9368-e8fa0ef07a99))
  (fp_line (start 6.64 30.1) (end 12.64 30.1) (layer "F.SilkS") (width 0.12) (tstamp 95049913-3dac-443c-96a4-a93de4beba1e))
  (fp_line (start 1.042929 7.24) (end 1.497071 7.24) (layer "F.SilkS") (width 0.12) (tstamp 959cbf8f-88ee-4d25-97fe-86eeb6eb0aa7))
  (fp_line (start 12.64 18.16) (end 6.64 18.16) (layer "F.SilkS") (width 0.12) (tstamp 96c2f542-dd16-4c72-ab33-7e27831bcf89))
  (fp_line (start 3.582929 0.38) (end 3.98 0.38) (layer "F.SilkS") (width 0.12) (tstamp 973b0a87-3807-4d88-b6d8-5c08b8652657))
  (fp_line (start 3.98 8.89) (end 6.64 8.89) (layer "F.SilkS") (width 0.12) (tstamp 97b249ff-dfe9-4f50-af64-069c5593f2d5))
  (fp_line (start 12.64 23.24) (end 6.64 23.24) (layer "F.SilkS") (width 0.12) (tstamp 97f10d46-ccee-401c-a162-f1383031d811))
  (fp_line (start 12.64 33.4) (end 6.64 33.4) (layer "F.SilkS") (width 0.12) (tstamp 9880b5df-8cc7-4acb-8218-8b0a738adb0c))
  (fp_line (start 3.582929 -0.38) (end 3.98 -0.38) (layer "F.SilkS") (width 0.12) (tstamp 989399de-500f-4447-93c6-8489d58d7630))
  (fp_line (start 12.64 10.54) (end 6.64 10.54) (layer "F.SilkS") (width 0.12) (tstamp 9949b655-8b92-4f84-ae02-bc0c518f20ca))
  (fp_line (start 3.98 62.23) (end 6.64 62.23) (layer "F.SilkS") (width 0.12) (tstamp 9b57cf04-7577-443b-8ff5-64f1ac005982))
  (fp_line (start 12.64 56.26) (end 6.64 56.26) (layer "F.SilkS") (width 0.12) (tstamp 9b9a13cc-7688-43aa-9462-fdcbcdc6cbc6))
  (fp_line (start 6.64 -0.08) (end 12.64 -0.08) (layer "F.SilkS") (width 0.12) (tstamp 9eb417cf-0f57-4ca9-a9b7-c70273af704e))
  (fp_line (start 6.64 32.64) (end 12.64 32.64) (layer "F.SilkS") (width 0.12) (tstamp 9eced061-27b2-470c-bb61-244499b194dc))
  (fp_line (start 3.582929 20.7) (end 3.98 20.7) (layer "F.SilkS") (width 0.12) (tstamp 9f4f78a2-789f-4fe0-ad28-0507d6d13cea))
  (fp_line (start 3.582929 30.1) (end 3.98 30.1) (layer "F.SilkS") (width 0.12) (tstamp 9f946957-4281-4e0e-9401-8bc70298afb2))
  (fp_line (start 3.582929 27.56) (end 3.98 27.56) (layer "F.SilkS") (width 0.12) (tstamp 9fbc59e0-e0af-457b-8560-253abb6afee8))
  (fp_line (start 3.582929 15.62) (end 3.98 15.62) (layer "F.SilkS") (width 0.12) (tstamp a3bddc22-f789-4c6e-bdd6-d0437b210021))
  (fp_line (start 12.64 14.86) (end 12.64 15.62) (layer "F.SilkS") (width 0.12) (tstamp a3f07e95-4627-4061-acf0-9d0f3225ff90))
  (fp_line (start 1.042929 52.96) (end 1.497071 52.96) (layer "F.SilkS") (width 0.12) (tstamp a49481a6-cde5-4928-923d-29bddaaca056))
  (fp_line (start 12.64 58.04) (end 12.64 58.8) (layer "F.SilkS") (width 0.12) (tstamp a5788255-548f-4fed-825f-d018a988411a))
  (fp_line (start 12.64 4.7) (end 12.64 5.46) (layer "F.SilkS") (width 0.12) (tstamp a578e44e-89fe-433d-8e8d-14a1b6618017))
  (fp_line (start 12.64 40.26) (end 12.64 41.02) (layer "F.SilkS") (width 0.12) (tstamp a7b845fe-8c9a-421c-b354-eb23eeebd719))
  (fp_line (start 3.582929 56.26) (end 3.98 56.26) (layer "F.SilkS") (width 0.12) (tstamp a85ea4d3-6466-4685-991a-33bc72dc8fb8))
  (fp_line (start 3.582929 35.94) (end 3.98 35.94) (layer "F.SilkS") (width 0.12) (tstamp aa49b67c-4402-405f-9ade-63cc9e3cb424))
  (fp_line (start 1.042929 27.56) (end 1.497071 27.56) (layer "F.SilkS") (width 0.12) (tstamp aa9613c0-1eac-48e7-9ada-85d30fa33fec))
  (fp_line (start 3.582929 58.04) (end 3.98 58.04) (layer "F.SilkS") (width 0.12) (tstamp ab48947d-cd8e-44dc-9841-08d87e36cbd9))
  (fp_line (start 3.582929 17.4) (end 3.98 17.4) (layer "F.SilkS") (width 0.12) (tstamp b3e33426-0c5c-44e6-9d23-64784acc0e58))
  (fp_line (start 6.64 27.56) (end 12.64 27.56) (layer "F.SilkS") (width 0.12) (tstamp b43842f5-e760-466b-99ba-b62999d2f921))
  (fp_line (start 6.64 47.88) (end 12.64 47.88) (layer "F.SilkS") (width 0.12) (tstamp b8fbf4d4-a52b-4f12-8e4c-40a83e8e635e))
  (fp_line (start 3.582929 63.88) (end 3.98 63.88) (layer "F.SilkS") (width 0.12) (tstamp bb4b0ec4-67b9-4028-a0f7-f5f577f33242))
  (fp_line (start 12.64 46.1) (end 6.64 46.1) (layer "F.SilkS") (width 0.12) (tstamp bb764d80-0937-40f4-a253-f9d380e0f686))
  (fp_line (start 3.582929 2.92) (end 3.98 2.92) (layer "F.SilkS") (width 0.12) (tstamp bc8a4b10-70dc-45d3-8ca9-93d941ba88c4))
  (fp_line (start 12.64 61.34) (end 6.64 61.34) (layer "F.SilkS") (width 0.12) (tstamp bd182bab-c065-4f61-bae8-dafd84396946))
  (fp_line (start 6.64 17.4) (end 12.64 17.4) (layer "F.SilkS") (width 0.12) (tstamp c015bbc8-ae6e-4f1a-b1b7-953b89d585a9))
  (fp_line (start 3.582929 28.32) (end 3.98 28.32) (layer "F.SilkS") (width 0.12) (tstamp c1721b7f-26b7-4e21-a093-87454582bcdb))
  (fp_line (start 1.042929 41.02) (end 1.497071 41.02) (layer "F.SilkS") (width 0.12) (tstamp c372be7b-81e1-462b-971e-30adfa7f66a1))
  (fp_line (start 12.64 27.56) (end 12.64 28.32) (layer "F.SilkS") (width 0.12) (tstamp c48c2be2-41f3-4947-95f3-85ef39ae7fcc))
  (fp_line (start 12.64 45.34) (end 12.64 46.1) (layer "F.SilkS") (width 0.12) (tstamp c9575c42-d936-4957-b405-3903b2d5933b))
  (fp_line (start 6.64 0.28) (end 12.64 0.28) (layer "F.SilkS") (width 0.12) (tstamp c99cec3c-0f87-4e70-800e-0f01b37f7ad2))
  (fp_line (start 12.64 30.1) (end 12.64 30.86) (layer "F.SilkS") (width 0.12) (tstamp caca7fa8-7cfd-41be-9241-e4616ddeeed4))
  (fp_line (start 12.64 51.18) (end 6.64 51.18) (layer "F.SilkS") (width 0.12) (tstamp cb372da0-9d84-400d-87a9-3b13d9bbfc20))
  (fp_line (start 1.042929 13.08) (end 1.497071 13.08) (layer "F.SilkS") (width 0.12) (tstamp cc3c0242-2e6e-4230-894b-ae6743ee5629))
  (fp_line (start 6.64 -1.33) (end 3.98 -1.33) (layer "F.SilkS") (width 0.12) (tstamp cfcd6935-eaf8-45f2-97ff-55ab9d986561))
  (fp_line (start 3.582929 55.5) (end 3.98 55.5) (layer "F.SilkS") (width 0.12) (tstamp d066950e-e7e1-4bcf-bd71-66da68de4ac4))
  (fp_line (start 12.64 42.8) (end 12.64 43.56) (layer "F.SilkS") (width 0.12) (tstamp d1b77dd9-04e2-4c65-8e64-e13cff8989e1))
  (fp_line (start 12.64 38.48) (end 6.64 38.48) (layer "F.SilkS") (width 0.12) (tstamp d1edde5e-6814-4f3d-a3fa-29e3fa40d2df))
  (fp_line (start 1.042929 2.16) (end 1.497071 2.16) (layer "F.SilkS") (width 0.12) (tstamp d5144195-fed9-435e-abc0-6e4a3a7c6e87))
  (fp_line (start 1.042929 38.48) (end 1.497071 38.48) (layer "F.SilkS") (width 0.12) (tstamp d8645b00-7756-4b45-8bd2-21b1c359275f))
  (fp_line (start 3.98 6.35) (end 6.64 6.35) (layer "F.SilkS") (width 0.12) (tstamp dbb5a2d9-97c3-45fb-a6a2-d3017f0ee19c))
  (fp_line (start 12.64 0.38) (end 6.64 0.38) (layer "F.SilkS") (width 0.12) (tstamp dcae3972-469e-4d31-ad3a-ab9c2049821a))
  (fp_line (start 1.042929 42.8) (end 1.497071 42.8) (layer "F.SilkS") (width 0.12) (tstamp dcaf0285-dad7-48f3-95a3-82532dc7a2e4))
  (fp_line (start 6.64 14.86) (end 12.64 14.86) (layer "F.SilkS") (width 0.12) (tstamp dd7e7a05-fe1d-4851-9e45-c63cf3ba151e))
  (fp_line (start 12.64 50.42) (end 12.64 51.18) (layer "F.SilkS") (width 0.12) (tstamp e2bc5ec3-3c57-4866-8fe2-7cd25de5418b))
  (fp_line (start 12.64 53.72) (end 6.64 53.72) (layer "F.SilkS") (width 0.12) (tstamp e2df1f98-e94d-4363-8f80-57cb0dd6768d))
  (fp_line (start 3.582929 33.4) (end 3.98 33.4) (layer "F.SilkS") (width 0.12) (tstamp e300458c-10c3-4ab6-a9e9-d3c36104ca27))
  (fp_line (start 12.64 17.4) (end 12.64 18.16) (layer "F.SilkS") (width 0.12) (tstamp e3c763a4-e0ac-4b04-966b-61defffbec33))
  (fp_line (start 3.582929 41.02) (end 3.98 41.02) (layer "F.SilkS") (width 0.12) (tstamp e567b556-833c-4467-92b6-051c0d5a8ee8))
  (fp_line (start 3.582929 8) (end 3.98 8) (layer "F.SilkS") (width 0.12) (tstamp e56df324-ac09-443e-90bb-4eea8a0cee45))
  (fp_line (start 1.042929 48.64) (end 1.497071 48.64) (layer "F.SilkS") (width 0.12) (tstamp e58437a4-707a-4abb-beb9-426016912258))
  (fp_line (start 1.042929 25.02) (end 1.497071 25.02) (layer "F.SilkS") (width 0.12) (tstamp e7dc92c0-43a3-4113-b64f-08467ea2f92e))
  (fp_line (start 12.64 9.78) (end 12.64 10.54) (layer "F.SilkS") (width 0.12) (tstamp e9cf9510-00fa-4b66-9dd6-531c183ff571))
  (fp_line (start 3.582929 32.64) (end 3.98 32.64) (layer "F.SilkS") (width 0.12) (tstamp ea5d9f69-64b2-4c15-b4a6-cefedf971e79))
  (fp_line (start 6.64 7.24) (end 12.64 7.24) (layer "F.SilkS") (width 0.12) (tstamp eafcf389-3b9c-4d86-a816-caae4031241e))
  (fp_line (start 1.042929 25.78) (end 1.497071 25.78) (layer "F.SilkS") (width 0.12) (tstamp eb2e78fb-c766-4559-afc0-8375d16af526))
  (fp_line (start 3.98 44.45) (end 6.64 44.45) (layer "F.SilkS") (width 0.12) (tstamp eb470d0a-0cd0-4d04-b6c1-ce322d1e1e17))
  (fp_line (start 1.042929 63.12) (end 1.497071 63.12) (layer "F.SilkS") (width 0.12) (tstamp eb8caeee-0923-49ae-b0b1-cb3529c4b7d7))
  (fp_line (start 1.042929 8) (end 1.497071 8) (layer "F.SilkS") (width 0.12) (tstamp ebb1d6a3-e04d-4de8-b23c-a2e3533e457a))
  (fp_line (start 6.64 0.04) (end 12.64 0.04) (layer "F.SilkS") (width 0.12) (tstamp edcaa2a5-c1d8-4d0b-8d62-679b8dc34e96))
  (fp_line (start 1.042929 55.5) (end 1.497071 55.5) (layer "F.SilkS") (width 0.12) (tstamp f09f23ce-f836-47fa-bb74-75580ecdd56c))
  (fp_line (start 1.042929 61.34) (end 1.497071 61.34) (layer "F.SilkS") (width 0.12) (tstamp f1efdb5f-f02d-4918-9841-0466a8bc281e))
  (fp_line (start 1.042929 33.4) (end 1.497071 33.4) (layer "F.SilkS") (width 0.12) (tstamp f506c268-0ac7-4591-8ed8-7383e442286c))
  (fp_line (start 6.64 50.42) (end 12.64 50.42) (layer "F.SilkS") (width 0.12) (tstamp f5c8b6af-8d02-456b-8fb2-6cabb6f9587b))
  (fp_line (start 3.98 16.51) (end 6.64 16.51) (layer "F.SilkS") (width 0.12) (tstamp f69448fe-c544-4c37-84f7-086bf62ee4bd))
  (fp_line (start 12.64 63.12) (end 12.64 63.88) (layer "F.SilkS") (width 0.12) (tstamp f8615b36-6b2b-446a-942d-630463a349d9))
  (fp_line (start 6.64 55.5) (end 12.64 55.5) (layer "F.SilkS") (width 0.12) (tstamp f8e63f44-00de-4052-a078-ac0f3a44bb3d))
  (fp_line (start 12.64 2.16) (end 12.64 2.92) (layer "F.SilkS") (width 0.12) (tstamp faf5a355-d400-4192-b2e6-30dc00f73188))
  (fp_line (start 3.582929 45.34) (end 3.98 45.34) (layer "F.SilkS") (width 0.12) (tstamp fb005a32-24d7-4770-b495-a069ecb50fa6))
  (fp_line (start 12.64 52.96) (end 12.64 53.72) (layer "F.SilkS") (width 0.12) (tstamp fb49a5be-7044-4f7c-8b5e-beedd8732ac7))
  (fp_line (start 1.042929 19.94) (end 1.497071 19.94) (layer "F.SilkS") (width 0.12) (tstamp fbd37e4c-49e8-466f-85bb-98106a38e97e))
  (fp_line (start 3.582929 47.88) (end 3.98 47.88) (layer "F.SilkS") (width 0.12) (tstamp fc364aae-a994-444b-9100-a34d8fba212d))
  (fp_line (start 6.64 2.16) (end 12.64 2.16) (layer "F.SilkS") (width 0.12) (tstamp fe08db96-9c2c-440e-bb6c-1bceb9a43d38))
  (fp_line (start 3.582929 48.64) (end 3.98 48.64) (layer "F.SilkS") (width 0.12) (tstamp ff40ae8e-fb93-4dd1-9515-ea0bd95fae25))
  (fp_line (start 13.1 65.3) (end 13.1 -1.8) (layer "F.CrtYd") (width 0.05) (tstamp 439bb2e2-0a9f-4493-9208-744b0e1279c1))
  (fp_line (start -1.8 65.3) (end 13.1 65.3) (layer "F.CrtYd") (width 0.05) (tstamp 72fa5384-18ee-45f9-be8d-bc0e44a4159d))
  (fp_line (start 13.1 -1.8) (end -1.8 -1.8) (layer "F.CrtYd") (width 0.05) (tstamp de0d395f-4c6f-49c2-8b10-e198f9ba41c8))
  (fp_line (start -1.8 -1.8) (end -1.8 65.3) (layer "F.CrtYd") (width 0.05) (tstamp f2bd9e65-1d50-46e6-a3ba-6bc3d06f12bc))
  (fp_line (start 6.58 -1.27) (end 6.58 64.77) (layer "F.Fab") (width 0.1) (tstamp 0068c6b8-37bc-4b04-ae1e-c5b634799013))
  (fp_line (start -0.32 25.08) (end -0.32 25.72) (layer "F.Fab") (width 0.1) (tstamp 008ebbfb-21af-437e-80eb-2e90d1ba75dd))
  (fp_line (start 6.58 30.16) (end 12.58 30.16) (layer "F.Fab") (width 0.1) (tstamp 03ac9832-9c89-4ce2-a276-efbc4a0bbef3))
  (fp_line (start -0.32 27.62) (end 4.04 27.62) (layer "F.Fab") (width 0.1) (tstamp 05fcb384-b05a-4bb9-9184-82a7a76b406f))
  (fp_line (start -0.32 13.02) (end 4.04 13.02) (layer "F.Fab") (width 0.1) (tstamp 06416ee3-416c-4485-8d80-da05fe403e49))
  (fp_line (start 6.58 25.08) (end 12.58 25.08) (layer "F.Fab") (width 0.1) (tstamp 06a81851-e80b-4385-87d7-1fbf36357943))
  (fp_line (start 12.58 47.94) (end 12.58 48.58) (layer "F.Fab") (width 0.1) (tstamp 07079c68-7cc0-4926-889f-bf855827d1ca))
  (fp_line (start -0.32 22.54) (end -0.32 23.18) (layer "F.Fab") (width 0.1) (tstamp 095446c2-7548-4762-a77d-0eb9ea283d6a))
  (fp_line (start -0.32 58.1) (end 4.04 58.1) (layer "F.Fab") (width 0.1) (tstamp 0a081035-5aa1-4b67-a46c-9fa56822c14e))
  (fp_line (start -0.32 43.5) (end 4.04 43.5) (layer "F.Fab") (width 0.1) (tstamp 0a5107c8-9aed-4a0d-9a78-553350585d9f))
  (fp_line (start 6.58 43.5) (end 12.58 43.5) (layer "F.Fab") (width 0.1) (tstamp 0ae671c0-1af9-4c5b-84dd-cb447bd219f7))
  (fp_line (start -0.32 30.16) (end -0.32 30.8) (layer "F.Fab") (width 0.1) (tstamp 0fac0f07-7089-4677-9eba-22f4f2f9b4bc))
  (fp_line (start -0.32 48.58) (end 4.04 48.58) (layer "F.Fab") (width 0.1) (tstamp 1116d9f1-98c6-4995-9b24-0d2e795cc384))
  (fp_line (start -0.32 15.56) (end 4.04 15.56) (layer "F.Fab") (width 0.1) (tstamp 13738c6d-d771-425f-ab3e-3be92637f2e2))
  (fp_line (start 12.58 63.18) (end 12.58 63.82) (layer "F.Fab") (width 0.1) (tstamp 14118acb-1741-4b14-9f8f-48da0b0be8a4))
  (fp_line (start 6.58 50.48) (end 12.58 50.48) (layer "F.Fab") (width 0.1) (tstamp 145bcdab-18e8-4a42-970f-c8f9e49d60cb))
  (fp_line (start -0.32 27.62) (end -0.32 28.26) (layer "F.Fab") (width 0.1) (tstamp 158a71e3-d379-4fcb-86f5-0b96406dc8a9))
  (fp_line (start -0.32 2.22) (end -0.32 2.86) (layer "F.Fab") (width 0.1) (tstamp 19faac86-1e09-423b-a65f-51bafd818ad6))
  (fp_line (start 6.58 35.24) (end 12.58 35.24) (layer "F.Fab") (width 0.1) (tstamp 1a8d8b2a-ffdb-4f33-b622-30d68600f96b))
  (fp_line (start 6.58 12.38) (end 12.58 12.38) (layer "F.Fab") (width 0.1) (tstamp 1d27788b-0889-4512-bf5f-3a73bdbf0269))
  (fp_line (start 12.58 2.22) (end 12.58 2.86) (layer "F.Fab") (width 0.1) (tstamp 1ebddc47-422e-42a1-990b-f9d0a9f3e8c6))
  (fp_line (start 6.58 9.84) (end 12.58 9.84) (layer "F.Fab") (width 0.1) (tstamp 1f24580a-0a68-40ef-b759-90e0709eb947))
  (fp_line (start -0.32 63.18) (end 4.04 63.18) (layer "F.Fab") (width 0.1) (tstamp 201482ad-7103-403b-8e6a-9b53d7006894))
  (fp_line (start -0.32 7.3) (end 4.04 7.3) (layer "F.Fab") (width 0.1) (tstamp 26e7e0a6-3038-4cfc-a91c-34d6560dc92d))
  (fp_line (start 12.58 45.4) (end 12.58 46.04) (layer "F.Fab") (width 0.1) (tstamp 2885e8da-7fc7-42f6-b4cb-655eeea1a281))
  (fp_line (start -0.32 61.28) (end 4.04 61.28) (layer "F.Fab") (width 0.1) (tstamp 2a6b4f53-112b-4ea9-8cd5-22d263bc31fc))
  (fp_line (start 12.58 7.3) (end 12.58 7.94) (layer "F.Fab") (width 0.1) (tstamp 2b847dad-b27e-41fa-b192-b578cf2135af))
  (fp_line (start 6.58 37.78) (end 12.58 37.78) (layer "F.Fab") (width 0.1) (tstamp 31caff07-c246-4f83-8199-c143599c384d))
  (fp_line (start 6.58 27.62) (end 12.58 27.62) (layer "F.Fab") (width 0.1) (tstamp 320c92e6-1f86-4195-81fe-b46bc89523c8))
  (fp_line (start 6.58 2.22) (end 12.58 2.22) (layer "F.Fab") (width 0.1) (tstamp 34a8f527-6afd-47ed-837c-319763b090c9))
  (fp_line (start 12.58 35.24) (end 12.58 35.88) (layer "F.Fab") (width 0.1) (tstamp 3c5d2b93-277c-4e01-873f-cec0931802d7))
  (fp_line (start 12.58 30.16) (end 12.58 30.8) (layer "F.Fab") (width 0.1) (tstamp 3d60d244-8122-4881-bc49-2aba2dd2333c))
  (fp_line (start 4.04 -0.635) (end 4.675 -1.27) (layer "F.Fab") (width 0.1) (tstamp 3d6fc12f-71ec-4287-a567-d75389385178))
  (fp_line (start 12.58 22.54) (end 12.58 23.18) (layer "F.Fab") (width 0.1) (tstamp 3f1ac726-713f-4c59-9414-4d415ea90ae0))
  (fp_line (start 12.58 17.46) (end 12.58 18.1) (layer "F.Fab") (width 0.1) (tstamp 40cb1394-6911-4016-9664-e58c782cb4a7))
  (fp_line (start 6.58 63.82) (end 12.58 63.82) (layer "F.Fab") (width 0.1) (tstamp 445f11ca-fa70-4764-b4df-6d296c69593b))
  (fp_line (start 12.58 14.92) (end 12.58 15.56) (layer "F.Fab") (width 0.1) (tstamp 44fa4eb9-f4a6-4c31-9f58-9ca6f9af5759))
  (fp_line (start -0.32 47.94) (end 4.04 47.94) (layer "F.Fab") (width 0.1) (tstamp 46355777-4914-436c-9ea7-290f9fe16aee))
  (fp_line (start 12.58 9.84) (end 12.58 10.48) (layer "F.Fab") (width 0.1) (tstamp 463771b7-12c9-4503-8897-ef2964dd9aca))
  (fp_line (start 6.58 45.4) (end 12.58 45.4) (layer "F.Fab") (width 0.1) (tstamp 46e0a420-214f-4b9e-ab62-39cfb5a3b630))
  (fp_line (start -0.32 40.32) (end -0.32 40.96) (layer "F.Fab") (width 0.1) (tstamp 47e0c216-5835-4ff2-8873-2ae884b09d11))
  (fp_line (start -0.32 4.76) (end -0.32 5.4) (layer "F.Fab") (width 0.1) (tstamp 48cbdb04-90bc-45cc-b4d1-5839764c78dc))
  (fp_line (start 6.58 20) (end 12.58 20) (layer "F.Fab") (width 0.1) (tstamp 4ba9c80a-20c4-41e6-bb23-d7d0a7ebd25c))
  (fp_line (start 6.58 55.56) (end 12.58 55.56) (layer "F.Fab") (width 0.1) (tstamp 4c416a84-b3ed-4a2c-b41b-1d90156f0c14))
  (fp_line (start -0.32 35.88) (end 4.04 35.88) (layer "F.Fab") (width 0.1) (tstamp 4d07888d-8c10-4ce7-8069-a2dace3787da))
  (fp_line (start 12.58 60.64) (end 12.58 61.28) (layer "F.Fab") (width 0.1) (tstamp 4dbbae54-d469-4df7-ada8-fbe62746496d))
  (fp_line (start 12.58 50.48) (end 12.58 51.12) (layer "F.Fab") (width 0.1) (tstamp 4e53ad8e-f8e2-4372-a040-9a892645034a))
  (fp_line (start -0.32 33.34) (end 4.04 33.34) (layer "F.Fab") (width 0.1) (tstamp 4ed494a5-e1e5-4e88-85ec-01570b01b2bd))
  (fp_line (start -0.32 42.86) (end 4.04 42.86) (layer "F.Fab") (width 0.1) (tstamp 4f7865f9-c00e-4534-9a52-922a5db411b0))
  (fp_line (start -0.32 4.76) (end 4.04 4.76) (layer "F.Fab") (width 0.1) (tstamp 51443e45-8569-4417-8021-84bf40dbdd0b))
  (fp_line (start -0.32 2.22) (end 4.04 2.22) (layer "F.Fab") (width 0.1) (tstamp 5243a24e-d264-4972-a83d-8eb3780e9aa7))
  (fp_line (start 6.58 48.58) (end 12.58 48.58) (layer "F.Fab") (width 0.1) (tstamp 531f3839-9cd9-4c23-825d-4aabdbf8f7e7))
  (fp_line (start -0.32 25.08) (end 4.04 25.08) (layer "F.Fab") (width 0.1) (tstamp 5379c607-b562-40cc-874b-4ceb76c215c8))
  (fp_line (start -0.32 63.82) (end 4.04 63.82) (layer "F.Fab") (width 0.1) (tstamp 54cb62b3-e6aa-4d76-9ac7-e22fd23db28d))
  (fp_line (start 6.58 40.96) (end 12.58 40.96) (layer "F.Fab") (width 0.1) (tstamp 54d11721-97d8-443f-ab44-44de5852cb97))
  (fp_line (start -0.32 46.04) (end 4.04 46.04) (layer "F.Fab") (width 0.1) (tstamp 56cbe116-b3a9-4df6-a1a9-87415ce4e59b))
  (fp_line (start 12.58 40.32) (end 12.58 40.96) (layer "F.Fab") (width 0.1) (tstamp 583e7968-c311-4056-86d4-7bf2330062ab))
  (fp_line (start -0.32 45.4) (end 4.04 45.4) (layer "F.Fab") (width 0.1) (tstamp 5c1fd19e-bd8c-4b55-bc95-cf946814e958))
  (fp_line (start -0.32 25.72) (end 4.04 25.72) (layer "F.Fab") (width 0.1) (tstamp 5c54b65a-9e37-457c-8092-14a16d239eb8))
  (fp_line (start 6.58 53.02) (end 12.58 53.02) (layer "F.Fab") (width 0.1) (tstamp 5cb0fd85-a6ce-4e21-b3f4-84b4e17922d0))
  (fp_line (start -0.32 55.56) (end -0.32 56.2) (layer "F.Fab") (width 0.1) (tstamp 5cec9ca9-00c9-4ebd-bdea-2df64010c593))
  (fp_line (start 12.58 -0.32) (end 12.58 0.32) (layer "F.Fab") (width 0.1) (tstamp 5f23ec0f-7194-49bc-8981-5c2d9252c337))
  (fp_line (start 6.58 14.92) (end 12.58 14.92) (layer "F.Fab") (width 0.1) (tstamp 621c7258-7381-459d-ae6d-f22960bdf5fc))
  (fp_line (start -0.32 35.24) (end 4.04 35.24) (layer "F.Fab") (width 0.1) (tstamp 626f1fa6-210b-4748-b315-929a1d4c2c5a))
  (fp_line (start -0.32 53.02) (end -0.32 53.66) (layer "F.Fab") (width 0.1) (tstamp 6414d932-37ca-48e4-a89a-6d58dadd6635))
  (fp_line (start 6.58 63.18) (end 12.58 63.18) (layer "F.Fab") (width 0.1) (tstamp 68472c14-0494-46f4-81d1-44800fa738c5))
  (fp_line (start 6.58 -0.32) (end 12.58 -0.32) (layer "F.Fab") (width 0.1) (tstamp 684fa312-1ecd-49af-80e1-2be1c9e6b515))
  (fp_line (start -0.32 50.48) (end -0.32 51.12) (layer "F.Fab") (width 0.1) (tstamp 694f46d7-1fe7-4451-adf8-cf5ad7f3dcf0))
  (fp_line (start -0.32 22.54) (end 4.04 22.54) (layer "F.Fab") (width 0.1) (tstamp 6a07d311-e50f-4040-b84c-863a0ba785ce))
  (fp_line (start -0.32 32.7) (end -0.32 33.34) (layer "F.Fab") (width 0.1) (tstamp 6d8408f0-c2dc-4dd9-9278-4e04ab96e372))
  (fp_line (start 12.58 32.7) (end 12.58 33.34) (layer "F.Fab") (width 0.1) (tstamp 6ef2f13f-52ff-492d-9464-35f02431049d))
  (fp_line (start -0.32 23.18) (end 4.04 23.18) (layer "F.Fab") (width 0.1) (tstamp 6fa2e6cd-dda2-4c6a-b3c5-2ce48031c60e))
  (fp_line (start 6.58 40.32) (end 12.58 40.32) (layer "F.Fab") (width 0.1) (tstamp 71070375-23ce-4d6c-bf54-8c5775d7a715))
  (fp_line (start 6.58 0.32) (end 12.58 0.32) (layer "F.Fab") (width 0.1) (tstamp 764b3207-0fd7-417f-9b8f-f8ffe319a1ec))
  (fp_line (start -0.32 40.96) (end 4.04 40.96) (layer "F.Fab") (width 0.1) (tstamp 7763a6dc-378f-4050-a365-e7d215bff7a4))
  (fp_line (start 6.58 5.4) (end 12.58 5.4) (layer "F.Fab") (width 0.1) (tstamp 779b169e-f97f-4765-b986-c8eaeb7ade83))
  (fp_line (start 6.58 46.04) (end 12.58 46.04) (layer "F.Fab") (width 0.1) (tstamp 790dd27e-d53f-4765-b5c5-f56b37464d9a))
  (fp_line (start -0.32 35.24) (end -0.32 35.88) (layer "F.Fab") (width 0.1) (tstamp 7ba4fe2b-58ba-497a-9207-45a467508a13))
  (fp_line (start -0.32 42.86) (end -0.32 43.5) (layer "F.Fab") (width 0.1) (tstamp 7ca3aa6b-0986-4aaf-9d79-2a1b4ba9661e))
  (fp_line (start -0.32 9.84) (end -0.32 10.48) (layer "F.Fab") (width 0.1) (tstamp 7d1577cf-1215-4b62-84f6-1f2ebd5b299d))
  (fp_line (start -0.32 50.48) (end 4.04 50.48) (layer "F.Fab") (width 0.1) (tstamp 7de36350-7714-4fb7-a043-57ffd29123c2))
  (fp_line (start 12.58 37.78) (end 12.58 38.42) (layer "F.Fab") (width 0.1) (tstamp 7f70809a-3076-4561-aa2d-476f0ba81ad5))
  (fp_line (start 12.58 53.02) (end 12.58 53.66) (layer "F.Fab") (width 0.1) (tstamp 80ce96b6-0d1b-4bdb-94ba-487af96c1d71))
  (fp_line (start -0.32 55.56) (end 4.04 55.56) (layer "F.Fab") (width 0.1) (tstamp 80f7aebb-5c25-4eb1-8565-8b42db9ddfc0))
  (fp_line (start 6.58 7.3) (end 12.58 7.3) (layer "F.Fab") (width 0.1) (tstamp 817c9088-c262-495f-bbae-7c785ca3f796))
  (fp_line (start -0.32 12.38) (end -0.32 13.02) (layer "F.Fab") (width 0.1) (tstamp 8324dabd-3cf5-49de-9fbf-f0bd2ee28728))
  (fp_line (start -0.32 12.38) (end 4.04 12.38) (layer "F.Fab") (width 0.1) (tstamp 855fbdc5-f839-4577-8fa2-0fed09fc6775))
  (fp_line (start 12.58 55.56) (end 12.58 56.2) (layer "F.Fab") (width 0.1) (tstamp 85b38684-2676-4d68-ba3e-1957b3e2530a))
  (fp_line (start 6.58 20.64) (end 12.58 20.64) (layer "F.Fab") (width 0.1) (tstamp 86cdbe61-0d2c-49f7-993e-728ec505d89d))
  (fp_line (start -0.32 37.78) (end 4.04 37.78) (layer "F.Fab") (width 0.1) (tstamp 88c7a0ed-363f-4994-b1eb-c64285cc0f50))
  (fp_line (start 12.58 12.38) (end 12.58 13.02) (layer "F.Fab") (width 0.1) (tstamp 8cbcd369-ba24-46f3-b89e-794ec90f3752))
  (fp_line (start 6.58 10.48) (end 12.58 10.48) (layer "F.Fab") (width 0.1) (tstamp 8e6ea9bd-aa39-4fcf-8907-4028f0839c91))
  (fp_line (start -0.32 18.1) (end 4.04 18.1) (layer "F.Fab") (width 0.1) (tstamp 9083783a-7cbf-4bcf-bcbe-f4393853849f))
  (fp_line (start -0.32 40.32) (end 4.04 40.32) (layer "F.Fab") (width 0.1) (tstamp 9498863d-ca27-4dea-be4f-3ff5ae6b2f33))
  (fp_line (start 6.58 51.12) (end 12.58 51.12) (layer "F.Fab") (width 0.1) (tstamp 95d07d6a-fdc0-453e-947c-a99320267e48))
  (fp_line (start -0.32 63.18) (end -0.32 63.82) (layer "F.Fab") (width 0.1) (tstamp 993c8874-a7fe-4656-8925-4545e89bf165))
  (fp_line (start 6.58 56.2) (end 12.58 56.2) (layer "F.Fab") (width 0.1) (tstamp 9a84970d-3c4e-42c4-9164-af70d20656c7))
  (fp_line (start 6.58 13.02) (end 12.58 13.02) (layer "F.Fab") (width 0.1) (tstamp 9c18435d-6406-4b61-9597-c574b5df1dc6))
  (fp_line (start -0.32 53.02) (end 4.04 53.02) (layer "F.Fab") (width 0.1) (tstamp 9eb4dff8-3b36-4105-af43-98cd210a9736))
  (fp_line (start -0.32 10.48) (end 4.04 10.48) (layer "F.Fab") (width 0.1) (tstamp 9f091767-f510-426c-8212-0ac25de48d24))
  (fp_line (start 6.58 33.34) (end 12.58 33.34) (layer "F.Fab") (width 0.1) (tstamp a0bd359b-6a5e-4f0d-b773-cbeb02640243))
  (fp_line (start -0.32 60.64) (end -0.32 61.28) (layer "F.Fab") (width 0.1) (tstamp a3449434-9f5c-446c-aba0-e17af449f293))
  (fp_line (start 6.58 42.86) (end 12.58 42.86) (layer "F.Fab") (width 0.1) (tstamp ab83e81c-b10c-464f-8801-15fa02bc0c08))
  (fp_line (start 6.58 35.88) (end 12.58 35.88) (layer "F.Fab") (width 0.1) (tstamp ad2ad8cf-ec23-4e25-a3f3-180338041173))
  (fp_line (start -0.32 58.1) (end -0.32 58.74) (layer "F.Fab") (width 0.1) (tstamp ad834838-2e03-415b-8a01-274bc6620d18))
  (fp_line (start -0.32 17.46) (end -0.32 18.1) (layer "F.Fab") (width 0.1) (tstamp afdf4931-9e90-4c0c-908e-ccc66a53f82e))
  (fp_line (start 12.58 20) (end 12.58 20.64) (layer "F.Fab") (width 0.1) (tstamp b0e25a01-7175-426c-93c8-bdc725e2d8de))
  (fp_line (start 6.58 7.94) (end 12.58 7.94) (layer "F.Fab") (width 0.1) (tstamp b23731fe-9bea-4b08-ad12-240a7013dcb7))
  (fp_line (start 4.675 -1.27) (end 6.58 -1.27) (layer "F.Fab") (width 0.1) (tstamp b2bc15ae-c077-4048-9501-b0a669420f01))
  (fp_line (start 6.58 25.72) (end 12.58 25.72) (layer "F.Fab") (width 0.1) (tstamp b3f2115c-4732-407a-8bdf-b929871e4cfe))
  (fp_line (start 12.58 27.62) (end 12.58 28.26) (layer "F.Fab") (width 0.1) (tstamp b7592fd7-1b11-4c78-b699-4f1a13a16a8f))
  (fp_line (start 6.58 23.18) (end 12.58 23.18) (layer "F.Fab") (width 0.1) (tstamp b8533cd1-ba2e-44f0-bf3b-7ddd1100aae5))
  (fp_line (start -0.32 20) (end -0.32 20.64) (layer "F.Fab") (width 0.1) (tstamp bad7549a-d4cc-4e03-9a88-422ae081239e))
  (fp_line (start -0.32 20.64) (end 4.04 20.64) (layer "F.Fab") (width 0.1) (tstamp bafaf80e-0458-4029-82f7-25197ff2d8b4))
  (fp_line (start 6.58 61.28) (end 12.58 61.28) (layer "F.Fab") (width 0.1) (tstamp bc703c92-d4b1-490d-bb57-441538f44a5f))
  (fp_line (start 12.58 58.1) (end 12.58 58.74) (layer "F.Fab") (width 0.1) (tstamp bc7ec5ee-a7e7-46a3-bafc-57634f2797ea))
  (fp_line (start 12.58 42.86) (end 12.58 43.5) (layer "F.Fab") (width 0.1) (tstamp bf709af9-1495-40d8-a9b8-ac4eeaaf8e01))
  (fp_line (start 6.58 53.66) (end 12.58 53.66) (layer "F.Fab") (width 0.1) (tstamp c02b4039-aa26-4ca6-bec3-0ae09cb91c2e))
  (fp_line (start 6.58 64.77) (end 4.04 64.77) (layer "F.Fab") (width 0.1) (tstamp c0b8100b-d28e-48eb-a638-7fddbe0b535f))
  (fp_line (start -0.32 30.16) (end 4.04 30.16) (layer "F.Fab") (width 0.1) (tstamp c19d4eac-7f31-4d2b-a4c7-9d98c2aa1d0f))
  (fp_line (start 6.58 2.86) (end 12.58 2.86) (layer "F.Fab") (width 0.1) (tstamp c5d2d940-09a2-4d19-87bc-9d335c639903))
  (fp_line (start 6.58 4.76) (end 12.58 4.76) (layer "F.Fab") (width 0.1) (tstamp c7354716-eb1c-43e6-a301-4f7ac7992c08))
  (fp_line (start 6.58 58.74) (end 12.58 58.74) (layer "F.Fab") (width 0.1) (tstamp c803aa9e-3f44-4789-9b35-8a2dbf3e4a47))
  (fp_line (start 6.58 15.56) (end 12.58 15.56) (layer "F.Fab") (width 0.1) (tstamp ca1cba89-886a-452e-9b08-9da256e2b39b))
  (fp_line (start 6.58 32.7) (end 12.58 32.7) (layer "F.Fab") (width 0.1) (tstamp ca8e06c1-4a31-46e2-a4d6-b8b403ae8fc2))
  (fp_line (start -0.32 7.3) (end -0.32 7.94) (layer "F.Fab") (width 0.1) (tstamp caa8d2d9-920a-48c1-a0a1-94f77b23326f))
  (fp_line (start 6.58 38.42) (end 12.58 38.42) (layer "F.Fab") (width 0.1) (tstamp cb931e78-6053-481c-8491-ddbfc9860c03))
  (fp_line (start -0.32 56.2) (end 4.04 56.2) (layer "F.Fab") (width 0.1) (tstamp cc1da922-e078-4499-846c-c1b0e7de6fd2))
  (fp_line (start -0.32 28.26) (end 4.04 28.26) (layer "F.Fab") (width 0.1) (tstamp cd4ccfba-69f8-4058-91f5-7f5e462df293))
  (fp_line (start -0.32 0.32) (end 4.04 0.32) (layer "F.Fab") (width 0.1) (tstamp cd4eb709-39b6-4e15-a7fe-d78f102aa77d))
  (fp_line (start 6.58 30.8) (end 12.58 30.8) (layer "F.Fab") (width 0.1) (tstamp d1403626-c449-47d9-8d3d-31b0b730856e))
  (fp_line (start 6.58 22.54) (end 12.58 22.54) (layer "F.Fab") (width 0.1) (tstamp d150a500-74ae-4508-b945-92c07558467d))
  (fp_line (start 6.58 28.26) (end 12.58 28.26) (layer "F.Fab") (width 0.1) (tstamp d58b3217-323b-4df9-a218-a83bcb2df2ac))
  (fp_line (start -0.32 38.42) (end 4.04 38.42) (layer "F.Fab") (width 0.1) (tstamp d7998a9d-106d-4e52-a334-1aab4017b56b))
  (fp_line (start -0.32 53.66) (end 4.04 53.66) (layer "F.Fab") (width 0.1) (tstamp d80047b3-641f-430c-a67e-c88d57cf21c5))
  (fp_line (start 6.58 58.1) (end 12.58 58.1) (layer "F.Fab") (width 0.1) (tstamp d86eb3b7-040f-42b1-bf8d-7c1fc8b4bab4))
  (fp_line (start -0.32 60.64) (end 4.04 60.64) (layer "F.Fab") (width 0.1) (tstamp d883676e-3d89-4878-8b9b-b801725db8ff))
  (fp_line (start -0.32 58.74) (end 4.04 58.74) (layer "F.Fab") (width 0.1) (tstamp da2f2be5-5269-46c7-b3ac-23e55b6384ee))
  (fp_line (start -0.32 37.78) (end -0.32 38.42) (layer "F.Fab") (width 0.1) (tstamp da6fd99c-4e78-45f0-b2d6-c8bd5b23c937))
  (fp_line (start -0.32 32.7) (end 4.04 32.7) (layer "F.Fab") (width 0.1) (tstamp e23789b4-efcb-4579-ac2c-1b9ddcce4cd6))
  (fp_line (start -0.32 30.8) (end 4.04 30.8) (layer "F.Fab") (width 0.1) (tstamp e39b435a-a03d-48b9-95df-3b67f39ac26b))
  (fp_line (start -0.32 47.94) (end -0.32 48.58) (layer "F.Fab") (width 0.1) (tstamp e6516362-1820-47c1-80f6-7a790417736e))
  (fp_line (start 6.58 17.46) (end 12.58 17.46) (layer "F.Fab") (width 0.1) (tstamp e6b3110d-33e5-4e7d-b243-43b1aff0e025))
  (fp_line (start -0.32 51.12) (end 4.04 51.12) (layer "F.Fab") (width 0.1) (tstamp e7c64845-fccf-4609-aa05-7fbccbebe39d))
  (fp_line (start -0.32 5.4) (end 4.04 5.4) (layer "F.Fab") (width 0.1) (tstamp e8b78943-683d-4ed4-b6a0-e3d86bcb83fb))
  (fp_line (start -0.32 9.84) (end 4.04 9.84) (layer "F.Fab") (width 0.1) (tstamp ea2cd757-618b-4f9e-9853-e715c5c38f0d))
  (fp_line (start -0.32 -0.32) (end 4.04 -0.32) (layer "F.Fab") (width 0.1) (tstamp eab3b981-217d-4a1a-87cd-8e8749e84e2a))
  (fp_line (start 6.58 60.64) (end 12.58 60.64) (layer "F.Fab") (width 0.1) (tstamp ec25fbb0-8069-4637-9e12-4f1634cb2fae))
  (fp_line (start -0.32 7.94) (end 4.04 7.94) (layer "F.Fab") (width 0.1) (tstamp ec707029-e47c-41e7-8b51-f8204c59b7f7))
  (fp_line (start 12.58 25.08) (end 12.58 25.72) (layer "F.Fab") (width 0.1) (tstamp ee24c9f9-da82-4216-94c1-2eccacdfd28a))
  (fp_line (start -0.32 20) (end 4.04 20) (layer "F.Fab") (width 0.1) (tstamp ee7de28d-e59a-48d5-bb70-0a66e38ca392))
  (fp_line (start 12.58 4.76) (end 12.58 5.4) (layer "F.Fab") (width 0.1) (tstamp efe1105c-5a05-44d7-9675-a6b569a28265))
  (fp_line (start 4.04 64.77) (end 4.04 -0.635) (layer "F.Fab") (width 0.1) (tstamp f20931fc-5da0-41b8-9d96-281ca05df0b5))
  (fp_line (start -0.32 17.46) (end 4.04 17.46) (layer "F.Fab") (width 0.1) (tstamp f47a3ba7-4881-4161-8ee2-b986c2671664))
  (fp_line (start -0.32 14.92) (end -0.32 15.56) (layer "F.Fab") (width 0.1) (tstamp f5a825c5-6b49-459b-829e-84777813e9a3))
  (fp_line (start -0.32 -0.32) (end -0.32 0.32) (layer "F.Fab") (width 0.1) (tstamp f8f1ad8e-febc-4d11-a534-95a79ddd3c7d))
  (fp_line (start -0.32 2.86) (end 4.04 2.86) (layer "F.Fab") (width 0.1) (tstamp fb61a9bd-f42e-4c62-bbf1-e005a0d143a6))
  (fp_line (start 6.58 18.1) (end 12.58 18.1) (layer "F.Fab") (width 0.1) (tstamp fb7eb1c4-8a57-4dfe-8c0e-8dd765efa51f))
  (fp_line (start -0.32 45.4) (end -0.32 46.04) (layer "F.Fab") (width 0.1) (tstamp fce99c6c-fed5-4bf7-971f-fa4c000f7738))
  (fp_line (start -0.32 14.92) (end 4.04 14.92) (layer "F.Fab") (width 0.1) (tstamp fe451a2d-acc4-4efc-9f27-9226b506ba26))
  (fp_line (start 6.58 47.94) (end 12.58 47.94) (layer "F.Fab") (width 0.1) (tstamp ff94519b-9f93-4737-8499-eab93c1c6972))
  (pad "1" thru_hole rect (at 0 0) (size 2.1 2.1) (drill 1) (layers *.Cu *.Mask) (tstamp 92e3b0c8-6a83-49ae-84b3-f62b14e48f15))
  (pad "2" thru_hole oval (at 2.54 0) (size 2.1 2.1) (drill 1) (layers *.Cu *.Mask) (tstamp 13f85eea-9978-4800-a359-c1630f15c554))
  (pad "3" thru_hole oval (at 0 2.54) (size 2.1 2.1) (drill 1) (layers *.Cu *.Mask) (tstamp 95cce2cb-5028-448c-99f0-8fa99bd435cc))
  (pad "4" thru_hole oval (at 2.54 2.54) (size 2.1 2.1) (drill 1) (layers *.Cu *.Mask) (tstamp 0bad7a46-146e-4284-8c17-8abf73583b01))
  (pad "5" thru_hole oval (at 0 5.08) (size 2.1 2.1) (drill 1) (layers *.Cu *.Mask) (tstamp 0b1034a7-55ed-47f4-b82f-9b5bd0c4a583))
  (pad "6" thru_hole oval (at 2.54 5.08) (size 2.1 2.1) (drill 1) (layers *.Cu *.Mask) (tstamp c9ec88c6-75c0-45e7-b2ab-94d0db77d2aa))
  (pad "7" thru_hole oval (at 0 7.62) (size 2.1 2.1) (drill 1) (layers *.Cu *.Mask) (tstamp fcd22bed-96c1-4938-8cfc-87c12b06cde4))
  (pad "8" thru_hole oval (at 2.54 7.62) (size 2.1 2.1) (drill 1) (layers *.Cu *.Mask) (tstamp e5612972-ff3e-4b5e-9fad-6f0bd6a5f4af))
  (pad "9" thru_hole oval (at 0 10.16) (size 2.1 2.1) (drill 1) (layers *.Cu *.Mask) (tstamp 31e0d2d9-a387-490f-9948-018df8d62684))
  (pad "10" thru_hole oval (at 2.54 10.16) (size 2.1 2.1) (drill 1) (layers *.Cu *.Mask) (tstamp b00fe662-b722-4434-8ca1-64c090f07207))
  (pad "11" thru_hole oval (at 0 12.7) (size 2.1 2.1) (drill 1) (layers *.Cu *.Mask) (tstamp 52378f99-4633-4476-833c-db99854a157e))
  (pad "12" thru_hole oval (at 2.54 12.7) (size 2.1 2.1) (drill 1) (layers *.Cu *.Mask) (tstamp e8ec1037-d478-4610-8e8e-3a708ac341eb))
  (pad "13" thru_hole oval (at 0 15.24) (size 2.1 2.1) (drill 1) (layers *.Cu *.Mask) (tstamp f51305d4-8ca1-4958-847e-60aee15f83a6))
  (pad "14" thru_hole oval (at 2.54 15.24) (size 2.1 2.1) (drill 1) (layers *.Cu *.Mask) (tstamp e12b2cc4-b4f8-43d7-a843-c82c11bf0b0a))
  (pad "15" thru_hole oval (at 0 17.78) (size 2.1 2.1) (drill 1) (layers *.Cu *.Mask) (tstamp 32c9ee70-bb3d-4d02-9e7e-8c3d306fea00))
  (pad "16" thru_hole oval (at 2.54 17.78) (size 2.1 2.1) (drill 1) (layers *.Cu *.Mask) (tstamp 1953a1cd-88ce-48cc-945a-1530fe715cb1))
  (pad "17" thru_hole oval (at 0 20.32) (size 2.1 2.1) (drill 1) (layers *.Cu *.Mask) (tstamp 8d3ece8b-b8f2-4f1c-b0eb-9ce5207fbadc))
  (pad "18" thru_hole oval (at 2.54 20.32) (size 2.1 2.1) (drill 1) (layers *.Cu *.Mask) (tstamp 69e3fb01-cd9f-4efb-bc03-9290e2f6bf60))
  (pad "19" thru_hole oval (at 0 22.86) (size 2.1 2.1) (drill 1) (layers *.Cu *.Mask) (tstamp 83396e8e-feea-452c-893f-3d98a40ff913))
  (pad "20" thru_hole oval (at 2.54 22.86) (size 2.1 2.1) (drill 1) (layers *.Cu *.Mask) (tstamp 838c2e19-a051-4512-aada-141ca25f379b))
  (pad "21" thru_hole oval (at 0 25.4) (size 2.1 2.1) (drill 1) (layers *.Cu *.Mask) (tstamp 3c1b9b4e-a28d-46f8-9ef6-365d66d708ee))
  (pad "22" thru_hole oval (at 2.54 25.4) (size 2.1 2.1) (drill 1) (layers *.Cu *.Mask) (tstamp 04c63e2c-2426-4e74-9864-2aaed7840ef7))
  (pad "23" thru_hole oval (at 0 27.94) (size 2.1 2.1) (drill 1) (layers *.Cu *.Mask) (tstamp 0dc73af7-47aa-4c95-9a15-34178dadc8f6))
  (pad "24" thru_hole oval (at 2.54 27.94) (size 2.1 2.1) (drill 1) (layers *.Cu *.Mask) (tstamp 28e46035-d655-4653-b914-5fe19865aa8c))
  (pad "25" thru_hole oval (at 0 30.48) (size 2.1 2.1) (drill 1) (layers *.Cu *.Mask) (tstamp 59eca329-aa1b-45bc-8f36-b20584c70d42))
  (pad "26" thru_hole oval (at 2.54 30.48) (size 2.1 2.1) (drill 1) (layers *.Cu *.Mask) (tstamp fefb0296-b995-476b-b23b-8a2a6817e8fc))
  (pad "27" thru_hole oval (at 0 33.02) (size 2.1 2.1) (drill 1) (layers *.Cu *.Mask) (tstamp bacfe4ee-5cf8-4ab1-bf07-bd81df16dc42))
  (pad "28" thru_hole oval (at 2.54 33.02) (size 2.1 2.1) (drill 1) (layers *.Cu *.Mask) (tstamp 97928cdd-4932-4368-897c-b87e0f45e378))
  (pad "29" thru_hole oval (at 0 35.56) (size 2.1 2.1) (drill 1) (layers *.Cu *.Mask) (tstamp 50920e5e-8c2b-42de-988b-555a95472b3c))
  (pad "30" thru_hole oval (at 2.54 35.56) (size 2.1 2.1) (drill 1) (layers *.Cu *.Mask) (tstamp 41dca3b3-0f2f-4d72-a996-bd955cabedd6))
  (pad "31" thru_hole oval (at 0 38.1) (size 2.1 2.1) (drill 1) (layers *.Cu *.Mask) (tstamp 19b4f4d6-619d-4877-8f1c-f5355d1684e9))
  (pad "32" thru_hole oval (at 2.54 38.1) (size 2.1 2.1) (drill 1) (layers *.Cu *.Mask) (tstamp a65a7a0e-3f10-4e8b-a4e0-6c52b1105e76))
  (pad "33" thru_hole oval (at 0 40.64) (size 2.1 2.1) (drill 1) (layers *.Cu *.Mask) (tstamp 23913237-a074-4226-b779-28636ca67067))
  (pad "34" thru_hole oval (at 2.54 40.64) (size 2.1 2.1) (drill 1) (layers *.Cu *.Mask) (tstamp 0946713b-1482-40a6-952c-bc627046e001))
  (pad "35" thru_hole oval (at 0 43.18) (size 2.1 2.1) (drill 1) (layers *.Cu *.Mask) (tstamp 42571e8f-2c88-4038-943e-666d5aabec60))
  (pad "36" thru_hole oval (at 2.54 43.18) (size 2.1 2.1) (drill 1) (layers *.Cu *.Mask) (tstamp 633c6a4f-cbee-4d24-b21e-73ec48cfaa79))
  (pad "37" thru_hole oval (at 0 45.72) (size 2.1 2.1) (drill 1) (layers *.Cu *.Mask) (tstamp 0a1e5398-0b9b-4085-a1d0-e74762978d66))
  (pad "38" thru_hole oval (at 2.54 45.72) (size 2.1 2.1) (drill 1) (layers *.Cu *.Mask) (tstamp 654ed8d4-8b84-4a2c-8237-b23e7f5c35e0))
  (pad "39" thru_hole oval (at 0 48.26) (size 2.1 2.1) (drill 1) (layers *.Cu *.Mask) (tstamp ff81aa90-3321-4ea9-ac3a-5289ccaa5f47))
  (pad "40" thru_hole oval (at 2.54 48.26) (size 2.1 2.1) (drill 1) (layers *.Cu *.Mask) (tstamp 51ebf320-2653-4ca0-8191-237c3ea33b14))
  (pad "41" thru_hole oval (at 0 50.8) (size 2.1 2.1) (drill 1) (layers *.Cu *.Mask) (tstamp e39c1fdc-27a3-42e2-a01e-04c28f7049d6))
  (pad "42" thru_hole oval (at 2.54 50.8) (size 2.1 2.1) (drill 1) (layers *.Cu *.Mask) (tstamp 0cf1a969-2a87-464a-8906-2b8b704b560a))
  (pad "43" thru_hole oval (at 0 53.34) (size 2.1 2.1) (drill 1) (layers *.Cu *.Mask) (tstamp b36a0641-c332-436b-8b4f-f79963210d78))
  (pad "44" thru_hole oval (at 2.54 53.34) (size 2.1 2.1) (drill 1) (layers *.Cu *.Mask) (tstamp 6fe1127b-7b78-4a6f-8474-797c38a5c782))
  (pad "45" thru_hole oval (at 0 55.88) (size 2.1 2.1) (drill 1) (layers *.Cu *.Mask) (tstamp 73feaff6-3ffb-4d20-8074-c9b4f9007b57))
  (pad "46" thru_hole oval (at 2.54 55.88) (size 2.1 2.1) (drill 1) (layers *.Cu *.Mask) (tstamp 0918c286-b72b-4b48-a020-03b4224d229e))
  (pad "47" thru_hole oval (at 0 58.42) (size 2.1 2.1) (drill 1) (layers *.Cu *.Mask) (tstamp 01b3b56a-cd8e-4d63-bb42-7824d62127c7))
  (pad "48" thru_hole oval (at 2.54 58.42) (size 2.1 2.1) (drill 1) (layers *.Cu *.Mask) (tstamp 9ab639d6-5845-40a0-8cea-dd89e78e0060))
  (pad "49" thru_hole oval (at 0 60.96) (size 2.1 2.1) (drill 1) (layers *.Cu *.Mask) (tstamp 2a1fe3f2-a023-41c1-a4a0-f213c4e2de98))
  (pad "50" thru_hole oval (at 2.54 60.96) (size 2.1 2.1) (drill 1) (layers *.Cu *.Mask) (tstamp 331c9dfe-1f01-4463-9094-fe1466a05278))
  (pad "51" thru_hole oval (at 0 63.5) (size 2.1 2.1) (drill 1) (layers *.Cu *.Mask) (tstamp af9f4587-3dd7-4838-a173-15a9eba75867))
  (pad "52" thru_hole oval (at 2.54 63.5) (size 2.1 2.1) (drill 1) (layers *.Cu *.Mask) (tstamp c60a35a3-0cd5-4086-9088-7a80d8b72616))
  (model "${KICAD6_3DMODEL_DIR}/Connector_PinHeader_2.54mm.3dshapes/PinHeader_2x26_P2.54mm_Horizontal.wrl"
    (offset (xyz 0 0 0))
    (scale (xyz 1 1 1))
    (rotate (xyz 0 0 0))
  )
)
